# SUSY Les Houches Accord 2 - MSSM spectrum + Decays
# SPheno v4.0.5be
# W. Porod, Comput. Phys. Commun. 153 (2003) 275-315, hep-ph/0301101;
# W. Porod, F.~Staub, Comput. Phys. Commun. 183 (2012) 2458
#                     arXiv:1104.1573 [hep-ph] 
# in case of problems send email to porod@physik.uni-wuerzburg.de
# Created: 07.09.2021,  18:38
Block SPINFO         # Program information
     1   SPheno      # spectrum calculator
     2   v4.0.5be    # version number
#
Block SPhenoINFO     # SPheno specific information
    1      2         # using 2-loop RGEs
    2      2         # using pole masses for boundary conditions at mZ
Block MODSEL  # Model selection
    1    0    # general MSSM
Block MINPAR  # Input parameters
    3    3.36935399E+01  # tanb at m_Z    
    4   -1.00000000E+00  # Sign(mu)
Block EXTPAR  # non-universal input parameters
    0    3.01571981E+03  # scale for input parameters
    1    2.19508695E+02  # M_1
    2    2.56122221E+02  # M_2
    3    3.06032256E+03  # M_3
   11   -2.20003803E+03  # A_t
   12    1.83506557E+03  # A_b
   13    1.91008536E+03  # A_tau
   23   -2.52087989E+02  # mu
   25    3.26468256E+01  # tan(beta)
   26    2.18510521E+03  # m_A, pole mass
   31    1.00000000E+04  # M_L11
   32    1.00000000E+04  # M_L22
   33    1.00000000E+04  # M_L33
   34    1.00000000E+04  # M_E11
   35    1.00000000E+04  # M_E22
   36    1.00000000E+04  # M_E33
   41    1.00000000E+04  # M_Q11
   42    1.00000000E+04  # M_Q22
   43    3.99937329E+03  # M_Q33
   44    1.00000000E+04  # M_U11
   45    1.00000000E+04  # M_U22
   46    2.14906723E+03  # M_U33
   47    1.00000000E+04  # M_D11
   48    1.00000000E+04  # M_D22
   49    3.05003025E+03  # M_D33
Block SMINPUTS  # SM parameters
         1     1.27908970E+02  # alpha_em^-1(MZ)^MSbar
         2     1.16637870E-05  # G_mu [GeV^-2]
         3     1.18400000E-01  # alpha_s(MZ)^MSbar
         4     9.11876000E+01  # m_Z(pole)
         5     4.18000000E+00  # m_b(m_b), MSbar
         6     1.73200000E+02  # m_t(pole)
         7     1.77700000E+00  # m_tau(pole)
         8     0.00000000E+00  # m_nu_3
        11     5.10998930E-04  # m_e(pole)
        12     0.00000000E+00  # m_nu_1
        13     1.05658372E-01  # m_muon(pole)
        14     0.00000000E+00  # m_nu_2
        21     5.00000000E-03  # m_d(2 GeV), MSbar
        22     2.50000000E-03  # m_u(2 GeV), MSbar
        23     9.50000000E-02  # m_s(2 GeV), MSbar
        24     1.27000000E+00  # m_c(m_c), MSbar
Block gauge Q=  3.01571981E+03  # (SUSY scale)
   1    3.55362975E-01  # g'(Q)^DRbar
   2    6.65198874E-01  # g(Q)^DRbar
   3    1.21977796E+00  # g3(Q)^DRbar
Block Yu Q=  3.01571981E+03  # (SUSY scale)
  1  1     8.38830453E-06   # Y_u(Q)^DRbar
  2  2     4.26125870E-03   # Y_c(Q)^DRbar
  3  3     1.01337456E+00   # Y_t(Q)^DRbar
Block Yd Q=  3.01571981E+03  # (SUSY scale)
  1  1     5.50294783E-04   # Y_d(Q)^DRbar
  2  2     1.04556009E-02   # Y_s(Q)^DRbar
  3  3     5.45719987E-01   # Y_b(Q)^DRbar
Block Ye Q=  3.01571981E+03  # (SUSY scale)
  1  1     9.60304636E-05   # Y_e(Q)^DRbar
  2  2     1.98560542E-02   # Y_mu(Q)^DRbar
  3  3     3.33946167E-01   # Y_tau(Q)^DRbar
Block Au Q=  3.01571981E+03  # (SUSY scale)
  1  1     0.00000000E+00   # A_u(Q)^DRbar
  2  2     0.00000000E+00   # A_c(Q)^DRbar
  3  3    -2.20003881E+03   # A_t(Q)^DRbar
Block Ad Q=  3.01571981E+03  # (SUSY scale)
  1  1     0.00000000E+00   # A_d(Q)^DRbar
  2  2     0.00000000E+00   # A_s(Q)^DRbar
  3  3     1.83506584E+03   # A_b(Q)^DRbar
Block Ae Q=  3.01571981E+03  # (SUSY scale)
  1  1     0.00000000E+00   # A_e(Q)^DRbar
  2  2     0.00000000E+00   # A_mu(Q)^DRbar
  3  3     1.91008515E+03   # A_tau(Q)^DRbar
Block MSOFT Q=  3.01571981E+03  # soft SUSY breaking masses at Q
   1    2.19508695E+02  # M_1
   2    2.56122221E+02  # M_2
   3    3.06032256E+03  # M_3
  21    4.59362909E+06  # M^2_(H,d)
  22    9.85762261E+04  # M^2_(H,u)
  31    1.00000000E+04  # M_(L,11)
  32    1.00000000E+04  # M_(L,22)
  33    1.00000000E+04  # M_(L,33)
  34    1.00000000E+04  # M_(E,11)
  35    1.00000000E+04  # M_(E,22)
  36    1.00000000E+04  # M_(E,33)
  41    1.00000000E+04  # M_(Q,11)
  42    1.00000000E+04  # M_(Q,22)
  43    3.99937329E+03  # M_(Q,33)
  44    1.00000000E+04  # M_(U,11)
  45    1.00000000E+04  # M_(U,22)
  46    2.14906723E+03  # M_(U,33)
  47    1.00000000E+04  # M_(D,11)
  48    1.00000000E+04  # M_(D,22)
  49    3.05003025E+03  # M_(D,33)
Block MASS  # Mass spectrum
#   PDG code      mass          particle
         6     1.73200000E+02  # m_t(pole)
        23     9.11876000E+01  # m_Z(pole)
        24     8.04299946E+01  # W+
        15     1.77700000E+00  # m_tau(pole)
        25     1.23196295E+02  # h0
        35     2.18449000E+03  # H0
        36     2.18510521E+03  # A0
        37     2.18722681E+03  # H+
   1000001     1.01013050E+04  # ~d_L
   2000001     1.00762382E+04  # ~d_R
   1000002     1.01009346E+04  # ~u_L
   2000002     1.00793550E+04  # ~u_R
   1000003     1.01013104E+04  # ~s_L
   2000003     1.00762473E+04  # ~s_R
   1000004     1.01009400E+04  # ~c_L
   2000004     1.00793565E+04  # ~c_R
   1000005     3.14407854E+03  # ~b_1
   2000005     4.05739935E+03  # ~b_2
   1000006     2.23971583E+03  # ~t_1
   2000006     4.06058923E+03  # ~t_2
   1000011     1.00215054E+04  # ~e_L-
   2000011     1.00088763E+04  # ~e_R-
   1000012     1.00207336E+04  # ~nu_eL
   1000013     1.00215288E+04  # ~mu_L-
   2000013     1.00089214E+04  # ~mu_R-
   1000014     1.00207567E+04  # ~nu_muL
   1000015     1.00218222E+04  # ~tau_1-
   2000015     1.00283349E+04  # ~tau_2-
   1000016     1.00274339E+04  # ~nu_tauL
   1000021     3.49387733E+03  # ~g
   1000022     1.97880875E+02  # ~chi_10
   1000023     2.41073195E+02  # ~chi_20
   1000025     2.69818438E+02  # ~chi_30
   1000035     3.36347153E+02  # ~chi_40
   1000024     2.23127622E+02  # ~chi_1+
   1000037     3.35115346E+02  # ~chi_2+
# Higgs mixing
Block alpha # Effective Higgs mixing angle
          -2.98012100E-02   # alpha
Block Hmix Q=  3.01571981E+03  # Higgs mixing parameters
   1   -2.52087989E+02  # mu
   2    3.26468256E+01  # tan[beta](Q)
   3    2.43256143E+02  # v(Q)
   4    4.77468478E+06  # m^2_A(Q)
Block stopmix # stop mixing matrix
   1  1     2.80648070E-02   # Re[R_st(1,1)]
   1  2     9.99606106E-01   # Re[R_st(1,2)]
   2  1    -9.99606106E-01   # Re[R_st(2,1)]
   2  2     2.80648070E-02   # Re[R_st(2,2)]
Block sbotmix # sbottom mixing matrix
   1  1    -3.32307904E-03   # Re[R_sb(1,1)]
   1  2     9.99994479E-01   # Re[R_sb(1,2)]
   2  1    -9.99994479E-01   # Re[R_sb(2,1)]
   2  2    -3.32307904E-03   # Re[R_sb(2,2)]
Block staumix # stau mixing matrix
   1  1    -1.39615650E-01   # Re[R_sta(1,1)]
   1  2     9.90205772E-01   # Re[R_sta(1,2)]
   2  1    -9.90205772E-01   # Re[R_sta(2,1)]
   2  2    -1.39615650E-01   # Re[R_sta(2,2)]
Block Nmix # neutralino mixing matrix
   1  1    -6.91615316E-01   # Re[N(1,1)]
   1  2     3.39998188E-01   # Re[N(1,2)]
   1  3     5.11334174E-01   # Re[N(1,3)]
   1  4     3.80272074E-01   # Re[N(1,4)]
   2  1    -6.92014023E-01   # Re[N(2,1)]
   2  2    -5.61385684E-01   # Re[N(2,2)]
   2  3    -3.35147296E-01   # Re[N(2,3)]
   2  4    -3.06004896E-01   # Re[N(2,4)]
   3  1     6.68756223E-02   # Re[N(3,1)]
   3  2    -1.06899311E-01   # Re[N(3,2)]
   3  3     6.90923707E-01   # Re[N(3,3)]
   3  4    -7.11845924E-01   # Re[N(3,4)]
   4  1    -1.95735786E-01   # Re[N(4,1)]
   4  2     7.46873406E-01   # Re[N(4,2)]
   4  3    -3.85795392E-01   # Re[N(4,3)]
   4  4    -5.05004489E-01   # Re[N(4,4)]
Block Umix # chargino mixing matrix
   1  1    -5.48704560E-01   # Re[U(1,1)]
   1  2    -8.36016331E-01   # Re[U(1,2)]
   2  1     8.36016331E-01   # Re[U(2,1)]
   2  2    -5.48704560E-01   # Re[U(2,2)]
Block Vmix # chargino mixing matrix
   1  1    -7.12759555E-01   # Re[V(1,1)]
   1  2     7.01408452E-01   # Re[V(1,2)]
   2  1     7.01408452E-01   # Re[V(2,1)]
   2  2     7.12759555E-01   # Re[V(2,2)]
DECAY        23     2.49520000E+00   # Z
DECAY        24     2.08500000E+00   # W
DECAY   2000011     5.02395379E+01   # ~e^-_R
#    BR                NDA      ID1      ID2
     4.78446981E-01    2     1000022        11   # BR(~e^-_R -> chi^0_1 e^-)
     4.78817408E-01    2     1000023        11   # BR(~e^-_R -> chi^0_2 e^-)
     4.47043811E-03    2     1000025        11   # BR(~e^-_R -> chi^0_3 e^-)
     3.82651366E-02    2     1000035        11   # BR(~e^-_R -> chi^0_4 e^-)
DECAY   1000011     1.44668602E+02   # ~e^-_L
#    BR                NDA      ID1      ID2
     2.64725033E-04    2     1000022        11   # BR(~e^-_L -> chi^0_1 e^-)
     2.64014234E-01    2     1000023        11   # BR(~e^-_L -> chi^0_2 e^-)
     1.54228234E-03    2     1000025        11   # BR(~e^-_L -> chi^0_3 e^-)
     1.25507189E-01    2     1000035        11   # BR(~e^-_L -> chi^0_4 e^-)
     1.83416451E-01    2    -1000024        12   # BR(~e^-_L -> chi^-_1 nu_e)
     4.25255119E-01    2    -1000037        12   # BR(~e^-_L -> chi^-_2 nu_e)
#    BR                NDA      ID1      ID2       ID3
DECAY   2000013     5.03965585E+01   # ~mu^-_R
#    BR                NDA      ID1      ID2
     4.77365417E-01    2     1000022        13   # BR(~mu^-_R -> chi^0_1 mu^-)
     4.77502470E-01    2     1000023        13   # BR(~mu^-_R -> chi^0_2 mu^-)
     5.19906963E-03    2     1000025        13   # BR(~mu^-_R -> chi^0_3 mu^-)
     3.83774087E-02    2     1000035        13   # BR(~mu^-_R -> chi^0_4 mu^-)
     1.08767762E-03    2    -1000024        14   # BR(~mu^-_R -> chi^-_1 nu_mu)
     4.67956332E-04    2    -1000037        14   # BR(~mu^-_R -> chi^-_2 nu_mu)
DECAY   1000013     1.44747437E+02   # ~mu^-_L
#    BR                NDA      ID1      ID2
     4.06454359E-04    2     1000022        13   # BR(~mu^-_L -> chi^0_1 mu^-)
     2.63931988E-01    2     1000023        13   # BR(~mu^-_L -> chi^0_2 mu^-)
     1.80030189E-03    2     1000025        13   # BR(~mu^-_L -> chi^0_3 mu^-)
     1.25519765E-01    2     1000035        13   # BR(~mu^-_L -> chi^0_4 mu^-)
     1.83316984E-01    2    -1000024        14   # BR(~mu^-_L -> chi^-_1 nu_mu)
     4.25024506E-01    2    -1000037        14   # BR(~mu^-_L -> chi^-_2 nu_mu)
#    BR                NDA      ID1      ID2       ID3
DECAY   1000015     9.61314174E+01   # ~tau^-_1
#    BR                NDA      ID1      ID2
     3.38575914E-01    2     1000022        15   # BR(~tau^-_1 -> chi^0_1 tau^-)
     2.85149750E-01    2     1000023        15   # BR(~tau^-_1 -> chi^0_2 tau^-)
     1.03729431E-01    2     1000025        15   # BR(~tau^-_1 -> chi^0_3 tau^-)
     2.81408255E-02    2     1000035        15   # BR(~tau^-_1 -> chi^0_4 tau^-)
     2.22107498E-01    2    -1000024        16   # BR(~tau^-_1 -> chi^-_1 nu_tau)
     2.22965819E-02    2    -1000037        16   # BR(~tau^-_1 -> chi^-_2 nu_tau)
DECAY   2000015     1.65567195E+02   # ~tau^-_2
#    BR                NDA      ID1      ID2
     1.91995510E-02    2     1000022        15   # BR(~tau^-_2 -> chi^0_1 tau^-)
     2.40904287E-01    2     1000023        15   # BR(~tau^-_2 -> chi^0_2 tau^-)
     7.05554481E-02    2     1000025        15   # BR(~tau^-_2 -> chi^0_3 tau^-)
     1.44934825E-01    2     1000035        15   # BR(~tau^-_2 -> chi^0_4 tau^-)
     1.25159524E-01    2    -1000024        16   # BR(~tau^-_2 -> chi^-_1 nu_tau)
     3.99246365E-01    2    -1000037        16   # BR(~tau^-_2 -> chi^-_2 nu_tau)
#    BR                NDA      ID1      ID2       ID3
DECAY   1000012     1.44673219E+02   # ~nu_e
#    BR                NDA      ID1      ID2
     1.53337352E-01    2     1000022        12   # BR(~nu_e -> chi^0_1 nu_e)
     1.11903737E-02    2     1000023        12   # BR(~nu_e -> chi^0_2 nu_e)
     6.19269710E-03    2     1000025        12   # BR(~nu_e -> chi^0_3 nu_e)
     2.20517473E-01    2     1000035        12   # BR(~nu_e -> chi^0_4 nu_e)
     3.09456694E-01    2     1000024        11   # BR(~nu_e -> chi^+_1 e^-)
     2.99305410E-01    2     1000037        11   # BR(~nu_e -> chi^+_2 e^-)
#    BR                NDA      ID1      ID2       ID3
DECAY   1000014     1.44752043E+02   # ~nu_mu
#    BR                NDA      ID1      ID2
     1.53254207E-01    2     1000022        14   # BR(~nu_mu -> chi^0_1 nu_mu)
     1.11843059E-02    2     1000023        14   # BR(~nu_mu -> chi^0_2 nu_mu)
     6.18933919E-03    2     1000025        14   # BR(~nu_mu -> chi^0_3 nu_mu)
     2.20397901E-01    2     1000035        14   # BR(~nu_mu -> chi^0_4 nu_mu)
     3.09668028E-01    2     1000024        13   # BR(~nu_mu -> chi^+_1 mu^-)
     2.99306219E-01    2     1000037        13   # BR(~nu_mu -> chi^+_2 mu^-)
#    BR                NDA      ID1      ID2       ID3
DECAY   1000016     1.66986996E+02   # ~nu_tau
#    BR                NDA      ID1      ID2
     1.32936487E-01    2     1000022        16   # BR(~nu_tau -> chi^0_1 nu_tau)
     9.70154825E-03    2     1000023        16   # BR(~nu_tau -> chi^0_2 nu_tau)
     5.36879059E-03    2     1000025        16   # BR(~nu_tau -> chi^0_3 nu_tau)
     1.91178962E-01    2     1000035        16   # BR(~nu_tau -> chi^0_4 nu_tau)
     3.61310205E-01    2     1000024        15   # BR(~nu_tau -> chi^+_1 tau^-)
     2.99504007E-01    2     1000037        15   # BR(~nu_tau -> chi^+_2 tau^-)
#    BR                NDA      ID1      ID2       ID3
DECAY   2000001     6.21215716E+02   # ~d_R
#    BR                NDA      ID1      ID2
     4.32827349E-03    2     1000022         1   # BR(~d_R -> chi^0_1 d)
     4.33163187E-03    2     1000023         1   # BR(~d_R -> chi^0_2 d)
     3.46185034E-04    2     1000035         1   # BR(~d_R -> chi^0_4 d)
     9.90953324E-01    2     1000021         1   # BR(~d_R -> ~g d)
DECAY   1000001     7.52515974E+02   # ~d_L
#    BR                NDA      ID1      ID2
     1.26644968E-02    2     1000022         1   # BR(~d_L -> chi^0_1 d)
     1.13299636E-02    2     1000023         1   # BR(~d_L -> chi^0_2 d)
     8.32831417E-04    2     1000025         1   # BR(~d_L -> chi^0_3 d)
     3.60258060E-02    2     1000035         1   # BR(~d_L -> chi^0_4 d)
     3.55425143E-02    2    -1000024         2   # BR(~d_L -> chi^-_1 u)
     8.24077268E-02    2    -1000037         2   # BR(~d_L -> chi^-_2 u)
     8.21196661E-01    2     1000021         1   # BR(~d_L -> ~g d)
DECAY   2000003     6.21260229E+02   # ~s_R
#    BR                NDA      ID1      ID2
     4.33715780E-03    2     1000022         3   # BR(~s_R -> chi^0_1 s)
     4.33527175E-03    2     1000023         3   # BR(~s_R -> chi^0_2 s)
     3.51384311E-04    2     1000035         3   # BR(~s_R -> chi^0_4 s)
     9.90883706E-01    2     1000021         3   # BR(~s_R -> ~g s)
DECAY   1000003     7.52542077E+02   # ~s_L
#    BR                NDA      ID1      ID2
     1.26716707E-02    2     1000022         3   # BR(~s_L -> chi^0_1 s)
     1.13328433E-02    2     1000023         3   # BR(~s_L -> chi^0_2 s)
     8.46680196E-04    2     1000025         3   # BR(~s_L -> chi^0_3 s)
     3.60288979E-02    2     1000035         3   # BR(~s_L -> chi^0_4 s)
     3.55436788E-02    2    -1000024         4   # BR(~s_L -> chi^-_1 c)
     8.24073758E-02    2    -1000037         4   # BR(~s_L -> chi^-_2 c)
     8.21168853E-01    2     1000021         3   # BR(~s_L -> ~g s)
DECAY   1000005     3.83657154E+01   # ~b_1
#    BR                NDA      ID1      ID2
     1.48676481E-01    2     1000022         5   # BR(~b_1 -> chi^0_1 b)
     7.57131209E-02    2     1000023         5   # BR(~b_1 -> chi^0_2 b)
     2.28308650E-01    2     1000025         5   # BR(~b_1 -> chi^0_3 b)
     7.14372806E-02    2     1000035         5   # BR(~b_1 -> chi^0_4 b)
     3.35637390E-01    2    -1000024         6   # BR(~b_1 -> chi^-_1 t)
     1.40226511E-01    2    -1000037         6   # BR(~b_1 -> chi^-_2 t)
DECAY   2000005     1.92716495E+02   # ~b_2
#    BR                NDA      ID1      ID2
     5.19905727E-02    2     1000022         5   # BR(~b_2 -> chi^0_1 b)
     3.15356651E-02    2     1000023         5   # BR(~b_2 -> chi^0_2 b)
     6.03849667E-02    2     1000025         5   # BR(~b_2 -> chi^0_3 b)
     7.43848530E-02    2     1000035         5   # BR(~b_2 -> chi^0_4 b)
     2.63349719E-01    2    -1000024         6   # BR(~b_2 -> chi^-_1 t)
     3.44861883E-01    2    -1000037         6   # BR(~b_2 -> chi^-_2 t)
     1.11036708E-01    2     1000021         5   # BR(~b_2 -> ~g b)
     6.22330312E-02    2     1000006       -24   # BR(~b_2 -> ~t_1 W^-)
     1.40819743E-04    2     1000005        25   # BR(~b_2 -> ~b_1 h^0)
DECAY   2000002     6.38376509E+02   # ~u_R
#    BR                NDA      ID1      ID2
     1.68528045E-02    2     1000022         2   # BR(~u_R -> chi^0_1 u)
     1.68659417E-02    2     1000023         2   # BR(~u_R -> chi^0_2 u)
     1.57467477E-04    2     1000025         2   # BR(~u_R -> chi^0_3 u)
     1.34787784E-03    2     1000035         2   # BR(~u_R -> chi^0_4 u)
     9.64775908E-01    2     1000021         2   # BR(~u_R -> ~g u)
DECAY   1000002     7.52500865E+02   # ~u_L
#    BR                NDA      ID1      ID2
     2.77589013E-03    2     1000022         2   # BR(~u_L -> chi^0_1 u)
     2.76602270E-02    2     1000023         2   # BR(~u_L -> chi^0_2 u)
     5.32351353E-04    2     1000025         2   # BR(~u_L -> chi^0_3 u)
     2.98865707E-02    2     1000035         2   # BR(~u_L -> chi^0_4 u)
     5.99722410E-02    2     1000024         1   # BR(~u_L -> chi^+_1 d)
     5.80060520E-02    2     1000037         1   # BR(~u_L -> chi^+_2 d)
     8.21166668E-01    2     1000021         2   # BR(~u_L -> ~g u)
DECAY   2000004     6.38383893E+02   # ~c_R
#    BR                NDA      ID1      ID2
     1.68534343E-02    2     1000022         4   # BR(~c_R -> chi^0_1 c)
     1.68662832E-02    2     1000023         4   # BR(~c_R -> chi^0_2 c)
     1.60351408E-04    2     1000025         4   # BR(~c_R -> chi^0_3 c)
     1.34931460E-03    2     1000035         4   # BR(~c_R -> chi^0_4 c)
     9.64764922E-01    2     1000021         4   # BR(~c_R -> ~g c)
DECAY   1000004     7.52526936E+02   # ~c_L
#    BR                NDA      ID1      ID2
     2.77649550E-03    2     1000022         4   # BR(~c_L -> chi^0_1 c)
     2.76597345E-02    2     1000023         4   # BR(~c_L -> chi^0_2 c)
     5.34786191E-04    2     1000025         4   # BR(~c_L -> chi^0_3 c)
     2.98867877E-02    2     1000035         4   # BR(~c_L -> chi^0_4 c)
     5.99905243E-02    2     1000024         3   # BR(~c_L -> chi^+_1 s)
     5.80128168E-02    2     1000037         3   # BR(~c_L -> chi^+_2 s)
     8.21138855E-01    2     1000021         4   # BR(~c_L -> ~g c)
DECAY   1000006     9.29652898E+01   # ~t_1
#    BR                NDA      ID1      ID2
     9.63770896E-02    2     1000022         6   # BR(~t_1 -> chi^0_1 t)
     7.12004672E-02    2     1000023         6   # BR(~t_1 -> chi^0_2 t)
     2.40184994E-01    2     1000025         6   # BR(~t_1 -> chi^0_3 t)
     1.15767978E-01    2     1000035         6   # BR(~t_1 -> chi^0_4 t)
     2.46225635E-01    2     1000024         5   # BR(~t_1 -> chi^+_1 b)
     2.30242826E-01    2     1000037         5   # BR(~t_1 -> chi^+_2 b)
#    BR                NDA      ID1      ID2       ID3
DECAY   2000006     1.93904665E+02   # ~t_2
#    BR                NDA      ID1      ID2
     6.25600685E-02    2     1000022         6   # BR(~t_2 -> chi^0_1 t)
     8.12945578E-02    2     1000023         6   # BR(~t_2 -> chi^0_2 t)
     2.13713350E-01    2     1000025         6   # BR(~t_2 -> chi^0_3 t)
     1.58859651E-01    2     1000035         6   # BR(~t_2 -> chi^0_4 t)
     1.71494560E-01    2     1000024         5   # BR(~t_2 -> chi^+_1 b)
     1.34128487E-01    2     1000037         5   # BR(~t_2 -> chi^+_2 b)
     1.03641982E-01    2     1000021         6   # BR(~t_2 -> ~g t)
     1.64546159E-04    2     1000005        24   # BR(~t_2 -> ~b_1 W^+)
     3.10109645E-02    2     1000006        23   # BR(~t_2 -> ~t_1 Z)
     4.31318329E-02    2     1000006        25   # BR(~t_2 -> ~t_1 h^0)
DECAY   1000024     1.10075886E-05   # chi^+_1
#    BR                NDA      ID1      ID2       ID3
     3.35581989E-01    3     1000022        -1         2   # BR(chi^+_1 -> chi^0_1 d_bar u)
     3.31529725E-01    3     1000022        -3         4   # BR(chi^+_1 -> chi^0_1 s_bar c)
     1.11860426E-01    3     1000022       -11        12   # BR(chi^+_1 -> chi^0_1 e^+ nu_e)
     1.11859586E-01    3     1000022       -13        14   # BR(chi^+_1 -> chi^0_1 mu^+ nu_mu)
     1.09168274E-01    3     1000022       -15        16   # BR(chi^+_1 -> chi^0_1 tau^+ nu_tau)
DECAY   1000037     2.36444816E-01   # chi^+_2
#    BR                NDA      ID1      ID2
     1.74886856E-01    2     1000022        24   # BR(chi^+_2 -> chi^0_1 W^+)
     3.66770224E-01    2     1000023        24   # BR(chi^+_2 -> chi^0_2 W^+)
     4.41433032E-01    2     1000024        23   # BR(chi^+_2 -> chi^+_1 Z)
#    BR                NDA      ID1      ID2       ID3
     5.63998249E-03    3     1000025        -1         2   # BR(chi^+_2 -> chi^0_3 d_bar u)
     5.63328750E-03    3     1000025        -3         4   # BR(chi^+_2 -> chi^0_3 s_bar c)
     1.87998603E-03    3     1000025       -11        12   # BR(chi^+_2 -> chi^0_3 e^+ nu_e)
     1.87997410E-03    3     1000025       -13        14   # BR(chi^+_2 -> chi^0_3 mu^+ nu_mu)
     1.87572490E-03    3     1000025       -15        16   # BR(chi^+_2 -> chi^0_3 tau^+ nu_tau)
DECAY   1000022     0.00000000E+00   # chi^0_1
DECAY   1000023     6.95093693E-06   # chi^0_2
#    BR                NDA      ID1      ID2
     1.29015501E-02    2     1000022        22   # BR(chi^0_2 -> chi^0_1 photon)
#    BR                NDA      ID1      ID2       ID3
     2.56817339E-02    3     1000022         2        -2   # BR(chi^0_2 -> chi^0_1 u u_bar)
     2.54175411E-02    3     1000022         4        -4   # BR(chi^0_2 -> chi^0_1 c c_bar)
     3.29475918E-02    3     1000022         1        -1   # BR(chi^0_2 -> chi^0_1 d d_bar)
     3.29459563E-02    3     1000022         3        -3   # BR(chi^0_2 -> chi^0_1 s s_bar)
     3.02199577E-02    3     1000022         5        -5   # BR(chi^0_2 -> chi^0_1 b b_bar)
     7.42414066E-03    3     1000022        11       -11   # BR(chi^0_2 -> chi^0_1 e^- e^+)
     7.42356927E-03    3     1000022        13       -13   # BR(chi^0_2 -> chi^0_1 mu^- mu^+)
     7.26483682E-03    3     1000022        15       -15   # BR(chi^0_2 -> chi^0_1 tau^- tau^+)
     4.40282523E-02    3     1000022        12       -12   # BR(chi^0_2 -> chi^0_1 nu_e nu_bar_e)
     1.30691998E-01    3     1000024         1        -2   # BR(chi^0_2 -> chi^+_1 d u_bar)
     1.30691998E-01    3    -1000024        -1         2   # BR(chi^0_2 -> chi^-_1 d_bar u)
     1.27535185E-01    3     1000024         3        -4   # BR(chi^0_2 -> chi^+_1 s c_bar)
     1.27535185E-01    3    -1000024        -3         4   # BR(chi^0_2 -> chi^-_1 s_bar c)
     4.35636092E-02    3     1000024        11       -12   # BR(chi^0_2 -> chi^+_1 e^- nu_bar_e)
     4.35636092E-02    3    -1000024       -11        12   # BR(chi^0_2 -> chi^-_1 e^+ nu_e)
     4.35629827E-02    3     1000024        13       -14   # BR(chi^0_2 -> chi^+_1 mu^- nu_bar_mu)
     4.35629827E-02    3    -1000024       -13        14   # BR(chi^0_2 -> chi^-_1 mu^+ nu_mu)
     4.15186603E-02    3     1000024        15       -16   # BR(chi^0_2 -> chi^+_1 tau^- nu_bar_tau)
     4.15186603E-02    3    -1000024       -15        16   # BR(chi^0_2 -> chi^-_1 tau^+ nu_tau)
DECAY   1000025     5.32400029E-03   # chi^0_3
#    BR                NDA      ID1      ID2
     4.84784560E-03    2     1000022        22   # BR(chi^0_3 -> chi^0_1 photon)
     4.21194936E-04    2     1000023        22   # BR(chi^0_3 -> chi^0_2 photon)
#    BR                NDA      ID1      ID2       ID3
     8.97811507E-02    3     1000022         2        -2   # BR(chi^0_3 -> chi^0_1 u u_bar)
     8.95188876E-02    3     1000022         4        -4   # BR(chi^0_3 -> chi^0_1 c c_bar)
     1.15115962E-01    3     1000022         1        -1   # BR(chi^0_3 -> chi^0_1 d d_bar)
     1.15114543E-01    3     1000022         3        -3   # BR(chi^0_3 -> chi^0_1 s s_bar)
     1.12213377E-01    3     1000022         5        -5   # BR(chi^0_3 -> chi^0_1 b b_bar)
     2.59784656E-02    3     1000022        11       -11   # BR(chi^0_3 -> chi^0_1 e^- e^+)
     2.59779298E-02    3     1000022        13       -13   # BR(chi^0_3 -> chi^0_1 mu^- mu^+)
     2.58164208E-02    3     1000022        15       -15   # BR(chi^0_3 -> chi^0_1 tau^- tau^+)
     1.53946334E-01    3     1000022        12       -12   # BR(chi^0_3 -> chi^0_1 nu_e nu_bar_e)
     2.87112997E-04    3     1000023         2        -2   # BR(chi^0_3 -> chi^0_2 u u_bar)
     2.79975838E-04    3     1000023         4        -4   # BR(chi^0_3 -> chi^0_2 c c_bar)
     3.68124086E-04    3     1000023         1        -1   # BR(chi^0_3 -> chi^0_2 d d_bar)
     3.68079440E-04    3     1000023         3        -3   # BR(chi^0_3 -> chi^0_2 s s_bar)
     2.91066200E-04    3     1000023         5        -5   # BR(chi^0_3 -> chi^0_2 b b_bar)
     4.92298921E-04    3     1000023        12       -12   # BR(chi^0_3 -> chi^0_2 nu_e nu_bar_e)
     3.98872496E-02    3     1000024         1        -2   # BR(chi^0_3 -> chi^+_1 d u_bar)
     3.98872496E-02    3    -1000024        -1         2   # BR(chi^0_3 -> chi^-_1 d_bar u)
     3.97689015E-02    3     1000024         3        -4   # BR(chi^0_3 -> chi^+_1 s c_bar)
     3.97689015E-02    3    -1000024        -3         4   # BR(chi^0_3 -> chi^-_1 s_bar c)
     1.32958043E-02    3     1000024        11       -12   # BR(chi^0_3 -> chi^+_1 e^- nu_bar_e)
     1.32958043E-02    3    -1000024       -11        12   # BR(chi^0_3 -> chi^-_1 e^+ nu_e)
     1.32956151E-02    3     1000024        13       -14   # BR(chi^0_3 -> chi^+_1 mu^- nu_bar_mu)
     1.32956151E-02    3    -1000024       -13        14   # BR(chi^0_3 -> chi^-_1 mu^+ nu_mu)
     1.32206191E-02    3     1000024        15       -16   # BR(chi^0_3 -> chi^+_1 tau^- nu_bar_tau)
     1.32206191E-02    3    -1000024       -15        16   # BR(chi^0_3 -> chi^-_1 tau^+ nu_tau)
DECAY   1000035     4.17692029E-01   # chi^0_4
#    BR                NDA      ID1      ID2
     4.94866521E-01    2     1000024       -24   # BR(chi^0_4 -> chi^+_1 W^-)
     4.94866521E-01    2    -1000024        24   # BR(chi^0_4 -> chi^-_1 W^+)
     3.18743396E-04    2     1000022        23   # BR(chi^0_4 -> chi^0_1 Z)
     1.79303882E-03    2     1000023        23   # BR(chi^0_4 -> chi^0_2 Z)
     1.89991866E-03    2     1000022        25   # BR(chi^0_4 -> chi^0_1 h^0)
#    BR                NDA      ID1      ID2       ID3
     7.34528179E-04    3     1000025         2        -2   # BR(chi^0_4 -> chi^0_3 u u_bar)
     7.31796216E-04    3     1000025         4        -4   # BR(chi^0_4 -> chi^0_3 c c_bar)
     9.41837628E-04    3     1000025         1        -1   # BR(chi^0_4 -> chi^0_3 d d_bar)
     9.41822877E-04    3     1000025         3        -3   # BR(chi^0_4 -> chi^0_3 s s_bar)
     9.11240117E-04    3     1000025         5        -5   # BR(chi^0_4 -> chi^0_3 b b_bar)
     2.12544754E-04    3     1000025        11       -11   # BR(chi^0_4 -> chi^0_3 e^- e^+)
     2.12538675E-04    3     1000025        13       -13   # BR(chi^0_4 -> chi^0_3 mu^- mu^+)
     2.10832908E-04    3     1000025        15       -15   # BR(chi^0_4 -> chi^0_3 tau^- tau^+)
     1.25946667E-03    3     1000025        12       -12   # BR(chi^0_4 -> chi^0_3 nu_e nu_bar_e)
DECAY   1000021     3.93680325E+01   # ~g
#    BR                NDA      ID1      ID2
     4.48828704E-01    2     1000006        -6   # BR(~g -> ~t_1 t_bar)
     4.48828704E-01    2    -1000006         6   # BR(~g -> ~t^*_1 t)
     4.75235476E-02    2     1000005        -5   # BR(~g -> ~b_1 b_bar)
     4.75235476E-02    2    -1000005         5   # BR(~g -> ~b^*_1 b)
#    BR                NDA      ID1      ID2       ID3
     2.44560657E-04    3     1000022         6        -6   # BR(~g -> chi^0_1 t t_bar)
     2.29068347E-04    3     1000022         5        -5   # BR(~g -> chi^0_1 b b_bar)
     3.08341767E-04    3     1000023         6        -6   # BR(~g -> chi^0_2 t t_bar)
     1.40923543E-04    3     1000023         5        -5   # BR(~g -> chi^0_2 b b_bar)
     8.58638120E-04    3     1000025         6        -6   # BR(~g -> chi^0_3 t t_bar)
     2.56211960E-04    3     1000025         5        -5   # BR(~g -> chi^0_3 b b_bar)
     7.26188814E-04    3     1000035         6        -6   # BR(~g -> chi^0_4 t t_bar)
     3.38251299E-04    3     1000035         5        -5   # BR(~g -> chi^0_4 b b_bar)
     8.73905140E-04    3     1000024         5        -6   # BR(~g -> chi^+_1 b t_bar)
     8.73905140E-04    3    -1000024        -5         6   # BR(~g -> chi^-_1 b_bar t)
     1.10675432E-03    3     1000037         5        -6   # BR(~g -> chi^+_2 b t_bar)
     1.10675432E-03    3    -1000037        -5         6   # BR(~g -> chi^-_2 b_bar t)
DECAY        25     3.36664651E-03   # Gamma(h0)
     2.53141253E-03   2        22        22   # BR(h0 -> photon photon)
     1.45990876E-03   2        22        23   # BR(h0 -> photon Z)
     2.53394857E-02   2        23        23   # BR(h0 -> Z Z)
     2.17043514E-01   2       -24        24   # BR(h0 -> W W)
     8.02790317E-02   2        21        21   # BR(h0 -> gluon gluon)
     5.18100564E-09   2       -11        11   # BR(h0 -> Electron electron)
     2.30459385E-04   2       -13        13   # BR(h0 -> Muon muon)
     6.64473112E-02   2       -15        15   # BR(h0 -> Tau tau)
     1.46830450E-07   2        -2         2   # BR(h0 -> Up up)
     2.84952082E-02   2        -4         4   # BR(h0 -> Charm charm)
     6.01279637E-07   2        -1         1   # BR(h0 -> Down down)
     2.17468384E-04   2        -3         3   # BR(h0 -> Strange strange)
     5.77955447E-01   2        -5         5   # BR(h0 -> Bottom bottom)
DECAY        35     5.81822574E+01   # Gamma(HH)
     1.00242666E-07   2        22        22   # BR(HH -> photon photon)
     2.81820157E-07   2        22        23   # BR(HH -> photon Z)
     7.15892256E-07   2        23        23   # BR(HH -> Z Z)
     3.34552335E-07   2       -24        24   # BR(HH -> W W)
     7.85738227E-06   2        21        21   # BR(HH -> gluon gluon)
     6.00615126E-09   2       -11        11   # BR(HH -> Electron electron)
     2.67394980E-04   2       -13        13   # BR(HH -> Muon muon)
     7.72230177E-02   2       -15        15   # BR(HH -> Tau tau)
     8.02933653E-14   2        -2         2   # BR(HH -> Up up)
     1.55748170E-08   2        -4         4   # BR(HH -> Charm charm)
     1.19565841E-03   2        -6         6   # BR(HH -> Top top)
     4.62899554E-07   2        -1         1   # BR(HH -> Down down)
     1.67427181E-04   2        -3         3   # BR(HH -> Strange strange)
     4.44377998E-01   2        -5         5   # BR(HH -> Bottom bottom)
     1.13032709E-01   2  -1000024   1000024   # BR(HH -> Chargino1 chargino1)
     6.64725130E-02   2  -1000024   1000037   # BR(HH -> Chargino1 chargino2)
     6.64725130E-02   2  -1000037   1000024   # BR(HH -> Chargino2 chargino1)
     4.43327968E-02   2  -1000037   1000037   # BR(HH -> Chargino2 chargino2)
     5.48136268E-02   2   1000022   1000022   # BR(HH -> neutralino1 neutralino1)
     7.50952414E-03   2   1000022   1000023   # BR(HH -> neutralino1 neutralino2)
     2.77201288E-02   2   1000022   1000025   # BR(HH -> neutralino1 neutralino3)
     2.00990902E-03   2   1000022   1000035   # BR(HH -> neutralino1 neutralino4)
     1.70082871E-04   2   1000023   1000023   # BR(HH -> neutralino2 neutralino2)
     3.05824530E-04   2   1000023   1000025   # BR(HH -> neutralino2 neutralino3)
     2.06205526E-03   2   1000023   1000035   # BR(HH -> neutralino2 neutralino4)
     2.78840792E-03   2   1000025   1000025   # BR(HH -> neutralino3 neutralino3)
     5.47814942E-02   2   1000025   1000035   # BR(HH -> neutralino3 neutralino4)
     3.42822151E-02   2   1000035   1000035   # BR(HH -> neutralino4 neutralino4)
     4.92942154E-06   2        25        25   # BR(HH -> h0 h0)
DECAY        36     5.66222300E+01   # Gamma(A0)
     1.45408708E-08   2        22        22   # BR(A0 -> photon photon)
     1.46702459E-07   2        22        23   # BR(A0 -> photon Z)
     1.78511680E-05   2        21        21   # BR(A0 -> gluon gluon)
     5.85353385E-09   2       -11        11   # BR(A0 -> Electron electron)
     2.60601019E-04   2       -13        13   # BR(A0 -> Muon muon)
     7.52611583E-02   2       -15        15   # BR(A0 -> Tau tau)
     7.57700520E-14   2        -2         2   # BR(A0 -> Up up)
     1.46960865E-08   2        -4         4   # BR(A0 -> Charm charm)
     1.16087397E-03   2        -6         6   # BR(A0 -> Top top)
     4.51122310E-07   2        -1         1   # BR(A0 -> Down down)
     1.63167412E-04   2        -3         3   # BR(A0 -> Strange strange)
     4.33079549E-01   2        -5         5   # BR(A0 -> Bottom bottom)
     1.11706025E-01   2  -1000024   1000024   # BR(A0 -> Chargino1 chargino1)
     7.27498061E-02   2  -1000024   1000037   # BR(A0 -> Chargino1 chargino2)
     7.27498061E-02   2  -1000037   1000024   # BR(A0 -> Chargino2 chargino1)
     4.12065701E-02   2  -1000037   1000037   # BR(A0 -> Chargino2 chargino2)
     5.32028203E-02   2   1000022   1000022   # BR(A0 -> neutralino1 neutralino1)
     7.23388488E-03   2   1000022   1000023   # BR(A0 -> neutralino1 neutralino2)
     3.21003548E-02   2   1000022   1000025   # BR(A0 -> neutralino1 neutralino3)
     2.36622155E-03   2   1000022   1000035   # BR(A0 -> neutralino1 neutralino4)
     1.64222972E-04   2   1000023   1000023   # BR(A0 -> neutralino2 neutralino2)
     3.90933740E-04   2   1000023   1000025   # BR(A0 -> neutralino2 neutralino3)
     2.06457016E-03   2   1000023   1000035   # BR(A0 -> neutralino2 neutralino4)
     3.43710997E-03   2   1000025   1000025   # BR(A0 -> neutralino3 neutralino3)
     5.76215609E-02   2   1000025   1000035   # BR(A0 -> neutralino3 neutralino4)
     3.30612631E-02   2   1000035   1000035   # BR(A0 -> neutralino4 neutralino4)
     1.01677848E-06   2        23        25   # BR(A0 -> Z h0)
     2.95335519E-40   2        25        25   # BR(A0 -> h0 h0)
DECAY        37     6.08797996E+01   # Gamma(Hp)
     6.74488506E-09   2       -11        12   # BR(Hp -> Electron nu_e)
     2.88364902E-04   2       -13        14   # BR(Hp -> Muon nu_mu)
     8.15659416E-02   2       -15        16   # BR(Hp -> Tau nu_tau)
     4.50515700E-07   2        -1         2   # BR(Hp -> Down up)
     7.57626513E-06   2        -3         2   # BR(Hp -> Strange up)
     4.89204603E-06   2        -5         2   # BR(Hp -> Bottom up)
     2.17323738E-08   2        -1         4   # BR(Hp -> Down charm)
     1.62371666E-04   2        -3         4   # BR(Hp -> Strange charm)
     6.85061281E-04   2        -5         4   # BR(Hp -> Bottom charm)
     8.38356782E-08   2        -1         6   # BR(Hp -> Down top)
     2.06597954E-06   2        -3         6   # BR(Hp -> Strange top)
     4.62129346E-01   2        -5         6   # BR(Hp -> Bottom top)
     1.62081822E-02   2   1000022   1000024   # BR(Hp -> neutralino1 chargino1)
     7.21621566E-02   2   1000022   1000037   # BR(Hp -> neutralino1 chargino2)
     4.89101543E-02   2   1000023   1000024   # BR(Hp -> neutralino2 chargino1)
     9.22170418E-02   2   1000023   1000037   # BR(Hp -> neutralino2 chargino2)
     6.02391864E-02   2   1000024   1000025   # BR(Hp -> chargino1 neutralino3)
     7.19705404E-02   2   1000025   1000037   # BR(Hp -> neutralino3 chargino2)
     9.11212213E-02   2   1000024   1000035   # BR(Hp -> chargino1 neutralino4)
     2.32438466E-03   2   1000035   1000037   # BR(Hp -> neutralino4 chargino2)
     9.49571033E-07   2        24        25   # BR(Hp -> W h0)
     3.43086521E-12   2        24        35   # BR(Hp -> W HH)
     9.60654250E-13   2        24        36   # BR(Hp -> W A0)
DECAY         6     2.43000000E+00   # top
#    BR                NDA      ID1      ID2
     1.00000000E+00    2           5        24   # BR(t -> b W)
Block HiggsBoundsInputHiggsCouplingsFermions
# ScalarNormEffCoupSq PseudoSNormEffCoupSq NP IP1 IP2 IP2
    9.47171078E-01    0.00000000E+00        3  25   5   5  # h0-b-b eff. coupling^2, normalised to SM
    1.06586805E+03    0.00000000E+00        3  35   5   5  # H0-b-b eff. coupling^2, normalised to SM
    0.00000000E+00    1.06581522E+03        3  36   5   5  # A0-b-b eff. coupling^2, normalised to SM
#
    1.00004957E+00    0.00000000E+00        3  25   6   6  # h0-t-t eff. coupling^2, normalised to SM
    8.88682258E-04    0.00000000E+00        3  35   6   6  # H0-t-t eff. coupling^2, normalised to SM
    0.00000000E+00    9.38248938E-04        3  36   6   6  # A0-t-t eff. coupling^2, normalised to SM
#
    9.47171078E-01    0.00000000E+00        3  25  15  15  # h0-tau-tau eff. coupling^2, normalised to SM
    1.06586805E+03    0.00000000E+00        3  35  15  15  # H0-tau-tau eff. coupling^2, normalised to SM
    0.00000000E+00    1.06581522E+03        3  36  15  15  # A0-tau-tau eff. coupling^2, normalised to SM
#
Block HiggsBoundsInputHiggsCouplingsBosons
    9.99999327E-01        3  25  24  24  # h0-W-W eff. coupling^2, normalised to SM
    6.72506540E-07        3  35  24  24  # H0-W-W eff. coupling^2, normalised to SM
    0.00000000E+00        3  36  24  24  # A0-W-W eff. coupling^2, normalised to SM
#
    9.99999327E-01        3  25  23  23  # h0-Z-Z eff. coupling^2, normalised to SM
    6.72506540E-07        3  35  23  23  # H0-Z-Z eff. coupling^2, normalised to SM
    0.00000000E+00        3  36  23  23  # A0-Z-Z eff. coupling^2, normalised to SM
#
    1.26552473E+00        3  25  21  21  # h0-g-g eff. coupling^2, normalised to SM
    5.49279444E-03        3  35  21  21  # H0-g-g eff. coupling^2, normalised to SM
    1.15498721E-01        3  36  21  21  # A0-g-g eff. coupling^2, normalised to SM
#
    0.00000000E+00        3  25  25  23  # h0-h0-Z eff. coupling^2, normalised to SM
    0.00000000E+00        3  35  25  23  # H0-h0-Z eff. coupling^2, normalised to SM
    6.72506540E-07        3  36  25  23  # A0-h0-Z eff. coupling^2, normalised to SM
    0.00000000E+00        3  35  35  23  # H0-H0-Z eff. coupling^2, normalised to SM
    9.99999327E-01        3  36  35  23  # A0-H0-Z eff. coupling^2, normalised to SM
    0.00000000E+00        3  36  36  23  # A0-A0-Z eff. coupling^2, normalised to SM
#
    0.00000000E+00        4  25  21  21  23  # h0-g-g-Z eff. coupling^2, normalised to SM
    0.00000000E+00        4  35  21  21  23  # H0-g-g-Z eff. coupling^2, normalised to SM
    0.00000000E+00        4  36  21  21  23  # A0-g-g-Z eff. coupling^2, normalised to SM
Block SPhenoLowEnergy  # low energy observables
    1    3.41793262E-04   # BR(b -> s gamma)
    2    1.58689105E-06   # BR(b -> s mu+ mu-)
    3    3.52242363E-05   # BR(b -> s nu nu)
    4    2.01355523E-15   # BR(Bd -> e+ e-)
    5    8.60167617E-11   # BR(Bd -> mu+ mu-)
    6    1.80049965E-08   # BR(Bd -> tau+ tau-)
    7    6.80531968E-14   # BR(Bs -> e+ e-)
    8    2.90722966E-09   # BR(Bs -> mu+ mu-)
    9    6.16607978E-07   # BR(Bs -> tau+ tau-)
   10    9.54097959E-05   # BR(B_u -> tau nu)
   11    9.85546664E-01   # BR(B_u -> tau nu)/BR(B_u -> tau nu)_SM
   12    5.42492226E-01   # |Delta(M_Bd)| [ps^-1] 
   13    1.93756650E+01   # |Delta(M_Bs)| [ps^-1] 
   14    0.00000000E+00   # neutron EDM according to the chiral quark model
   15    0.00000000E+00   # neutron EDM according to the relativistic quark-parton model
   16    2.15956290E-03   # epsilon_K
   17    2.28168248E-15   # Delta(M_K)
   18    2.47785888E-11   # BR(K^0 -> pi^0 nu nu)
   19    8.28543116E-11   # BR(K^+ -> pi^+ nu nu)
   20   -2.37347164E-16   # Delta(g-2)_electron/2
   21   -1.01474015E-11   # Delta(g-2)_muon/2
   22   -2.87615394E-09   # Delta(g-2)_tau/2
   23    0.00000000E+00   # electric dipole moment of the electron
   24    0.00000000E+00   # electric dipole moment of the muon
   25    0.00000000E+00   # electric dipole moment of the tau
   26    0.00000000E+00   # Br(mu -> e gamma)
   27    0.00000000E+00   # Br(tau -> e gamma)
   28    0.00000000E+00   # Br(tau -> mu gamma)
   29    0.00000000E+00   # Br(mu -> 3 e)
   30    0.00000000E+00   # Br(tau -> 3 e)
   31    0.00000000E+00   # Br(tau -> 3 mu)
   39    6.92910259E-05   # Delta(rho_parameter)
   40    0.00000000E+00   # BR(Z -> e mu)
   41    0.00000000E+00   # BR(Z -> e tau)
   42    0.00000000E+00   # BR(Z -> mu tau)
Block FWCOEF Q=  1.60000000E+02  # Wilson coefficients at scale Q
#    id        order  M        value         comment
     0305 4422   00   0    -1.88819110E-01   # C7
     0305 4422   00   2    -2.12619278E-01   # C7
     0305 4322   00   2    -2.96374437E-04   # C7'
     0305 6421   00   0    -9.52278348E-02   # C8
     0305 6421   00   2    -1.14481817E-01   # C8
     0305 6321   00   2    -2.96180168E-04   # C8'
 03051111 4133   00   0     1.61686110E+00   # C9 e+e-
 03051111 4133   00   2     1.61726416E+00   # C9 e+e-
 03051111 4233   00   2     1.80378701E-04   # C9' e+e-
 03051111 4137   00   0    -4.43955320E+00   # C10 e+e-
 03051111 4137   00   2    -4.43513798E+00   # C10 e+e-
 03051111 4237   00   2    -1.35298007E-03   # C10' e+e-
 03051313 4133   00   0     1.61686110E+00   # C9 mu+mu-
 03051313 4133   00   2     1.61726402E+00   # C9 mu+mu-
 03051313 4233   00   2     1.80378192E-04   # C9' mu+mu-
 03051313 4137   00   0    -4.43955320E+00   # C10 mu+mu-
 03051313 4137   00   2    -4.43513811E+00   # C10 mu+mu-
 03051313 4237   00   2    -1.35297974E-03   # C10' mu+mu-
 03051212 4137   00   0     1.50535012E+00   # C11 nu_1 nu_1
 03051212 4137   00   2     1.50439464E+00   # C11 nu_1 nu_1
 03051212 4237   00   2     2.93211985E-04   # C11' nu_1 nu_1
 03051414 4137   00   0     1.50535012E+00   # C11 nu_2 nu_2
 03051414 4137   00   2     1.50439464E+00   # C11 nu_2 nu_2
 03051414 4237   00   2     2.93212086E-04   # C11' nu_2 nu_2
 03051616 4137   00   0     1.50535012E+00   # C11 nu_3 nu_3
 03051616 4137   00   2     1.50439464E+00   # C11 nu_3 nu_3
 03051616 4237   00   2     2.93240371E-04   # C11' nu_3 nu_3
Block IMFWCOEF Q=  1.60000000E+02  # Im(Wilson coefficients) at scale Q
#    id        order  M        value         comment
     0305 4422   00   0     3.85814416E-07   # C7
     0305 4422   00   2    -6.49998722E-06   # C7
     0305 4322   00   2    -1.41838665E-06   # C7'
     0305 6421   00   0     3.30475563E-07   # C8
     0305 6421   00   2     6.32438705E-06   # C8
     0305 6321   00   2    -3.93318470E-07   # C8'
 03051111 4133   00   2     6.68170501E-07   # C9 e+e-
 03051111 4233   00   2     4.06154818E-06   # C9' e+e-
 03051111 4137   00   2     7.92687814E-07   # C10 e+e-
 03051111 4237   00   2    -3.04733945E-05   # C10' e+e-
 03051313 4133   00   2     6.68168405E-07   # C9 mu+mu-
 03051313 4233   00   2     4.06154736E-06   # C9' mu+mu-
 03051313 4137   00   2     7.92689869E-07   # C10 mu+mu-
 03051313 4237   00   2    -3.04733970E-05   # C10' mu+mu-
 03051212 4137   00   2    -1.47340819E-07   # C11 nu_1 nu_1
 03051212 4237   00   2     6.60406637E-06   # C11' nu_1 nu_1
 03051414 4137   00   2    -1.47340712E-07   # C11 nu_2 nu_2
 03051414 4237   00   2     6.60406637E-06   # C11' nu_2 nu_2
 03051616 4137   00   2    -1.47310245E-07   # C11 nu_3 nu_3
 03051616 4237   00   2     6.60406636E-06   # C11' nu_3 nu_3
