# SUSY Les Houches Accord 2 - MSSM spectrum + Decays
# SPheno v4.0.5be
# W. Porod, Comput. Phys. Commun. 153 (2003) 275-315, hep-ph/0301101;
# W. Porod, F.~Staub, Comput. Phys. Commun. 183 (2012) 2458
#                     arXiv:1104.1573 [hep-ph] 
# in case of problems send email to porod@physik.uni-wuerzburg.de
# Created: 12.05.2022,  13:18
Block SPINFO         # Program information
     1   SPheno      # spectrum calculator
     2   v4.0.5be    # version number
#
Block SPhenoINFO     # SPheno specific information
    1      2         # using 2-loop RGEs
    2      2         # using pole masses for boundary conditions at mZ
Block MODSEL  # Model selection
    1    0    # general MSSM
Block MINPAR  # Input parameters
    3    4.78449215E+01  # tanb at m_Z    
    4    1.00000000E+00  # Sign(mu)
Block EXTPAR  # non-universal input parameters
    0    3.21940265E+03  # scale for input parameters
    1    1.08960645E+03  # M_1
    2    2.48637607E+02  # M_2
    3    1.96297064E+03  # M_3
   11   -2.55957290E+03  # A_t
   12    1.00436681E+03  # A_b
   13   -3.94887529E+02  # A_tau
   23    1.45159142E+02  # mu
   25    4.70962109E+01  # tan(beta)
   26    4.60665591E+03  # m_A, pole mass
   31    1.00000000E+04  # M_L11
   32    1.00000000E+04  # M_L22
   33    1.00000000E+04  # M_L33
   34    1.00000000E+04  # M_E11
   35    1.00000000E+04  # M_E22
   36    1.00000000E+04  # M_E33
   41    1.00000000E+04  # M_Q11
   42    1.00000000E+04  # M_Q22
   43    4.01128491E+03  # M_Q33
   44    1.00000000E+04  # M_U11
   45    1.00000000E+04  # M_U22
   46    2.53684021E+03  # M_U33
   47    1.00000000E+04  # M_D11
   48    1.00000000E+04  # M_D22
   49    3.95692503E+03  # M_D33
Block SMINPUTS  # SM parameters
         1     1.27908970E+02  # alpha_em^-1(MZ)^MSbar
         2     1.16637870E-05  # G_mu [GeV^-2]
         3     1.18400000E-01  # alpha_s(MZ)^MSbar
         4     9.11876000E+01  # m_Z(pole)
         5     4.18000000E+00  # m_b(m_b), MSbar
         6     1.73200000E+02  # m_t(pole)
         7     1.77700000E+00  # m_tau(pole)
         8     0.00000000E+00  # m_nu_3
        11     5.10998930E-04  # m_e(pole)
        12     0.00000000E+00  # m_nu_1
        13     1.05658372E-01  # m_muon(pole)
        14     0.00000000E+00  # m_nu_2
        21     5.00000000E-03  # m_d(2 GeV), MSbar
        22     2.50000000E-03  # m_u(2 GeV), MSbar
        23     9.50000000E-02  # m_s(2 GeV), MSbar
        24     1.27000000E+00  # m_c(m_c), MSbar
Block gauge Q=  3.21940265E+03  # (SUSY scale)
   1    3.55362975E-01  # g'(Q)^DRbar
   2    6.65198874E-01  # g(Q)^DRbar
   3    1.21977796E+00  # g3(Q)^DRbar
Block Yu Q=  3.21940265E+03  # (SUSY scale)
  1  1     8.38626195E-06   # Y_u(Q)^DRbar
  2  2     4.26022107E-03   # Y_c(Q)^DRbar
  3  3     1.01312780E+00   # Y_t(Q)^DRbar
Block Yd Q=  3.21940265E+03  # (SUSY scale)
  1  1     7.93660267E-04   # Y_d(Q)^DRbar
  2  2     1.50795451E-02   # Y_s(Q)^DRbar
  3  3     7.87062288E-01   # Y_b(Q)^DRbar
Block Ye Q=  3.21940265E+03  # (SUSY scale)
  1  1     1.38499520E-04   # Y_e(Q)^DRbar
  2  2     2.86373082E-02   # Y_mu(Q)^DRbar
  3  3     4.81632413E-01   # Y_tau(Q)^DRbar
Block Au Q=  3.21940265E+03  # (SUSY scale)
  1  1     0.00000000E+00   # A_u(Q)^DRbar
  2  2     0.00000000E+00   # A_c(Q)^DRbar
  3  3    -2.55957391E+03   # A_t(Q)^DRbar
Block Ad Q=  3.21940265E+03  # (SUSY scale)
  1  1     0.00000000E+00   # A_d(Q)^DRbar
  2  2     0.00000000E+00   # A_s(Q)^DRbar
  3  3     1.00436657E+03   # A_b(Q)^DRbar
Block Ae Q=  3.21940265E+03  # (SUSY scale)
  1  1     0.00000000E+00   # A_e(Q)^DRbar
  2  2     0.00000000E+00   # A_mu(Q)^DRbar
  3  3    -3.94887480E+02   # A_tau(Q)^DRbar
Block MSOFT Q=  3.21940265E+03  # soft SUSY breaking masses at Q
   1    1.08960645E+03  # M_1
   2    2.48637607E+02  # M_2
   3    1.96297064E+03  # M_3
  21    2.11098980E+07  # M^2_(H,d)
  22    2.01210880E+05  # M^2_(H,u)
  31    1.00000000E+04  # M_(L,11)
  32    1.00000000E+04  # M_(L,22)
  33    1.00000000E+04  # M_(L,33)
  34    1.00000000E+04  # M_(E,11)
  35    1.00000000E+04  # M_(E,22)
  36    1.00000000E+04  # M_(E,33)
  41    1.00000000E+04  # M_(Q,11)
  42    1.00000000E+04  # M_(Q,22)
  43    4.01128491E+03  # M_(Q,33)
  44    1.00000000E+04  # M_(U,11)
  45    1.00000000E+04  # M_(U,22)
  46    2.53684021E+03  # M_(U,33)
  47    1.00000000E+04  # M_(D,11)
  48    1.00000000E+04  # M_(D,22)
  49    3.95692503E+03  # M_(D,33)
Block MASS  # Mass spectrum
#   PDG code      mass          particle
         6     1.73200000E+02  # m_t(pole)
        23     9.11876000E+01  # m_Z(pole)
        24     8.04299946E+01  # W+
        15     1.77700000E+00  # m_tau(pole)
        25     1.24088091E+02  # h0
        35     4.60400691E+03  # H0
        36     4.60665591E+03  # A0
        37     4.60430842E+03  # H+
   1000001     1.01162476E+04  # ~d_L
   2000001     1.00908304E+04  # ~d_R
   1000002     1.01158795E+04  # ~u_L
   2000002     1.00940211E+04  # ~u_R
   1000003     1.01162561E+04  # ~s_L
   2000003     1.00908459E+04  # ~s_R
   1000004     1.01158880E+04  # ~c_L
   2000004     1.00940224E+04  # ~c_R
   1000005     3.98807453E+03  # ~b_1
   2000005     4.03469854E+03  # ~b_2
   1000006     2.56646405E+03  # ~t_1
   2000006     4.03845651E+03  # ~t_2
   1000011     1.00215263E+04  # ~e_L-
   2000011     1.00085844E+04  # ~e_R-
   1000012     1.00207519E+04  # ~nu_eL
   1000013     1.00215673E+04  # ~mu_L-
   2000013     1.00086640E+04  # ~mu_R-
   1000014     1.00207928E+04  # ~nu_muL
   1000015     1.00309606E+04  # ~tau_1-
   2000015     1.00332911E+04  # ~tau_2-
   1000016     1.00323224E+04  # ~nu_tauL
   1000021     2.36587968E+03  # ~g
   1000022     1.37570188E+02  # ~chi_10
   1000023     1.68892776E+02  # ~chi_20
   1000025     3.06098709E+02  # ~chi_30
   1000035     1.10145284E+03  # ~chi_40
   1000024     1.44159446E+02  # ~chi_1+
   1000037     3.07618893E+02  # ~chi_2+
# Higgs mixing
Block alpha # Effective Higgs mixing angle
          -2.09241473E-02   # alpha
Block Hmix Q=  3.21940265E+03  # Higgs mixing parameters
   1    1.45159142E+02  # mu
   2    4.70962109E+01  # tan[beta](Q)
   3    2.43164024E+02  # v(Q)
   4    2.12212787E+07  # m^2_A(Q)
Block stopmix # stop mixing matrix
   1  1     3.94897335E-02   # Re[R_st(1,1)]
   1  2     9.99219976E-01   # Re[R_st(1,2)]
   2  1    -9.99219976E-01   # Re[R_st(2,1)]
   2  2     3.94897335E-02   # Re[R_st(2,2)]
Block sbotmix # sbottom mixing matrix
   1  1     2.09262768E-02   # Re[R_sb(1,1)]
   1  2     9.99781021E-01   # Re[R_sb(1,2)]
   2  1    -9.99781021E-01   # Re[R_sb(2,1)]
   2  2     2.09262768E-02   # Re[R_sb(2,2)]
Block staumix # stau mixing matrix
   1  1     2.84947581E-01   # Re[R_sta(1,1)]
   1  2     9.58543101E-01   # Re[R_sta(1,2)]
   2  1    -9.58543101E-01   # Re[R_sta(2,1)]
   2  2     2.84947581E-01   # Re[R_sta(2,2)]
Block Nmix # neutralino mixing matrix
   1  1     2.90620614E-02   # Re[N(1,1)]
   1  2    -3.60752267E-01   # Re[N(1,2)]
   1  3     7.07050290E-01   # Re[N(1,3)]
   1  4    -6.07530316E-01   # Re[N(1,4)]
   2  1    -2.49274545E-02   # Re[N(2,1)]
   2  2     1.27749151E-01   # Re[N(2,2)]
   2  3     6.83423338E-01   # Re[N(2,3)]
   2  4     7.18325356E-01   # Re[N(2,4)]
   3  1     1.92128986E-02   # Re[N(3,1)]
   3  2     9.23862148E-01   # Re[N(3,2)]
   3  3     1.81558060E-01   # Re[N(3,3)]
   3  4    -3.36372215E-01   # Re[N(3,4)]
   4  1     9.99082020E-01   # Re[N(4,1)]
   4  2    -4.08515417E-03   # Re[N(4,2)]
   4  3    -7.00702371E-03   # Re[N(4,3)]
   4  4     4.20634047E-02   # Re[N(4,4)]
Block Umix # chargino mixing matrix
   1  1    -2.66821215E-01   # Re[U(1,1)]
   1  2     9.63746045E-01   # Re[U(1,2)]
   2  1     9.63746045E-01   # Re[U(2,1)]
   2  2     2.66821215E-01   # Re[U(2,2)]
Block Vmix # chargino mixing matrix
   1  1    -4.97412391E-01   # Re[V(1,1)]
   1  2     8.67514215E-01   # Re[V(1,2)]
   2  1     8.67514215E-01   # Re[V(2,1)]
   2  2     4.97412391E-01   # Re[V(2,2)]
DECAY        23     2.49520000E+00   # Z
DECAY        24     2.08500000E+00   # W
DECAY   2000011     4.90808881E+01   # ~e^-_R
#    BR                NDA      ID1      ID2
     8.65113271E-04    2     1000022        11   # BR(~e^-_R -> chi^0_1 e^-)
     6.36352892E-04    2     1000023        11   # BR(~e^-_R -> chi^0_2 e^-)
     3.77520591E-04    2     1000025        11   # BR(~e^-_R -> chi^0_3 e^-)
     9.98120935E-01    2     1000035        11   # BR(~e^-_R -> chi^0_4 e^-)
DECAY   1000011     1.44390445E+02   # ~e^-_L
#    BR                NDA      ID1      ID2
     3.63951762E-02    2     1000022        11   # BR(~e^-_L -> chi^0_1 e^-)
     3.99807670E-03    2     1000023        11   # BR(~e^-_L -> chi^0_2 e^-)
     2.66071798E-01    2     1000025        11   # BR(~e^-_L -> chi^0_3 e^-)
     8.36396306E-02    2     1000035        11   # BR(~e^-_L -> chi^0_4 e^-)
     4.34799997E-02    2    -1000024        12   # BR(~e^-_L -> chi^-_1 nu_e)
     5.66415318E-01    2    -1000037        12   # BR(~e^-_L -> chi^-_2 nu_e)
#    BR                NDA      ID1      ID2       ID3
DECAY   2000013     4.94077089E+01   # ~mu^-_R
#    BR                NDA      ID1      ID2
     2.51098695E-03    2     1000022        13   # BR(~mu^-_R -> chi^0_1 mu^-)
     2.17490801E-03    2     1000023        13   # BR(~mu^-_R -> chi^0_2 mu^-)
     4.83764782E-04    2     1000025        13   # BR(~mu^-_R -> chi^0_3 mu^-)
     9.91527024E-01    2     1000035        13   # BR(~mu^-_R -> chi^0_4 mu^-)
     3.06846326E-03    2    -1000024        14   # BR(~mu^-_R -> chi^-_1 nu_mu)
     2.34852796E-04    2    -1000037        14   # BR(~mu^-_R -> chi^-_2 nu_mu)
DECAY   1000013     1.44554457E+02   # ~mu^-_L
#    BR                NDA      ID1      ID2
     3.69192587E-02    2     1000022        13   # BR(~mu^-_L -> chi^0_1 mu^-)
     4.52154265E-03    2     1000023        13   # BR(~mu^-_L -> chi^0_2 mu^-)
     2.65808222E-01    2     1000025        13   # BR(~mu^-_L -> chi^0_3 mu^-)
     8.35451453E-02    2     1000035        13   # BR(~mu^-_L -> chi^0_4 mu^-)
     4.34308451E-02    2    -1000024        14   # BR(~mu^-_L -> chi^-_1 nu_mu)
     5.65774986E-01    2    -1000037        14   # BR(~mu^-_L -> chi^-_2 nu_mu)
#    BR                NDA      ID1      ID2       ID3
DECAY   1000015     1.45737805E+02   # ~tau^-_1
#    BR                NDA      ID1      ID2
     2.06998543E-01    2     1000022        15   # BR(~tau^-_1 -> chi^0_1 tau^-)
     1.32465223E-01    2     1000023        15   # BR(~tau^-_1 -> chi^0_2 tau^-)
     3.93656561E-03    2     1000025        15   # BR(~tau^-_1 -> chi^0_3 tau^-)
     3.15704289E-01    2     1000035        15   # BR(~tau^-_1 -> chi^0_4 tau^-)
     3.36057970E-01    2    -1000024        16   # BR(~tau^-_1 -> chi^-_1 nu_tau)
     4.83740956E-03    2    -1000037        16   # BR(~tau^-_1 -> chi^-_2 nu_tau)
DECAY   2000015     1.86833054E+02   # ~tau^-_2
#    BR                NDA      ID1      ID2
     1.14577994E-01    2     1000022        15   # BR(~tau^-_2 -> chi^0_1 tau^-)
     1.31282782E-01    2     1000023        15   # BR(~tau^-_2 -> chi^0_2 tau^-)
     2.19207902E-01    2     1000025        15   # BR(~tau^-_2 -> chi^0_3 tau^-)
     8.13043283E-02    2     1000035        15   # BR(~tau^-_2 -> chi^0_4 tau^-)
     1.53126855E-03    2    -1000024        16   # BR(~tau^-_2 -> chi^-_1 nu_tau)
     4.52095725E-01    2    -1000037        16   # BR(~tau^-_2 -> chi^-_2 nu_tau)
#    BR                NDA      ID1      ID2       ID3
DECAY   1000012     1.44395396E+02   # ~nu_e
#    BR                NDA      ID1      ID2
     4.32318322E-02    2     1000022        12   # BR(~nu_e -> chi^0_1 nu_e)
     6.07501719E-03    2     1000023        12   # BR(~nu_e -> chi^0_2 nu_e)
     2.54477720E-01    2     1000025        12   # BR(~nu_e -> chi^0_3 nu_e)
     8.62300375E-02    2     1000035        12   # BR(~nu_e -> chi^0_4 nu_e)
     1.51089264E-01    2     1000024        11   # BR(~nu_e -> chi^+_1 e^-)
     4.58896129E-01    2     1000037        11   # BR(~nu_e -> chi^+_2 e^-)
#    BR                NDA      ID1      ID2       ID3
DECAY   1000014     1.44559393E+02   # ~nu_mu
#    BR                NDA      ID1      ID2
     4.31829637E-02    2     1000022        14   # BR(~nu_mu -> chi^0_1 nu_mu)
     6.06815012E-03    2     1000023        14   # BR(~nu_mu -> chi^0_2 nu_mu)
     2.54190066E-01    2     1000025        14   # BR(~nu_mu -> chi^0_3 nu_mu)
     8.61325816E-02    2     1000035        14   # BR(~nu_mu -> chi^0_4 nu_mu)
     1.51968459E-01    2     1000024        13   # BR(~nu_mu -> chi^+_1 mu^-)
     4.58457779E-01    2     1000037        13   # BR(~nu_mu -> chi^+_2 mu^-)
#    BR                NDA      ID1      ID2       ID3
DECAY   1000016     1.90837432E+02   # ~nu_tau
#    BR                NDA      ID1      ID2
     3.27487685E-02    2     1000022        16   # BR(~nu_tau -> chi^0_1 nu_tau)
     4.60191968E-03    2     1000023        16   # BR(~nu_tau -> chi^0_2 nu_tau)
     1.92771395E-01    2     1000025        16   # BR(~nu_tau -> chi^0_3 nu_tau)
     6.53241876E-02    2     1000035        16   # BR(~nu_tau -> chi^0_4 nu_tau)
     3.39690644E-01    2     1000024        15   # BR(~nu_tau -> chi^+_1 tau^-)
     3.64863086E-01    2     1000037        15   # BR(~nu_tau -> chi^+_2 tau^-)
#    BR                NDA      ID1      ID2       ID3
DECAY   2000001     7.16841732E+02   # ~d_R
#    BR                NDA      ID1      ID2
     7.65873246E-03    2     1000035         1   # BR(~d_R -> chi^0_4 d)
     9.92326503E-01    2     1000021         1   # BR(~d_R -> ~g d)
DECAY   1000001     8.48280151E+02   # ~d_L
#    BR                NDA      ID1      ID2
     7.02614743E-03    2     1000022         1   # BR(~d_L -> chi^0_1 d)
     9.16766542E-04    2     1000023         1   # BR(~d_L -> chi^0_2 d)
     4.43894239E-02    2     1000025         1   # BR(~d_L -> chi^0_3 d)
     1.69763731E-03    2     1000035         1   # BR(~d_L -> chi^0_4 d)
     7.47098069E-03    2    -1000024         2   # BR(~d_L -> chi^-_1 u)
     9.73273701E-02    2    -1000037         2   # BR(~d_L -> chi^-_2 u)
     8.41171674E-01    2     1000021         1   # BR(~d_L -> ~g d)
DECAY   2000003     7.16934086E+02   # ~s_R
#    BR                NDA      ID1      ID2
     7.65776129E-03    2     1000035         3   # BR(~s_R -> chi^0_4 s)
     9.92200551E-01    2     1000021         3   # BR(~s_R -> ~g s)
DECAY   1000003     8.48330267E+02   # ~s_L
#    BR                NDA      ID1      ID2
     7.05262190E-03    2     1000022         3   # BR(~s_L -> chi^0_1 s)
     9.41826130E-04    2     1000023         3   # BR(~s_L -> chi^0_2 s)
     4.43886097E-02    2     1000025         3   # BR(~s_L -> chi^0_3 s)
     1.69754111E-03    2     1000035         3   # BR(~s_L -> chi^0_4 s)
     7.47378319E-03    2    -1000024         4   # BR(~s_L -> chi^-_1 c)
     9.73227675E-02    2    -1000037         4   # BR(~s_L -> chi^-_2 c)
     8.41122850E-01    2     1000021         3   # BR(~s_L -> ~g s)
DECAY   1000005     2.31951181E+02   # ~b_1
#    BR                NDA      ID1      ID2
     1.07095379E-01    2     1000022         5   # BR(~b_1 -> chi^0_1 b)
     9.81103333E-02    2     1000023         5   # BR(~b_1 -> chi^0_2 b)
     6.06518321E-03    2     1000025         5   # BR(~b_1 -> chi^0_3 b)
     8.16487471E-03    2     1000035         5   # BR(~b_1 -> chi^0_4 b)
     1.97468606E-01    2    -1000024         6   # BR(~b_1 -> chi^-_1 t)
     1.30347516E-02    2    -1000037         6   # BR(~b_1 -> chi^-_2 t)
     5.70035450E-01    2     1000021         5   # BR(~b_1 -> ~g b)
DECAY   2000005     3.36274063E+02   # ~b_2
#    BR                NDA      ID1      ID2
     7.98162513E-02    2     1000022         5   # BR(~b_2 -> chi^0_1 b)
     7.00971354E-02    2     1000023         5   # BR(~b_2 -> chi^0_2 b)
     4.96379418E-02    2     1000025         5   # BR(~b_2 -> chi^0_3 b)
     1.51839771E-03    2     1000035         5   # BR(~b_2 -> chi^0_4 b)
     1.89141301E-01    2    -1000024         6   # BR(~b_2 -> chi^-_1 t)
     1.58564685E-01    2    -1000037         6   # BR(~b_2 -> chi^-_2 t)
     4.07712028E-01    2     1000021         5   # BR(~b_2 -> ~g b)
     4.35122593E-02    2     1000006       -24   # BR(~b_2 -> ~t_1 W^-)
DECAY   2000002     7.33627311E+02   # ~u_R
#    BR                NDA      ID1      ID2
     2.99439163E-02    2     1000035         2   # BR(~u_R -> chi^0_4 u)
     9.69999738E-01    2     1000021         2   # BR(~u_R -> ~g u)
DECAY   1000002     8.48268093E+02   # ~u_L
#    BR                NDA      ID1      ID2
     6.63407757E-03    2     1000022         2   # BR(~u_L -> chi^0_1 u)
     7.97681918E-04    2     1000023         2   # BR(~u_L -> chi^0_2 u)
     4.50508549E-02    2     1000025         2   # BR(~u_L -> chi^0_3 u)
     1.54859765E-03    2     1000035         2   # BR(~u_L -> chi^0_4 u)
     2.59634724E-02    2     1000024         1   # BR(~u_L -> chi^+_1 d)
     7.88593768E-02    2     1000037         1   # BR(~u_L -> chi^+_2 d)
     8.41145939E-01    2     1000021         2   # BR(~u_L -> ~g u)
DECAY   2000004     7.33634680E+02   # ~c_R
#    BR                NDA      ID1      ID2
     2.99436280E-02    2     1000035         4   # BR(~c_R -> chi^0_4 c)
     9.69990107E-01    2     1000021         4   # BR(~c_R -> ~g c)
DECAY   1000004     8.48318176E+02   # ~c_L
#    BR                NDA      ID1      ID2
     6.63527904E-03    2     1000022         4   # BR(~c_L -> chi^0_1 c)
     7.99855509E-04    2     1000023         4   # BR(~c_L -> chi^0_2 c)
     4.50487202E-02    2     1000025         4   # BR(~c_L -> chi^0_3 c)
     1.54851476E-03    2     1000035         4   # BR(~c_L -> chi^0_4 c)
     2.60119054E-02    2     1000024         3   # BR(~c_L -> chi^+_1 s)
     7.88586119E-02    2     1000037         3   # BR(~c_L -> chi^+_2 s)
     8.41097113E-01    2     1000021         4   # BR(~c_L -> ~g c)
DECAY   1000006     1.09413179E+02   # ~t_1
#    BR                NDA      ID1      ID2
     1.78041230E-01    2     1000022         6   # BR(~t_1 -> chi^0_1 t)
     2.44326291E-01    2     1000023         6   # BR(~t_1 -> chi^0_2 t)
     4.70366479E-02    2     1000025         6   # BR(~t_1 -> chi^0_3 t)
     3.52360447E-02    2     1000035         6   # BR(~t_1 -> chi^0_4 t)
     3.68777853E-01    2     1000024         5   # BR(~t_1 -> chi^+_1 b)
     1.04810627E-01    2     1000037         5   # BR(~t_1 -> chi^+_2 b)
     2.17427485E-02    2     1000021         6   # BR(~t_1 -> ~g t)
#    BR                NDA      ID1      ID2       ID3
DECAY   2000006     3.37350210E+02   # ~t_2
#    BR                NDA      ID1      ID2
     9.41386615E-02    2     1000022         6   # BR(~t_2 -> chi^0_1 t)
     1.25086753E-01    2     1000023         6   # BR(~t_2 -> chi^0_2 t)
     7.49723248E-02    2     1000025         6   # BR(~t_2 -> chi^0_3 t)
     1.88737298E-03    2     1000035         6   # BR(~t_2 -> chi^0_4 t)
     1.57257903E-01    2     1000024         5   # BR(~t_2 -> chi^+_1 b)
     9.41394677E-02    2     1000037         5   # BR(~t_2 -> chi^+_2 b)
     4.01689006E-01    2     1000021         6   # BR(~t_2 -> ~g t)
     2.17766502E-02    2     1000006        23   # BR(~t_2 -> ~t_1 Z)
     2.90518604E-02    2     1000006        25   # BR(~t_2 -> ~t_1 h^0)
DECAY   1000024     1.92142968E-08   # chi^+_1
#    BR                NDA      ID1      ID2       ID3
     3.65388273E-01    3     1000022        -1         2   # BR(chi^+_1 -> chi^0_1 d_bar u)
     3.05178268E-01    3     1000022        -3         4   # BR(chi^+_1 -> chi^0_1 s_bar c)
     1.21796118E-01    3     1000022       -11        12   # BR(chi^+_1 -> chi^0_1 e^+ nu_e)
     1.21639872E-01    3     1000022       -13        14   # BR(chi^+_1 -> chi^0_1 mu^+ nu_mu)
     8.59974691E-02    3     1000022       -15        16   # BR(chi^+_1 -> chi^0_1 tau^+ nu_tau)
DECAY   1000037     1.71594238E+00   # chi^+_2
#    BR                NDA      ID1      ID2
     2.55601393E-01    2     1000022        24   # BR(chi^+_2 -> chi^0_1 W^+)
     4.11719718E-01    2     1000023        24   # BR(chi^+_2 -> chi^0_2 W^+)
     2.23284508E-01    2     1000024        23   # BR(chi^+_2 -> chi^+_1 Z)
     1.09394355E-01    2     1000024        25   # BR(chi^+_2 -> chi^+_1 h^0)
#    BR                NDA      ID1      ID2       ID3
DECAY   1000022     0.00000000E+00   # chi^0_1
DECAY   1000023     1.34349870E-04   # chi^0_2
#    BR                NDA      ID1      ID2
     2.25052422E-02    2     1000022        22   # BR(chi^0_2 -> chi^0_1 photon)
#    BR                NDA      ID1      ID2       ID3
     6.53440510E-02    3     1000022         2        -2   # BR(chi^0_2 -> chi^0_1 u u_bar)
     6.39836431E-02    3     1000022         4        -4   # BR(chi^0_2 -> chi^0_1 c c_bar)
     8.37829970E-02    3     1000022         1        -1   # BR(chi^0_2 -> chi^0_1 d d_bar)
     8.37745210E-02    3     1000022         3        -3   # BR(chi^0_2 -> chi^0_1 s s_bar)
     6.89627675E-02    3     1000022         5        -5   # BR(chi^0_2 -> chi^0_1 b b_bar)
     1.89074675E-02    3     1000022        11       -11   # BR(chi^0_2 -> chi^0_1 e^- e^+)
     1.89044422E-02    3     1000022        13       -13   # BR(chi^0_2 -> chi^0_1 mu^- mu^+)
     1.80762339E-02    3     1000022        15       -15   # BR(chi^0_2 -> chi^0_1 tau^- tau^+)
     1.12043499E-01    3     1000022        12       -12   # BR(chi^0_2 -> chi^0_1 nu_e nu_bar_e)
     7.44581505E-02    3     1000024         1        -2   # BR(chi^0_2 -> chi^+_1 d u_bar)
     7.44581505E-02    3    -1000024        -1         2   # BR(chi^0_2 -> chi^-_1 d_bar u)
     7.35345277E-02    3     1000024         3        -4   # BR(chi^0_2 -> chi^+_1 s c_bar)
     7.35345277E-02    3    -1000024        -3         4   # BR(chi^0_2 -> chi^-_1 s_bar c)
     2.48194066E-02    3     1000024        11       -12   # BR(chi^0_2 -> chi^+_1 e^- nu_bar_e)
     2.48194066E-02    3    -1000024       -11        12   # BR(chi^0_2 -> chi^-_1 e^+ nu_e)
     2.48179421E-02    3     1000024        13       -14   # BR(chi^0_2 -> chi^+_1 mu^- nu_bar_mu)
     2.48179421E-02    3    -1000024       -13        14   # BR(chi^0_2 -> chi^-_1 mu^+ nu_mu)
     2.42275410E-02    3     1000024        15       -16   # BR(chi^0_2 -> chi^+_1 tau^- nu_bar_tau)
     2.42275410E-02    3    -1000024       -15        16   # BR(chi^0_2 -> chi^-_1 tau^+ nu_tau)
DECAY   1000025     1.98736622E+00   # chi^0_3
#    BR                NDA      ID1      ID2
     2.72432400E-01    2     1000024       -24   # BR(chi^0_3 -> chi^+_1 W^-)
     2.72432400E-01    2    -1000024        24   # BR(chi^0_3 -> chi^-_1 W^+)
     1.80042582E-02    2     1000022        23   # BR(chi^0_3 -> chi^0_1 Z)
     2.93919148E-01    2     1000023        23   # BR(chi^0_3 -> chi^0_2 Z)
     6.60206102E-02    2     1000022        25   # BR(chi^0_3 -> chi^0_1 h^0)
     7.71545939E-02    2     1000023        25   # BR(chi^0_3 -> chi^0_2 h^0)
#    BR                NDA      ID1      ID2       ID3
DECAY   1000035     3.22065914E+00   # chi^0_4
#    BR                NDA      ID1      ID2
     1.54882105E-01    2     1000024       -24   # BR(chi^0_4 -> chi^+_1 W^-)
     1.54882105E-01    2    -1000024        24   # BR(chi^0_4 -> chi^-_1 W^+)
     8.00772117E-02    2     1000037       -24   # BR(chi^0_4 -> chi^+_2 W^-)
     8.00772117E-02    2    -1000037        24   # BR(chi^0_4 -> chi^-_2 W^+)
     5.74347237E-02    2     1000022        23   # BR(chi^0_4 -> chi^0_1 Z)
     1.62069151E-01    2     1000023        23   # BR(chi^0_4 -> chi^0_2 Z)
     1.86311788E-02    2     1000025        23   # BR(chi^0_4 -> chi^0_3 Z)
     9.30427186E-02    2     1000022        25   # BR(chi^0_4 -> chi^0_1 h^0)
     1.32596113E-01    2     1000023        25   # BR(chi^0_4 -> chi^0_2 h^0)
     5.43071662E-02    2     1000025        25   # BR(chi^0_4 -> chi^0_3 h^0)
#    BR                NDA      ID1      ID2       ID3
     1.35060053E-03    3     1000022         6        -6   # BR(chi^0_4 -> chi^0_1 t t_bar)
     1.89312969E-03    3     1000023         6        -6   # BR(chi^0_4 -> chi^0_2 t t_bar)
     5.02536224E-04    3     1000025         6        -6   # BR(chi^0_4 -> chi^0_3 t t_bar)
     2.78912212E-03    3     1000024         5        -6   # BR(chi^0_4 -> chi^+_1 b t_bar)
     2.78912212E-03    3    -1000024        -5         6   # BR(chi^0_4 -> chi^-_1 b_bar t)
     1.33342177E-03    3     1000037         5        -6   # BR(chi^0_4 -> chi^+_2 b t_bar)
     1.33342177E-03    3    -1000037        -5         6   # BR(chi^0_4 -> chi^-_2 b_bar t)
DECAY   1000021     2.15661866E-01   # ~g
#    BR                NDA      ID1      ID2
     2.18091169E-03    2     1000022        21   # BR(~g -> chi^0_1 g)
     3.36995768E-03    2     1000023        21   # BR(~g -> chi^0_2 g)
     6.22688134E-04    2     1000025        21   # BR(~g -> chi^0_3 g)
#    BR                NDA      ID1      ID2       ID3
     1.51100911E-01    3     1000022         6        -6   # BR(~g -> chi^0_1 t t_bar)
     2.66451131E-02    3     1000022         5        -5   # BR(~g -> chi^0_1 b b_bar)
     2.12479915E-01    3     1000023         6        -6   # BR(~g -> chi^0_2 t t_bar)
     2.39784486E-02    3     1000023         5        -5   # BR(~g -> chi^0_2 b b_bar)
     1.08998332E-04    3     1000025         2        -2   # BR(~g -> chi^0_3 u u_bar)
     1.09000882E-04    3     1000025         4        -4   # BR(~g -> chi^0_3 c c_bar)
     5.47669909E-02    3     1000025         6        -6   # BR(~g -> chi^0_3 t t_bar)
     1.07362075E-04    3     1000025         1        -1   # BR(~g -> chi^0_3 d d_bar)
     1.07372357E-04    3     1000025         3        -3   # BR(~g -> chi^0_3 s s_bar)
     7.13792466E-03    3     1000025         5        -5   # BR(~g -> chi^0_3 b b_bar)
     1.45171105E-02    3     1000035         6        -6   # BR(~g -> chi^0_4 t t_bar)
     3.47163374E-04    3     1000035         5        -5   # BR(~g -> chi^0_4 b b_bar)
     1.82529393E-01    3     1000024         5        -6   # BR(~g -> chi^+_1 b t_bar)
     1.82529393E-01    3    -1000024        -5         6   # BR(~g -> chi^-_1 b_bar t)
     2.12750706E-04    3     1000037         1        -2   # BR(~g -> chi^+_2 d u_bar)
     2.12750706E-04    3    -1000037        -1         2   # BR(~g -> chi^-_2 d_bar u)
     2.12764657E-04    3     1000037         3        -4   # BR(~g -> chi^+_2 s c_bar)
     2.12764657E-04    3    -1000037        -3         4   # BR(~g -> chi^-_2 s_bar c)
     6.80799923E-02    3     1000037         5        -6   # BR(~g -> chi^+_2 b t_bar)
     6.80799923E-02    3    -1000037        -5         6   # BR(~g -> chi^-_2 b_bar t)
DECAY        25     3.45539823E-03   # Gamma(h0)
     2.57879593E-03   2        22        22   # BR(h0 -> photon photon)
     1.55878033E-03   2        22        23   # BR(h0 -> photon Z)
     2.76791324E-02   2        23        23   # BR(h0 -> Z Z)
     2.32852685E-01   2       -24        24   # BR(h0 -> W W)
     7.98598495E-02   2        21        21   # BR(h0 -> gluon gluon)
     5.04648829E-09   2       -11        11   # BR(h0 -> Electron electron)
     2.24476332E-04   2       -13        13   # BR(h0 -> Muon muon)
     6.47234732E-02   2       -15        15   # BR(h0 -> Tau tau)
     1.43784484E-07   2        -2         2   # BR(h0 -> Up up)
     2.79046373E-02   2        -4         4   # BR(h0 -> Charm charm)
     5.84883695E-07   2        -1         1   # BR(h0 -> Down down)
     2.11538584E-04   2        -3         3   # BR(h0 -> Strange strange)
     5.62405898E-01   2        -5         5   # BR(h0 -> Bottom bottom)
DECAY        35     1.73572887E+02   # Gamma(HH)
     5.43519897E-09   2        22        22   # BR(HH -> photon photon)
     2.82136458E-08   2        22        23   # BR(HH -> photon Z)
     5.12561994E-08   2        23        23   # BR(HH -> Z Z)
     9.24779966E-09   2       -24        24   # BR(HH -> W W)
     3.79141686E-06   2        21        21   # BR(HH -> gluon gluon)
     8.31560312E-09   2       -11        11   # BR(HH -> Electron electron)
     3.70305754E-04   2       -13        13   # BR(HH -> Muon muon)
     1.06955978E-01   2       -15        15   # BR(HH -> Tau tau)
     2.76054069E-14   2        -2         2   # BR(HH -> Up up)
     5.35562701E-09   2        -4         4   # BR(HH -> Charm charm)
     3.84891710E-04   2        -6         6   # BR(HH -> Top top)
     5.78773645E-07   2        -1         1   # BR(HH -> Down down)
     2.09349862E-04   2        -3         3   # BR(HH -> Strange strange)
     5.41332179E-01   2        -5         5   # BR(HH -> Bottom bottom)
     5.49076287E-02   2  -1000024   1000024   # BR(HH -> Chargino1 chargino1)
     7.48191311E-02   2  -1000024   1000037   # BR(HH -> Chargino1 chargino2)
     7.48191311E-02   2  -1000037   1000024   # BR(HH -> Chargino2 chargino1)
     1.08863417E-02   2  -1000037   1000037   # BR(HH -> Chargino2 chargino2)
     1.63697621E-02   2   1000022   1000022   # BR(HH -> neutralino1 neutralino1)
     2.99344700E-03   2   1000022   1000023   # BR(HH -> neutralino1 neutralino2)
     3.33563199E-02   2   1000022   1000025   # BR(HH -> neutralino1 neutralino3)
     1.32963027E-02   2   1000022   1000035   # BR(HH -> neutralino1 neutralino4)
     2.46354250E-03   2   1000023   1000023   # BR(HH -> neutralino2 neutralino2)
     4.62739201E-02   2   1000023   1000025   # BR(HH -> neutralino2 neutralino3)
     1.37542468E-02   2   1000023   1000035   # BR(HH -> neutralino2 neutralino4)
     5.80617148E-03   2   1000025   1000025   # BR(HH -> neutralino3 neutralino3)
     9.95395705E-04   2   1000025   1000035   # BR(HH -> neutralino3 neutralino4)
     1.24127475E-06   2   1000035   1000035   # BR(HH -> neutralino4 neutralino4)
     2.35660303E-07   2        25        25   # BR(HH -> h0 h0)
DECAY        36     1.62828256E+02   # Gamma(A0)
     4.23141136E-08   2        22        22   # BR(A0 -> photon photon)
     7.59596978E-08   2        22        23   # BR(A0 -> photon Z)
     6.67132209E-06   2        21        21   # BR(A0 -> gluon gluon)
     8.01705532E-09   2       -11        11   # BR(A0 -> Electron electron)
     3.57006401E-04   2       -13        13   # BR(A0 -> Muon muon)
     1.03114784E-01   2       -15        15   # BR(A0 -> Tau tau)
     2.48510985E-14   2        -2         2   # BR(A0 -> Up up)
     4.82119844E-09   2        -4         4   # BR(A0 -> Charm charm)
     3.47863404E-04   2        -6         6   # BR(A0 -> Top top)
     5.57945367E-07   2        -1         1   # BR(A0 -> Down down)
     2.01816083E-04   2        -3         3   # BR(A0 -> Strange strange)
     5.21861118E-01   2        -5         5   # BR(A0 -> Bottom bottom)
     6.10778654E-02   2  -1000024   1000024   # BR(A0 -> Chargino1 chargino1)
     7.72976685E-02   2  -1000024   1000037   # BR(A0 -> Chargino1 chargino2)
     7.72976685E-02   2  -1000037   1000024   # BR(A0 -> Chargino2 chargino1)
     1.41094426E-02   2  -1000037   1000037   # BR(A0 -> Chargino2 chargino2)
     1.87748292E-02   2   1000022   1000022   # BR(A0 -> neutralino1 neutralino1)
     2.60842299E-03   2   1000022   1000023   # BR(A0 -> neutralino1 neutralino2)
     3.79552702E-02   2   1000022   1000025   # BR(A0 -> neutralino1 neutralino3)
     1.55669729E-02   2   1000022   1000035   # BR(A0 -> neutralino1 neutralino4)
     2.41492796E-03   2   1000023   1000023   # BR(A0 -> neutralino2 neutralino2)
     4.52975559E-02   2   1000023   1000025   # BR(A0 -> neutralino2 neutralino3)
     1.30025872E-02   2   1000023   1000035   # BR(A0 -> neutralino2 neutralino4)
     7.35563588E-03   2   1000025   1000025   # BR(A0 -> neutralino3 neutralino3)
     1.34811270E-03   2   1000025   1000035   # BR(A0 -> neutralino3 neutralino4)
     2.95613337E-06   2   1000035   1000035   # BR(A0 -> neutralino4 neutralino4)
     1.36131548E-07   2        23        25   # BR(A0 -> Z h0)
     8.80180025E-13   2        23        35   # BR(A0 -> Z HH)
     8.92689227E-41   2        25        25   # BR(A0 -> h0 h0)
DECAY        37     1.91209798E+02   # Gamma(Hp)
     9.11562860E-09   2       -11        12   # BR(Hp -> Electron nu_e)
     3.89721594E-04   2       -13        14   # BR(Hp -> Muon nu_mu)
     1.10235472E-01   2       -15        16   # BR(Hp -> Tau nu_tau)
     5.52061515E-07   2        -1         2   # BR(Hp -> Down up)
     9.36295612E-06   2        -3         2   # BR(Hp -> Strange up)
     6.03919739E-06   2        -5         2   # BR(Hp -> Bottom up)
     2.61398967E-08   2        -1         4   # BR(Hp -> Down charm)
     1.98967336E-04   2        -3         4   # BR(Hp -> Strange charm)
     8.45703888E-04   2        -5         4   # BR(Hp -> Bottom charm)
     2.59897026E-08   2        -1         6   # BR(Hp -> Down top)
     8.63784777E-07   2        -3         6   # BR(Hp -> Strange top)
     5.70074010E-01   2        -5         6   # BR(Hp -> Bottom top)
     4.88953496E-04   2   1000022   1000024   # BR(Hp -> neutralino1 chargino1)
     1.10941108E-01   2   1000022   1000037   # BR(Hp -> neutralino1 chargino2)
     1.50317630E-02   2   1000023   1000024   # BR(Hp -> neutralino2 chargino1)
     7.64840615E-02   2   1000023   1000037   # BR(Hp -> neutralino2 chargino2)
     9.05535610E-02   2   1000024   1000025   # BR(Hp -> chargino1 neutralino3)
     1.60277555E-07   2   1000025   1000037   # BR(Hp -> neutralino3 chargino2)
     2.25830746E-02   2   1000024   1000035   # BR(Hp -> chargino1 neutralino4)
     2.15644775E-03   2   1000035   1000037   # BR(Hp -> neutralino4 chargino2)
     1.15778260E-07   2        24        25   # BR(Hp -> W h0)
DECAY         6     2.43000000E+00   # top
#    BR                NDA      ID1      ID2
     1.00000000E+00    2           5        24   # BR(t -> b W)
Block HiggsBoundsInputHiggsCouplingsFermions
# ScalarNormEffCoupSq PseudoSNormEffCoupSq NP IP1 IP2 IP2
    9.71403908E-01    0.00000000E+00        3  25   5   5  # h0-b-b eff. coupling^2, normalised to SM
    2.21808168E+03    0.00000000E+00        3  35   5   5  # H0-b-b eff. coupling^2, normalised to SM
    0.00000000E+00    2.21805308E+03        3  36   5   5  # A0-b-b eff. coupling^2, normalised to SM
#
    1.00001289E+00    0.00000000E+00        3  25   6   6  # h0-t-t eff. coupling^2, normalised to SM
    4.37953409E-04    0.00000000E+00        3  35   6   6  # H0-t-t eff. coupling^2, normalised to SM
    0.00000000E+00    4.50845838E-04        3  36   6   6  # A0-t-t eff. coupling^2, normalised to SM
#
    9.71403908E-01    0.00000000E+00        3  25  15  15  # h0-tau-tau eff. coupling^2, normalised to SM
    2.21808168E+03    0.00000000E+00        3  35  15  15  # H0-tau-tau eff. coupling^2, normalised to SM
    0.00000000E+00    2.21805308E+03        3  36  15  15  # A0-tau-tau eff. coupling^2, normalised to SM
#
Block HiggsBoundsInputHiggsCouplingsBosons
    9.99999906E-01        3  25  24  24  # h0-W-W eff. coupling^2, normalised to SM
    9.35095238E-08        3  35  24  24  # H0-W-W eff. coupling^2, normalised to SM
    0.00000000E+00        3  36  24  24  # A0-W-W eff. coupling^2, normalised to SM
#
    9.99999906E-01        3  25  23  23  # h0-Z-Z eff. coupling^2, normalised to SM
    9.35095238E-08        3  35  23  23  # H0-Z-Z eff. coupling^2, normalised to SM
    0.00000000E+00        3  36  23  23  # A0-Z-Z eff. coupling^2, normalised to SM
#
    1.26418275E+00        3  25  21  21  # h0-g-g eff. coupling^2, normalised to SM
    8.75679998E-03        3  35  21  21  # H0-g-g eff. coupling^2, normalised to SM
    1.26203503E-01        3  36  21  21  # A0-g-g eff. coupling^2, normalised to SM
#
    0.00000000E+00        3  25  25  23  # h0-h0-Z eff. coupling^2, normalised to SM
    0.00000000E+00        3  35  25  23  # H0-h0-Z eff. coupling^2, normalised to SM
    9.35095238E-08        3  36  25  23  # A0-h0-Z eff. coupling^2, normalised to SM
    0.00000000E+00        3  35  35  23  # H0-H0-Z eff. coupling^2, normalised to SM
    9.99999906E-01        3  36  35  23  # A0-H0-Z eff. coupling^2, normalised to SM
    0.00000000E+00        3  36  36  23  # A0-A0-Z eff. coupling^2, normalised to SM
#
    0.00000000E+00        4  25  21  21  23  # h0-g-g-Z eff. coupling^2, normalised to SM
    0.00000000E+00        4  35  21  21  23  # H0-g-g-Z eff. coupling^2, normalised to SM
    0.00000000E+00        4  36  21  21  23  # A0-g-g-Z eff. coupling^2, normalised to SM
Block SPhenoLowEnergy  # low energy observables
    1    3.05127318E-04   # BR(b -> s gamma)
    2    1.59124068E-06   # BR(b -> s mu+ mu-)
    3    3.52212811E-05   # BR(b -> s nu nu)
    4    3.04610830E-15   # BR(Bd -> e+ e-)
    5    1.30124908E-10   # BR(Bd -> mu+ mu-)
    6    2.71607415E-08   # BR(Bd -> tau+ tau-)
    7    1.02207606E-13   # BR(Bs -> e+ e-)
    8    4.36626079E-09   # BR(Bs -> mu+ mu-)
    9    9.23498775E-07   # BR(Bs -> tau+ tau-)
   10    9.62341671E-05   # BR(B_u -> tau nu)
   11    9.94062103E-01   # BR(B_u -> tau nu)/BR(B_u -> tau nu)_SM
   12    5.42469500E-01   # |Delta(M_Bd)| [ps^-1] 
   13    1.93787175E+01   # |Delta(M_Bs)| [ps^-1] 
   14    0.00000000E+00   # neutron EDM according to the chiral quark model
   15    0.00000000E+00   # neutron EDM according to the relativistic quark-parton model
   16    2.15936301E-03   # epsilon_K
   17    2.28167956E-15   # Delta(M_K)
   18    2.47772384E-11   # BR(K^0 -> pi^0 nu nu)
   19    8.28509673E-11   # BR(K^+ -> pi^+ nu nu)
   20    2.86440592E-16   # Delta(g-2)_electron/2
   21    1.22464501E-11   # Delta(g-2)_muon/2
   22    3.48053787E-09   # Delta(g-2)_tau/2
   23    0.00000000E+00   # electric dipole moment of the electron
   24    0.00000000E+00   # electric dipole moment of the muon
   25    0.00000000E+00   # electric dipole moment of the tau
   26    0.00000000E+00   # Br(mu -> e gamma)
   27    0.00000000E+00   # Br(tau -> e gamma)
   28    0.00000000E+00   # Br(tau -> mu gamma)
   29    0.00000000E+00   # Br(mu -> 3 e)
   30    0.00000000E+00   # Br(tau -> 3 e)
   31    0.00000000E+00   # Br(tau -> 3 mu)
   39    7.35243101E-05   # Delta(rho_parameter)
   40    0.00000000E+00   # BR(Z -> e mu)
   41    0.00000000E+00   # BR(Z -> e tau)
   42    0.00000000E+00   # BR(Z -> mu tau)
Block FWCOEF Q=  1.60000000E+02  # Wilson coefficients at scale Q
#    id        order  M        value         comment
     0305 4422   00   0    -1.88819110E-01   # C7
     0305 4422   00   2    -1.69519273E-01   # C7
     0305 4322   00   2     5.71977041E-05   # C7'
     0305 6421   00   0    -9.52278348E-02   # C8
     0305 6421   00   2    -8.97849676E-02   # C8
     0305 6321   00   2    -5.56980267E-05   # C8'
 03051111 4133   00   0     1.61974095E+00   # C9 e+e-
 03051111 4133   00   2     1.62018427E+00   # C9 e+e-
 03051111 4233   00   2     4.64253320E-04   # C9' e+e-
 03051111 4137   00   0    -4.44243306E+00   # C10 e+e-
 03051111 4137   00   2    -4.43780668E+00   # C10 e+e-
 03051111 4237   00   2    -3.46921726E-03   # C10' e+e-
 03051313 4133   00   0     1.61974095E+00   # C9 mu+mu-
 03051313 4133   00   2     1.62018400E+00   # C9 mu+mu-
 03051313 4233   00   2     4.64252991E-04   # C9' mu+mu-
 03051313 4137   00   0    -4.44243306E+00   # C10 mu+mu-
 03051313 4137   00   2    -4.43780695E+00   # C10 mu+mu-
 03051313 4237   00   2    -3.46921774E-03   # C10' mu+mu-
 03051212 4137   00   0     1.50535012E+00   # C11 nu_1 nu_1
 03051212 4137   00   2     1.50434969E+00   # C11 nu_1 nu_1
 03051212 4237   00   2     7.51348139E-04   # C11' nu_1 nu_1
 03051414 4137   00   0     1.50535012E+00   # C11 nu_2 nu_2
 03051414 4137   00   2     1.50434969E+00   # C11 nu_2 nu_2
 03051414 4237   00   2     7.51348166E-04   # C11' nu_2 nu_2
 03051616 4137   00   0     1.50535012E+00   # C11 nu_3 nu_3
 03051616 4137   00   2     1.50434970E+00   # C11 nu_3 nu_3
 03051616 4237   00   2     7.51355833E-04   # C11' nu_3 nu_3
Block IMFWCOEF Q=  1.60000000E+02  # Im(Wilson coefficients) at scale Q
#    id        order  M        value         comment
     0305 4422   00   0     3.85823770E-07   # C7
     0305 4422   00   2     1.14260860E-05   # C7
     0305 4322   00   2     2.16919048E-06   # C7'
     0305 6421   00   0     3.30483575E-07   # C8
     0305 6421   00   2    -1.35250978E-05   # C8
     0305 6321   00   2     5.30606747E-07   # C8'
 03051111 4133   00   2     8.12225630E-07   # C9 e+e-
 03051111 4233   00   2     8.79635975E-06   # C9' e+e-
 03051111 4137   00   2     1.12953206E-06   # C10 e+e-
 03051111 4237   00   2    -6.57356218E-05   # C10' e+e-
 03051313 4133   00   2     8.12220365E-07   # C9 mu+mu-
 03051313 4233   00   2     8.79635616E-06   # C9' mu+mu-
 03051313 4137   00   2     1.12953734E-06   # C10 mu+mu-
 03051313 4237   00   2    -6.57356326E-05   # C10' mu+mu-
 03051212 4137   00   2    -2.17251490E-07   # C11 nu_1 nu_1
 03051212 4237   00   2     1.42367385E-05   # C11' nu_1 nu_1
 03051414 4137   00   2    -2.17251229E-07   # C11 nu_2 nu_2
 03051414 4237   00   2     1.42367385E-05   # C11' nu_2 nu_2
 03051616 4137   00   2    -2.17178652E-07   # C11 nu_3 nu_3
 03051616 4237   00   2     1.42367385E-05   # C11' nu_3 nu_3
