# SUSY Les Houches Accord 2 - MSSM spectrum + Decays
# SPheno v4.0.5be
# W. Porod, Comput. Phys. Commun. 153 (2003) 275-315, hep-ph/0301101;
# W. Porod, F.~Staub, Comput. Phys. Commun. 183 (2012) 2458
#                     arXiv:1104.1573 [hep-ph] 
# in case of problems send email to porod@physik.uni-wuerzburg.de
# Created: 15.05.2022,  11:27
Block SPINFO         # Program information
     1   SPheno      # spectrum calculator
     2   v4.0.5be    # version number
#
Block SPhenoINFO     # SPheno specific information
    1      2         # using 2-loop RGEs
    2      2         # using pole masses for boundary conditions at mZ
Block MODSEL  # Model selection
    1    0    # general MSSM
Block MINPAR  # Input parameters
    3    4.47697037E+01  # tanb at m_Z    
    4    1.00000000E+00  # Sign(mu)
Block EXTPAR  # non-universal input parameters
    0    2.88269985E+03  # scale for input parameters
    1    1.32828319E+02  # M_1
    2    7.09188424E+02  # M_2
    3    2.93852767E+03  # M_3
   11    7.60476876E+03  # A_t
   12    2.88622559E+02  # A_b
   13    7.65993587E+02  # A_tau
   23    5.75663974E+02  # mu
   25    4.35732780E+01  # tan(beta)
   26    4.67793839E+03  # m_A, pole mass
   31    9.39687768E+02  # M_L11
   32    9.39687768E+02  # M_L22
   33    5.95184388E+02  # M_L33
   34    1.05845814E+02  # M_E11
   35    1.05845814E+02  # M_E22
   36    1.86415362E+03  # M_E33
   41    1.00000000E+04  # M_Q11
   42    1.00000000E+04  # M_Q22
   43    2.96258061E+03  # M_Q33
   44    1.00000000E+04  # M_U11
   45    1.00000000E+04  # M_U22
   46    2.93136396E+03  # M_U33
   47    1.00000000E+04  # M_D11
   48    1.00000000E+04  # M_D22
   49    4.28456545E+03  # M_D33
Block SMINPUTS  # SM parameters
         1     1.27908970E+02  # alpha_em^-1(MZ)^MSbar
         2     1.16637870E-05  # G_mu [GeV^-2]
         3     1.18400000E-01  # alpha_s(MZ)^MSbar
         4     9.11876000E+01  # m_Z(pole)
         5     4.18000000E+00  # m_b(m_b), MSbar
         6     1.73200000E+02  # m_t(pole)
         7     1.77700000E+00  # m_tau(pole)
         8     0.00000000E+00  # m_nu_3
        11     5.10998930E-04  # m_e(pole)
        12     0.00000000E+00  # m_nu_1
        13     1.05658372E-01  # m_muon(pole)
        14     0.00000000E+00  # m_nu_2
        21     5.00000000E-03  # m_d(2 GeV), MSbar
        22     2.50000000E-03  # m_u(2 GeV), MSbar
        23     9.50000000E-02  # m_s(2 GeV), MSbar
        24     1.27000000E+00  # m_c(m_c), MSbar
Block gauge Q=  2.88269985E+03  # (SUSY scale)
   1    3.55362975E-01  # g'(Q)^DRbar
   2    6.65198874E-01  # g(Q)^DRbar
   3    1.21977796E+00  # g3(Q)^DRbar
Block Yu Q=  2.88269985E+03  # (SUSY scale)
  1  1     8.38657985E-06   # Y_u(Q)^DRbar
  2  2     4.26038256E-03   # Y_c(Q)^DRbar
  3  3     1.01316621E+00   # Y_t(Q)^DRbar
Block Yd Q=  2.88269985E+03  # (SUSY scale)
  1  1     7.34320017E-04   # Y_d(Q)^DRbar
  2  2     1.39520803E-02   # Y_s(Q)^DRbar
  3  3     7.28215354E-01   # Y_b(Q)^DRbar
Block Ye Q=  2.88269985E+03  # (SUSY scale)
  1  1     1.28144213E-04   # Y_e(Q)^DRbar
  2  2     2.64961590E-02   # Y_mu(Q)^DRbar
  3  3     4.45621806E-01   # Y_tau(Q)^DRbar
Block Au Q=  2.88269985E+03  # (SUSY scale)
  1  1     0.00000000E+00   # A_u(Q)^DRbar
  2  2     0.00000000E+00   # A_c(Q)^DRbar
  3  3     7.60477022E+03   # A_t(Q)^DRbar
Block Ad Q=  2.88269985E+03  # (SUSY scale)
  1  1     0.00000000E+00   # A_d(Q)^DRbar
  2  2     0.00000000E+00   # A_s(Q)^DRbar
  3  3     2.88622423E+02   # A_b(Q)^DRbar
Block Ae Q=  2.88269985E+03  # (SUSY scale)
  1  1     0.00000000E+00   # A_e(Q)^DRbar
  2  2     0.00000000E+00   # A_mu(Q)^DRbar
  3  3     7.65993566E+02   # A_tau(Q)^DRbar
Block MSOFT Q=  2.88269985E+03  # soft SUSY breaking masses at Q
   1    1.32828319E+02  # M_1
   2    7.09188424E+02  # M_2
   3    2.93852767E+03  # M_3
  21    2.16896973E+07  # M^2_(H,d)
  22   -1.54641537E+05  # M^2_(H,u)
  31    9.39687768E+02  # M_(L,11)
  32    9.39687768E+02  # M_(L,22)
  33    5.95184388E+02  # M_(L,33)
  34    1.05845814E+02  # M_(E,11)
  35    1.05845814E+02  # M_(E,22)
  36    1.86415362E+03  # M_(E,33)
  41    1.00000000E+04  # M_(Q,11)
  42    1.00000000E+04  # M_(Q,22)
  43    2.96258061E+03  # M_(Q,33)
  44    1.00000000E+04  # M_(U,11)
  45    1.00000000E+04  # M_(U,22)
  46    2.93136396E+03  # M_(U,33)
  47    1.00000000E+04  # M_(D,11)
  48    1.00000000E+04  # M_(D,22)
  49    4.28456545E+03  # M_(D,33)
Block MASS  # Mass spectrum
#   PDG code      mass          particle
         6     1.73200000E+02  # m_t(pole)
        23     9.11876000E+01  # m_Z(pole)
        24     8.04299946E+01  # W+
        15     1.77700000E+00  # m_tau(pole)
        25     1.28711044E+02  # h0
        35     4.67668511E+03  # H0
        36     4.67793839E+03  # A0
        37     4.67687596E+03  # H+
   1000001     1.01027758E+04  # ~d_L
   2000001     1.00780431E+04  # ~d_R
   1000002     1.01024247E+04  # ~u_L
   2000002     1.00812838E+04  # ~u_R
   1000003     1.01027850E+04  # ~s_L
   2000003     1.00780592E+04  # ~s_R
   1000004     1.01024337E+04  # ~c_L
   2000004     1.00812854E+04  # ~c_R
   1000005     2.95350882E+03  # ~b_1
   2000005     4.34014083E+03  # ~b_2
   1000006     2.71121210E+03  # ~t_1
   2000006     3.06503443E+03  # ~t_2
   1000011     9.48738613E+02  # ~e_L-
   2000011     1.36932253E+02  # ~e_R-
   1000012     9.45104763E+02  # ~nu_eL
   1000013     9.48730390E+02  # ~mu_L-
   2000013     1.36782947E+02  # ~mu_R-
   1000014     9.45083586E+02  # ~nu_muL
   1000015     5.99253197E+02  # ~tau_1-
   2000015     1.85820124E+03  # ~tau_2-
   1000016     5.93953891E+02  # ~nu_tauL
   1000021     3.36866733E+03  # ~g
   1000022     1.29804890E+02  # ~chi_10
   1000023     5.67555849E+02  # ~chi_20
   1000025     5.85583661E+02  # ~chi_30
   1000035     7.72428326E+02  # ~chi_40
   1000024     5.67247369E+02  # ~chi_1+
   1000037     7.72514651E+02  # ~chi_2+
# Higgs mixing
Block alpha # Effective Higgs mixing angle
          -2.23567097E-02   # alpha
Block Hmix Q=  2.88269985E+03  # Higgs mixing parameters
   1    5.75663974E+02  # mu
   2    4.35732780E+01  # tan[beta](Q)
   3    2.43227831E+02  # v(Q)
   4    2.18831076E+07  # m^2_A(Q)
Block stopmix # stop mixing matrix
   1  1    -5.85564203E-01   # Re[R_st(1,1)]
   1  2     8.10626033E-01   # Re[R_st(1,2)]
   2  1    -8.10626033E-01   # Re[R_st(2,1)]
   2  2    -5.85564203E-01   # Re[R_st(2,2)]
Block sbotmix # sbottom mixing matrix
   1  1     9.99989842E-01   # Re[R_sb(1,1)]
   1  2     4.50736776E-03   # Re[R_sb(1,2)]
   2  1    -4.50736776E-03   # Re[R_sb(2,1)]
   2  2     9.99989842E-01   # Re[R_sb(2,2)]
Block staumix # stau mixing matrix
   1  1     9.99895706E-01   # Re[R_sta(1,1)]
   1  2     1.44421944E-02   # Re[R_sta(1,2)]
   2  1    -1.44421944E-02   # Re[R_sta(2,1)]
   2  2     9.99895706E-01   # Re[R_sta(2,2)]
Block Nmix # neutralino mixing matrix
   1  1     9.96563376E-01   # Re[N(1,1)]
   1  2    -2.59690102E-03   # Re[N(1,2)]
   1  3     8.04214575E-02   # Re[N(1,3)]
   1  4    -1.96744327E-02   # Re[N(1,4)]
   2  1    -6.89479935E-02   # Re[N(2,1)]
   2  2    -2.96334707E-01   # Re[N(2,2)]
   2  3     6.82154960E-01   # Re[N(2,3)]
   2  4    -6.64903396E-01   # Re[N(2,4)]
   3  1     4.27071532E-02   # Re[N(3,1)]
   3  2    -4.14864920E-02   # Re[N(3,2)]
   3  3    -7.03750032E-01   # Re[N(3,3)]
   3  4    -7.07948347E-01   # Re[N(3,4)]
   4  1     1.68437309E-02   # Re[N(4,1)]
   4  2    -9.54179160E-01   # Re[N(4,2)]
   4  3    -1.81474218E-01   # Re[N(4,3)]
   4  4     2.37329999E-01   # Re[N(4,4)]
Block Umix # chargino mixing matrix
   1  1    -2.56065898E-01   # Re[U(1,1)]
   1  2     9.66659328E-01   # Re[U(1,2)]
   2  1     9.66659328E-01   # Re[U(2,1)]
   2  2     2.56065898E-01   # Re[U(2,2)]
Block Vmix # chargino mixing matrix
   1  1    -3.35215481E-01   # Re[V(1,1)]
   1  2     9.42141487E-01   # Re[V(1,2)]
   2  1     9.42141487E-01   # Re[V(2,1)]
   2  2     3.35215481E-01   # Re[V(2,2)]
DECAY        23     2.49520000E+00   # Z
DECAY        24     2.08500000E+00   # W
DECAY   2000011     7.02460362E-03   # ~e^-_R
#    BR                NDA      ID1      ID2
     1.00000000E+00    2     1000022        11   # BR(~e^-_R -> chi^0_1 e^-)
#    BR                NDA      ID1      ID2       ID3
DECAY   1000011     2.85664873E+00   # ~e^-_L
#    BR                NDA      ID1      ID2
     3.95078502E-01    2     1000022        11   # BR(~e^-_L -> chi^0_1 e^-)
     6.69063418E-02    2     1000023        11   # BR(~e^-_L -> chi^0_2 e^-)
     1.95310481E-04    2     1000025        11   # BR(~e^-_L -> chi^0_3 e^-)
     1.48435491E-01    2     1000035        11   # BR(~e^-_L -> chi^0_4 e^-)
     7.91406468E-02    2    -1000024        12   # BR(~e^-_L -> chi^-_1 nu_e)
     3.10243688E-01    2    -1000037        12   # BR(~e^-_L -> chi^-_2 nu_e)
#    BR                NDA      ID1      ID2       ID3
DECAY   2000013     6.74635352E-03   # ~mu^-_R
#    BR                NDA      ID1      ID2
     1.00000000E+00    2     1000022        13   # BR(~mu^-_R -> chi^0_1 mu^-)
DECAY   1000013     2.86405225E+00   # ~mu^-_L
#    BR                NDA      ID1      ID2
     3.94082567E-01    2     1000022        13   # BR(~mu^-_L -> chi^0_1 mu^-)
     6.76159965E-02    2     1000023        13   # BR(~mu^-_L -> chi^0_2 mu^-)
     1.07300681E-03    2     1000025        13   # BR(~mu^-_L -> chi^0_3 mu^-)
     1.48059420E-01    2     1000035        13   # BR(~mu^-_L -> chi^0_4 mu^-)
     7.89338630E-02    2    -1000024        14   # BR(~mu^-_L -> chi^-_1 nu_mu)
     3.09417925E-01    2    -1000037        14   # BR(~mu^-_L -> chi^-_2 nu_mu)
     8.17221337E-04    2     2000013        25   # BR(~mu^-_L -> ~mu^-_R h^0)
#    BR                NDA      ID1      ID2       ID3
DECAY   1000015     7.10540879E-01   # ~tau^-_1
#    BR                NDA      ID1      ID2
     9.70991299E-01    2     1000022        15   # BR(~tau^-_1 -> chi^0_1 tau^-)
     2.00240905E-02    2     1000023        15   # BR(~tau^-_1 -> chi^0_2 tau^-)
     3.33243005E-03    2     1000025        15   # BR(~tau^-_1 -> chi^0_3 tau^-)
     5.65217060E-03    2    -1000024        16   # BR(~tau^-_1 -> chi^-_1 nu_tau)
#    BR                NDA      ID1      ID2       ID3
DECAY   2000015     2.24316089E+01   # ~tau^-_2
#    BR                NDA      ID1      ID2
     4.10950124E-01    2     1000022        15   # BR(~tau^-_2 -> chi^0_1 tau^-)
     1.25400140E-01    2     1000023        15   # BR(~tau^-_2 -> chi^0_2 tau^-)
     1.32483354E-01    2     1000025        15   # BR(~tau^-_2 -> chi^0_3 tau^-)
     8.69714934E-03    2     1000035        15   # BR(~tau^-_2 -> chi^0_4 tau^-)
     2.48548520E-01    2    -1000024        16   # BR(~tau^-_2 -> chi^-_1 nu_tau)
     1.71656767E-02    2    -1000037        16   # BR(~tau^-_2 -> chi^-_2 nu_tau)
     2.91535597E-02    2     1000016       -24   # BR(~tau^-_2 -> ~nu_tau W^-)
     1.44520610E-02    2     1000015        23   # BR(~tau^-_2 -> ~tau^-_1 Z)
     1.31494147E-02    2     1000015        25   # BR(~tau^-_2 -> ~tau^-_1 h^0)
DECAY   1000012     2.88865716E+00   # ~nu_e
#    BR                NDA      ID1      ID2
     3.96756205E-01    2     1000022        12   # BR(~nu_e -> chi^0_1 nu_e)
     3.96438396E-02    2     1000023        12   # BR(~nu_e -> chi^0_2 nu_e)
     2.26012446E-03    2     1000025        12   # BR(~nu_e -> chi^0_3 nu_e)
     1.47284241E-01    2     1000035        12   # BR(~nu_e -> chi^0_4 nu_e)
     1.32466866E-01    2     1000024        11   # BR(~nu_e -> chi^+_1 e^-)
     2.81588723E-01    2     1000037        11   # BR(~nu_e -> chi^+_2 e^-)
DECAY   1000014     2.89347593E+00   # ~nu_mu
#    BR                NDA      ID1      ID2
     3.96085894E-01    2     1000022        14   # BR(~nu_mu -> chi^0_1 nu_mu)
     3.95749296E-02    2     1000023        14   # BR(~nu_mu -> chi^0_2 nu_mu)
     2.25618390E-03    2     1000025        14   # BR(~nu_mu -> chi^0_3 nu_mu)
     1.47009149E-01    2     1000035        14   # BR(~nu_mu -> chi^0_4 nu_mu)
     1.33974868E-01    2     1000024        13   # BR(~nu_mu -> chi^+_1 mu^-)
     2.81098976E-01    2     1000037        13   # BR(~nu_mu -> chi^+_2 mu^-)
DECAY   1000016     7.00095891E-01   # ~nu_tau
#    BR                NDA      ID1      ID2
     9.69098044E-01    2     1000022        16   # BR(~nu_tau -> chi^0_1 nu_tau)
     1.89957103E-03    2     1000023        16   # BR(~nu_tau -> chi^0_2 nu_tau)
     2.89902926E-02    2     1000024        15   # BR(~nu_tau -> chi^+_1 tau^-)
DECAY   2000001     6.33289940E+02   # ~d_R
#    BR                NDA      ID1      ID2
     8.82066649E-03    2     1000022         1   # BR(~d_R -> chi^0_1 d)
     9.91118441E-01    2     1000021         1   # BR(~d_R -> ~g d)
DECAY   1000001     7.63288621E+02   # ~d_L
#    BR                NDA      ID1      ID2
     1.88816113E-03    2     1000022         1   # BR(~d_L -> chi^0_1 d)
     4.67117628E-03    2     1000023         1   # BR(~d_L -> chi^0_2 d)
     1.39528274E-04    2     1000025         1   # BR(~d_L -> chi^0_3 d)
     5.27531844E-02    2     1000035         1   # BR(~d_L -> chi^0_4 d)
     7.59182113E-03    2    -1000024         2   # BR(~d_L -> chi^-_1 u)
     1.07606484E-01    2    -1000037         2   # BR(~d_L -> chi^-_2 u)
     8.25349644E-01    2     1000021         1   # BR(~d_L -> ~g d)
DECAY   2000003     6.33368778E+02   # ~s_R
#    BR                NDA      ID1      ID2
     8.81997988E-03    2     1000022         3   # BR(~s_R -> chi^0_1 s)
     9.90997452E-01    2     1000021         3   # BR(~s_R -> ~g s)
DECAY   1000003     7.63331986E+02   # ~s_L
#    BR                NDA      ID1      ID2
     1.88838603E-03    2     1000022         3   # BR(~s_L -> chi^0_1 s)
     4.69454831E-03    2     1000023         3   # BR(~s_L -> chi^0_2 s)
     1.64665391E-04    2     1000025         3   # BR(~s_L -> chi^0_3 s)
     5.27519023E-02    2     1000035         3   # BR(~s_L -> chi^0_4 s)
     7.59560636E-03    2    -1000024         4   # BR(~s_L -> chi^-_1 c)
     1.07601008E-01    2    -1000037         4   # BR(~s_L -> chi^-_2 c)
     8.25303883E-01    2     1000021         3   # BR(~s_L -> ~g s)
DECAY   1000005     1.38118210E+02   # ~b_1
#    BR                NDA      ID1      ID2
     4.54911491E-03    2     1000022         5   # BR(~b_1 -> chi^0_1 b)
     1.04597244E-01    2     1000023         5   # BR(~b_1 -> chi^0_2 b)
     1.03278522E-01    2     1000025         5   # BR(~b_1 -> chi^0_3 b)
     8.11235766E-02    2     1000035         5   # BR(~b_1 -> chi^0_4 b)
     3.65626308E-01    2    -1000024         6   # BR(~b_1 -> chi^-_1 t)
     1.98581056E-01    2    -1000037         6   # BR(~b_1 -> chi^-_2 t)
     1.42244178E-01    2     1000006       -24   # BR(~b_1 -> ~t_1 W^-)
DECAY   2000005     1.45204565E+02   # ~b_2
#    BR                NDA      ID1      ID2
     1.84991404E-02    2     1000022         5   # BR(~b_2 -> chi^0_1 b)
     1.41525916E-01    2     1000023         5   # BR(~b_2 -> chi^0_2 b)
     1.50650886E-01    2     1000025         5   # BR(~b_2 -> chi^0_3 b)
     1.00452969E-02    2     1000035         5   # BR(~b_2 -> chi^0_4 b)
     2.83162464E-01    2    -1000024         6   # BR(~b_2 -> chi^-_1 t)
     1.99321408E-02    2    -1000037         6   # BR(~b_2 -> chi^-_2 t)
     3.72893179E-01    2     1000021         5   # BR(~b_2 -> ~g b)
     6.02724812E-04    2     1000006       -24   # BR(~b_2 -> ~t_1 W^-)
     6.40226728E-04    2     2000006       -24   # BR(~b_2 -> ~t_2 W^-)
     5.98240327E-04    2     1000005        23   # BR(~b_2 -> ~b_1 Z)
     1.44978490E-03    2     1000005        25   # BR(~b_2 -> ~b_1 h^0)
DECAY   2000002     6.50473495E+02   # ~u_R
#    BR                NDA      ID1      ID2
     3.43616528E-02    2     1000022         2   # BR(~u_R -> chi^0_1 u)
     1.63491121E-04    2     1000023         2   # BR(~u_R -> chi^0_2 u)
     9.65402451E-01    2     1000021         2   # BR(~u_R -> ~g u)
DECAY   1000002     7.63275624E+02   # ~u_L
#    BR                NDA      ID1      ID2
     1.78077135E-03    2     1000022         2   # BR(~u_L -> chi^0_1 u)
     5.51351663E-03    2     1000023         2   # BR(~u_L -> chi^0_2 u)
     5.20930545E-02    2     1000035         2   # BR(~u_L -> chi^0_4 u)
     1.30102943E-02    2     1000024         1   # BR(~u_L -> chi^+_1 d)
     1.02215273E-01    2     1000037         1   # BR(~u_L -> chi^+_2 d)
     8.25320663E-01    2     1000021         2   # BR(~u_L -> ~g u)
DECAY   2000004     6.50480847E+02   # ~c_R
#    BR                NDA      ID1      ID2
     3.43612707E-02    2     1000022         4   # BR(~c_R -> chi^0_1 c)
     1.65948407E-04    2     1000023         4   # BR(~c_R -> chi^0_2 c)
     9.65391722E-01    2     1000021         4   # BR(~c_R -> ~g c)
DECAY   1000004     7.63318934E+02   # ~c_L
#    BR                NDA      ID1      ID2
     1.78067369E-03    2     1000022         4   # BR(~c_L -> chi^0_1 c)
     5.51530468E-03    2     1000023         4   # BR(~c_L -> chi^0_2 c)
     5.20904153E-02    2     1000035         4   # BR(~c_L -> chi^0_4 c)
     1.30570238E-02    2     1000024         3   # BR(~c_L -> chi^+_1 s)
     1.02212883E-01    2     1000037         3   # BR(~c_L -> chi^+_2 s)
     8.25274897E-01    2     1000021         4   # BR(~c_L -> ~g c)
DECAY   1000006     1.06678533E+02   # ~t_1
#    BR                NDA      ID1      ID2
     5.02056986E-04    2     1000022         4   # BR(~t_1 -> chi^0_1 c)
     3.54439869E-02    2     1000022         6   # BR(~t_1 -> chi^0_1 t)
     1.43630558E-03    2     1000023         4   # BR(~t_1 -> chi^0_2 c)
     1.80527290E-01    2     1000023         6   # BR(~t_1 -> chi^0_2 t)
     2.31212027E-01    2     1000025         6   # BR(~t_1 -> chi^0_3 t)
     9.94212693E-02    2     1000035         6   # BR(~t_1 -> chi^0_4 t)
     2.69987710E-01    2     1000024         5   # BR(~t_1 -> chi^+_1 b)
     1.81237637E-01    2     1000037         5   # BR(~t_1 -> chi^+_2 b)
#    BR                NDA      ID1      ID2       ID3
     2.31716392E-04    3     1000022        24         5   # BR(~t_1 -> chi^0_1 W^+ b)
DECAY   2000006     1.49071531E+02   # ~t_2
#    BR                NDA      ID1      ID2
     1.94149534E-02    2     1000022         6   # BR(~t_2 -> chi^0_1 t)
     2.02326266E-01    2     1000023         6   # BR(~t_2 -> chi^0_2 t)
     1.97539233E-01    2     1000025         6   # BR(~t_2 -> chi^0_3 t)
     3.15318509E-02    2     1000035         6   # BR(~t_2 -> chi^0_4 t)
     3.32794326E-01    2     1000024         5   # BR(~t_2 -> chi^+_1 b)
     4.25074496E-02    2     1000037         5   # BR(~t_2 -> chi^+_2 b)
     1.04690267E-02    2     1000005        24   # BR(~t_2 -> ~b_1 W^+)
     1.37462428E-01    2     1000006        23   # BR(~t_2 -> ~t_1 Z)
     2.59544661E-02    2     1000006        25   # BR(~t_2 -> ~t_1 h^0)
DECAY   1000024     3.47367728E-01   # chi^+_1
#    BR                NDA      ID1      ID2
     9.45285923E-03    2    -2000013        14   # BR(chi^+_1 -> ~mu^+_R nu_mu)
     9.85472808E-01    2     1000022        24   # BR(chi^+_1 -> chi^0_1 W^+)
#    BR                NDA      ID1      ID2       ID3
     4.65820178E-03    3     1000022        -5         6   # BR(chi^+_1 -> chi^0_1 b_bar t)
     4.02050425E-04    3     1000022       -15        16   # BR(chi^+_1 -> chi^0_1 tau^+ nu_tau)
DECAY   1000037     4.94135765E+00   # chi^+_2
#    BR                NDA      ID1      ID2
     1.01444609E-01    2    -1000015        16   # BR(chi^+_2 -> ~tau^+_1 nu_tau)
     1.05065988E-01    2     1000016       -15   # BR(chi^+_2 -> ~nu_tau tau^+)
     8.70767057E-03    2     1000022        24   # BR(chi^+_2 -> chi^0_1 W^+)
     2.02301230E-01    2     1000023        24   # BR(chi^+_2 -> chi^0_2 W^+)
     2.66585812E-01    2     1000025        24   # BR(chi^+_2 -> chi^0_3 W^+)
     1.82935244E-01    2     1000024        23   # BR(chi^+_2 -> chi^+_1 Z)
     1.32711639E-01    2     1000024        25   # BR(chi^+_2 -> chi^+_1 h^0)
#    BR                NDA      ID1      ID2       ID3
DECAY   1000022     0.00000000E+00   # chi^0_1
DECAY   1000023     3.44458599E-01   # chi^0_2
#    BR                NDA      ID1      ID2
     1.74542283E-02    2     2000011       -11   # BR(chi^0_2 -> ~e^-_R e^+)
     1.74542283E-02    2    -2000011        11   # BR(chi^0_2 -> ~e^+_R e^-)
     2.22020098E-02    2     2000013       -13   # BR(chi^0_2 -> ~mu^-_R mu^+)
     2.22020098E-02    2    -2000013        13   # BR(chi^0_2 -> ~mu^+_R mu^-)
     2.77846713E-01    2     1000022        23   # BR(chi^0_2 -> chi^0_1 Z)
     6.42208315E-01    2     1000022        25   # BR(chi^0_2 -> chi^0_1 h^0)
#    BR                NDA      ID1      ID2       ID3
     2.26929191E-04    3     1000022         6        -6   # BR(chi^0_2 -> chi^0_1 t t_bar)
     3.40984743E-04    3     1000022        15       -15   # BR(chi^0_2 -> chi^0_1 tau^- tau^+)
DECAY   1000025     5.45751604E-01   # chi^0_3
#    BR                NDA      ID1      ID2
     4.39374085E-03    2     2000011       -11   # BR(chi^0_3 -> ~e^-_R e^+)
     4.39374085E-03    2    -2000011        11   # BR(chi^0_3 -> ~e^+_R e^-)
     7.70899330E-03    2     2000013       -13   # BR(chi^0_3 -> ~mu^-_R mu^+)
     7.70899330E-03    2    -2000013        13   # BR(chi^0_3 -> ~mu^+_R mu^-)
     5.52656100E-01    2     1000022        23   # BR(chi^0_3 -> chi^0_1 Z)
     4.22551777E-01    2     1000022        25   # BR(chi^0_3 -> chi^0_1 h^0)
#    BR                NDA      ID1      ID2       ID3
     2.73146493E-04    3     1000022         6        -6   # BR(chi^0_3 -> chi^0_1 t t_bar)
     2.43009805E-04    3     1000022        15       -15   # BR(chi^0_3 -> chi^0_1 tau^- tau^+)
DECAY   1000035     5.71736231E+00   # chi^0_4
#    BR                NDA      ID1      ID2
     1.19476633E-04    2     2000013       -13   # BR(chi^0_4 -> ~mu^-_R mu^+)
     1.19476633E-04    2    -2000013        13   # BR(chi^0_4 -> ~mu^+_R mu^-)
     4.30836503E-02    2     1000015       -15   # BR(chi^0_4 -> ~tau^-_1 tau^+)
     4.30836503E-02    2    -1000015        15   # BR(chi^0_4 -> ~tau^+_1 tau^-)
     4.60799398E-02    2     1000016       -16   # BR(chi^0_4 -> ~nu_tau nu_bar_tau)
     4.60799398E-02    2    -1000016        16   # BR(chi^0_4 -> ~nu^*_tau nu_tau)
     1.72484457E-01    2     1000024       -24   # BR(chi^0_4 -> chi^+_1 W^-)
     1.72484457E-01    2    -1000024        24   # BR(chi^0_4 -> chi^-_1 W^+)
     2.51363611E-03    2     1000022        23   # BR(chi^0_4 -> chi^0_1 Z)
     3.83588476E-03    2     1000023        23   # BR(chi^0_4 -> chi^0_2 Z)
     2.36094283E-01    2     1000025        23   # BR(chi^0_4 -> chi^0_3 Z)
     4.40272139E-03    2     1000022        25   # BR(chi^0_4 -> chi^0_1 h^0)
     1.10828291E-01    2     1000023        25   # BR(chi^0_4 -> chi^0_2 h^0)
     1.18467922E-01    2     1000025        25   # BR(chi^0_4 -> chi^0_3 h^0)
#    BR                NDA      ID1      ID2       ID3
DECAY   1000021     2.36233920E+01   # ~g
#    BR                NDA      ID1      ID2
     3.86117484E-02    2     1000006        -4   # BR(~g -> ~t_1 c_bar)
     3.86117484E-02    2    -1000006         4   # BR(~g -> ~t^*_1 c)
     3.24381189E-01    2     1000006        -6   # BR(~g -> ~t_1 t_bar)
     3.24381189E-01    2    -1000006         6   # BR(~g -> ~t^*_1 t)
     2.30182306E-02    2     2000006        -6   # BR(~g -> ~t_2 t_bar)
     2.30182306E-02    2    -2000006         6   # BR(~g -> ~t^*_2 t)
     1.12887260E-01    2     1000005        -5   # BR(~g -> ~b_1 b_bar)
     1.12887260E-01    2    -1000005         5   # BR(~g -> ~b^*_1 b)
     3.11298859E-04    2     1000023        21   # BR(~g -> chi^0_2 g)
     3.74385463E-04    2     1000025        21   # BR(~g -> chi^0_3 g)
#    BR                NDA      ID1      ID2       ID3
     3.17539062E-04    3     1000023         5        -5   # BR(~g -> chi^0_2 b b_bar)
     3.35051430E-04    3     1000025         5        -5   # BR(~g -> chi^0_3 b b_bar)
     3.12932880E-04    3     1000024         5        -6   # BR(~g -> chi^+_1 b t_bar)
     3.12932880E-04    3    -1000024        -5         6   # BR(~g -> chi^-_1 b_bar t)
DECAY        25     3.98128015E-03   # Gamma(h0)
     2.50229821E-03   2        22        22   # BR(h0 -> photon photon)
     2.02769239E-03   2        22        23   # BR(h0 -> photon Z)
     4.22171572E-02   2        23        23   # BR(h0 -> Z Z)
     3.25390139E-01   2       -24        24   # BR(h0 -> W W)
     7.67690176E-02   2        21        21   # BR(h0 -> gluon gluon)
     4.29043067E-09   2       -11        11   # BR(h0 -> Electron electron)
     1.90846083E-04   2       -13        13   # BR(h0 -> Muon muon)
     5.48651246E-02   2       -15        15   # BR(h0 -> Tau tau)
     1.21041023E-07   2        -2         2   # BR(h0 -> Up up)
     2.34944353E-02   2        -4         4   # BR(h0 -> Charm charm)
     4.91972738E-07   2        -1         1   # BR(h0 -> Down down)
     1.77934716E-04   2        -3         3   # BR(h0 -> Strange strange)
     4.72364737E-01   2        -5         5   # BR(h0 -> Bottom bottom)
DECAY        35     1.39801592E+02   # Gamma(HH)
     7.86702030E-09   2        22        22   # BR(HH -> photon photon)
     3.04416898E-08   2        22        23   # BR(HH -> photon Z)
     5.38310755E-08   2        23        23   # BR(HH -> Z Z)
     9.55045537E-09   2       -24        24   # BR(HH -> W W)
     2.40952666E-06   2        21        21   # BR(HH -> gluon gluon)
     1.00469965E-08   2       -11        11   # BR(HH -> Electron electron)
     4.47401996E-04   2       -13        13   # BR(HH -> Muon muon)
     1.34260551E-01   2       -15        15   # BR(HH -> Tau tau)
     2.74297998E-14   2        -2         2   # BR(HH -> Up up)
     5.32161535E-09   2        -4         4   # BR(HH -> Charm charm)
     2.96904207E-04   2        -6         6   # BR(HH -> Top top)
     5.91501457E-07   2        -1         1   # BR(HH -> Down down)
     2.13910821E-04   2        -3         3   # BR(HH -> Strange strange)
     4.43492563E-01   2        -5         5   # BR(HH -> Bottom bottom)
     3.33936696E-02   2  -1000024   1000024   # BR(HH -> Chargino1 chargino1)
     1.01104098E-01   2  -1000024   1000037   # BR(HH -> Chargino1 chargino2)
     1.01104098E-01   2  -1000037   1000024   # BR(HH -> Chargino2 chargino1)
     1.79568428E-02   2  -1000037   1000037   # BR(HH -> Chargino2 chargino2)
     4.90349055E-04   2   1000022   1000022   # BR(HH -> neutralino1 neutralino1)
     1.87875956E-02   2   1000022   1000023   # BR(HH -> neutralino1 neutralino2)
     1.93554655E-02   2   1000022   1000025   # BR(HH -> neutralino1 neutralino3)
     1.96823260E-04   2   1000022   1000035   # BR(HH -> neutralino1 neutralino4)
     1.06121371E-02   2   1000023   1000023   # BR(HH -> neutralino2 neutralino2)
     4.40098461E-03   2   1000023   1000025   # BR(HH -> neutralino2 neutralino3)
     3.74969210E-02   2   1000023   1000035   # BR(HH -> neutralino2 neutralino4)
     5.54147113E-04   2   1000025   1000025   # BR(HH -> neutralino3 neutralino3)
     6.33259135E-02   2   1000025   1000035   # BR(HH -> neutralino3 neutralino4)
     9.46221761E-03   2   1000035   1000035   # BR(HH -> neutralino4 neutralino4)
     2.45854471E-07   2        25        25   # BR(HH -> h0 h0)
     1.32664914E-08   2  -1000011   1000011   # BR(HH -> Selectron1 selectron1)
     4.01063778E-14   2  -2000011   1000011   # BR(HH -> Selectron2 selectron1)
     4.01063778E-14   2  -1000011   2000011   # BR(HH -> Selectron1 selectron2)
     1.87928340E-08   2  -2000011   2000011   # BR(HH -> Selectron2 selectron2)
     1.30464249E-08   2  -1000013   1000013   # BR(HH -> Smuon1 smuon1)
     1.71460613E-09   2  -2000013   1000013   # BR(HH -> Smuon2 smuon1)
     1.71460613E-09   2  -1000013   2000013   # BR(HH -> Smuon1 smuon2)
     1.86798320E-08   2  -2000013   2000013   # BR(HH -> Smuon2 smuon2)
     1.58712362E-06   2  -1000015   1000015   # BR(HH -> Stau1 stau1)
     1.52070394E-03   2  -2000015   1000015   # BR(HH -> Stau2 stau1)
     1.52070394E-03   2  -1000015   2000015   # BR(HH -> Stau1 stau2)
     7.92594951E-07   2  -2000015   2000015   # BR(HH -> Stau2 stau2)
DECAY        36     1.34480550E+02   # Gamma(A0)
     3.92973344E-08   2        22        22   # BR(A0 -> photon photon)
     6.58945698E-08   2        22        23   # BR(A0 -> photon Z)
     5.73222335E-06   2        21        21   # BR(A0 -> gluon gluon)
     9.75541689E-09   2       -11        11   # BR(A0 -> Electron electron)
     4.34418633E-04   2       -13        13   # BR(A0 -> Muon muon)
     1.30365796E-01   2       -15        15   # BR(A0 -> Tau tau)
     2.85609975E-14   2        -2         2   # BR(A0 -> Up up)
     5.54082681E-09   2        -4         4   # BR(A0 -> Charm charm)
     3.16780645E-04   2        -6         6   # BR(A0 -> Top top)
     5.74302057E-07   2        -1         1   # BR(A0 -> Down down)
     2.07689173E-04   2        -3         3   # BR(A0 -> Strange strange)
     4.30582772E-01   2        -5         5   # BR(A0 -> Bottom bottom)
     3.94242851E-02   2  -1000024   1000024   # BR(A0 -> Chargino1 chargino1)
     1.00490364E-01   2  -1000024   1000037   # BR(A0 -> Chargino1 chargino2)
     1.00490364E-01   2  -1000037   1000024   # BR(A0 -> Chargino2 chargino1)
     2.32671666E-02   2  -1000037   1000037   # BR(A0 -> Chargino2 chargino2)
     5.23084257E-04   2   1000022   1000022   # BR(A0 -> neutralino1 neutralino1)
     2.15047858E-02   2   1000022   1000023   # BR(A0 -> neutralino1 neutralino2)
     1.81068706E-02   2   1000022   1000025   # BR(A0 -> neutralino1 neutralino3)
     2.74386955E-04   2   1000022   1000035   # BR(A0 -> neutralino1 neutralino4)
     1.27540046E-02   2   1000023   1000023   # BR(A0 -> neutralino2 neutralino2)
     3.76610978E-03   2   1000023   1000025   # BR(A0 -> neutralino2 neutralino3)
     4.58029792E-02   2   1000023   1000035   # BR(A0 -> neutralino2 neutralino4)
     5.61079669E-04   2   1000025   1000025   # BR(A0 -> neutralino3 neutralino3)
     5.57425884E-02   2   1000025   1000035   # BR(A0 -> neutralino3 neutralino4)
     1.22142116E-02   2   1000035   1000035   # BR(A0 -> neutralino4 neutralino4)
     1.42075657E-07   2        23        25   # BR(A0 -> Z h0)
     2.52642482E-14   2        23        35   # BR(A0 -> Z HH)
     3.06364427E-36   2        25        25   # BR(A0 -> h0 h0)
     4.17663525E-14   2  -2000011   1000011   # BR(A0 -> Selectron2 selectron1)
     4.17663525E-14   2  -1000011   2000011   # BR(A0 -> Selectron1 selectron2)
     1.78564208E-09   2  -2000013   1000013   # BR(A0 -> Smuon2 smuon1)
     1.78564208E-09   2  -1000013   2000013   # BR(A0 -> Smuon1 smuon2)
     1.58184518E-03   2  -2000015   1000015   # BR(A0 -> Stau2 stau1)
     1.58184518E-03   2  -1000015   2000015   # BR(A0 -> Stau1 stau2)
DECAY        37     1.52097822E+02   # Gamma(Hp)
     1.01920598E-08   2       -11        12   # BR(Hp -> Electron nu_e)
     4.35742388E-04   2       -13        14   # BR(Hp -> Muon nu_mu)
     1.23252776E-01   2       -15        16   # BR(Hp -> Tau nu_tau)
     6.09101945E-07   2        -1         2   # BR(Hp -> Down up)
     1.03293280E-05   2        -3         2   # BR(Hp -> Strange up)
     5.17093617E-06   2        -5         2   # BR(Hp -> Bottom up)
     2.89288192E-08   2        -1         4   # BR(Hp -> Down charm)
     2.19468634E-04   2        -3         4   # BR(Hp -> Strange charm)
     7.24116234E-04   2        -5         4   # BR(Hp -> Bottom charm)
     3.78319785E-08   2        -1         6   # BR(Hp -> Down top)
     1.15268060E-06   2        -3         6   # BR(Hp -> Strange top)
     4.88313288E-01   2        -5         6   # BR(Hp -> Bottom top)
     3.55414453E-02   2   1000022   1000024   # BR(Hp -> neutralino1 chargino1)
     3.97462856E-04   2   1000022   1000037   # BR(Hp -> neutralino1 chargino2)
     6.20800153E-04   2   1000023   1000024   # BR(Hp -> neutralino2 chargino1)
     1.21680790E-01   2   1000023   1000037   # BR(Hp -> neutralino2 chargino2)
     1.27593870E-02   2   1000024   1000025   # BR(Hp -> chargino1 neutralino3)
     1.02480628E-01   2   1000025   1000037   # BR(Hp -> neutralino3 chargino2)
     1.10751832E-01   2   1000024   1000035   # BR(Hp -> chargino1 neutralino4)
     5.71565781E-06   2   1000035   1000037   # BR(Hp -> neutralino4 chargino2)
     1.25565471E-07   2        24        25   # BR(Hp -> W h0)
     7.17229501E-14   2  -1000011   1000012   # BR(Hp -> Selectron1 snu_e1)
     6.78736295E-08   2  -2000011   1000012   # BR(Hp -> Selectron2 snu_e1)
     3.06651217E-09   2  -1000013   1000014   # BR(Hp -> Smuon1 snu_mu1)
     6.77272074E-08   2  -2000013   1000014   # BR(Hp -> Smuon2 snu_mu1)
     4.65156816E-07   2  -1000015   1000016   # BR(Hp -> Stau1 snu_tau1)
     2.79847926E-03   2  -2000015   1000016   # BR(Hp -> Stau2 snu_tau1)
DECAY         6     2.43000000E+00   # top
#    BR                NDA      ID1      ID2
     1.00000000E+00    2           5        24   # BR(t -> b W)
Block HiggsBoundsInputHiggsCouplingsFermions
# ScalarNormEffCoupSq PseudoSNormEffCoupSq NP IP1 IP2 IP2
    9.49319854E-01    0.00000000E+00        3  25   5   5  # h0-b-b eff. coupling^2, normalised to SM
    1.89868124E+03    0.00000000E+00        3  35   5   5  # H0-b-b eff. coupling^2, normalised to SM
    0.00000000E+00    1.89863056E+03        3  36   5   5  # A0-b-b eff. coupling^2, normalised to SM
#
    1.00002669E+00    0.00000000E+00        3  25   6   6  # h0-t-t eff. coupling^2, normalised to SM
    5.00002410E-04    0.00000000E+00        3  35   6   6  # H0-t-t eff. coupling^2, normalised to SM
    0.00000000E+00    5.26695411E-04        3  36   6   6  # A0-t-t eff. coupling^2, normalised to SM
#
    9.49319854E-01    0.00000000E+00        3  25  15  15  # h0-tau-tau eff. coupling^2, normalised to SM
    1.89868124E+03    0.00000000E+00        3  35  15  15  # H0-tau-tau eff. coupling^2, normalised to SM
    0.00000000E+00    1.89863056E+03        3  36  15  15  # A0-tau-tau eff. coupling^2, normalised to SM
#
Block HiggsBoundsInputHiggsCouplingsBosons
    9.99999653E-01        3  25  24  24  # h0-W-W eff. coupling^2, normalised to SM
    3.47048107E-07        3  35  24  24  # H0-W-W eff. coupling^2, normalised to SM
    0.00000000E+00        3  36  24  24  # A0-W-W eff. coupling^2, normalised to SM
#
    9.99999653E-01        3  25  23  23  # h0-Z-Z eff. coupling^2, normalised to SM
    3.47048107E-07        3  35  23  23  # H0-Z-Z eff. coupling^2, normalised to SM
    0.00000000E+00        3  36  23  23  # A0-Z-Z eff. coupling^2, normalised to SM
#
    1.25640599E+00        3  25  21  21  # h0-g-g eff. coupling^2, normalised to SM
    5.08138076E-03        3  35  21  21  # H0-g-g eff. coupling^2, normalised to SM
    1.19516651E-01        3  36  21  21  # A0-g-g eff. coupling^2, normalised to SM
#
    0.00000000E+00        3  25  25  23  # h0-h0-Z eff. coupling^2, normalised to SM
    0.00000000E+00        3  35  25  23  # H0-h0-Z eff. coupling^2, normalised to SM
    3.47048107E-07        3  36  25  23  # A0-h0-Z eff. coupling^2, normalised to SM
    0.00000000E+00        3  35  35  23  # H0-H0-Z eff. coupling^2, normalised to SM
    9.99999653E-01        3  36  35  23  # A0-H0-Z eff. coupling^2, normalised to SM
    0.00000000E+00        3  36  36  23  # A0-A0-Z eff. coupling^2, normalised to SM
#
    0.00000000E+00        4  25  21  21  23  # h0-g-g-Z eff. coupling^2, normalised to SM
    0.00000000E+00        4  35  21  21  23  # H0-g-g-Z eff. coupling^2, normalised to SM
    0.00000000E+00        4  36  21  21  23  # A0-g-g-Z eff. coupling^2, normalised to SM
Block SPhenoLowEnergy  # low energy observables
    1    3.51479081E-04   # BR(b -> s gamma)
    2    1.58762893E-06   # BR(b -> s mu+ mu-)
    3    3.52512553E-05   # BR(b -> s nu nu)
    4    2.96002248E-15   # BR(Bd -> e+ e-)
    5    1.26449530E-10   # BR(Bd -> mu+ mu-)
    6    2.65166579E-08   # BR(Bd -> tau+ tau-)
    7    9.92356381E-14   # BR(Bs -> e+ e-)
    8    4.23936839E-09   # BR(Bs -> mu+ mu-)
    9    9.00793770E-07   # BR(Bs -> tau+ tau-)
   10    9.61542770E-05   # BR(B_u -> tau nu)
   11    9.93236869E-01   # BR(B_u -> tau nu)/BR(B_u -> tau nu)_SM
   12    5.42419053E-01   # |Delta(M_Bd)| [ps^-1] 
   13    1.93779361E+01   # |Delta(M_Bs)| [ps^-1] 
   14    0.00000000E+00   # neutron EDM according to the chiral quark model
   15    0.00000000E+00   # neutron EDM according to the relativistic quark-parton model
   16    2.15967693E-03   # epsilon_K
   17    2.28168266E-15   # Delta(M_K)
   18    2.48055790E-11   # BR(K^0 -> pi^0 nu nu)
   19    8.29163864E-11   # BR(K^+ -> pi^+ nu nu)
   20    3.59602925E-14   # Delta(g-2)_electron/2
   21    1.56206545E-09   # Delta(g-2)_muon/2
   22    1.92925916E-07   # Delta(g-2)_tau/2
   23    0.00000000E+00   # electric dipole moment of the electron
   24    0.00000000E+00   # electric dipole moment of the muon
   25    0.00000000E+00   # electric dipole moment of the tau
   26    0.00000000E+00   # Br(mu -> e gamma)
   27    0.00000000E+00   # Br(tau -> e gamma)
   28    0.00000000E+00   # Br(tau -> mu gamma)
   29    0.00000000E+00   # Br(mu -> 3 e)
   30    0.00000000E+00   # Br(tau -> 3 e)
   31    0.00000000E+00   # Br(tau -> 3 mu)
   39    7.90655495E-05   # Delta(rho_parameter)
   40    0.00000000E+00   # BR(Z -> e mu)
   41    0.00000000E+00   # BR(Z -> e tau)
   42    0.00000000E+00   # BR(Z -> mu tau)
Block FWCOEF Q=  1.60000000E+02  # Wilson coefficients at scale Q
#    id        order  M        value         comment
     0305 4422   00   0    -1.88819110E-01   # C7
     0305 4422   00   2    -2.24049773E-01   # C7
     0305 4322   00   2    -1.89717888E-04   # C7'
     0305 6421   00   0    -9.52278348E-02   # C8
     0305 6421   00   2    -1.19184117E-01   # C8
     0305 6321   00   2    -1.64330579E-04   # C8'
 03051111 4133   00   0     1.61568018E+00   # C9 e+e-
 03051111 4133   00   2     1.61598371E+00   # C9 e+e-
 03051111 4233   00   2     5.49548776E-04   # C9' e+e-
 03051111 4137   00   0    -4.43837228E+00   # C10 e+e-
 03051111 4137   00   2    -4.43664525E+00   # C10 e+e-
 03051111 4237   00   2    -4.13297029E-03   # C10' e+e-
 03051313 4133   00   0     1.61568018E+00   # C9 mu+mu-
 03051313 4133   00   2     1.61598035E+00   # C9 mu+mu-
 03051313 4233   00   2     5.49547420E-04   # C9' mu+mu-
 03051313 4137   00   0    -4.43837228E+00   # C10 mu+mu-
 03051313 4137   00   2    -4.43664859E+00   # C10 mu+mu-
 03051313 4237   00   2    -4.13297331E-03   # C10' mu+mu-
 03051212 4137   00   0     1.50535012E+00   # C11 nu_1 nu_1
 03051212 4137   00   2     1.50499542E+00   # C11 nu_1 nu_1
 03051212 4237   00   2     8.95911029E-04   # C11' nu_1 nu_1
 03051414 4137   00   0     1.50535012E+00   # C11 nu_2 nu_2
 03051414 4137   00   2     1.50499544E+00   # C11 nu_2 nu_2
 03051414 4237   00   2     8.95911049E-04   # C11' nu_2 nu_2
 03051616 4137   00   0     1.50535012E+00   # C11 nu_3 nu_3
 03051616 4137   00   2     1.50499524E+00   # C11 nu_3 nu_3
 03051616 4237   00   2     8.95915987E-04   # C11' nu_3 nu_3
Block IMFWCOEF Q=  1.60000000E+02  # Im(Wilson coefficients) at scale Q
#    id        order  M        value         comment
     0305 4422   00   0     3.85741083E-07   # C7
     0305 4422   00   2     2.08738836E-05   # C7
     0305 4322   00   2    -2.27824995E-06   # C7'
     0305 6421   00   0     3.30412748E-07   # C8
     0305 6421   00   2    -1.18990806E-05   # C8
     0305 6321   00   2    -1.45929320E-06   # C8'
 03051111 4133   00   2    -1.28560775E-06   # C9 e+e-
 03051111 4233   00   2     1.02275100E-05   # C9' e+e-
 03051111 4137   00   2     8.69888643E-06   # C10 e+e-
 03051111 4237   00   2    -7.69189813E-05   # C10' e+e-
 03051313 4133   00   2    -1.28569385E-06   # C9 mu+mu-
 03051313 4233   00   2     1.02274875E-05   # C9' mu+mu-
 03051313 4137   00   2     8.69908246E-06   # C10 mu+mu-
 03051313 4237   00   2    -7.69190368E-05   # C10' mu+mu-
 03051212 4137   00   2    -1.52807875E-06   # C11 nu_1 nu_1
 03051212 4237   00   2     1.66738663E-05   # C11' nu_1 nu_1
 03051414 4137   00   2    -1.52807645E-06   # C11 nu_2 nu_2
 03051414 4237   00   2     1.66738664E-05   # C11' nu_2 nu_2
 03051616 4137   00   2    -1.53134581E-06   # C11 nu_3 nu_3
 03051616 4237   00   2     1.66738578E-05   # C11' nu_3 nu_3
