# SUSY Les Houches Accord 2 - MSSM spectrum + Decays
# SPheno v4.0.5be
# W. Porod, Comput. Phys. Commun. 153 (2003) 275-315, hep-ph/0301101;
# W. Porod, F.~Staub, Comput. Phys. Commun. 183 (2012) 2458
#                     arXiv:1104.1573 [hep-ph] 
# in case of problems send email to porod@physik.uni-wuerzburg.de
# Created: 07.09.2021,  19:50
Block SPINFO         # Program information
     1   SPheno      # spectrum calculator
     2   v4.0.5be    # version number
#
Block SPhenoINFO     # SPheno specific information
    1      2         # using 2-loop RGEs
    2      2         # using pole masses for boundary conditions at mZ
Block MODSEL  # Model selection
    1    0    # general MSSM
Block MINPAR  # Input parameters
    3    2.39806622E+01  # tanb at m_Z    
    4    1.00000000E+00  # Sign(mu)
Block EXTPAR  # non-universal input parameters
    0    3.22858291E+03  # scale for input parameters
    1   -2.02449970E+02  # M_1
    2   -1.34805588E+03  # M_2
    3    4.02328724E+03  # M_3
   11    2.69477009E+03  # A_t
   12    1.43439026E+03  # A_b
   13   -8.43661519E+02  # A_tau
   23    2.25915848E+02  # mu
   25    2.29913342E+01  # tan(beta)
   26    3.54609185E+03  # m_A, pole mass
   31    1.00000000E+04  # M_L11
   32    1.00000000E+04  # M_L22
   33    1.00000000E+04  # M_L33
   34    1.00000000E+04  # M_E11
   35    1.00000000E+04  # M_E22
   36    1.00000000E+04  # M_E33
   41    1.00000000E+04  # M_Q11
   42    1.00000000E+04  # M_Q22
   43    2.38304476E+03  # M_Q33
   44    1.00000000E+04  # M_U11
   45    1.00000000E+04  # M_U22
   46    4.10541035E+03  # M_U33
   47    1.00000000E+04  # M_D11
   48    1.00000000E+04  # M_D22
   49    4.23399704E+03  # M_D33
Block SMINPUTS  # SM parameters
         1     1.27908970E+02  # alpha_em^-1(MZ)^MSbar
         2     1.16637870E-05  # G_mu [GeV^-2]
         3     1.18400000E-01  # alpha_s(MZ)^MSbar
         4     9.11876000E+01  # m_Z(pole)
         5     4.18000000E+00  # m_b(m_b), MSbar
         6     1.73200000E+02  # m_t(pole)
         7     1.77700000E+00  # m_tau(pole)
         8     0.00000000E+00  # m_nu_3
        11     5.10998930E-04  # m_e(pole)
        12     0.00000000E+00  # m_nu_1
        13     1.05658372E-01  # m_muon(pole)
        14     0.00000000E+00  # m_nu_2
        21     5.00000000E-03  # m_d(2 GeV), MSbar
        22     2.50000000E-03  # m_u(2 GeV), MSbar
        23     9.50000000E-02  # m_s(2 GeV), MSbar
        24     1.27000000E+00  # m_c(m_c), MSbar
Block gauge Q=  3.22858291E+03  # (SUSY scale)
   1    3.55362975E-01  # g'(Q)^DRbar
   2    6.65198874E-01  # g(Q)^DRbar
   3    1.21977796E+00  # g3(Q)^DRbar
Block Yu Q=  3.22858291E+03  # (SUSY scale)
  1  1     8.39229910E-06   # Y_u(Q)^DRbar
  2  2     4.26328794E-03   # Y_c(Q)^DRbar
  3  3     1.01385714E+00   # Y_t(Q)^DRbar
Block Yd Q=  3.22858291E+03  # (SUSY scale)
  1  1     3.87726402E-04   # Y_d(Q)^DRbar
  2  2     7.36680165E-03   # Y_s(Q)^DRbar
  3  3     3.84503095E-01   # Y_b(Q)^DRbar
Block Ye Q=  3.22858291E+03  # (SUSY scale)
  1  1     6.76610925E-05   # Y_e(Q)^DRbar
  2  2     1.39901680E-02   # Y_mu(Q)^DRbar
  3  3     2.35291611E-01   # Y_tau(Q)^DRbar
Block Au Q=  3.22858291E+03  # (SUSY scale)
  1  1     0.00000000E+00   # A_u(Q)^DRbar
  2  2     0.00000000E+00   # A_c(Q)^DRbar
  3  3     2.69476971E+03   # A_t(Q)^DRbar
Block Ad Q=  3.22858291E+03  # (SUSY scale)
  1  1     0.00000000E+00   # A_d(Q)^DRbar
  2  2     0.00000000E+00   # A_s(Q)^DRbar
  3  3     1.43439047E+03   # A_b(Q)^DRbar
Block Ae Q=  3.22858291E+03  # (SUSY scale)
  1  1     0.00000000E+00   # A_e(Q)^DRbar
  2  2     0.00000000E+00   # A_mu(Q)^DRbar
  3  3    -8.43661532E+02   # A_tau(Q)^DRbar
Block MSOFT Q=  3.22858291E+03  # soft SUSY breaking masses at Q
   1   -2.02449970E+02  # M_1
   2   -1.34805588E+03  # M_2
   3    4.02328724E+03  # M_3
  21    1.24320850E+07  # M^2_(H,d)
  22    1.28886510E+05  # M^2_(H,u)
  31    1.00000000E+04  # M_(L,11)
  32    1.00000000E+04  # M_(L,22)
  33    1.00000000E+04  # M_(L,33)
  34    1.00000000E+04  # M_(E,11)
  35    1.00000000E+04  # M_(E,22)
  36    1.00000000E+04  # M_(E,33)
  41    1.00000000E+04  # M_(Q,11)
  42    1.00000000E+04  # M_(Q,22)
  43    2.38304476E+03  # M_(Q,33)
  44    1.00000000E+04  # M_(U,11)
  45    1.00000000E+04  # M_(U,22)
  46    4.10541035E+03  # M_(U,33)
  47    1.00000000E+04  # M_(D,11)
  48    1.00000000E+04  # M_(D,22)
  49    4.23399704E+03  # M_(D,33)
Block MASS  # Mass spectrum
#   PDG code      mass          particle
         6     1.73200000E+02  # m_t(pole)
        23     9.11876000E+01  # m_Z(pole)
        24     8.04299946E+01  # W+
        15     1.77700000E+00  # m_tau(pole)
        25     1.22663729E+02  # h0
        35     3.54556841E+03  # H0
        36     3.54609185E+03  # A0
        37     3.54792951E+03  # H+
   1000001     1.00890386E+04  # ~d_L
   2000001     1.00655103E+04  # ~d_R
   1000002     1.00886785E+04  # ~u_L
   2000002     1.00685285E+04  # ~u_R
   1000003     1.00890417E+04  # ~s_L
   2000003     1.00655140E+04  # ~s_R
   1000004     1.00886813E+04  # ~c_L
   2000004     1.00685298E+04  # ~c_R
   1000005     2.50299555E+03  # ~b_1
   2000005     4.33128355E+03  # ~b_2
   1000006     2.50343101E+03  # ~t_1
   2000006     4.16378465E+03  # ~t_2
   1000011     1.00204101E+04  # ~e_L-
   2000011     1.00089248E+04  # ~e_R-
   1000012     1.00196434E+04  # ~nu_eL
   1000013     1.00204199E+04  # ~mu_L-
   2000013     1.00089438E+04  # ~mu_R-
   1000014     1.00196531E+04  # ~nu_muL
   1000015     1.00143181E+04  # ~tau_1-
   2000015     1.00232221E+04  # ~tau_2-
   1000016     1.00224218E+04  # ~nu_tauL
   1000021     4.46029009E+03  # ~g
   1000022     1.88327558E+02  # ~chi_10
   1000023     2.42154762E+02  # ~chi_20
   1000025     2.53761038E+02  # ~chi_30
   1000035     1.44262583E+03  # ~chi_40
   1000024     2.37446218E+02  # ~chi_1+
   1000037     1.44259097E+03  # ~chi_2+
# Higgs mixing
Block alpha # Effective Higgs mixing angle
          -4.17486453E-02   # alpha
Block Hmix Q=  3.22858291E+03  # Higgs mixing parameters
   1    2.25915848E+02  # mu
   2    2.29913342E+01  # tan[beta](Q)
   3    2.43187047E+02  # v(Q)
   4    1.25747674E+07  # m^2_A(Q)
Block stopmix # stop mixing matrix
   1  1    -9.99456341E-01   # Re[R_st(1,1)]
   1  2     3.29700121E-02   # Re[R_st(1,2)]
   2  1    -3.29700121E-02   # Re[R_st(2,1)]
   2  2    -9.99456341E-01   # Re[R_st(2,2)]
Block sbotmix # sbottom mixing matrix
   1  1     9.99999786E-01   # Re[R_sb(1,1)]
   1  2     6.54279239E-04   # Re[R_sb(1,2)]
   2  1    -6.54279239E-04   # Re[R_sb(2,1)]
   2  2     9.99999786E-01   # Re[R_sb(2,2)]
Block staumix # stau mixing matrix
   1  1     5.99368827E-02   # Re[R_sta(1,1)]
   1  2     9.98202169E-01   # Re[R_sta(1,2)]
   2  1    -9.98202169E-01   # Re[R_sta(2,1)]
   2  2     5.99368827E-02   # Re[R_sta(2,2)]
Block Nmix # neutralino mixing matrix
   1  1    -8.42936123E-01   # Re[N(1,1)]
   1  2     2.01205619E-02   # Re[N(1,2)]
   1  3    -4.24554999E-01   # Re[N(1,3)]
   1  4    -3.29858922E-01   # Re[N(1,4)]
   2  1    -7.28960910E-02   # Re[N(2,1)]
   2  2     3.58927587E-02   # Re[N(2,2)]
   2  3     6.98688417E-01   # Re[N(2,3)]
   2  4    -7.10796993E-01   # Re[N(2,4)]
   3  1     5.33048303E-01   # Re[N(3,1)]
   3  2     4.06364308E-02   # Re[N(3,2)]
   3  3    -5.75795357E-01   # Re[N(3,3)]
   3  4    -6.18601563E-01   # Re[N(3,4)]
   4  1     2.08788456E-03   # Re[N(4,1)]
   4  2    -9.98326376E-01   # Re[N(4,2)]
   4  3    -6.87420341E-03   # Re[N(4,3)]
   4  4    -5.73832094E-02   # Re[N(4,4)]
Block Umix # chargino mixing matrix
   1  1    -9.74749831E-03   # Re[U(1,1)]
   1  2     9.99952492E-01   # Re[U(1,2)]
   2  1    -9.99952492E-01   # Re[U(2,1)]
   2  2    -9.74749831E-03   # Re[U(2,2)]
Block Vmix # chargino mixing matrix
   1  1     8.12086009E-02   # Re[V(1,1)]
   1  2     9.96697127E-01   # Re[V(1,2)]
   2  1     9.96697127E-01   # Re[V(2,1)]
   2  2    -8.12086009E-02   # Re[V(2,2)]
DECAY        23     2.49520000E+00   # Z
DECAY        24     2.08500000E+00   # W
DECAY   2000011     5.02472081E+01   # ~e^-_R
#    BR                NDA      ID1      ID2
     7.10659798E-01    2     1000022        11   # BR(~e^-_R -> chi^0_1 e^-)
     5.31227583E-03    2     1000023        11   # BR(~e^-_R -> chi^0_2 e^-)
     2.84023724E-01    2     1000025        11   # BR(~e^-_R -> chi^0_3 e^-)
DECAY   1000011     1.39473159E+02   # ~e^-_L
#    BR                NDA      ID1      ID2
     5.84814985E-02    2     1000022        11   # BR(~e^-_L -> chi^0_1 e^-)
     3.34411216E-02    2     1000025        11   # BR(~e^-_L -> chi^0_3 e^-)
     3.01564135E-01    2     1000035        11   # BR(~e^-_L -> chi^0_4 e^-)
     6.06450279E-01    2    -1000037        12   # BR(~e^-_L -> chi^-_2 nu_e)
#    BR                NDA      ID1      ID2       ID3
DECAY   2000013     5.03251601E+01   # ~mu^-_R
#    BR                NDA      ID1      ID2
     7.09699836E-01    2     1000022        13   # BR(~mu^-_R -> chi^0_1 mu^-)
     5.68165489E-03    2     1000023        13   # BR(~mu^-_R -> chi^0_2 mu^-)
     2.83840746E-01    2     1000025        13   # BR(~mu^-_R -> chi^0_3 mu^-)
     7.73479566E-04    2    -1000024        14   # BR(~mu^-_R -> chi^-_1 nu_mu)
DECAY   1000013     1.39512278E+02   # ~mu^-_L
#    BR                NDA      ID1      ID2
     5.85155320E-02    2     1000022        13   # BR(~mu^-_L -> chi^0_1 mu^-)
     1.39304073E-04    2     1000023        13   # BR(~mu^-_L -> chi^0_2 mu^-)
     3.35243770E-02    2     1000025        13   # BR(~mu^-_L -> chi^0_3 mu^-)
     3.01479908E-01    2     1000035        13   # BR(~mu^-_L -> chi^0_4 mu^-)
     6.06280871E-01    2    -1000037        14   # BR(~mu^-_L -> chi^-_2 nu_mu)
#    BR                NDA      ID1      ID2       ID3
DECAY   1000015     7.25919493E+01   # ~tau^-_1
#    BR                NDA      ID1      ID2
     5.25430395E-01    2     1000022        15   # BR(~tau^-_1 -> chi^0_1 tau^-)
     7.58537287E-02    2     1000023        15   # BR(~tau^-_1 -> chi^0_2 tau^-)
     2.41437179E-01    2     1000025        15   # BR(~tau^-_1 -> chi^0_3 tau^-)
     1.85041323E-03    2     1000035        15   # BR(~tau^-_1 -> chi^0_4 tau^-)
     1.51711803E-01    2    -1000024        16   # BR(~tau^-_1 -> chi^-_1 nu_tau)
     3.71648164E-03    2    -1000037        16   # BR(~tau^-_1 -> chi^-_2 nu_tau)
DECAY   2000015     1.50259134E+02   # ~tau^-_2
#    BR                NDA      ID1      ID2
     6.46847516E-02    2     1000022        15   # BR(~tau^-_2 -> chi^0_1 tau^-)
     3.67505951E-02    2     1000023        15   # BR(~tau^-_2 -> chi^0_2 tau^-)
     5.80732584E-02    2     1000025        15   # BR(~tau^-_2 -> chi^0_3 tau^-)
     2.79115636E-01    2     1000035        15   # BR(~tau^-_2 -> chi^0_4 tau^-)
     5.61298595E-01    2    -1000037        16   # BR(~tau^-_2 -> chi^-_2 nu_tau)
#    BR                NDA      ID1      ID2       ID3
DECAY   1000012     1.39477684E+02   # ~nu_e
#    BR                NDA      ID1      ID2
     6.99265357E-02    2     1000022        12   # BR(~nu_e -> chi^0_1 nu_e)
     1.76871097E-03    2     1000023        12   # BR(~nu_e -> chi^0_2 nu_e)
     1.88205391E-02    2     1000025        12   # BR(~nu_e -> chi^0_3 nu_e)
     3.02879888E-01    2     1000035        12   # BR(~nu_e -> chi^0_4 nu_e)
     4.16579118E-03    2     1000024        11   # BR(~nu_e -> chi^+_1 e^-)
     6.02438535E-01    2     1000037        11   # BR(~nu_e -> chi^+_2 e^-)
#    BR                NDA      ID1      ID2       ID3
DECAY   1000014     1.39516799E+02   # ~nu_mu
#    BR                NDA      ID1      ID2
     6.99069987E-02    2     1000022        14   # BR(~nu_mu -> chi^0_1 nu_mu)
     1.76821681E-03    2     1000023        14   # BR(~nu_mu -> chi^0_2 nu_mu)
     1.88152808E-02    2     1000025        14   # BR(~nu_mu -> chi^0_3 nu_mu)
     3.02795290E-01    2     1000035        14   # BR(~nu_mu -> chi^0_4 nu_mu)
     4.44392315E-03    2     1000024        13   # BR(~nu_mu -> chi^+_1 mu^-)
     6.02270291E-01    2     1000037        13   # BR(~nu_mu -> chi^+_2 mu^-)
#    BR                NDA      ID1      ID2       ID3
DECAY   1000016     1.50545550E+02   # ~nu_tau
#    BR                NDA      ID1      ID2
     6.48036399E-02    2     1000022        16   # BR(~nu_tau -> chi^0_1 nu_tau)
     1.63913366E-03    2     1000023        16   # BR(~nu_tau -> chi^0_2 nu_tau)
     1.74417311E-02    2     1000025        16   # BR(~nu_tau -> chi^0_3 nu_tau)
     2.80697049E-01    2     1000035        16   # BR(~nu_tau -> chi^0_4 nu_tau)
     7.70959018E-02    2     1000024        15   # BR(~nu_tau -> chi^+_1 tau^-)
     5.58322545E-01    2     1000037        15   # BR(~nu_tau -> chi^+_2 tau^-)
#    BR                NDA      ID1      ID2       ID3
DECAY   2000001     5.18734241E+02   # ~d_R
#    BR                NDA      ID1      ID2
     7.69198921E-03    2     1000022         1   # BR(~d_R -> chi^0_1 d)
     3.07423080E-03    2     1000025         1   # BR(~d_R -> chi^0_3 d)
     9.89176150E-01    2     1000021         1   # BR(~d_R -> ~g d)
DECAY   1000001     6.44732187E+02   # ~d_L
#    BR                NDA      ID1      ID2
     1.99443725E-03    2     1000022         1   # BR(~d_L -> chi^0_1 d)
     1.64354830E-04    2     1000023         1   # BR(~d_L -> chi^0_2 d)
     2.02732220E-04    2     1000025         1   # BR(~d_L -> chi^0_3 d)
     6.59172209E-02    2     1000035         1   # BR(~d_L -> chi^0_4 d)
     1.32166072E-01    2    -1000037         2   # BR(~d_L -> chi^-_2 u)
     7.99542108E-01    2     1000021         1   # BR(~d_L -> ~g d)
DECAY   2000003     5.18756266E+02   # ~s_R
#    BR                NDA      ID1      ID2
     7.69542804E-03    2     1000022         3   # BR(~s_R -> chi^0_1 s)
     3.08101910E-03    2     1000025         3   # BR(~s_R -> chi^0_3 s)
     9.89134870E-01    2     1000021         3   # BR(~s_R -> ~g s)
DECAY   1000003     6.44747035E+02   # ~s_L
#    BR                NDA      ID1      ID2
     1.99742645E-03    2     1000022         3   # BR(~s_L -> chi^0_1 s)
     1.72566231E-04    2     1000023         3   # BR(~s_L -> chi^0_2 s)
     2.08306359E-04    2     1000025         3   # BR(~s_L -> chi^0_3 s)
     6.59157256E-02    2     1000035         3   # BR(~s_L -> chi^0_4 s)
     1.32163109E-01    2    -1000037         4   # BR(~s_L -> chi^-_2 c)
     7.99524178E-01    2     1000021         3   # BR(~s_L -> ~g s)
DECAY   1000005     7.19958352E+01   # ~b_1
#    BR                NDA      ID1      ID2
     2.26345032E-02    2     1000022         5   # BR(~b_1 -> chi^0_1 b)
     4.93398870E-02    2     1000023         5   # BR(~b_1 -> chi^0_2 b)
     3.36298352E-02    2     1000025         5   # BR(~b_1 -> chi^0_3 b)
     6.80688848E-02    2     1000035         5   # BR(~b_1 -> chi^0_4 b)
     6.86752633E-01    2    -1000024         6   # BR(~b_1 -> chi^-_1 t)
     1.39574257E-01    2    -1000037         6   # BR(~b_1 -> chi^-_2 t)
DECAY   2000005     2.77083377E+01   # ~b_2
#    BR                NDA      ID1      ID2
     1.44174199E-01    2     1000022         5   # BR(~b_2 -> chi^0_1 b)
     2.23541490E-01    2     1000023         5   # BR(~b_2 -> chi^0_2 b)
     1.76129897E-01    2     1000025         5   # BR(~b_2 -> chi^0_3 b)
     4.55488843E-01    2    -1000024         6   # BR(~b_2 -> chi^-_1 t)
     2.51184327E-04    2     1000006       -24   # BR(~b_2 -> ~t_1 W^-)
     1.25682925E-04    2     1000005        23   # BR(~b_2 -> ~b_1 Z)
     2.24116885E-04    2     1000005        25   # BR(~b_2 -> ~b_1 h^0)
DECAY   2000002     5.35889080E+02   # ~u_R
#    BR                NDA      ID1      ID2
     2.97919181E-02    2     1000022         2   # BR(~u_R -> chi^0_1 u)
     2.22699382E-04    2     1000023         2   # BR(~u_R -> chi^0_2 u)
     1.19067790E-02    2     1000025         2   # BR(~u_R -> chi^0_3 u)
     9.58078428E-01    2     1000021         2   # BR(~u_R -> ~g u)
DECAY   1000002     6.44715912E+02   # ~u_L
#    BR                NDA      ID1      ID2
     1.16291123E-03    2     1000022         2   # BR(~u_L -> chi^0_1 u)
     1.26407009E-03    2     1000025         2   # BR(~u_L -> chi^0_3 u)
     6.58182144E-02    2     1000035         2   # BR(~u_L -> chi^0_4 u)
     9.07494919E-04    2     1000024         1   # BR(~u_L -> chi^+_1 d)
     1.31305171E-01    2     1000037         1   # BR(~u_L -> chi^+_2 d)
     7.99506023E-01    2     1000021         2   # BR(~u_L -> ~g u)
DECAY   2000004     5.35896454E+02   # ~c_R
#    BR                NDA      ID1      ID2
     2.97922511E-02    2     1000022         4   # BR(~c_R -> chi^0_1 c)
     2.26125111E-04    2     1000023         4   # BR(~c_R -> chi^0_2 c)
     1.19092101E-02    2     1000025         4   # BR(~c_R -> chi^0_3 c)
     9.58065432E-01    2     1000021         4   # BR(~c_R -> ~g c)
DECAY   1000004     6.44730692E+02   # ~c_L
#    BR                NDA      ID1      ID2
     1.16349979E-03    2     1000022         4   # BR(~c_L -> chi^0_1 c)
     1.26620460E-03    2     1000025         4   # BR(~c_L -> chi^0_3 c)
     6.58167377E-02    2     1000035         4   # BR(~c_L -> chi^0_4 c)
     9.24302025E-04    2     1000024         3   # BR(~c_L -> chi^+_1 s)
     1.31302202E-01    2     1000037         3   # BR(~c_L -> chi^+_2 s)
     7.99488084E-01    2     1000021         4   # BR(~c_L -> ~g c)
DECAY   1000006     7.24518623E+01   # ~t_1
#    BR                NDA      ID1      ID2
     8.08895448E-02    2     1000022         6   # BR(~t_1 -> chi^0_1 t)
     3.48576665E-01    2     1000023         6   # BR(~t_1 -> chi^0_2 t)
     2.62838717E-01    2     1000025         6   # BR(~t_1 -> chi^0_3 t)
     6.45628019E-02    2     1000035         6   # BR(~t_1 -> chi^0_4 t)
     1.04850573E-01    2     1000024         5   # BR(~t_1 -> chi^+_1 b)
     1.33560358E-01    2     1000037         5   # BR(~t_1 -> chi^+_2 b)
#    BR                NDA      ID1      ID2       ID3
     4.63894426E-03    3     1000022        24         5   # BR(~t_1 -> chi^0_1 W^+ b)
DECAY   2000006     2.09684337E+02   # ~t_2
#    BR                NDA      ID1      ID2
     7.34469787E-02    2     1000022         6   # BR(~t_2 -> chi^0_1 t)
     2.02647211E-01    2     1000023         6   # BR(~t_2 -> chi^0_2 t)
     1.67511224E-01    2     1000025         6   # BR(~t_2 -> chi^0_3 t)
     1.64889022E-03    2     1000035         6   # BR(~t_2 -> chi^0_4 t)
     3.98991886E-01    2     1000024         5   # BR(~t_2 -> chi^+_1 b)
     3.31807269E-03    2     1000037         5   # BR(~t_2 -> chi^+_2 b)
     6.60756938E-02    2     1000005        24   # BR(~t_2 -> ~b_1 W^+)
     3.29471402E-02    2     1000006        23   # BR(~t_2 -> ~t_1 Z)
     5.34129038E-02    2     1000006        25   # BR(~t_2 -> ~t_1 h^0)
DECAY   1000024     3.83013193E-04   # chi^+_1
#    BR                NDA      ID1      ID2       ID3
     3.33826394E-01    3     1000022        -1         2   # BR(chi^+_1 -> chi^0_1 d_bar u)
     3.32929258E-01    3     1000022        -3         4   # BR(chi^+_1 -> chi^0_1 s_bar c)
     1.11275899E-01    3     1000022       -11        12   # BR(chi^+_1 -> chi^0_1 e^+ nu_e)
     1.11274396E-01    3     1000022       -13        14   # BR(chi^+_1 -> chi^0_1 mu^+ nu_mu)
     1.10694053E-01    3     1000022       -15        16   # BR(chi^+_1 -> chi^0_1 tau^+ nu_tau)
DECAY   1000037     1.27011974E+01   # chi^+_2
#    BR                NDA      ID1      ID2
     4.53543285E-02    2     1000022        24   # BR(chi^+_2 -> chi^0_1 W^+)
     2.48138698E-01    2     1000023        24   # BR(chi^+_2 -> chi^0_2 W^+)
     2.00562942E-01    2     1000025        24   # BR(chi^+_2 -> chi^0_3 W^+)
     2.45832303E-01    2     1000024        23   # BR(chi^+_2 -> chi^+_1 Z)
     2.37753518E-01    2     1000024        25   # BR(chi^+_2 -> chi^+_1 h^0)
#    BR                NDA      ID1      ID2       ID3
     8.19373681E-03    3     1000024         6        -6   # BR(chi^+_2 -> chi^+_1 t t_bar)
     1.39898979E-03    3     1000022        -5         6   # BR(chi^+_2 -> chi^0_1 b_bar t)
     6.85199036E-03    3     1000023        -5         6   # BR(chi^+_2 -> chi^0_2 b_bar t)
     5.88853549E-03    3     1000025        -5         6   # BR(chi^+_2 -> chi^0_3 b_bar t)
DECAY   1000022     0.00000000E+00   # chi^0_1
DECAY   1000023     4.56998584E-04   # chi^0_2
#    BR                NDA      ID1      ID2
     6.36648990E-03    2     1000022        22   # BR(chi^0_2 -> chi^0_1 photon)
#    BR                NDA      ID1      ID2       ID3
     1.19046739E-01    3     1000022         2        -2   # BR(chi^0_2 -> chi^0_1 u u_bar)
     1.18289319E-01    3     1000022         4        -4   # BR(chi^0_2 -> chi^0_1 c c_bar)
     1.52641088E-01    3     1000022         1        -1   # BR(chi^0_2 -> chi^0_1 d d_bar)
     1.52636481E-01    3     1000022         3        -3   # BR(chi^0_2 -> chi^0_1 s s_bar)
     1.44016812E-01    3     1000022         5        -5   # BR(chi^0_2 -> chi^0_1 b b_bar)
     3.44464024E-02    3     1000022        11       -11   # BR(chi^0_2 -> chi^0_1 e^- e^+)
     3.44447145E-02    3     1000022        13       -13   # BR(chi^0_2 -> chi^0_1 mu^- mu^+)
     3.39734055E-02    3     1000022        15       -15   # BR(chi^0_2 -> chi^0_1 tau^- tau^+)
     2.04126805E-01    3     1000022        12       -12   # BR(chi^0_2 -> chi^0_1 nu_e nu_bar_e)
DECAY   1000025     1.58335687E-05   # chi^0_3
#    BR                NDA      ID1      ID2
     8.98093213E-03    2     1000022        22   # BR(chi^0_3 -> chi^0_1 photon)
     1.16093192E-02    2     1000023        22   # BR(chi^0_3 -> chi^0_2 photon)
#    BR                NDA      ID1      ID2       ID3
     6.44411047E-02    3     1000022         2        -2   # BR(chi^0_3 -> chi^0_1 u u_bar)
     6.42379165E-02    3     1000022         4        -4   # BR(chi^0_3 -> chi^0_1 c c_bar)
     8.25971939E-02    3     1000022         1        -1   # BR(chi^0_3 -> chi^0_1 d d_bar)
     8.25961224E-02    3     1000022         3        -3   # BR(chi^0_3 -> chi^0_1 s s_bar)
     8.05822738E-02    3     1000022         5        -5   # BR(chi^0_3 -> chi^0_1 b b_bar)
     1.86153962E-02    3     1000022        11       -11   # BR(chi^0_3 -> chi^0_1 e^- e^+)
     1.86150671E-02    3     1000022        13       -13   # BR(chi^0_3 -> chi^0_1 mu^- mu^+)
     1.85220446E-02    3     1000022        15       -15   # BR(chi^0_3 -> chi^0_1 tau^- tau^+)
     1.10490061E-01    3     1000022        12       -12   # BR(chi^0_3 -> chi^0_1 nu_e nu_bar_e)
     3.68464015E-03    3     1000023         2        -2   # BR(chi^0_3 -> chi^0_2 u u_bar)
     3.14116933E-03    3     1000023         4        -4   # BR(chi^0_3 -> chi^0_2 c c_bar)
     4.72445455E-03    3     1000023         1        -1   # BR(chi^0_3 -> chi^0_2 d d_bar)
     4.72078770E-03    3     1000023         3        -3   # BR(chi^0_3 -> chi^0_2 s s_bar)
     7.58569325E-04    3     1000023         5        -5   # BR(chi^0_3 -> chi^0_2 b b_bar)
     1.06618105E-03    3     1000023        11       -11   # BR(chi^0_3 -> chi^0_2 e^- e^+)
     1.06487730E-03    3     1000023        13       -13   # BR(chi^0_3 -> chi^0_2 mu^- mu^+)
     7.55603961E-04    3     1000023        15       -15   # BR(chi^0_3 -> chi^0_2 tau^- tau^+)
     6.31793041E-03    3     1000023        12       -12   # BR(chi^0_3 -> chi^0_2 nu_e nu_bar_e)
     6.98520279E-02    3     1000024         1        -2   # BR(chi^0_3 -> chi^+_1 d u_bar)
     6.98520279E-02    3    -1000024        -1         2   # BR(chi^0_3 -> chi^-_1 d_bar u)
     6.78263996E-02    3     1000024         3        -4   # BR(chi^0_3 -> chi^+_1 s c_bar)
     6.78263996E-02    3    -1000024        -3         4   # BR(chi^0_3 -> chi^-_1 s_bar c)
     2.32839617E-02    3     1000024        11       -12   # BR(chi^0_3 -> chi^+_1 e^- nu_bar_e)
     2.32839617E-02    3    -1000024       -11        12   # BR(chi^0_3 -> chi^-_1 e^+ nu_e)
     2.32806576E-02    3     1000024        13       -14   # BR(chi^0_3 -> chi^+_1 mu^- nu_bar_mu)
     2.32806576E-02    3    -1000024       -13        14   # BR(chi^0_3 -> chi^-_1 mu^+ nu_mu)
     2.19961306E-02    3     1000024        15       -16   # BR(chi^0_3 -> chi^+_1 tau^- nu_bar_tau)
     2.19961306E-02    3    -1000024       -15        16   # BR(chi^0_3 -> chi^-_1 tau^+ nu_tau)
DECAY   1000035     1.38551657E+01   # chi^0_4
#    BR                NDA      ID1      ID2
     2.27538499E-01    2     1000024       -24   # BR(chi^0_4 -> chi^+_1 W^-)
     2.27538499E-01    2    -1000024        24   # BR(chi^0_4 -> chi^-_1 W^+)
     1.80029715E-02    2     1000022        23   # BR(chi^0_4 -> chi^0_1 Z)
     1.41227063E-01    2     1000023        23   # BR(chi^0_4 -> chi^0_2 Z)
     6.70273076E-02    2     1000025        23   # BR(chi^0_4 -> chi^0_3 Z)
     2.30488884E-02    2     1000022        25   # BR(chi^0_4 -> chi^0_1 h^0)
     1.61774273E-01    2     1000023        25   # BR(chi^0_4 -> chi^0_2 h^0)
     1.11877042E-01    2     1000025        25   # BR(chi^0_4 -> chi^0_3 h^0)
#    BR                NDA      ID1      ID2       ID3
     6.54112214E-04    3     1000022         6        -6   # BR(chi^0_4 -> chi^0_1 t t_bar)
     3.66257455E-03    3     1000023         6        -6   # BR(chi^0_4 -> chi^0_2 t t_bar)
     2.78428535E-03    3     1000025         6        -6   # BR(chi^0_4 -> chi^0_3 t t_bar)
     7.40110237E-03    3     1000024         5        -6   # BR(chi^0_4 -> chi^+_1 b t_bar)
     7.40110237E-03    3    -1000024        -5         6   # BR(chi^0_4 -> chi^-_1 b_bar t)
DECAY   1000021     1.28358598E+02   # ~g
#    BR                NDA      ID1      ID2
     7.59136328E-03    2     1000006        -4   # BR(~g -> ~t_1 c_bar)
     7.59136328E-03    2    -1000006         4   # BR(~g -> ~t^*_1 c)
     2.42598510E-01    2     1000006        -6   # BR(~g -> ~t_1 t_bar)
     2.42598510E-01    2    -1000006         6   # BR(~g -> ~t^*_1 t)
     6.70112647E-03    2     2000006        -6   # BR(~g -> ~t_2 t_bar)
     6.70112647E-03    2    -2000006         6   # BR(~g -> ~t^*_2 t)
     2.41371594E-01    2     1000005        -5   # BR(~g -> ~b_1 b_bar)
     2.41371594E-01    2    -1000005         5   # BR(~g -> ~b^*_1 b)
     1.67071110E-03    2     2000005        -5   # BR(~g -> ~b_2 b_bar)
     1.67071110E-03    2    -2000005         5   # BR(~g -> ~b^*_2 b)
#    BR                NDA      ID1      ID2       ID3
DECAY        25     3.13240178E-03   # Gamma(h0)
     2.67945753E-03   2        22        22   # BR(h0 -> photon photon)
     1.49327941E-03   2        22        23   # BR(h0 -> photon Z)
     2.54137265E-02   2        23        23   # BR(h0 -> Z Z)
     2.20042293E-01   2       -24        24   # BR(h0 -> W W)
     8.51823414E-02   2        21        21   # BR(h0 -> gluon gluon)
     5.11896067E-09   2       -11        11   # BR(h0 -> Electron electron)
     2.27699229E-04   2       -13        13   # BR(h0 -> Muon muon)
     6.56507843E-02   2       -15        15   # BR(h0 -> Tau tau)
     1.46026982E-07   2        -2         2   # BR(h0 -> Up up)
     2.83407449E-02   2        -4         4   # BR(h0 -> Charm charm)
     5.94478978E-07   2        -1         1   # BR(h0 -> Down down)
     2.15008376E-04   2        -3         3   # BR(h0 -> Strange strange)
     5.70753919E-01   2        -5         5   # BR(h0 -> Bottom bottom)
DECAY        35     5.55604946E+01   # Gamma(HH)
     1.23513578E-08   2        22        22   # BR(HH -> photon photon)
     3.91862202E-08   2        22        23   # BR(HH -> photon Z)
     7.37742204E-07   2        23        23   # BR(HH -> Z Z)
     1.80023572E-07   2       -24        24   # BR(HH -> W W)
     1.54357188E-06   2        21        21   # BR(HH -> gluon gluon)
     4.69767697E-09   2       -11        11   # BR(HH -> Electron electron)
     2.09172948E-04   2       -13        13   # BR(HH -> Muon muon)
     6.04132553E-02   2       -15        15   # BR(HH -> Tau tau)
     2.30137908E-13   2        -2         2   # BR(HH -> Up up)
     4.46460801E-08   2        -4         4   # BR(HH -> Charm charm)
     3.19789195E-03   2        -6         6   # BR(HH -> Top top)
     3.36459831E-07   2        -1         1   # BR(HH -> Down down)
     1.21694521E-04   2        -3         3   # BR(HH -> Strange strange)
     2.98309608E-01   2        -5         5   # BR(HH -> Bottom bottom)
     3.78088428E-03   2  -1000024   1000024   # BR(HH -> Chargino1 chargino1)
     1.86221798E-01   2  -1000024   1000037   # BR(HH -> Chargino1 chargino2)
     1.86221798E-01   2  -1000037   1000024   # BR(HH -> Chargino2 chargino1)
     2.90728276E-05   2  -1000037   1000037   # BR(HH -> Chargino2 chargino2)
     2.43224476E-02   2   1000022   1000022   # BR(HH -> neutralino1 neutralino1)
     1.85568354E-02   2   1000022   1000023   # BR(HH -> neutralino1 neutralino2)
     4.29586227E-03   2   1000022   1000025   # BR(HH -> neutralino1 neutralino3)
     4.02887361E-02   2   1000022   1000035   # BR(HH -> neutralino1 neutralino4)
     1.34832529E-03   2   1000023   1000023   # BR(HH -> neutralino2 neutralino2)
     1.32665870E-02   2   1000023   1000025   # BR(HH -> neutralino2 neutralino3)
     8.90482517E-02   2   1000023   1000035   # BR(HH -> neutralino2 neutralino4)
     1.23387542E-02   2   1000025   1000025   # BR(HH -> neutralino3 neutralino3)
     5.80069332E-02   2   1000025   1000035   # BR(HH -> neutralino3 neutralino4)
     1.45543488E-05   2   1000035   1000035   # BR(HH -> neutralino4 neutralino4)
     4.63807816E-06   2        25        25   # BR(HH -> h0 h0)
DECAY        36     5.47222182E+01   # Gamma(A0)
     8.70520291E-10   2        22        22   # BR(A0 -> photon photon)
     1.51077713E-08   2        22        23   # BR(A0 -> photon Z)
     9.63939106E-06   2        21        21   # BR(A0 -> gluon gluon)
     4.56999725E-09   2       -11        11   # BR(A0 -> Electron electron)
     2.03488011E-04   2       -13        13   # BR(A0 -> Muon muon)
     5.87714014E-02   2       -15        15   # BR(A0 -> Tau tau)
     2.15287811E-13   2        -2         2   # BR(A0 -> Up up)
     4.17637801E-08   2        -4         4   # BR(A0 -> Charm charm)
     3.01803055E-03   2        -6         6   # BR(A0 -> Top top)
     3.27308510E-07   2        -1         1   # BR(A0 -> Down down)
     1.18384747E-04   2        -3         3   # BR(A0 -> Strange strange)
     2.90197011E-01   2        -5         5   # BR(A0 -> Bottom bottom)
     3.82140613E-03   2  -1000024   1000024   # BR(A0 -> Chargino1 chargino1)
     1.89142754E-01   2  -1000024   1000037   # BR(A0 -> Chargino1 chargino2)
     1.89142754E-01   2  -1000037   1000024   # BR(A0 -> Chargino2 chargino1)
     1.78218751E-05   2  -1000037   1000037   # BR(A0 -> Chargino2 chargino2)
     2.18491154E-02   2   1000022   1000022   # BR(A0 -> neutralino1 neutralino1)
     2.29004224E-02   2   1000022   1000023   # BR(A0 -> neutralino1 neutralino2)
     3.50956976E-03   2   1000022   1000025   # BR(A0 -> neutralino1 neutralino3)
     3.96506549E-02   2   1000022   1000035   # BR(A0 -> neutralino1 neutralino4)
     1.65108588E-03   2   1000023   1000023   # BR(A0 -> neutralino2 neutralino2)
     1.47165410E-02   2   1000023   1000025   # BR(A0 -> neutralino2 neutralino3)
     9.52705442E-02   2   1000023   1000035   # BR(A0 -> neutralino2 neutralino4)
     1.06479989E-02   2   1000025   1000025   # BR(A0 -> neutralino3 neutralino3)
     5.53506333E-02   2   1000025   1000035   # BR(A0 -> neutralino3 neutralino4)
     8.95450375E-06   2   1000035   1000035   # BR(A0 -> neutralino4 neutralino4)
     1.39868442E-06   2        23        25   # BR(A0 -> Z h0)
     1.68801886E-38   2        25        25   # BR(A0 -> h0 h0)
DECAY        37     6.01483577E+01   # Gamma(Hp)
     5.60963001E-09   2       -11        12   # BR(Hp -> Electron nu_e)
     2.39829204E-04   2       -13        14   # BR(Hp -> Muon nu_mu)
     6.78373500E-02   2       -15        16   # BR(Hp -> Tau nu_tau)
     3.48435100E-07   2        -1         2   # BR(Hp -> Down up)
     5.89242401E-06   2        -3         2   # BR(Hp -> Strange up)
     3.58225645E-06   2        -5         2   # BR(Hp -> Bottom up)
     1.86715414E-08   2        -1         4   # BR(Hp -> Down charm)
     1.25618381E-04   2        -3         4   # BR(Hp -> Strange charm)
     5.01644199E-04   2        -5         4   # BR(Hp -> Bottom charm)
     2.59645022E-07   2        -1         6   # BR(Hp -> Down top)
     5.84774466E-06   2        -3         6   # BR(Hp -> Strange top)
     3.42187964E-01   2        -5         6   # BR(Hp -> Bottom top)
     4.08854292E-02   2   1000022   1000024   # BR(Hp -> neutralino1 chargino1)
     7.35659760E-02   2   1000022   1000037   # BR(Hp -> neutralino1 chargino2)
     2.21275567E-05   2   1000023   1000024   # BR(Hp -> neutralino2 chargino1)
     1.69039503E-01   2   1000023   1000037   # BR(Hp -> neutralino2 chargino2)
     2.86944403E-02   2   1000024   1000025   # BR(Hp -> chargino1 neutralino3)
     1.04408257E-01   2   1000025   1000037   # BR(Hp -> neutralino3 chargino2)
     1.72474632E-01   2   1000024   1000035   # BR(Hp -> chargino1 neutralino4)
     2.65517669E-11   2   1000035   1000037   # BR(Hp -> neutralino4 chargino2)
     1.27505765E-06   2        24        25   # BR(Hp -> W h0)
     1.66079932E-12   2        24        35   # BR(Hp -> W HH)
     4.74332416E-13   2        24        36   # BR(Hp -> W A0)
DECAY         6     2.43000000E+00   # top
#    BR                NDA      ID1      ID2
     1.00000000E+00    2           5        24   # BR(t -> b W)
Block HiggsBoundsInputHiggsCouplingsFermions
# ScalarNormEffCoupSq PseudoSNormEffCoupSq NP IP1 IP2 IP2
    9.22532356E-01    0.00000000E+00        3  25   5   5  # h0-b-b eff. coupling^2, normalised to SM
    5.28678916E+02    0.00000000E+00        3  35   5   5  # H0-b-b eff. coupling^2, normalised to SM
    0.00000000E+00    5.28601448E+02        3  36   5   5  # A0-b-b eff. coupling^2, normalised to SM
#
    1.00014655E+00    0.00000000E+00        3  25   6   6  # h0-t-t eff. coupling^2, normalised to SM
    1.74523236E-03    0.00000000E+00        3  35   6   6  # H0-t-t eff. coupling^2, normalised to SM
    0.00000000E+00    1.89178445E-03        3  36   6   6  # A0-t-t eff. coupling^2, normalised to SM
#
    9.22532356E-01    0.00000000E+00        3  25  15  15  # h0-tau-tau eff. coupling^2, normalised to SM
    5.28678916E+02    0.00000000E+00        3  35  15  15  # H0-tau-tau eff. coupling^2, normalised to SM
    0.00000000E+00    5.28601448E+02        3  36  15  15  # A0-tau-tau eff. coupling^2, normalised to SM
#
Block HiggsBoundsInputHiggsCouplingsBosons
    9.99997046E-01        3  25  24  24  # h0-W-W eff. coupling^2, normalised to SM
    2.95360646E-06        3  35  24  24  # H0-W-W eff. coupling^2, normalised to SM
    0.00000000E+00        3  36  24  24  # A0-W-W eff. coupling^2, normalised to SM
#
    9.99997046E-01        3  25  23  23  # h0-Z-Z eff. coupling^2, normalised to SM
    2.95360646E-06        3  35  23  23  # H0-Z-Z eff. coupling^2, normalised to SM
    0.00000000E+00        3  36  23  23  # A0-Z-Z eff. coupling^2, normalised to SM
#
    1.26871860E+00        3  25  21  21  # h0-g-g eff. coupling^2, normalised to SM
    1.00996099E-03        3  35  21  21  # H0-g-g eff. coupling^2, normalised to SM
    9.57765630E-02        3  36  21  21  # A0-g-g eff. coupling^2, normalised to SM
#
    0.00000000E+00        3  25  25  23  # h0-h0-Z eff. coupling^2, normalised to SM
    0.00000000E+00        3  35  25  23  # H0-h0-Z eff. coupling^2, normalised to SM
    2.95360646E-06        3  36  25  23  # A0-h0-Z eff. coupling^2, normalised to SM
    0.00000000E+00        3  35  35  23  # H0-H0-Z eff. coupling^2, normalised to SM
    9.99997046E-01        3  36  35  23  # A0-H0-Z eff. coupling^2, normalised to SM
    0.00000000E+00        3  36  36  23  # A0-A0-Z eff. coupling^2, normalised to SM
#
    0.00000000E+00        4  25  21  21  23  # h0-g-g-Z eff. coupling^2, normalised to SM
    0.00000000E+00        4  35  21  21  23  # H0-g-g-Z eff. coupling^2, normalised to SM
    0.00000000E+00        4  36  21  21  23  # A0-g-g-Z eff. coupling^2, normalised to SM
Block SPhenoLowEnergy  # low energy observables
    1    3.26958456E-04   # BR(b -> s gamma)
    2    1.58931864E-06   # BR(b -> s mu+ mu-)
    3    3.52488436E-05   # BR(b -> s nu nu)
    4    2.51977111E-15   # BR(Bd -> e+ e-)
    5    1.07641793E-10   # BR(Bd -> mu+ mu-)
    6    2.25356117E-08   # BR(Bd -> tau+ tau-)
    7    8.46028924E-14   # BR(Bs -> e+ e-)
    8    3.61423409E-09   # BR(Bs -> mu+ mu-)
    9    7.66683168E-07   # BR(Bs -> tau+ tau-)
   10    9.65326791E-05   # BR(B_u -> tau nu)
   11    9.97145618E-01   # BR(B_u -> tau nu)/BR(B_u -> tau nu)_SM
   12    5.41989164E-01   # |Delta(M_Bd)| [ps^-1] 
   13    1.93643335E+01   # |Delta(M_Bs)| [ps^-1] 
   14    0.00000000E+00   # neutron EDM according to the chiral quark model
   15    0.00000000E+00   # neutron EDM according to the relativistic quark-parton model
   16    2.15735121E-03   # epsilon_K
   17    2.28165869E-15   # Delta(M_K)
   18    2.47957672E-11   # BR(K^0 -> pi^0 nu nu)
   19    8.28952688E-11   # BR(K^+ -> pi^+ nu nu)
   20   -2.74972737E-16   # Delta(g-2)_electron/2
   21   -1.17559763E-11   # Delta(g-2)_muon/2
   22   -3.32793445E-09   # Delta(g-2)_tau/2
   23    0.00000000E+00   # electric dipole moment of the electron
   24    0.00000000E+00   # electric dipole moment of the muon
   25    0.00000000E+00   # electric dipole moment of the tau
   26    0.00000000E+00   # Br(mu -> e gamma)
   27    0.00000000E+00   # Br(tau -> e gamma)
   28    0.00000000E+00   # Br(tau -> mu gamma)
   29    0.00000000E+00   # Br(mu -> 3 e)
   30    0.00000000E+00   # Br(tau -> 3 e)
   31    0.00000000E+00   # Br(tau -> 3 mu)
   39    5.93172294E-05   # Delta(rho_parameter)
   40    0.00000000E+00   # BR(Z -> e mu)
   41    0.00000000E+00   # BR(Z -> e tau)
   42    0.00000000E+00   # BR(Z -> mu tau)
Block FWCOEF Q=  1.60000000E+02  # Wilson coefficients at scale Q
#    id        order  M        value         comment
     0305 4422   00   0    -1.88819110E-01   # C7
     0305 4422   00   2    -1.96071431E-01   # C7
     0305 4322   00   2    -1.17058616E-04   # C7'
     0305 6421   00   0    -9.52278348E-02   # C8
     0305 6421   00   2    -1.02890957E-01   # C8
     0305 6321   00   2    -1.39998239E-04   # C8'
 03051111 4133   00   0     1.61897439E+00   # C9 e+e-
 03051111 4133   00   2     1.61933424E+00   # C9 e+e-
 03051111 4233   00   2     1.46117518E-04   # C9' e+e-
 03051111 4137   00   0    -4.44166649E+00   # C10 e+e-
 03051111 4137   00   2    -4.43966445E+00   # C10 e+e-
 03051111 4237   00   2    -1.09299920E-03   # C10' e+e-
 03051313 4133   00   0     1.61897439E+00   # C9 mu+mu-
 03051313 4133   00   2     1.61933421E+00   # C9 mu+mu-
 03051313 4233   00   2     1.46117480E-04   # C9' mu+mu-
 03051313 4137   00   0    -4.44166649E+00   # C10 mu+mu-
 03051313 4137   00   2    -4.43966448E+00   # C10 mu+mu-
 03051313 4237   00   2    -1.09299922E-03   # C10' mu+mu-
 03051212 4137   00   0     1.50535012E+00   # C11 nu_1 nu_1
 03051212 4137   00   2     1.50491777E+00   # C11 nu_1 nu_1
 03051212 4237   00   2     2.36757491E-04   # C11' nu_1 nu_1
 03051414 4137   00   0     1.50535012E+00   # C11 nu_2 nu_2
 03051414 4137   00   2     1.50491777E+00   # C11 nu_2 nu_2
 03051414 4237   00   2     2.36757496E-04   # C11' nu_2 nu_2
 03051616 4137   00   0     1.50535012E+00   # C11 nu_3 nu_3
 03051616 4137   00   2     1.50491777E+00   # C11 nu_3 nu_3
 03051616 4237   00   2     2.36758787E-04   # C11' nu_3 nu_3
Block IMFWCOEF Q=  1.60000000E+02  # Im(Wilson coefficients) at scale Q
#    id        order  M        value         comment
     0305 4422   00   0     3.85817365E-07   # C7
     0305 4422   00   2    -6.24944144E-06   # C7
     0305 4322   00   2    -2.93919005E-07   # C7'
     0305 6421   00   0     3.30478089E-07   # C8
     0305 6421   00   2    -4.78659052E-06   # C8
     0305 6321   00   2    -1.59375506E-07   # C8'
 03051111 4133   00   2     4.01346518E-07   # C9 e+e-
 03051111 4233   00   2     2.80727631E-06   # C9' e+e-
 03051111 4137   00   2    -2.67739348E-07   # C10 e+e-
 03051111 4237   00   2    -2.10006516E-05   # C10' e+e-
 03051313 4133   00   2     4.01345478E-07   # C9 mu+mu-
 03051313 4233   00   2     2.80727602E-06   # C9' mu+mu-
 03051313 4137   00   2    -2.67738296E-07   # C10 mu+mu-
 03051313 4237   00   2    -2.10006524E-05   # C10' mu+mu-
 03051212 4137   00   2     8.15319310E-08   # C11 nu_1 nu_1
 03051212 4237   00   2     4.54900833E-06   # C11' nu_1 nu_1
 03051414 4137   00   2     8.15319742E-08   # C11 nu_2 nu_2
 03051414 4237   00   2     4.54900833E-06   # C11' nu_2 nu_2
 03051616 4137   00   2     8.15441282E-08   # C11 nu_3 nu_3
 03051616 4237   00   2     4.54900833E-06   # C11' nu_3 nu_3
