# SUSY Les Houches Accord 2 - MSSM spectrum + Decays
# SPheno v4.0.5be
# W. Porod, Comput. Phys. Commun. 153 (2003) 275-315, hep-ph/0301101;
# W. Porod, F.~Staub, Comput. Phys. Commun. 183 (2012) 2458
#                     arXiv:1104.1573 [hep-ph] 
# in case of problems send email to porod@physik.uni-wuerzburg.de
# Created: 20.12.2022,  18:43
Block SPINFO         # Program information
     1   SPheno      # spectrum calculator
     2   v4.0.5be    # version number
#
Block SPhenoINFO     # SPheno specific information
    1      2         # using 2-loop RGEs
    2      2         # using pole masses for boundary conditions at mZ
Block MODSEL  # Model selection
    1    0    # general MSSM
Block MINPAR  # Input parameters
    3    4.69867625E+01  # tanb at m_Z    
    4    1.00000000E+00  # Sign(mu)
Block EXTPAR  # non-universal input parameters
    0    3.96943571E+03  # scale for input parameters
    1    1.85945476E+03  # M_1
    2    9.16953550E+02  # M_2
    3    3.53305498E+03  # M_3
   11   -7.43493931E+03  # A_t
   12   -2.51111856E+02  # A_b
   13   -8.90250520E+02  # A_tau
   23    2.15878652E+02  # mu
   25    4.62261022E+01  # tan(beta)
   26    2.62048054E+03  # m_A, pole mass
   31    1.00000000E+04  # M_L11
   32    1.00000000E+04  # M_L22
   33    1.00000000E+04  # M_L33
   34    1.00000000E+04  # M_E11
   35    1.00000000E+04  # M_E22
   36    1.00000000E+04  # M_E33
   41    1.00000000E+04  # M_Q11
   42    1.00000000E+04  # M_Q22
   43    3.42541136E+03  # M_Q33
   44    1.00000000E+04  # M_U11
   45    1.00000000E+04  # M_U22
   46    4.58220965E+03  # M_U33
   47    1.00000000E+04  # M_D11
   48    1.00000000E+04  # M_D22
   49    4.96144490E+03  # M_D33
Block SMINPUTS  # SM parameters
         1     1.27908970E+02  # alpha_em^-1(MZ)^MSbar
         2     1.16637870E-05  # G_mu [GeV^-2]
         3     1.18400000E-01  # alpha_s(MZ)^MSbar
         4     9.11876000E+01  # m_Z(pole)
         5     4.18000000E+00  # m_b(m_b), MSbar
         6     1.73200000E+02  # m_t(pole)
         7     1.77700000E+00  # m_tau(pole)
         8     0.00000000E+00  # m_nu_3
        11     5.10998930E-04  # m_e(pole)
        12     0.00000000E+00  # m_nu_1
        13     1.05658372E-01  # m_muon(pole)
        14     0.00000000E+00  # m_nu_2
        21     5.00000000E-03  # m_d(2 GeV), MSbar
        22     2.50000000E-03  # m_u(2 GeV), MSbar
        23     9.50000000E-02  # m_s(2 GeV), MSbar
        24     1.27000000E+00  # m_c(m_c), MSbar
Block gauge Q=  3.96943571E+03  # (SUSY scale)
   1    3.55362975E-01  # g'(Q)^DRbar
   2    6.65198874E-01  # g(Q)^DRbar
   3    1.21977796E+00  # g3(Q)^DRbar
Block Yu Q=  3.96943571E+03  # (SUSY scale)
  1  1     8.38633376E-06   # Y_u(Q)^DRbar
  2  2     4.26025755E-03   # Y_c(Q)^DRbar
  3  3     1.01313648E+00   # Y_t(Q)^DRbar
Block Yd Q=  3.96943571E+03  # (SUSY scale)
  1  1     7.79003959E-04   # Y_d(Q)^DRbar
  2  2     1.48010752E-02   # Y_s(Q)^DRbar
  3  3     7.72527823E-01   # Y_b(Q)^DRbar
Block Ye Q=  3.96943571E+03  # (SUSY scale)
  1  1     1.35941887E-04   # Y_e(Q)^DRbar
  2  2     2.81084708E-02   # Y_mu(Q)^DRbar
  3  3     4.72738238E-01   # Y_tau(Q)^DRbar
Block Au Q=  3.96943571E+03  # (SUSY scale)
  1  1     0.00000000E+00   # A_u(Q)^DRbar
  2  2     0.00000000E+00   # A_c(Q)^DRbar
  3  3    -7.43493921E+03   # A_t(Q)^DRbar
Block Ad Q=  3.96943571E+03  # (SUSY scale)
  1  1     0.00000000E+00   # A_d(Q)^DRbar
  2  2     0.00000000E+00   # A_s(Q)^DRbar
  3  3    -2.51111859E+02   # A_b(Q)^DRbar
Block Ae Q=  3.96943571E+03  # (SUSY scale)
  1  1     0.00000000E+00   # A_e(Q)^DRbar
  2  2     0.00000000E+00   # A_mu(Q)^DRbar
  3  3    -8.90250524E+02   # A_tau(Q)^DRbar
Block MSOFT Q=  3.96943571E+03  # soft SUSY breaking masses at Q
   1    1.85945476E+03  # M_1
   2    9.16953550E+02  # M_2
   3    3.53305498E+03  # M_3
  21    6.90965281E+06  # M^2_(H,d)
  22    2.41973690E+05  # M^2_(H,u)
  31    1.00000000E+04  # M_(L,11)
  32    1.00000000E+04  # M_(L,22)
  33    1.00000000E+04  # M_(L,33)
  34    1.00000000E+04  # M_(E,11)
  35    1.00000000E+04  # M_(E,22)
  36    1.00000000E+04  # M_(E,33)
  41    1.00000000E+04  # M_(Q,11)
  42    1.00000000E+04  # M_(Q,22)
  43    3.42541136E+03  # M_(Q,33)
  44    1.00000000E+04  # M_(U,11)
  45    1.00000000E+04  # M_(U,22)
  46    4.58220965E+03  # M_(U,33)
  47    1.00000000E+04  # M_(D,11)
  48    1.00000000E+04  # M_(D,22)
  49    4.96144490E+03  # M_(D,33)
Block MASS  # Mass spectrum
#   PDG code      mass          particle
         6     1.73200000E+02  # m_t(pole)
        23     9.11876000E+01  # m_Z(pole)
        24     8.04299946E+01  # W+
        15     1.77700000E+00  # m_tau(pole)
        25     1.27909034E+02  # h0
        35     2.61970300E+03  # H0
        36     2.62048054E+03  # A0
        37     2.62274184E+03  # H+
   1000001     1.01067814E+04  # ~d_L
   2000001     1.00821868E+04  # ~d_R
   1000002     1.01064209E+04  # ~u_L
   2000002     1.00848763E+04  # ~u_R
   1000003     1.01067844E+04  # ~s_L
   2000003     1.00821923E+04  # ~s_R
   1000004     1.01064240E+04  # ~c_L
   2000004     1.00848768E+04  # ~c_R
   1000005     3.50011971E+03  # ~b_1
   2000005     5.02404476E+03  # ~b_2
   1000006     3.48345222E+03  # ~t_1
   2000006     4.52321975E+03  # ~t_2
   1000011     1.00208989E+04  # ~e_L-
   2000011     1.00087450E+04  # ~e_R-
   1000012     1.00201351E+04  # ~nu_eL
   1000013     1.00209139E+04  # ~mu_L-
   2000013     1.00087736E+04  # ~mu_R-
   1000014     1.00201499E+04  # ~nu_muL
   1000015     1.00168715E+04  # ~tau_1-
   2000015     1.00252386E+04  # ~tau_2-
   1000016     1.00243689E+04  # ~nu_tauL
   1000021     4.02751583E+03  # ~g
   1000022     2.27962249E+02  # ~chi_10
   1000023     2.36096659E+02  # ~chi_20
   1000025     9.93816934E+02  # ~chi_30
   1000035     1.87284121E+03  # ~chi_40
   1000024     2.31312280E+02  # ~chi_1+
   1000037     9.93611962E+02  # ~chi_2+
# Higgs mixing
Block alpha # Effective Higgs mixing angle
          -2.13599147E-02   # alpha
Block Hmix Q=  3.96943571E+03  # Higgs mixing parameters
   1    2.15878652E+02  # mu
   2    4.62261022E+01  # tan[beta](Q)
   3    2.42924419E+02  # v(Q)
   4    6.86691826E+06  # m^2_A(Q)
Block stopmix # stop mixing matrix
   1  1     9.92641823E-01   # Re[R_st(1,1)]
   1  2     1.21087619E-01   # Re[R_st(1,2)]
   2  1    -1.21087619E-01   # Re[R_st(2,1)]
   2  2     9.92641823E-01   # Re[R_st(2,2)]
Block sbotmix # sbottom mixing matrix
   1  1     9.99998790E-01   # Re[R_sb(1,1)]
   1  2     1.55589216E-03   # Re[R_sb(1,2)]
   2  1    -1.55589216E-03   # Re[R_sb(2,1)]
   2  2     9.99998790E-01   # Re[R_sb(2,2)]
Block staumix # stau mixing matrix
   1  1     1.16253747E-01   # Re[R_sta(1,1)]
   1  2     9.93219546E-01   # Re[R_sta(1,2)]
   2  1    -9.93219546E-01   # Re[R_sta(2,1)]
   2  2     1.16253747E-01   # Re[R_sta(2,2)]
Block Nmix # neutralino mixing matrix
   1  1    -1.92847877E-02   # Re[N(1,1)]
   1  2     7.56133713E-02   # Re[N(1,2)]
   1  3    -7.12339939E-01   # Re[N(1,3)]
   1  4     6.97482994E-01   # Re[N(1,4)]
   2  1    -1.46575969E-02   # Re[N(2,1)]
   2  2     4.61798461E-02   # Re[N(2,2)]
   2  3     7.01494865E-01   # Re[N(2,3)]
   2  4     7.11025689E-01   # Re[N(2,4)]
   3  1     4.32103510E-03   # Re[N(3,1)]
   3  2     9.96064924E-01   # Re[N(3,2)]
   3  3     2.15445784E-02   # Re[N(3,3)]
   3  4    -8.58593450E-02   # Re[N(3,4)]
   4  1    -9.99697244E-01   # Re[N(4,1)]
   4  2     2.16961498E-03   # Re[N(4,2)]
   4  3     3.54926496E-03   # Re[N(4,3)]
   4  4    -2.42510828E-02   # Re[N(4,4)]
Block Umix # chargino mixing matrix
   1  1    -3.06544177E-02   # Re[U(1,1)]
   1  2     9.99530043E-01   # Re[U(1,2)]
   2  1     9.99530043E-01   # Re[U(2,1)]
   2  2     3.06544177E-02   # Re[U(2,2)]
Block Vmix # chargino mixing matrix
   1  1    -1.22162244E-01   # Re[V(1,1)]
   1  2     9.92510144E-01   # Re[V(1,2)]
   2  1     9.92510144E-01   # Re[V(2,1)]
   2  2     1.22162244E-01   # Re[V(2,2)]
DECAY        23     2.49520000E+00   # Z
DECAY        24     2.08500000E+00   # W
DECAY   2000011     4.68322592E+01   # ~e^-_R
#    BR                NDA      ID1      ID2
     3.98989424E-04    2     1000022        11   # BR(~e^-_R -> chi^0_1 e^-)
     2.30490953E-04    2     1000023        11   # BR(~e^-_R -> chi^0_2 e^-)
     9.99350785E-01    2     1000035        11   # BR(~e^-_R -> chi^0_4 e^-)
DECAY   1000011     1.41467731E+02   # ~e^-_L
#    BR                NDA      ID1      ID2
     1.32855747E-03    2     1000022        11   # BR(~e^-_L -> chi^0_1 e^-)
     4.58037151E-04    2     1000023        11   # BR(~e^-_L -> chi^0_2 e^-)
     3.04686367E-01    2     1000025        11   # BR(~e^-_L -> chi^0_3 e^-)
     8.21510867E-02    2     1000035        11   # BR(~e^-_L -> chi^0_4 e^-)
     5.85336574E-04    2    -1000024        12   # BR(~e^-_L -> chi^-_1 nu_e)
     6.10790616E-01    2    -1000037        12   # BR(~e^-_L -> chi^-_2 nu_e)
#    BR                NDA      ID1      ID2       ID3
DECAY   2000013     4.71467050E+01   # ~mu^-_R
#    BR                NDA      ID1      ID2
     2.08773456E-03    2     1000022        13   # BR(~mu^-_R -> chi^0_1 mu^-)
     1.86912730E-03    2     1000023        13   # BR(~mu^-_R -> chi^0_2 mu^-)
     9.92688886E-01    2     1000035        13   # BR(~mu^-_R -> chi^0_4 mu^-)
     3.33013436E-03    2    -1000024        14   # BR(~mu^-_R -> chi^-_1 nu_mu)
DECAY   1000013     1.41625290E+02   # ~mu^-_L
#    BR                NDA      ID1      ID2
     1.89082978E-03    2     1000022        13   # BR(~mu^-_L -> chi^0_1 mu^-)
     1.00420180E-03    2     1000023        13   # BR(~mu^-_L -> chi^0_2 mu^-)
     3.04348381E-01    2     1000025        13   # BR(~mu^-_L -> chi^0_3 mu^-)
     8.20598462E-02    2     1000035        13   # BR(~mu^-_L -> chi^0_4 mu^-)
     5.84686259E-04    2    -1000024        14   # BR(~mu^-_L -> chi^-_1 nu_mu)
     6.10112055E-01    2    -1000037        14   # BR(~mu^-_L -> chi^-_2 nu_mu)
#    BR                NDA      ID1      ID2       ID3
DECAY   1000015     1.36540087E+02   # ~tau^-_1
#    BR                NDA      ID1      ID2
     1.70071531E-01    2     1000022        15   # BR(~tau^-_1 -> chi^0_1 tau^-)
     1.57576022E-01    2     1000023        15   # BR(~tau^-_1 -> chi^0_2 tau^-)
     2.84660649E-03    2     1000025        15   # BR(~tau^-_1 -> chi^0_3 tau^-)
     3.39475572E-01    2     1000035        15   # BR(~tau^-_1 -> chi^0_4 tau^-)
     3.24368581E-01    2    -1000024        16   # BR(~tau^-_1 -> chi^-_1 nu_tau)
     5.66168724E-03    2    -1000037        16   # BR(~tau^-_1 -> chi^-_2 nu_tau)
DECAY   2000015     1.85365445E+02   # ~tau^-_2
#    BR                NDA      ID1      ID2
     1.19512716E-01    2     1000022        15   # BR(~tau^-_2 -> chi^0_1 tau^-)
     1.20633615E-01    2     1000023        15   # BR(~tau^-_2 -> chi^0_2 tau^-)
     2.30761661E-01    2     1000025        15   # BR(~tau^-_2 -> chi^0_3 tau^-)
     6.53970809E-02    2     1000035        15   # BR(~tau^-_2 -> chi^0_4 tau^-)
     1.29258831E-03    2    -1000024        16   # BR(~tau^-_2 -> chi^-_1 nu_tau)
     4.62402339E-01    2    -1000037        16   # BR(~tau^-_2 -> chi^-_2 nu_tau)
#    BR                NDA      ID1      ID2       ID3
DECAY   1000012     1.41472947E+02   # ~nu_e
#    BR                NDA      ID1      ID2
     2.29878710E-03    2     1000022        12   # BR(~nu_e -> chi^0_1 nu_e)
     9.08391677E-04    2     1000023        12   # BR(~nu_e -> chi^0_2 nu_e)
     3.01839909E-01    2     1000025        12   # BR(~nu_e -> chi^0_3 nu_e)
     8.34865911E-02    2     1000035        12   # BR(~nu_e -> chi^0_4 nu_e)
     9.29491771E-03    2     1000024        11   # BR(~nu_e -> chi^+_1 e^-)
     6.02171403E-01    2     1000037        11   # BR(~nu_e -> chi^+_2 e^-)
#    BR                NDA      ID1      ID2       ID3
DECAY   1000014     1.41630492E+02   # ~nu_mu
#    BR                NDA      ID1      ID2
     2.29623342E-03    2     1000022        14   # BR(~nu_mu -> chi^0_1 nu_mu)
     9.07382561E-04    2     1000023        14   # BR(~nu_mu -> chi^0_2 nu_mu)
     3.01504618E-01    2     1000025        14   # BR(~nu_mu -> chi^0_3 nu_mu)
     8.33938649E-02    2     1000035        14   # BR(~nu_mu -> chi^0_4 nu_mu)
     1.03943785E-02    2     1000024        13   # BR(~nu_mu -> chi^+_1 mu^-)
     6.01503523E-01    2     1000037        13   # BR(~nu_mu -> chi^+_2 mu^-)
#    BR                NDA      ID1      ID2       ID3
DECAY   1000016     1.86055932E+02   # ~nu_tau
#    BR                NDA      ID1      ID2
     1.74868859E-03    2     1000022        16   # BR(~nu_tau -> chi^0_1 nu_tau)
     6.91014084E-04    2     1000023        16   # BR(~nu_tau -> chi^0_2 nu_tau)
     2.29613434E-01    2     1000025        16   # BR(~nu_tau -> chi^0_3 nu_tau)
     6.35121225E-02    2     1000035        16   # BR(~nu_tau -> chi^0_4 nu_tau)
     2.46133965E-01    2     1000024        15   # BR(~nu_tau -> chi^+_1 tau^-)
     4.58300775E-01    2     1000037        15   # BR(~nu_tau -> chi^+_2 tau^-)
#    BR                NDA      ID1      ID2       ID3
DECAY   2000001     5.67346823E+02   # ~d_R
#    BR                NDA      ID1      ID2
     9.24281801E-03    2     1000035         1   # BR(~d_R -> chi^0_4 d)
     9.90750757E-01    2     1000021         1   # BR(~d_R -> ~g d)
DECAY   1000001     6.96721670E+02   # ~d_L
#    BR                NDA      ID1      ID2
     3.98646089E-04    2     1000022         1   # BR(~d_L -> chi^0_1 d)
     1.51911274E-04    2     1000023         1   # BR(~d_L -> chi^0_2 d)
     6.20328026E-02    2     1000025         1   # BR(~d_L -> chi^0_3 d)
     1.93314611E-03    2     1000035         1   # BR(~d_L -> chi^0_4 d)
     1.19872022E-04    2    -1000024         2   # BR(~d_L -> chi^-_1 u)
     1.25124557E-01    2    -1000037         2   # BR(~d_L -> chi^-_2 u)
     8.10239065E-01    2     1000021         1   # BR(~d_L -> ~g d)
DECAY   2000003     5.67434911E+02   # ~s_R
#    BR                NDA      ID1      ID2
     9.24138988E-03    2     1000035         3   # BR(~s_R -> chi^0_4 s)
     9.90597904E-01    2     1000021         3   # BR(~s_R -> ~g s)
DECAY   1000003     6.96769529E+02   # ~s_L
#    BR                NDA      ID1      ID2
     4.30575774E-04    2     1000022         3   # BR(~s_L -> chi^0_1 s)
     1.82890254E-04    2     1000023         3   # BR(~s_L -> chi^0_2 s)
     6.20285900E-02    2     1000025         3   # BR(~s_L -> chi^0_3 s)
     1.93301475E-03    2     1000035         3   # BR(~s_L -> chi^0_4 s)
     1.25017435E-04    2    -1000024         4   # BR(~s_L -> chi^-_1 c)
     1.25116078E-01    2    -1000037         4   # BR(~s_L -> chi^-_2 c)
     8.10183834E-01    2     1000021         3   # BR(~s_L -> ~g s)
DECAY   1000005     1.50996572E+02   # ~b_1
#    BR                NDA      ID1      ID2
     1.39130506E-01    2     1000022         5   # BR(~b_1 -> chi^0_1 b)
     1.34425467E-01    2     1000023         5   # BR(~b_1 -> chi^0_2 b)
     8.55330482E-02    2     1000025         5   # BR(~b_1 -> chi^0_3 b)
     1.68876047E-03    2     1000035         5   # BR(~b_1 -> chi^0_4 b)
     4.60017591E-01    2    -1000024         6   # BR(~b_1 -> chi^-_1 t)
     1.79204627E-01    2    -1000037         6   # BR(~b_1 -> chi^-_2 t)
DECAY   2000005     1.71440986E+02   # ~b_2
#    BR                NDA      ID1      ID2
     1.75790948E-01    2     1000022         5   # BR(~b_2 -> chi^0_1 b)
     1.70489642E-01    2     1000023         5   # BR(~b_2 -> chi^0_2 b)
     1.62702346E-04    2     1000025         5   # BR(~b_2 -> chi^0_3 b)
     1.21266820E-02    2     1000035         5   # BR(~b_2 -> chi^0_4 b)
     3.45284793E-01    2    -1000024         6   # BR(~b_2 -> chi^-_1 t)
     3.28069865E-04    2    -1000037         6   # BR(~b_2 -> chi^-_2 t)
     2.95394085E-01    2     1000021         5   # BR(~b_2 -> ~g b)
     1.67366532E-04    2     1000006       -24   # BR(~b_2 -> ~t_1 W^-)
     1.73018489E-04    2     1000005        25   # BR(~b_2 -> ~b_1 h^0)
DECAY   2000002     5.83358653E+02   # ~u_R
#    BR                NDA      ID1      ID2
     3.59674598E-02    2     1000035         2   # BR(~u_R -> chi^0_4 u)
     9.64009205E-01    2     1000021         2   # BR(~u_R -> ~g u)
DECAY   1000002     6.96706141E+02   # ~u_L
#    BR                NDA      ID1      ID2
     3.32302600E-04    2     1000022         2   # BR(~u_L -> chi^0_1 u)
     1.21072704E-04    2     1000023         2   # BR(~u_L -> chi^0_2 u)
     6.22238615E-02    2     1000025         2   # BR(~u_L -> chi^0_3 u)
     1.84112703E-03    2     1000035         2   # BR(~u_L -> chi^0_4 u)
     1.90388031E-03    2     1000024         1   # BR(~u_L -> chi^+_1 d)
     1.23371357E-01    2     1000037         1   # BR(~u_L -> chi^+_2 d)
     8.10206399E-01    2     1000021         2   # BR(~u_L -> ~g u)
DECAY   2000004     5.83365946E+02   # ~c_R
#    BR                NDA      ID1      ID2
     3.59670153E-02    2     1000035         4   # BR(~c_R -> chi^0_4 c)
     9.63997185E-01    2     1000021         4   # BR(~c_R -> ~g c)
DECAY   1000004     6.96753979E+02   # ~c_L
#    BR                NDA      ID1      ID2
     3.34824834E-04    2     1000022         4   # BR(~c_L -> chi^0_1 c)
     1.23709123E-04    2     1000023         4   # BR(~c_L -> chi^0_2 c)
     6.22196473E-02    2     1000025         4   # BR(~c_L -> chi^0_3 c)
     1.84100382E-03    2     1000035         4   # BR(~c_L -> chi^0_4 c)
     1.96666626E-03    2     1000024         3   # BR(~c_L -> chi^+_1 s)
     1.23362984E-01    2     1000037         3   # BR(~c_L -> chi^+_2 s)
     8.10151164E-01    2     1000021         4   # BR(~c_L -> ~g c)
DECAY   1000006     1.58528145E+02   # ~t_1
#    BR                NDA      ID1      ID2
     1.69115348E-04    2     1000022         4   # BR(~t_1 -> chi^0_1 c)
     2.18322966E-01    2     1000022         6   # BR(~t_1 -> chi^0_1 t)
     2.25273053E-01    2     1000023         6   # BR(~t_1 -> chi^0_2 t)
     7.95257683E-02    2     1000025         6   # BR(~t_1 -> chi^0_3 t)
     1.68641989E-03    2     1000035         6   # BR(~t_1 -> chi^0_4 t)
     2.72297751E-01    2     1000024         5   # BR(~t_1 -> chi^+_1 b)
     1.51494274E-01    2     1000037         5   # BR(~t_1 -> chi^+_2 b)
#    BR                NDA      ID1      ID2       ID3
     5.11690711E-02    3     1000022        24         5   # BR(~t_1 -> chi^0_1 W^+ b)
DECAY   2000006     3.40110183E+02   # ~t_2
#    BR                NDA      ID1      ID2
     1.29385564E-01    2     1000022         6   # BR(~t_2 -> chi^0_1 t)
     1.35125387E-01    2     1000023         6   # BR(~t_2 -> chi^0_2 t)
     4.92392526E-03    2     1000025         6   # BR(~t_2 -> chi^0_3 t)
     2.04559226E-02    2     1000035         6   # BR(~t_2 -> chi^0_4 t)
     2.59385957E-01    2     1000024         5   # BR(~t_2 -> chi^+_1 b)
     9.85890608E-03    2     1000037         5   # BR(~t_2 -> chi^+_2 b)
     3.85613928E-02    2     1000021         6   # BR(~t_2 -> ~g t)
     1.73667536E-01    2     1000005        24   # BR(~t_2 -> ~b_1 W^+)
     8.90450067E-02    2     1000006        23   # BR(~t_2 -> ~t_1 Z)
     1.39590402E-01    2     1000006        25   # BR(~t_2 -> ~t_1 h^0)
DECAY   1000024     4.41809424E-10   # chi^+_1
#    BR                NDA      ID1      ID2       ID3
     4.45139782E-01    3     1000022        -1         2   # BR(chi^+_1 -> chi^0_1 d_bar u)
     2.22196775E-01    3     1000022        -3         4   # BR(chi^+_1 -> chi^0_1 s_bar c)
     1.48379956E-01    3     1000022       -11        12   # BR(chi^+_1 -> chi^0_1 e^+ nu_e)
     1.47646355E-01    3     1000022       -13        14   # BR(chi^+_1 -> chi^0_1 mu^+ nu_mu)
     3.66371320E-02    3     1000022       -15        16   # BR(chi^+_1 -> chi^0_1 tau^+ nu_tau)
DECAY   1000037     8.82329895E+00   # chi^+_2
#    BR                NDA      ID1      ID2
     2.45508617E-01    2     1000022        24   # BR(chi^+_2 -> chi^0_1 W^+)
     2.55930324E-01    2     1000023        24   # BR(chi^+_2 -> chi^0_2 W^+)
     2.48627120E-01    2     1000024        23   # BR(chi^+_2 -> chi^+_1 Z)
     2.38311925E-01    2     1000024        25   # BR(chi^+_2 -> chi^+_1 h^0)
#    BR                NDA      ID1      ID2       ID3
     3.53028426E-03    3     1000024         6        -6   # BR(chi^+_2 -> chi^+_1 t t_bar)
     4.05855408E-03    3     1000022        -5         6   # BR(chi^+_2 -> chi^0_1 b_bar t)
     4.01860294E-03    3     1000023        -5         6   # BR(chi^+_2 -> chi^0_2 b_bar t)
DECAY   1000022     0.00000000E+00   # chi^0_1
DECAY   1000023     1.86528087E-07   # chi^0_2
#    BR                NDA      ID1      ID2
     4.04382622E-01    2     1000022        22   # BR(chi^0_2 -> chi^0_1 photon)
#    BR                NDA      ID1      ID2       ID3
     7.46613542E-02    3     1000022         2        -2   # BR(chi^0_2 -> chi^0_1 u u_bar)
     5.37912027E-02    3     1000022         4        -4   # BR(chi^0_2 -> chi^0_1 c c_bar)
     9.57307217E-02    3     1000022         1        -1   # BR(chi^0_2 -> chi^0_1 d d_bar)
     9.55789565E-02    3     1000022         3        -3   # BR(chi^0_2 -> chi^0_1 s s_bar)
     2.16037083E-02    3     1000022        11       -11   # BR(chi^0_2 -> chi^0_1 e^- e^+)
     2.15498055E-02    3     1000022        13       -13   # BR(chi^0_2 -> chi^0_1 mu^- mu^+)
     1.04828259E-02    3     1000022        15       -15   # BR(chi^0_2 -> chi^0_1 tau^- tau^+)
     1.28019599E-01    3     1000022        12       -12   # BR(chi^0_2 -> chi^0_1 nu_e nu_bar_e)
     1.84660851E-02    3     1000024         1        -2   # BR(chi^0_2 -> chi^+_1 d u_bar)
     1.84660851E-02    3    -1000024        -1         2   # BR(chi^0_2 -> chi^-_1 d_bar u)
     1.31554036E-02    3     1000024         3        -4   # BR(chi^0_2 -> chi^+_1 s c_bar)
     1.31554036E-02    3    -1000024        -3         4   # BR(chi^0_2 -> chi^-_1 s_bar c)
     6.15538479E-03    3     1000024        11       -12   # BR(chi^0_2 -> chi^+_1 e^- nu_bar_e)
     6.15538479E-03    3    -1000024       -11        12   # BR(chi^0_2 -> chi^-_1 e^+ nu_e)
     6.14045099E-03    3     1000024        13       -14   # BR(chi^0_2 -> chi^+_1 mu^- nu_bar_mu)
     6.14045099E-03    3    -1000024       -13        14   # BR(chi^0_2 -> chi^-_1 mu^+ nu_mu)
     3.18227726E-03    3     1000024        15       -16   # BR(chi^0_2 -> chi^+_1 tau^- nu_bar_tau)
     3.18227726E-03    3    -1000024       -15        16   # BR(chi^0_2 -> chi^-_1 tau^+ nu_tau)
DECAY   1000025     9.76054866E+00   # chi^0_3
#    BR                NDA      ID1      ID2
     2.30861918E-01    2     1000024       -24   # BR(chi^0_3 -> chi^+_1 W^-)
     2.30861918E-01    2    -1000024        24   # BR(chi^0_3 -> chi^-_1 W^+)
     5.84295653E-02    2     1000022        23   # BR(chi^0_3 -> chi^0_1 Z)
     1.68891818E-01    2     1000023        23   # BR(chi^0_3 -> chi^0_2 Z)
     1.52761909E-01    2     1000022        25   # BR(chi^0_3 -> chi^0_1 h^0)
     1.48151479E-01    2     1000023        25   # BR(chi^0_3 -> chi^0_2 h^0)
#    BR                NDA      ID1      ID2       ID3
     1.29403465E-03    3     1000022         6        -6   # BR(chi^0_3 -> chi^0_1 t t_bar)
     1.25781367E-03    3     1000023         6        -6   # BR(chi^0_3 -> chi^0_2 t t_bar)
     3.73362331E-03    3     1000024         5        -6   # BR(chi^0_3 -> chi^+_1 b t_bar)
     3.73362331E-03    3    -1000024        -5         6   # BR(chi^0_3 -> chi^-_1 b_bar t)
DECAY   1000035     5.41507827E+00   # chi^0_4
#    BR                NDA      ID1      ID2
     2.25869158E-01    2     1000024       -24   # BR(chi^0_4 -> chi^+_1 W^-)
     2.25869158E-01    2    -1000024        24   # BR(chi^0_4 -> chi^-_1 W^+)
     7.00358224E-03    2     1000037       -24   # BR(chi^0_4 -> chi^+_2 W^-)
     7.00358224E-03    2    -1000037        24   # BR(chi^0_4 -> chi^-_2 W^+)
     8.18197752E-02    2     1000022        23   # BR(chi^0_4 -> chi^0_1 Z)
     1.53440656E-01    2     1000023        23   # BR(chi^0_4 -> chi^0_2 Z)
     6.24506853E-04    2     1000025        23   # BR(chi^0_4 -> chi^0_3 Z)
     1.35074133E-01    2     1000022        25   # BR(chi^0_4 -> chi^0_1 h^0)
     1.30200673E-01    2     1000023        25   # BR(chi^0_4 -> chi^0_2 h^0)
     6.27135140E-03    2     1000025        25   # BR(chi^0_4 -> chi^0_3 h^0)
#    BR                NDA      ID1      ID2       ID3
     5.18991400E-03    3     1000022         6        -6   # BR(chi^0_4 -> chi^0_1 t t_bar)
     1.01794530E-04    3     1000022         5        -5   # BR(chi^0_4 -> chi^0_1 b b_bar)
     5.25879766E-03    3     1000023         6        -6   # BR(chi^0_4 -> chi^0_2 t t_bar)
     1.01104999E-04    3     1000023         5        -5   # BR(chi^0_4 -> chi^0_2 b b_bar)
     7.85599509E-03    3     1000024         5        -6   # BR(chi^0_4 -> chi^+_1 b t_bar)
     7.85599509E-03    3    -1000024        -5         6   # BR(chi^0_4 -> chi^-_1 b_bar t)
     1.69373313E-04    3     1000037         5        -6   # BR(chi^0_4 -> chi^+_2 b t_bar)
     1.69373313E-04    3    -1000037        -5         6   # BR(chi^0_4 -> chi^-_2 b_bar t)
DECAY   1000021     1.66270974E+01   # ~g
#    BR                NDA      ID1      ID2
     7.70199330E-02    2     1000006        -4   # BR(~g -> ~t_1 c_bar)
     7.70199330E-02    2    -1000006         4   # BR(~g -> ~t^*_1 c)
     1.99514414E-01    2     1000006        -6   # BR(~g -> ~t_1 t_bar)
     1.99514414E-01    2    -1000006         6   # BR(~g -> ~t^*_1 t)
     2.14734229E-01    2     1000005        -5   # BR(~g -> ~b_1 b_bar)
     2.14734229E-01    2    -1000005         5   # BR(~g -> ~b^*_1 b)
     1.30264083E-04    2     1000022        21   # BR(~g -> chi^0_1 g)
     1.59610807E-04    2     1000023        21   # BR(~g -> chi^0_2 g)
#    BR                NDA      ID1      ID2       ID3
     3.14188900E-03    3     1000022         6        -6   # BR(~g -> chi^0_1 t t_bar)
     9.33202437E-04    3     1000022         5        -5   # BR(~g -> chi^0_1 b b_bar)
     3.28069219E-03    3     1000023         6        -6   # BR(~g -> chi^0_2 t t_bar)
     9.04115679E-04    3     1000023         5        -5   # BR(~g -> chi^0_2 b b_bar)
     2.89693985E-04    3     1000035         6        -6   # BR(~g -> chi^0_4 t t_bar)
     4.01817295E-03    3     1000024         5        -6   # BR(~g -> chi^+_1 b t_bar)
     4.01817295E-03    3    -1000024        -5         6   # BR(~g -> chi^-_1 b_bar t)
DECAY        25     4.30311484E-03   # Gamma(h0)
     2.33413888E-03   2        22        22   # BR(h0 -> photon photon)
     1.73637038E-03   2        22        23   # BR(h0 -> photon Z)
     3.55373533E-02   2        23        23   # BR(h0 -> Z Z)
     2.77788207E-01   2       -24        24   # BR(h0 -> W W)
     6.99077714E-02   2        21        21   # BR(h0 -> gluon gluon)
     4.73291200E-09   2       -11        11   # BR(h0 -> Electron electron)
     2.10529862E-04   2       -13        13   # BR(h0 -> Muon muon)
     6.07067955E-02   2       -15        15   # BR(h0 -> Tau tau)
     1.33424568E-07   2        -2         2   # BR(h0 -> Up up)
     2.58931237E-02   2        -4         4   # BR(h0 -> Charm charm)
     5.45615991E-07   2        -1         1   # BR(h0 -> Down down)
     1.97337162E-04   2        -3         3   # BR(h0 -> Strange strange)
     5.25687689E-01   2        -5         5   # BR(h0 -> Bottom bottom)
DECAY        35     1.02371772E+02   # Gamma(HH)
     6.16402899E-09   2        22        22   # BR(HH -> photon photon)
     2.64966079E-08   2        22        23   # BR(HH -> photon Z)
     2.47851883E-07   2        23        23   # BR(HH -> Z Z)
     8.98074789E-08   2       -24        24   # BR(HH -> W W)
     9.38474008E-06   2        21        21   # BR(HH -> gluon gluon)
     8.86752506E-09   2       -11        11   # BR(HH -> Electron electron)
     3.94808424E-04   2       -13        13   # BR(HH -> Muon muon)
     1.14023090E-01   2       -15        15   # BR(HH -> Tau tau)
     3.31070537E-14   2        -2         2   # BR(HH -> Up up)
     6.42217075E-09   2        -4         4   # BR(HH -> Charm charm)
     4.63171008E-04   2        -6         6   # BR(HH -> Top top)
     6.57223671E-07   2        -1         1   # BR(HH -> Down down)
     2.37723914E-04   2        -3         3   # BR(HH -> Strange strange)
     6.39662945E-01   2        -5         5   # BR(HH -> Bottom bottom)
     3.38878892E-03   2  -1000024   1000024   # BR(HH -> Chargino1 chargino1)
     7.77385265E-02   2  -1000024   1000037   # BR(HH -> Chargino1 chargino2)
     7.77385265E-02   2  -1000037   1000024   # BR(HH -> Chargino2 chargino1)
     6.70880249E-05   2  -1000037   1000037   # BR(HH -> Chargino2 chargino2)
     8.10345692E-04   2   1000022   1000022   # BR(HH -> neutralino1 neutralino1)
     6.59542968E-05   2   1000022   1000023   # BR(HH -> neutralino1 neutralino2)
     3.52523830E-02   2   1000022   1000025   # BR(HH -> neutralino1 neutralino3)
     2.62485493E-03   2   1000022   1000035   # BR(HH -> neutralino1 neutralino4)
     3.34244199E-04   2   1000023   1000023   # BR(HH -> neutralino2 neutralino2)
     4.26868896E-02   2   1000023   1000025   # BR(HH -> neutralino2 neutralino3)
     4.46568318E-03   2   1000023   1000035   # BR(HH -> neutralino2 neutralino4)
     3.33569513E-05   2   1000025   1000025   # BR(HH -> neutralino3 neutralino3)
     1.19229629E-06   2        25        25   # BR(HH -> h0 h0)
DECAY        36     9.77302114E+01   # Gamma(A0)
     6.35422175E-08   2        22        22   # BR(A0 -> photon photon)
     8.72775910E-08   2        22        23   # BR(A0 -> photon Z)
     1.55100415E-05   2        21        21   # BR(A0 -> gluon gluon)
     8.72969532E-09   2       -11        11   # BR(A0 -> Electron electron)
     3.88670569E-04   2       -13        13   # BR(A0 -> Muon muon)
     1.12250670E-01   2       -15        15   # BR(A0 -> Tau tau)
     3.08369256E-14   2        -2         2   # BR(A0 -> Up up)
     5.98150363E-09   2        -4         4   # BR(A0 -> Charm charm)
     4.39022668E-04   2        -6         6   # BR(A0 -> Top top)
     6.46982760E-07   2        -1         1   # BR(A0 -> Down down)
     2.34019331E-04   2        -3         3   # BR(A0 -> Strange strange)
     6.29705640E-01   2        -5         5   # BR(A0 -> Bottom bottom)
     3.72710288E-03   2  -1000024   1000024   # BR(A0 -> Chargino1 chargino1)
     8.13143758E-02   2  -1000024   1000037   # BR(A0 -> Chargino1 chargino2)
     8.13143758E-02   2  -1000037   1000024   # BR(A0 -> Chargino2 chargino1)
     1.96875719E-04   2  -1000037   1000037   # BR(A0 -> Chargino2 chargino2)
     9.47339806E-04   2   1000022   1000022   # BR(A0 -> neutralino1 neutralino1)
     4.56514756E-05   2   1000022   1000023   # BR(A0 -> neutralino1 neutralino2)
     4.57258351E-02   2   1000022   1000025   # BR(A0 -> neutralino1 neutralino3)
     4.81276004E-03   2   1000022   1000035   # BR(A0 -> neutralino1 neutralino4)
     3.30410636E-04   2   1000023   1000023   # BR(A0 -> neutralino2 neutralino2)
     3.58346443E-02   2   1000023   1000025   # BR(A0 -> neutralino2 neutralino3)
     2.61830610E-03   2   1000023   1000035   # BR(A0 -> neutralino2 neutralino4)
     9.75887006E-05   2   1000025   1000025   # BR(A0 -> neutralino3 neutralino3)
     3.87697991E-07   2        23        25   # BR(A0 -> Z h0)
     3.90814853E-41   2        25        25   # BR(A0 -> h0 h0)
DECAY        37     1.02274404E+02   # Gamma(Hp)
     9.36268188E-09   2       -11        12   # BR(Hp -> Electron nu_e)
     4.00283892E-04   2       -13        14   # BR(Hp -> Muon nu_mu)
     1.13223022E-01   2       -15        16   # BR(Hp -> Tau nu_tau)
     6.04557341E-07   2        -1         2   # BR(Hp -> Down up)
     1.01898277E-05   2        -3         2   # BR(Hp -> Strange up)
     6.77620392E-06   2        -5         2   # BR(Hp -> Bottom up)
     2.84669382E-08   2        -1         4   # BR(Hp -> Down charm)
     2.17898754E-04   2        -3         4   # BR(Hp -> Strange charm)
     9.48910893E-04   2        -5         4   # BR(Hp -> Bottom charm)
     3.03015967E-08   2        -1         6   # BR(Hp -> Down top)
     9.82130116E-07   2        -3         6   # BR(Hp -> Strange top)
     6.39883563E-01   2        -5         6   # BR(Hp -> Bottom top)
     1.44356958E-04   2   1000022   1000024   # BR(Hp -> neutralino1 chargino1)
     8.09663385E-02   2   1000022   1000037   # BR(Hp -> neutralino1 chargino2)
     5.64598887E-04   2   1000023   1000024   # BR(Hp -> neutralino2 chargino1)
     7.75465586E-02   2   1000023   1000037   # BR(Hp -> neutralino2 chargino2)
     7.90574293E-02   2   1000024   1000025   # BR(Hp -> chargino1 neutralino3)
     1.10267337E-09   2   1000025   1000037   # BR(Hp -> neutralino3 chargino2)
     7.02804507E-03   2   1000024   1000035   # BR(Hp -> chargino1 neutralino4)
     3.71741741E-07   2        24        25   # BR(Hp -> W h0)
     3.44793368E-12   2        24        35   # BR(Hp -> W HH)
     7.86767660E-13   2        24        36   # BR(Hp -> W A0)
DECAY         6     2.43000000E+00   # top
#    BR                NDA      ID1      ID2
     1.00000000E+00    2           5        24   # BR(t -> b W)
Block HiggsBoundsInputHiggsCouplingsFermions
# ScalarNormEffCoupSq PseudoSNormEffCoupSq NP IP1 IP2 IP2
    9.75238239E-01    0.00000000E+00        3  25   5   5  # h0-b-b eff. coupling^2, normalised to SM
    2.13687729E+03    0.00000000E+00        3  35   5   5  # H0-b-b eff. coupling^2, normalised to SM
    0.00000000E+00    2.13685252E+03        3  36   5   5  # A0-b-b eff. coupling^2, normalised to SM
#
    1.00001159E+00    0.00000000E+00        3  25   6   6  # h0-t-t eff. coupling^2, normalised to SM
    4.56390054E-04    0.00000000E+00        3  35   6   6  # H0-t-t eff. coupling^2, normalised to SM
    0.00000000E+00    4.67978014E-04        3  36   6   6  # A0-t-t eff. coupling^2, normalised to SM
#
    9.75238239E-01    0.00000000E+00        3  25  15  15  # h0-tau-tau eff. coupling^2, normalised to SM
    2.13687729E+03    0.00000000E+00        3  35  15  15  # H0-tau-tau eff. coupling^2, normalised to SM
    0.00000000E+00    2.13685252E+03        3  36  15  15  # A0-tau-tau eff. coupling^2, normalised to SM
#
Block HiggsBoundsInputHiggsCouplingsBosons
    9.99999927E-01        3  25  24  24  # h0-W-W eff. coupling^2, normalised to SM
    7.26362727E-08        3  35  24  24  # H0-W-W eff. coupling^2, normalised to SM
    0.00000000E+00        3  36  24  24  # A0-W-W eff. coupling^2, normalised to SM
#
    9.99999927E-01        3  25  23  23  # h0-Z-Z eff. coupling^2, normalised to SM
    7.26362727E-08        3  35  23  23  # H0-Z-Z eff. coupling^2, normalised to SM
    0.00000000E+00        3  36  23  23  # A0-Z-Z eff. coupling^2, normalised to SM
#
    1.26321205E+00        3  25  21  21  # h0-g-g eff. coupling^2, normalised to SM
    1.20815509E-02        3  35  21  21  # H0-g-g eff. coupling^2, normalised to SM
    1.38958759E-01        3  36  21  21  # A0-g-g eff. coupling^2, normalised to SM
#
    0.00000000E+00        3  25  25  23  # h0-h0-Z eff. coupling^2, normalised to SM
    0.00000000E+00        3  35  25  23  # H0-h0-Z eff. coupling^2, normalised to SM
    7.26362727E-08        3  36  25  23  # A0-h0-Z eff. coupling^2, normalised to SM
    0.00000000E+00        3  35  35  23  # H0-H0-Z eff. coupling^2, normalised to SM
    9.99999927E-01        3  36  35  23  # A0-H0-Z eff. coupling^2, normalised to SM
    0.00000000E+00        3  36  36  23  # A0-A0-Z eff. coupling^2, normalised to SM
#
    0.00000000E+00        4  25  21  21  23  # h0-g-g-Z eff. coupling^2, normalised to SM
    0.00000000E+00        4  35  21  21  23  # H0-g-g-Z eff. coupling^2, normalised to SM
    0.00000000E+00        4  36  21  21  23  # A0-g-g-Z eff. coupling^2, normalised to SM
Block SPhenoLowEnergy  # low energy observables
    1    3.11713814E-04   # BR(b -> s gamma)
    2    1.59223339E-06   # BR(b -> s mu+ mu-)
    3    3.52669249E-05   # BR(b -> s nu nu)
    4    3.90899726E-15   # BR(Bd -> e+ e-)
    5    1.66982248E-10   # BR(Bd -> mu+ mu-)
    6    3.46292124E-08   # BR(Bd -> tau+ tau-)
    7    1.30597379E-13   # BR(Bs -> e+ e-)
    8    5.57893293E-09   # BR(Bs -> mu+ mu-)
    9    1.17266793E-06   # BR(Bs -> tau+ tau-)
   10    9.51481885E-05   # BR(B_u -> tau nu)
   11    9.82844360E-01   # BR(B_u -> tau nu)/BR(B_u -> tau nu)_SM
   12    5.41767138E-01   # |Delta(M_Bd)| [ps^-1] 
   13    1.93434350E+01   # |Delta(M_Bs)| [ps^-1] 
   14    0.00000000E+00   # neutron EDM according to the chiral quark model
   15    0.00000000E+00   # neutron EDM according to the relativistic quark-parton model
   16    2.15669316E-03   # epsilon_K
   17    2.28165390E-15   # Delta(M_K)
   18    2.48092323E-11   # BR(K^0 -> pi^0 nu nu)
   19    8.29271240E-11   # BR(K^+ -> pi^+ nu nu)
   20    3.57678008E-16   # Delta(g-2)_electron/2
   21    1.52919243E-11   # Delta(g-2)_muon/2
   22    4.33064871E-09   # Delta(g-2)_tau/2
   23    0.00000000E+00   # electric dipole moment of the electron
   24    0.00000000E+00   # electric dipole moment of the muon
   25    0.00000000E+00   # electric dipole moment of the tau
   26    0.00000000E+00   # Br(mu -> e gamma)
   27    0.00000000E+00   # Br(tau -> e gamma)
   28    0.00000000E+00   # Br(tau -> mu gamma)
   29    0.00000000E+00   # Br(mu -> 3 e)
   30    0.00000000E+00   # Br(tau -> 3 e)
   31    0.00000000E+00   # Br(tau -> 3 mu)
   39    6.79864326E-05   # Delta(rho_parameter)
   40    0.00000000E+00   # BR(Z -> e mu)
   41    0.00000000E+00   # BR(Z -> e tau)
   42    0.00000000E+00   # BR(Z -> mu tau)
Block FWCOEF Q=  1.60000000E+02  # Wilson coefficients at scale Q
#    id        order  M        value         comment
     0305 4422   00   0    -1.88819110E-01   # C7
     0305 4422   00   2    -1.77028801E-01   # C7
     0305 4322   00   2    -2.78042546E-05   # C7'
     0305 6421   00   0    -9.52278348E-02   # C8
     0305 6421   00   2    -9.57728373E-02   # C8
     0305 6321   00   2    -1.67252321E-04   # C8'
 03051111 4133   00   0     1.62709152E+00   # C9 e+e-
 03051111 4133   00   2     1.62741417E+00   # C9 e+e-
 03051111 4233   00   2     6.47661589E-04   # C9' e+e-
 03051111 4137   00   0    -4.44978362E+00   # C10 e+e-
 03051111 4137   00   2    -4.44970558E+00   # C10 e+e-
 03051111 4237   00   2    -4.79122464E-03   # C10' e+e-
 03051313 4133   00   0     1.62709152E+00   # C9 mu+mu-
 03051313 4133   00   2     1.62741396E+00   # C9 mu+mu-
 03051313 4233   00   2     6.47660478E-04   # C9' mu+mu-
 03051313 4137   00   0    -4.44978362E+00   # C10 mu+mu-
 03051313 4137   00   2    -4.44970578E+00   # C10 mu+mu-
 03051313 4237   00   2    -4.79122435E-03   # C10' mu+mu-
 03051212 4137   00   0     1.50535012E+00   # C11 nu_1 nu_1
 03051212 4137   00   2     1.50533533E+00   # C11 nu_1 nu_1
 03051212 4237   00   2     1.03594917E-03   # C11' nu_1 nu_1
 03051414 4137   00   0     1.50535012E+00   # C11 nu_2 nu_2
 03051414 4137   00   2     1.50533533E+00   # C11 nu_2 nu_2
 03051414 4237   00   2     1.03594937E-03   # C11' nu_2 nu_2
 03051616 4137   00   0     1.50535012E+00   # C11 nu_3 nu_3
 03051616 4137   00   2     1.50533534E+00   # C11 nu_3 nu_3
 03051616 4237   00   2     1.03600453E-03   # C11' nu_3 nu_3
Block IMFWCOEF Q=  1.60000000E+02  # Im(Wilson coefficients) at scale Q
#    id        order  M        value         comment
     0305 4422   00   0     3.85832659E-07   # C7
     0305 4422   00   2     1.81252193E-05   # C7
     0305 4322   00   2     2.46058841E-06   # C7'
     0305 6421   00   0     3.30491189E-07   # C8
     0305 6421   00   2    -1.02917965E-05   # C8
     0305 6321   00   2     7.92836628E-07   # C8'
 03051111 4133   00   2     3.74374202E-07   # C9 e+e-
 03051111 4233   00   2     1.28053221E-05   # C9' e+e-
 03051111 4137   00   2     2.35660754E-06   # C10 e+e-
 03051111 4237   00   2    -9.47335321E-05   # C10' e+e-
 03051313 4133   00   2     3.74367176E-07   # C9 mu+mu-
 03051313 4233   00   2     1.28053184E-05   # C9' mu+mu-
 03051313 4137   00   2     2.35661421E-06   # C10 mu+mu-
 03051313 4237   00   2    -9.47335432E-05   # C10' mu+mu-
 03051212 4137   00   2    -4.72386224E-07   # C11 nu_1 nu_1
 03051212 4237   00   2     2.04830985E-05   # C11' nu_1 nu_1
 03051414 4137   00   2    -4.72385941E-07   # C11 nu_2 nu_2
 03051414 4237   00   2     2.04830985E-05   # C11' nu_2 nu_2
 03051616 4137   00   2    -4.72307226E-07   # C11 nu_3 nu_3
 03051616 4237   00   2     2.04830985E-05   # C11' nu_3 nu_3
