#
#                              ======================
#                              | THE SUSYHIT OUTPUT |
#                              ======================
#
#
#              ------------------------------------------------------
#              |     This is the output of the SUSY-HIT package     |
#              |  created by A.Djouadi, M.Muehlleitner and M.Spira. |
#              |  In case of problems with SUSY-HIT email to        |
#              |           margarete.muehlleitner@cern.ch           |
#              |           michael.spira@psi.ch                     |
#              |           abdelhak.djouadi@cern.ch                 |
#              ------------------------------------------------------
#
#              ------------------------------------------------------
#              |  SUSY Les Houches Accord - MSSM Spectrum + Decays  |
#              |              based on the decay programs           |
#              |                                                    |
#              |                     SDECAY 1.3b                    |
#              |                                                    |
#              |  Authors: M.Muhlleitner, A.Djouadi and Y.Mambrini  |
#              |  Ref.:    Comput.Phys.Commun.168(2005)46           |
#              |           [hep-ph/0311167]                         |
#              |                                                    |
#              |                     HDECAY 3.4                     |
#              |                                                    |
#              |  By: A.Djouadi,J.Kalinowski,M.Muhlleitner,M.Spira  |
#              |  Ref.:    Comput.Phys.Commun.108(1998)56           |
#              |           [hep-ph/9704448]                         |
#              |                                                    |
#              |                                                    |
#              |  If not stated otherwise all DRbar couplings and   |
#              |  soft SUSY breaking masses are given at the scale  |
#              |  Q=  0.34749060E+04
#              |                                                    |
#              ------------------------------------------------------
#
#
BLOCK DCINFO  # Decay Program information
     1   SDECAY/HDECAY # decay calculator
     2   1.3b  /3.4    # version number
#
BLOCK SPINFO  # Spectrum calculator information
     1     SOFTSUSY    # spectrum calculator               
     2     3.4.0       # version number                    
#
BLOCK MODSEL  # Model selection
     1     0   #  nonUniversal                                     
#
BLOCK SMINPUTS  # Standard Model inputs
         1     1.27908970E+02   # alpha_em^-1(M_Z)^MSbar
         2     1.16637870E-05   # G_F [GeV^-2]
         3     1.18400000E-01   # alpha_S(M_Z)^MSbar
         4     9.11876000E+01   # M_Z pole mass
         5     4.18000000E+00   # mb(mb)^MSbar
         6     1.73200000E+02   # mt pole mass
         7     1.77700000E+00   # mtau pole mass
#
BLOCK MINPAR  # Input parameters - minimal models
         3     9.27000000E+00   # tanb                
#
BLOCK EXTPAR  # Input parameters - non-minimal models
         0    -1.00000000E+00   # Set                 
         1     2.74890000E+02   # M_1(MX)             
         2    -2.57801000E+03   # M_2(MX)             
         3     3.15131000E+03   # M_3(MX)             
        11    -5.93808000E+03   # At(MX)              
        12     2.92349000E+03   # Ab(MX)              
        13    -7.30120000E+02   # Atau(MX)            
        23     2.62900000E+02   # mu(MX)              
        26     6.27940000E+02   # mA(pole)            
        31     2.91500000E+02   # meL(MX)             
        32     2.91500000E+02   # mmuL(MX)            
        33     1.57572000E+03   # mtauL(MX)           
        34     3.48859000E+03   # meR(MX)             
        35     3.48859000E+03   # mmuR(MX)            
        36     1.38605000E+03   # mtauR(MX)           
        41     9.21490000E+02   # mqL1(MX)            
        42     9.21490000E+02   # mqL2(MX)            
        43     3.90707000E+03   # mqL3(MX)            
        44     3.83069000E+03   # muR(MX)             
        45     3.83069000E+03   # mcR(MX)             
        46     3.09320000E+03   # mtR(MX)             
        47     2.97180000E+02   # mdR(MX)             
        48     2.97180000E+02   # msR(MX)             
        49     1.61394000E+03   # mbR(MX)             
#
BLOCK MASS  # Mass Spectrum
# PDG code           mass       particle
        24     8.03784384E+01   # W+
        25     1.27690820E+02   # h
        35     6.28365717E+02   # H
        36     6.27941022E+02   # A
        37     6.33116822E+02   # H+
         5     4.81876030E+00   # b-quark pole mass calculated from mb(mb)_Msbar
   1000001     1.19646149E+03   # ~d_L
   2000001     7.17752062E+02   # ~d_R
   1000002     1.19398512E+03   # ~u_L
   2000002     3.92209953E+03   # ~u_R
   1000003     1.19646149E+03   # ~s_L
   2000003     7.17752062E+02   # ~s_R
   1000004     1.19398512E+03   # ~c_L
   2000004     3.92209953E+03   # ~c_R
   1000005     1.78421880E+03   # ~b_1
   2000005     3.94575024E+03   # ~b_2
   1000006     3.09726480E+03   # ~t_1
   2000006     3.96248598E+03   # ~t_2
   1000011     4.01262573E+02   # ~e_L
   2000011     3.49470833E+03   # ~e_R
   1000012     3.93717664E+02   # ~nu_eL
   1000013     4.01262573E+02   # ~mu_L
   2000013     3.49470833E+03   # ~mu_R
   1000014     3.93717664E+02   # ~nu_muL
   1000015     1.39489330E+03   # ~tau_1
   2000015     1.60843644E+03   # ~tau_2
   1000016     1.60627599E+03   # ~nu_tauL
   1000021     3.27752560E+03   # ~g
   1000022     2.39011276E+02   # ~chi_10
   1000023    -2.75713675E+02   # ~chi_20
   1000025     3.08211252E+02   # ~chi_30
   1000035    -2.55613399E+03   # ~chi_40
   1000024     2.75782977E+02   # ~chi_1+
   1000037     2.55629994E+03   # ~chi_2+
#
BLOCK NMIX  # Neutralino Mixing Matrix
  1  1     7.32668777E-01   # N_11
  1  2     1.41549478E-02   # N_12
  1  3     5.07284392E-01   # N_13
  1  4    -4.53496027E-01   # N_14
  2  1    -5.04260530E-02   # N_21
  2  2    -2.12089739E-02   # N_22
  2  3     7.05286342E-01   # N_23
  2  4     7.06808721E-01   # N_24
  3  1     6.78714558E-01   # N_31
  3  2    -1.61579289E-02   # N_32
  3  3    -4.95210734E-01   # N_33
  3  4     5.42080989E-01   # N_34
  4  1    -4.73967546E-04   # N_41
  4  2     9.99544265E-01   # N_42
  4  3    -2.23866307E-04   # N_43
  4  4     3.01825617E-02   # N_44
#
BLOCK UMIX  # Chargino Mixing Matrix U
  1  1     3.13433655E-04   # U_11
  1  2     9.99999951E-01   # U_12
  2  1    -9.99999951E-01   # U_21
  2  2     3.13433655E-04   # U_22
#
BLOCK VMIX  # Chargino Mixing Matrix V
  1  1     4.26848865E-02   # V_11
  1  2     9.99088585E-01   # V_12
  2  1     9.99088585E-01   # V_21
  2  2    -4.26848865E-02   # V_22
#
BLOCK STOPMIX  # Stop Mixing Matrix
  1  1     1.36729143E-01   # cos(theta_t)
  1  2     9.90608470E-01   # sin(theta_t)
  2  1    -9.90608470E-01   # -sin(theta_t)
  2  2     1.36729143E-01   # cos(theta_t)
#
BLOCK SBOTMIX  # Sbottom Mixing Matrix
  1  1    -9.90999860E-05   # cos(theta_b)
  1  2     9.99999995E-01   # sin(theta_b)
  2  1    -9.99999995E-01   # -sin(theta_b)
  2  2    -9.90999860E-05   # cos(theta_b)
#
BLOCK STAUMIX  # Stau Mixing Matrix
  1  1     8.48051759E-03   # cos(theta_tau)
  1  2     9.99964040E-01   # sin(theta_tau)
  2  1    -9.99964040E-01   # -sin(theta_tau)
  2  2     8.48051759E-03   # cos(theta_tau)
#
BLOCK ALPHA  # Higgs mixing
          -1.19808469E-01   # Mixing angle in the neutral Higgs boson sector
#
BLOCK HMIX Q=  3.47490600E+03  # DRbar Higgs Parameters
         1     2.66540357E+02   # mu(Q)MSSM           
         2     8.82674403E+00   # tan                 
         3     2.42048603E+02   # higgs               
         4     3.19623806E+05   # mA^2(Q)MSSM         
#
BLOCK GAUGE Q=  3.47490600E+03  # The gauge couplings
     1     3.65856083E-01   # gprime(Q) DRbar
     2     6.39462678E-01   # g(Q) DRbar
     3     1.00883557E+00   # g3(Q) DRbar
#
BLOCK AU Q=  3.47490600E+03  # The trilinear couplings
  1  1     0.00000000E+00   # A_u(Q) DRbar
  2  2     0.00000000E+00   # A_c(Q) DRbar
  3  3    -5.93807998E+03   # A_t(Q) DRbar
#
BLOCK AD Q=  3.47490600E+03  # The trilinear couplings
  1  1     0.00000000E+00   # A_d(Q) DRbar
  2  2     0.00000000E+00   # A_s(Q) DRbar
  3  3     2.92349000E+03   # A_b(Q) DRbar
#
BLOCK AE Q=  3.47490600E+03  # The trilinear couplings
  1  1     0.00000000E+00   # A_e(Q) DRbar
  2  2     0.00000000E+00   # A_mu(Q) DRbar
  3  3    -7.30120000E+02   # A_tau(Q) DRbar
#
BLOCK Yu Q=  3.47490600E+03  # The Yukawa couplings
  1  1     0.00000000E+00   # y_u(Q) DRbar
  2  2     0.00000000E+00   # y_c(Q) DRbar
  3  3     8.13988494E-01   # y_t(Q) DRbar
#
BLOCK Yd Q=  3.47490600E+03  # The Yukawa couplings
  1  1     0.00000000E+00   # y_d(Q) DRbar
  2  2     0.00000000E+00   # y_s(Q) DRbar
  3  3     1.19768759E-01   # y_b(Q) DRbar
#
BLOCK Ye Q=  3.47490600E+03  # The Yukawa couplings
  1  1     0.00000000E+00   # y_e(Q) DRbar
  2  2     0.00000000E+00   # y_mu(Q) DRbar
  3  3     9.03107936E-02   # y_tau(Q) DRbar
#
BLOCK MSOFT Q=  3.47490600E+03  # The soft SUSY breaking masses at the scale Q
         1     2.74890000E+02   # M_1(Q)              
         2    -2.57801000E+03   # M_2(Q)              
         3     3.15131000E+03   # M_3(Q)              
        21     2.48637781E+05   # mH1^2(Q)            
        22     1.25594601E+05   # mH2^2(Q)            
        31     2.91499999E+02   # meL(Q)              
        32     2.91499999E+02   # mmuL(Q)             
        33     1.57572000E+03   # mtauL(Q)            
        34     3.48859000E+03   # meR(Q)              
        35     3.48859000E+03   # mmuR(Q)             
        36     1.38605000E+03   # mtauR(Q)            
        41     9.21489957E+02   # mqL1(Q)             
        42     9.21489957E+02   # mqL2(Q)             
        43     3.90706998E+03   # mqL3(Q)             
        44     3.83068999E+03   # muR(Q)              
        45     3.83068999E+03   # mcR(Q)              
        46     3.09319995E+03   # mtR(Q)              
        47     2.97179868E+02   # mdR(Q)              
        48     2.97179868E+02   # msR(Q)              
        49     1.61393998E+03   # mbR(Q)              
#
Block HiggsBoundsInputHiggsCouplingsFermions
# ScalarNormEffCoupSq PseudoSNormEffCoupSq NP   IP1 IP2 IP2
    1.12729059E+00    0.00000000E+00        3  25   5   5  # h0-b-b eff. coupling^2, normalised to SM
    7.77841196E+01    0.00000000E+00        3  35   5   5  # H0-b-b eff. coupling^2, normalised to SM
    0.00000000E+00    7.79114102E+01        3  36   5   5  # A0-b-b eff. coupling^2, normalised to SM
#
    9.98366214E-01    0.00000000E+00        3  25   6   6  # h0-t-t eff. coupling^2, normalised to SM
    1.44688767E-02    0.00000000E+00        3  35   6   6  # H0-t-t eff. coupling^2, normalised to SM
    0.00000000E+00    1.28350905E-02        3  36   6   6  # A0-t-t eff. coupling^2, normalised to SM
#
    1.12729059E+00    0.00000000E+00        3  25  15  15  # h0-tau-tau eff. coupling^2, normalised to SM
    7.77841196E+01    0.00000000E+00        3  35  15  15  # H0-tau-tau eff. coupling^2, normalised to SM
    0.00000000E+00    7.79114102E+01        3  36  15  15  # A0-tau-tau eff. coupling^2, normalised to SM
#
Block HiggsBoundsInputHiggsCouplingsBosons
    9.99951037E-01        3  25  24  24  # h0-W-W eff. coupling^2, normalised to SM
    4.89630367E-05        3  35  24  24  # H0-W-W eff. coupling^2, normalised to SM
    0.00000000E+00        3  36  24  24  # A0-W-W eff. coupling^2, normalised to SM
#
    9.99951037E-01        3  25  23  23  # h0-Z-Z eff. coupling^2, normalised to SM
    4.89630367E-05        3  35  23  23  # H0-Z-Z eff. coupling^2, normalised to SM
    0.00000000E+00        3  36  23  23  # A0-Z-Z eff. coupling^2, normalised to SM
#
    8.73387202E-01        3  25  21  21  # h0-g-g eff. coupling^2, normalised to SM
    2.75664458E-04        3  35  21  21  # H0-g-g eff. coupling^2, normalised to SM
    8.25995438E-04        3  36  21  21  # A0-g-g eff. coupling^2, normalised to SM
#
    0.00000000E+00        3  25  25  23  # h0-h0-Z eff. coupling^2, normalised to SM
    0.00000000E+00        3  35  25  23  # H0-h0-Z eff. coupling^2, normalised to SM
    4.89630367E-05        3  36  25  23  # A0-h0-Z eff. coupling^2, normalised to SM
    0.00000000E+00        3  35  35  23  # H0-H0-Z eff. coupling^2, normalised to SM
    9.99951037E-01        3  36  35  23  # A0-H0-Z eff. coupling^2, normalised to SM
    0.00000000E+00        3  36  36  23  # A0-A0-Z eff. coupling^2, normalised to SM
#
    0.00000000E+00        4  25  21  21  23  # h0-g-g-Z eff. coupling^2, normalised to SM
    0.00000000E+00        4  35  21  21  23  # H0-g-g-Z eff. coupling^2, normalised to SM
    0.00000000E+00        4  36  21  21  23  # A0-g-g-Z eff. coupling^2, normalised to SM
#
#
#
#                             =================
#                             |The decay table|
#                             =================
#
# - The QCD corrections to the decays gluino -> squark  + quark
#                                     squark -> gaugino + quark_prime
#                                     squark -> squark_prime + Higgs
#                                     squark -> gluino  + quark
#   are included.
#
# - The multi-body decays for the inos, stops and sbottoms are included.
#
# - The loop induced decays for the gluino, neutralinos and stops
#   are included.
#
# - The SUSY decays of the top quark are included.
#
#
#         PDG            Width
DECAY         6     1.44064206E+00   # top decays
#          BR         NDA      ID1       ID2
     1.00000000E+00    2           5        24   # BR(t ->  b    W+)
#
#         PDG            Width
DECAY   1000021     3.55929594E+02   # gluino decays
#          BR         NDA      ID1       ID2
     7.06431391E-02    2     1000001        -1   # BR(~g -> ~d_L  db)
     7.06431391E-02    2    -1000001         1   # BR(~g -> ~d_L* d )
     8.52327776E-02    2     2000001        -1   # BR(~g -> ~d_R  db)
     8.52327776E-02    2    -2000001         1   # BR(~g -> ~d_R* d )
     7.07329962E-02    2     1000002        -2   # BR(~g -> ~u_L  ub)
     7.07329962E-02    2    -1000002         2   # BR(~g -> ~u_L* u )
     7.06431391E-02    2     1000003        -3   # BR(~g -> ~s_L  sb)
     7.06431391E-02    2    -1000003         3   # BR(~g -> ~s_L* s )
     8.52327776E-02    2     2000003        -3   # BR(~g -> ~s_R  sb)
     8.52327776E-02    2    -2000003         3   # BR(~g -> ~s_R* s )
     7.07329903E-02    2     1000004        -4   # BR(~g -> ~c_L  cb)
     7.07329903E-02    2    -1000004         4   # BR(~g -> ~c_L* c )
     4.65645608E-02    2     1000005        -5   # BR(~g -> ~b_1  bb)
     4.65645608E-02    2    -1000005         5   # BR(~g -> ~b_1* b )
     2.17619164E-04    2     1000006        -6   # BR(~g -> ~t_1  tb)
     2.17619164E-04    2    -1000006         6   # BR(~g -> ~t_1* t )
#
#         PDG            Width
DECAY   1000006     8.59717717E+01   # stop1 decays
#          BR         NDA      ID1       ID2
     1.51639086E-01    2     1000022         6   # BR(~t_1 -> ~chi_10 t )
     2.33373076E-01    2     1000023         6   # BR(~t_1 -> ~chi_20 t )
     1.59444542E-01    2     1000025         6   # BR(~t_1 -> ~chi_30 t )
     5.19957932E-04    2     1000035         6   # BR(~t_1 -> ~chi_40 t )
     4.53762048E-01    2     1000024         5   # BR(~t_1 -> ~chi_1+ b )
     1.08018459E-03    2     1000037         5   # BR(~t_1 -> ~chi_2+ b )
     1.81094282E-04    2     1000005        37   # BR(~t_1 -> ~b_1    H+)
     1.18441213E-08    2     1000005        24   # BR(~t_1 -> ~b_1    W+)
#
#         PDG            Width
DECAY   2000006     1.33097039E+02   # stop2 decays
#          BR         NDA      ID1       ID2
     7.28141530E-02    2     1000022         6   # BR(~t_2 -> ~chi_10 t )
     1.92833603E-01    2     1000023         6   # BR(~t_2 -> ~chi_20 t )
     1.28361859E-01    2     1000025         6   # BR(~t_2 -> ~chi_30 t )
     3.99500319E-02    2     1000035         6   # BR(~t_2 -> ~chi_40 t )
     1.94681246E-02    2     1000024         5   # BR(~t_2 -> ~chi_1+ b )
     7.96474364E-02    2     1000037         5   # BR(~t_2 -> ~chi_2+ b )
     1.44540737E-01    2     1000021         6   # BR(~t_2 -> ~g      t )
     1.56655541E-01    2     1000006        25   # BR(~t_2 -> ~t_1    h )
     6.12829628E-04    2     1000006        35   # BR(~t_2 -> ~t_1    H )
     5.42685757E-04    2     1000006        36   # BR(~t_2 -> ~t_1    A )
     3.42239680E-03    2     1000005        37   # BR(~t_2 -> ~b_1    H+)
     1.61149168E-01    2     1000006        23   # BR(~t_2 -> ~t_1    Z )
     1.43385786E-06    2     1000005        24   # BR(~t_2 -> ~b_1    W+)
#
#         PDG            Width
DECAY   1000005     1.96774786E+00   # sbottom1 decays
#          BR         NDA      ID1       ID2
     3.41761620E-01    2     1000022         5   # BR(~b_1 -> ~chi_10 b )
     1.23917966E-01    2     1000023         5   # BR(~b_1 -> ~chi_20 b )
     2.92621096E-01    2     1000025         5   # BR(~b_1 -> ~chi_30 b )
     2.41699318E-01    2    -1000024         6   # BR(~b_1 -> ~chi_1- t )
#
#         PDG            Width
DECAY   2000005     1.30560704E+02   # sbottom2 decays
#          BR         NDA      ID1       ID2
     4.12801349E-03    2     1000022         5   # BR(~b_2 -> ~chi_10 b )
     4.26468852E-03    2     1000023         5   # BR(~b_2 -> ~chi_20 b )
     4.66300786E-03    2     1000025         5   # BR(~b_2 -> ~chi_30 b )
     4.13691342E-02    2     1000035         5   # BR(~b_2 -> ~chi_40 b )
     3.92236266E-01    2    -1000024         6   # BR(~b_2 -> ~chi_1- t )
     8.29526020E-02    2    -1000037         6   # BR(~b_2 -> ~chi_2- t )
     1.56833504E-01    2     1000021         5   # BR(~b_2 -> ~g      b )
     1.58009739E-06    2     1000005        25   # BR(~b_2 -> ~b_1    h )
     1.80441841E-03    2     1000005        35   # BR(~b_2 -> ~b_1    H )
     1.80517998E-03    2     1000005        36   # BR(~b_2 -> ~b_1    A )
     1.03649301E-03    2     1000006       -37   # BR(~b_2 -> ~t_1    H-)
     7.52958387E-07    2     1000005        23   # BR(~b_2 -> ~b_1    Z )
     3.08904359E-01    2     1000006       -24   # BR(~b_2 -> ~t_1    W-)
#
#         PDG            Width
DECAY   1000002     1.85664338E-01   # sup_L decays
#          BR         NDA      ID1       ID2
     5.87798361E-01    2     1000022         2   # BR(~u_L -> ~chi_10 u)
     2.29454350E-02    2     1000023         2   # BR(~u_L -> ~chi_20 u)
     3.01268241E-01    2     1000025         2   # BR(~u_L -> ~chi_30 u)
     8.79879625E-02    2     1000024         1   # BR(~u_L -> ~chi_1+ d)
#
#         PDG            Width
DECAY   2000002     3.63689662E+01   # sup_R decays
#          BR         NDA      ID1       ID2
     1.29493570E-01    2     1000022         2   # BR(~u_R -> ~chi_10 u)
     6.12020264E-04    2     1000023         2   # BR(~u_R -> ~chi_20 u)
     1.10620299E-01    2     1000025         2   # BR(~u_R -> ~chi_30 u)
     1.83643791E-08    2     1000035         2   # BR(~u_R -> ~chi_40 u)
     7.59274093E-01    2     1000021         2   # BR(~u_R -> ~g      u)
#
#         PDG            Width
DECAY   1000001     1.66082931E-01   # sdown_L decays
#          BR         NDA      ID1       ID2
     4.38580319E-01    2     1000022         1   # BR(~d_L -> ~chi_10 d)
     3.63633802E-03    2     1000023         1   # BR(~d_L -> ~chi_20 d)
     5.57778026E-01    2     1000025         1   # BR(~d_L -> ~chi_30 d)
     5.31653209E-06    2    -1000024         2   # BR(~d_L -> ~chi_1- u)
#
#         PDG            Width
DECAY   2000001     3.28332123E-01   # sdown_R decays
#          BR         NDA      ID1       ID2
     5.79094040E-01    2     1000022         1   # BR(~d_R -> ~chi_10 d)
     2.52208120E-03    2     1000023         1   # BR(~d_R -> ~chi_20 d)
     4.18383879E-01    2     1000025         1   # BR(~d_R -> ~chi_30 d)
#
#         PDG            Width
DECAY   1000004     1.80257181E-01   # scharm_L decays
#          BR         NDA      ID1       ID2
     5.87882013E-01    2     1000022         4   # BR(~c_L -> ~chi_10 c)
     2.29437919E-02    2     1000023         4   # BR(~c_L -> ~chi_20 c)
     3.01192237E-01    2     1000025         4   # BR(~c_L -> ~chi_30 c)
     8.79819576E-02    2     1000024         3   # BR(~c_L -> ~chi_1+ s)
#
#         PDG            Width
DECAY   2000004     2.84667011E+01   # scharm_R decays
#          BR         NDA      ID1       ID2
     1.73765405E-01    2     1000022         4   # BR(~c_R -> ~chi_10 c)
     8.21082041E-04    2     1000023         4   # BR(~c_R -> ~chi_20 c)
     1.48379348E-01    2     1000025         4   # BR(~c_R -> ~chi_30 c)
     2.42434707E-08    2     1000035         4   # BR(~c_R -> ~chi_40 c)
     6.77034140E-01    2     1000021         4   # BR(~c_R -> ~g      c)
#
#         PDG            Width
DECAY   1000003     1.61250190E-01   # sstrange_L decays
#          BR         NDA      ID1       ID2
     4.38677193E-01    2     1000022         3   # BR(~s_L -> ~chi_10 s)
     3.63636316E-03    2     1000023         3   # BR(~s_L -> ~chi_20 s)
     5.57681128E-01    2     1000025         3   # BR(~s_L -> ~chi_30 s)
     5.31655559E-06    2    -1000024         4   # BR(~s_L -> ~chi_1- c)
#
#         PDG            Width
DECAY   2000003     3.11171105E-01   # sstrange_R decays
#          BR         NDA      ID1       ID2
     5.79216412E-01    2     1000022         3   # BR(~s_R -> ~chi_10 s)
     2.52203606E-03    2     1000023         3   # BR(~s_R -> ~chi_20 s)
     4.18261552E-01    2     1000025         3   # BR(~s_R -> ~chi_30 s)
#
#         PDG            Width
DECAY   1000011     1.66728513E-01   # selectron_L decays
#          BR         NDA      ID1       ID2
     7.65234081E-01    2     1000022        11   # BR(~e_L -> ~chi_10 e-)
     6.83559242E-03    2     1000023        11   # BR(~e_L -> ~chi_20 e-)
     2.27929791E-01    2     1000025        11   # BR(~e_L -> ~chi_30 e-)
     5.35473479E-07    2    -1000024        12   # BR(~e_L -> ~chi_1- nu_e)
#
#         PDG            Width
DECAY   2000011     1.83852468E+01   # selectron_R decays
#          BR         NDA      ID1       ID2
     5.38350566E-01    2     1000022        11   # BR(~e_R -> ~chi_10 e-)
     2.54219475E-03    2     1000023        11   # BR(~e_R -> ~chi_20 e-)
     4.59107190E-01    2     1000025        11   # BR(~e_R -> ~chi_30 e-)
     4.91750338E-08    2     1000035        11   # BR(~e_R -> ~chi_40 e-)
#
#         PDG            Width
DECAY   1000013     1.66728438E-01   # smuon_L decays
#          BR         NDA      ID1       ID2
     7.65234168E-01    2     1000022        13   # BR(~mu_L -> ~chi_10 mu-)
     6.83559207E-03    2     1000023        13   # BR(~mu_L -> ~chi_20 mu-)
     2.27929705E-01    2     1000025        13   # BR(~mu_L -> ~chi_30 mu-)
     5.35473717E-07    2    -1000024        14   # BR(~mu_L -> ~chi_1- nu_mu)
#
#         PDG            Width
DECAY   2000013     1.83852467E+01   # smuon_R decays
#          BR         NDA      ID1       ID2
     5.38350566E-01    2     1000022        13   # BR(~mu_R -> ~chi_10 mu-)
     2.54219475E-03    2     1000023        13   # BR(~mu_R -> ~chi_20 mu-)
     4.59107190E-01    2     1000025        13   # BR(~mu_R -> ~chi_30 mu-)
     4.91750335E-08    2     1000035        13   # BR(~mu_R -> ~chi_40 mu-)
#
#         PDG            Width
DECAY   1000015     7.28848771E+00   # stau_1 decays
#          BR         NDA      ID1       ID2
     5.23441399E-01    2     1000022        15   # BR(~tau_1 -> ~chi_10  tau-)
     1.66375266E-02    2     1000023        15   # BR(~tau_1 -> ~chi_20  tau-)
     4.31250799E-01    2     1000025        15   # BR(~tau_1 -> ~chi_30  tau-)
     2.86702751E-02    2    -1000024        16   # BR(~tau_1 -> ~chi_1-  nu_tau)
#
#         PDG            Width
DECAY   2000015     2.27969440E+00   # stau_2 decays
#          BR         NDA      ID1       ID2
     5.41804156E-01    2     1000022        15   # BR(~tau_2 -> ~chi_10  tau-)
     6.04882601E-02    2     1000023        15   # BR(~tau_2 -> ~chi_20  tau-)
     3.96672308E-01    2     1000025        15   # BR(~tau_2 -> ~chi_30  tau-)
     1.23471552E-05    2    -1000024        16   # BR(~tau_2 -> ~chi_1-  nu_tau)
     5.43579209E-04    2     1000015        25   # BR(~tau_2 -> ~tau_1   h)
     4.79349412E-04    2     1000015        23   # BR(~tau_2 -> ~tau_1   Z)
#
#         PDG            Width
DECAY   1000012     1.45575150E-01   # snu_eL decays
#          BR         NDA      ID1       ID2
     7.19629311E-01    2     1000022        12   # BR(~nu_eL -> ~chi_10 nu_e)
     1.66812819E-04    2     1000023        12   # BR(~nu_eL -> ~chi_20 nu_e)
     2.69803430E-01    2     1000025        12   # BR(~nu_eL -> ~chi_30 nu_e)
     1.04004463E-02    2     1000024        11   # BR(~nu_eL -> ~chi_1+ e-)
#
#         PDG            Width
DECAY   1000014     1.45575149E-01   # snu_muL decays
#          BR         NDA      ID1       ID2
     7.19629315E-01    2     1000022        14   # BR(~nu_muL -> ~chi_10 nu_mu)
     1.66812820E-04    2     1000023        14   # BR(~nu_muL -> ~chi_20 nu_mu)
     2.69803431E-01    2     1000025        14   # BR(~nu_muL -> ~chi_30 nu_mu)
     1.04004406E-02    2     1000024        13   # BR(~nu_muL -> ~chi_1+ mu-)
#
#         PDG            Width
DECAY   1000016     2.28703168E+00   # snu_tauL decays
#          BR         NDA      ID1       ID2
     4.48125231E-01    2     1000022        16   # BR(~nu_tauL -> ~chi_10 nu_tau)
     1.57122411E-04    2     1000023        16   # BR(~nu_tauL -> ~chi_20 nu_tau)
     4.33581509E-01    2     1000025        16   # BR(~nu_tauL -> ~chi_30 nu_tau)
     1.17172227E-01    2     1000024        15   # BR(~nu_tauL -> ~chi_1+ tau-)
     9.63910535E-04    2    -1000015       -24   # BR(~nu_tauL -> ~tau_1+ W-)
#
#         PDG            Width
DECAY   1000024     3.52236380E-05   # chargino1+ decays
#           BR         NDA      ID1       ID2       ID3
     3.33880648E-01    3     1000022         2        -1   # BR(~chi_1+ -> ~chi_10 u    db)
     1.82777664E-14    3     1000023         2        -1   # BR(~chi_1+ -> ~chi_20 u    db)
     3.33880648E-01    3     1000022         4        -3   # BR(~chi_1+ -> ~chi_10 c    sb)
     1.11132870E-01    3     1000022       -11        12   # BR(~chi_1+ -> ~chi_10 e+   nu_e)
     6.09237958E-15    3     1000023       -11        12   # BR(~chi_1+ -> ~chi_20 e+   nu_e)
     1.11132870E-01    3     1000022       -13        14   # BR(~chi_1+ -> ~chi_10 mu+  nu_mu)
     6.09237958E-15    3     1000023       -13        14   # BR(~chi_1+ -> ~chi_20 mu+  nu_mu)
     1.09972963E-01    3     1000022       -15        16   # BR(~chi_1+ -> ~chi_10 tau+ nu_tau)
#
#         PDG            Width
DECAY   1000037     1.60894005E+02   # chargino2+ decays
#          BR         NDA      ID1       ID2
     1.17473564E-01    2     1000002        -1   # BR(~chi_2+ -> ~u_L     db)
     1.17417593E-01    2    -1000001         2   # BR(~chi_2+ -> ~d_L*    u )
     1.17473562E-01    2     1000004        -3   # BR(~chi_2+ -> ~c_L     sb)
     1.17417560E-01    2    -1000003         4   # BR(~chi_2+ -> ~s_L*     c )
     7.74892440E-11    2    -1000005         6   # BR(~chi_2+ -> ~b_1*    t )
     6.14833822E-02    2     1000012       -11   # BR(~chi_2+ -> ~nu_eL   e+  )
     6.14833822E-02    2     1000014       -13   # BR(~chi_2+ -> ~nu_muL mu+ )
     2.36241484E-02    2     1000016       -15   # BR(~chi_2+ -> ~nu_tau1 tau+)
     6.14798353E-02    2    -1000011        12   # BR(~chi_2+ -> ~e_L+    nu_e)
     6.14798353E-02    2    -1000013        14   # BR(~chi_2+ -> ~mu_L+   nu_mu)
     2.31604467E-06    2    -1000015        16   # BR(~chi_2+ -> ~tau_1+  nu_tau)
     2.35825244E-02    2    -2000015        16   # BR(~chi_2+ -> ~tau_2+  nu_tau)
     2.95940482E-02    2     1000024        23   # BR(~chi_2+ -> ~chi_1+  Z )
     1.25679878E-02    2     1000022        24   # BR(~chi_2+ -> ~chi_10  W+)
     2.88098670E-02    2     1000023        24   # BR(~chi_2+ -> ~chi_20  W+)
     1.61134891E-02    2     1000025        24   # BR(~chi_2+ -> ~chi_30  W+)
     3.04584916E-02    2     1000024        25   # BR(~chi_2+ -> ~chi_1+  h )
     2.99533661E-02    2     1000024        35   # BR(~chi_2+ -> ~chi_1+  H )
     2.98700149E-02    2     1000024        36   # BR(~chi_2+ -> ~chi_1+  A )
     1.52039088E-02    2     1000022        37   # BR(~chi_2+ -> ~chi_10  H+)
     2.97143984E-02    2     1000023        37   # BR(~chi_2+ -> ~chi_20  H+)
     1.47967256E-02    2     1000025        37   # BR(~chi_2+ -> ~chi_30  H+)
#
#         PDG            Width
DECAY   1000022     0.00000000E+00   # neutralino1 decays
#
#         PDG            Width
DECAY   1000023     2.77920813E-05   # neutralino2 decays
#          BR         NDA      ID1       ID2
     1.92603443E-03    2     1000022        22   # BR(~chi_20 -> ~chi_10 gam)
#           BR         NDA      ID1       ID2       ID3
     1.19015523E-01    3     1000022        -2         2   # BR(~chi_20 -> ~chi_10 ub      u)
     1.54500757E-01    3     1000022        -1         1   # BR(~chi_20 -> ~chi_10 db      d)
     1.19015523E-01    3     1000022        -4         4   # BR(~chi_20 -> ~chi_10 cb      c)
     1.54500757E-01    3     1000022        -3         3   # BR(~chi_20 -> ~chi_10 sb      s)
     1.32266915E-01    3     1000022        -5         5   # BR(~chi_20 -> ~chi_10 bb      b)
     3.53652489E-02    3     1000022       -11        11   # BR(~chi_20 -> ~chi_10 e+      e-)
     3.53652489E-02    3     1000022       -13        13   # BR(~chi_20 -> ~chi_10 mu+     mu-)
     3.49172323E-02    3     1000022       -15        15   # BR(~chi_20 -> ~chi_10 tau+    tau-)
     7.10563184E-02    3     1000022       -12        12   # BR(~chi_20 -> ~chi_10 nu_eb   nu_e)
     7.10563184E-02    3     1000022       -14        14   # BR(~chi_20 -> ~chi_10 nu_mub  nu_mu)
     7.10141239E-02    3     1000022       -16        16   # BR(~chi_20 -> ~chi_10 nu_taub nu_tau)
#
#         PDG            Width
DECAY   1000025     6.39067216E-05   # neutralino3 decays
#          BR         NDA      ID1       ID2
     1.35347084E-02    2     1000022        22   # BR(~chi_30 -> ~chi_10 gam)
     8.17947147E-03    2     1000023        22   # BR(~chi_30 -> ~chi_20 gam)
#           BR         NDA      ID1       ID2       ID3
     4.07331579E-04    3     1000022        -2         2   # BR(~chi_30 -> ~chi_10 ub      u)
     4.78399244E-04    3     1000022        -1         1   # BR(~chi_30 -> ~chi_10 db      d)
     4.07331579E-04    3     1000022        -4         4   # BR(~chi_30 -> ~chi_10 cb      c)
     4.78399244E-04    3     1000022        -3         3   # BR(~chi_30 -> ~chi_10 sb      s)
     4.85310590E-04    3     1000022        -5         5   # BR(~chi_30 -> ~chi_10 bb      b)
     2.83944079E-04    3     1000022       -11        11   # BR(~chi_30 -> ~chi_10 e+      e-)
     2.83944079E-04    3     1000022       -13        13   # BR(~chi_30 -> ~chi_10 mu+     mu-)
     6.30508874E-05    3     1000022       -15        15   # BR(~chi_30 -> ~chi_10 tau+    tau-)
     1.59403207E-03    3     1000022       -12        12   # BR(~chi_30 -> ~chi_10 nu_eb   nu_e)
     1.59403207E-03    3     1000022       -14        14   # BR(~chi_30 -> ~chi_10 nu_mub  nu_mu)
     2.57443531E-04    3     1000022       -16        16   # BR(~chi_30 -> ~chi_10 nu_taub nu_tau)
     3.35233707E-02    3     1000023        -2         2   # BR(~chi_30 -> ~chi_20 ub      u)
     4.35271906E-02    3     1000023        -1         1   # BR(~chi_30 -> ~chi_20 db      d)
     3.35233707E-02    3     1000023        -4         4   # BR(~chi_30 -> ~chi_20 cb      c)
     4.35271906E-02    3     1000023        -3         3   # BR(~chi_30 -> ~chi_20 sb      s)
     3.57534182E-02    3     1000023        -5         5   # BR(~chi_30 -> ~chi_20 bb      b)
     1.00464472E-02    3     1000023       -11        11   # BR(~chi_30 -> ~chi_20 e+      e-)
     1.00464472E-02    3     1000023       -13        13   # BR(~chi_30 -> ~chi_20 mu+     mu-)
     9.81358658E-03    3     1000023       -15        15   # BR(~chi_30 -> ~chi_20 tau+    tau-)
     1.99906462E-02    3     1000023       -12        12   # BR(~chi_30 -> ~chi_20 nu_eb   nu_e)
     1.99906462E-02    3     1000023       -14        14   # BR(~chi_30 -> ~chi_20 nu_mub  nu_mu)
     2.00049150E-02    3     1000023       -16        16   # BR(~chi_30 -> ~chi_20 nu_taub nu_tau)
     1.15498026E-01    3     1000024        -2         1   # BR(~chi_30 -> ~chi_1+ ub      d)
     1.15498026E-01    3    -1000024        -1         2   # BR(~chi_30 -> ~chi_1- db      u)
     1.15498026E-01    3     1000024        -4         3   # BR(~chi_30 -> ~chi_1+ cb      s)
     1.15498026E-01    3    -1000024        -3         4   # BR(~chi_30 -> ~chi_1- sb      c)
     3.85913647E-02    3     1000024       -12        11   # BR(~chi_30 -> ~chi_1+ nu_eb   e-)
     3.85913647E-02    3    -1000024        12       -11   # BR(~chi_30 -> ~chi_1- nu_e    e+)
     3.85913647E-02    3     1000024       -14        13   # BR(~chi_30 -> ~chi_1+ nu_mub  mu-)
     3.85913647E-02    3    -1000024        14       -13   # BR(~chi_30 -> ~chi_1- nu_mu   mu+)
     3.79239054E-02    3     1000024       -16        15   # BR(~chi_30 -> ~chi_1+ nu_taub tau-)
     3.79239054E-02    3    -1000024        16       -15   # BR(~chi_30 -> ~chi_1- nu_tau  tau+)
#
#         PDG            Width
DECAY   1000035     1.60870264E+02   # neutralino4 decays
#          BR         NDA      ID1       ID2
     6.04432398E-03    2     1000022        23   # BR(~chi_40 -> ~chi_10   Z )
     1.50425294E-02    2     1000023        23   # BR(~chi_40 -> ~chi_20   Z )
     8.50989319E-03    2     1000025        23   # BR(~chi_40 -> ~chi_30   Z )
     2.87469283E-02    2     1000024       -24   # BR(~chi_40 -> ~chi_1+   W-)
     2.87469283E-02    2    -1000024        24   # BR(~chi_40 -> ~chi_1-   W+)
     7.15778090E-03    2     1000022        25   # BR(~chi_40 -> ~chi_10   h )
     4.59031710E-03    2     1000022        35   # BR(~chi_40 -> ~chi_10   H )
     1.05639590E-02    2     1000022        36   # BR(~chi_40 -> ~chi_10   A )
     1.48815780E-02    2     1000023        25   # BR(~chi_40 -> ~chi_20   h )
     2.15053744E-02    2     1000023        35   # BR(~chi_40 -> ~chi_20   H )
     8.49545646E-03    2     1000023        36   # BR(~chi_40 -> ~chi_20   A )
     8.38356747E-03    2     1000025        25   # BR(~chi_40 -> ~chi_30   h )
     3.89893224E-03    2     1000025        35   # BR(~chi_40 -> ~chi_30   H )
     1.08473956E-02    2     1000025        36   # BR(~chi_40 -> ~chi_30   A )
     2.98225119E-02    2     1000024       -37   # BR(~chi_40 -> ~chi_1+   H-)
     2.98225119E-02    2    -1000024        37   # BR(~chi_40 -> ~chi_1-   H+)
     5.87806209E-02    2     1000002        -2   # BR(~chi_40 -> ~u_L      ub)
     5.87806209E-02    2    -1000002         2   # BR(~chi_40 -> ~u_L*     u )
     5.86667683E-02    2     1000001        -1   # BR(~chi_40 -> ~d_L      db)
     5.86667683E-02    2    -1000001         1   # BR(~chi_40 -> ~d_L*     d )
     2.66272076E-09    2     2000001        -1   # BR(~chi_40 -> ~d_R      db)
     2.66272076E-09    2    -2000001         1   # BR(~chi_40 -> ~d_R*     d )
     5.87806044E-02    2     1000004        -4   # BR(~chi_40 -> ~c_L      cb)
     5.87806044E-02    2    -1000004         4   # BR(~chi_40 -> ~c_L*     c )
     5.86667683E-02    2     1000003        -3   # BR(~chi_40 -> ~s _L      sb)
     5.86667683E-02    2    -1000003         3   # BR(~chi_40 -> ~s _L*     s )
     2.66272076E-09    2     2000003        -3   # BR(~chi_40 -> ~s _R      sb)
     2.66272076E-09    2    -2000003         3   # BR(~chi_40 -> ~s _R*     s )
     8.76025352E-10    2     1000005        -5   # BR(~chi_40 -> ~b_1      bb)
     8.76025352E-10    2    -1000005         5   # BR(~chi_40 -> ~b_1*     b )
     3.06975823E-02    2     1000011       -11   # BR(~chi_40 -> ~e_L-     e+)
     3.06975823E-02    2    -1000011        11   # BR(~chi_40 -> ~e_L+     e-)
     3.06975823E-02    2     1000013       -13   # BR(~chi_40 -> ~mu_L-    mu+)
     3.06975823E-02    2    -1000013        13   # BR(~chi_40 -> ~mu_L+    mu-)
     1.16083839E-06    2     1000015       -15   # BR(~chi_40 -> ~tau_1-   tau+)
     1.16083839E-06    2    -1000015        15   # BR(~chi_40 -> ~tau_1+   tau-)
     1.17730818E-02    2     2000015       -15   # BR(~chi_40 -> ~tau_2-   tau+)
     1.17730818E-02    2    -2000015        15   # BR(~chi_40 -> ~tau_2+   tau-)
     3.07887876E-02    2     1000012       -12   # BR(~chi_40 -> ~nu_eL    nu_eb)
     3.07887876E-02    2    -1000012        12   # BR(~chi_40 -> ~nu_eL*   nu_e )
     3.07887876E-02    2     1000014       -14   # BR(~chi_40 -> ~nu_muL   nu_mub)
     3.07887876E-02    2    -1000014        14   # BR(~chi_40 -> ~nu_muL*  nu_mu )
     1.18282553E-02    2     1000016       -16   # BR(~chi_40 -> ~nu_tau1  nu_taub)
     1.18282553E-02    2    -1000016        16   # BR(~chi_40 -> ~nu_tau1* nu_tau )
#
#         PDG            Width
DECAY        25     4.75210720E-03   # h decays
#          BR         NDA      ID1       ID2
     5.76536593E-01    2           5        -5   # BR(h -> b       bb     )
     6.27347737E-02    2         -15        15   # BR(h -> tau+    tau-   )
     2.22157049E-04    2         -13        13   # BR(h -> mu+     mu-    )
     2.40199671E-04    2           3        -3   # BR(h -> s       sb     )
     1.85353617E-02    2           4        -4   # BR(h -> c       cb     )
     7.09043022E-02    2          21        21   # BR(h -> g       g      )
     2.16306551E-03    2          22        22   # BR(h -> gam     gam    )
     1.65907418E-03    2          22        23   # BR(h -> Z       gam    )
     2.36365780E-01    2          24       -24   # BR(h -> W+      W-     )
     3.06386932E-02    2          23        23   # BR(h -> Z       Z      )
#
#         PDG            Width
DECAY        35     1.38911030E+00   # H decays
#          BR         NDA      ID1       ID2
     4.93141674E-01    2           5        -5   # BR(H -> b       bb     )
     7.35384595E-02    2         -15        15   # BR(H -> tau+    tau-   )
     2.62213590E-04    2         -13        13   # BR(H -> mu+     mu-    )
     1.93979854E-04    2           3        -3   # BR(H -> s       sb     )
     3.38031261E-06    2           4        -4   # BR(H -> c       cb     )
     2.28606208E-01    2           6        -6   # BR(H -> t       tb     )
     6.31885895E-04    2          21        21   # BR(H -> g       g      )
     1.18252330E-06    2          22        22   # BR(H -> gam     gam    )
     3.92206563E-07    2          23        22   # BR(H -> Z       gam    )
     2.55138141E-03    2          24       -24   # BR(H -> W+      W-     )
     1.23826755E-03    2          23        23   # BR(H -> Z       Z      )
     9.44198276E-03    2          25        25   # BR(H -> h       h      )
     1.07055515E-14    2          23        36   # BR(H -> Z       A      )
     7.56169492E-04    2     1000024  -1000024   # BR(H -> ~chi_1+ ~chi_1-)
     3.03362456E-02    2     1000022   1000022   # BR(H -> ~chi_10 ~chi_10)
     8.78146799E-06    2     1000023   1000023   # BR(H -> ~chi_20 ~chi_20)
     7.36648451E-04    2     1000025   1000025   # BR(H -> ~chi_30 ~chi_30)
     9.48083351E-02    2     1000022   1000023   # BR(H -> ~chi_10 ~chi_20)
     1.90527865E-05    2     1000022   1000025   # BR(H -> ~chi_10 ~chi_30)
     6.37237597E-02    2     1000023   1000025   # BR(H -> ~chi_20 ~chi_30)
#
#         PDG            Width
DECAY        36     1.40865704E+00   # A decays
#          BR         NDA      ID1       ID2
     4.87017305E-01    2           5        -5   # BR(A -> b       bb     )
     7.25894422E-02    2         -15        15   # BR(A -> tau+    tau-   )
     2.58819735E-04    2         -13        13   # BR(A -> mu+     mu-    )
     1.91680974E-04    2           3        -3   # BR(A -> s       sb     )
     2.98229131E-06    2           4        -4   # BR(A -> c       cb     )
     2.68877482E-01    2           6        -6   # BR(A -> t       tb     )
     1.07798264E-03    2          21        21   # BR(A -> g       g      )
     1.92613907E-06    2          22        22   # BR(A -> gam     gam    )
     7.41077366E-07    2          23        22   # BR(A -> Z       gam    )
     2.31373469E-03    2          23        25   # BR(A -> Z       h      )
     3.25593506E-03    2     1000024  -1000024   # BR(A -> ~chi_1+ ~chi_1-)
     1.08152180E-01    2     1000022   1000022   # BR(A -> ~chi_10 ~chi_10)
     2.35391253E-05    2     1000023   1000023   # BR(A -> ~chi_20 ~chi_20)
     3.18022187E-02    2     1000025   1000025   # BR(A -> ~chi_30 ~chi_30)
     1.90602001E-02    2     1000022   1000023   # BR(A -> ~chi_10 ~chi_20)
     2.17771113E-06    2     1000022   1000025   # BR(A -> ~chi_10 ~chi_30)
     5.37165229E-03    2     1000023   1000025   # BR(A -> ~chi_20 ~chi_30)
#
#         PDG            Width
DECAY        37     1.38706485E+00   # H+ decays
#          BR         NDA      ID1       ID2
     8.20733126E-04    2           4        -5   # BR(H+ -> c       bb     )
     7.43270809E-02    2         -15        16   # BR(H+ -> tau+    nu_tau )
     2.65015267E-04    2         -13        14   # BR(H+ -> mu+     nu_mu  )
     8.20709727E-06    2           2        -5   # BR(H+ -> u       bb     )
     9.74157981E-06    2           2        -3   # BR(H+ -> u       sb     )
     1.94652965E-04    2           4        -3   # BR(H+ -> c       sb     )
     7.22729661E-01    2           6        -5   # BR(H+ -> t       bb     )
     2.45585411E-03    2          24        25   # BR(H+ -> W+      h      )
     3.49005642E-09    2          24        36   # BR(H+ -> W+      A      )
     1.36622230E-01    2     1000024   1000022   # BR(H+ -> ~chi_1+ ~chi_10)
     1.35086000E-03    2     1000024   1000023   # BR(H+ -> ~chi_1+ ~chi_20)
     6.12159597E-02    2     1000024   1000025   # BR(H+ -> ~chi_1+ ~chi_30)

DECAY         5   0.000000e+00 # b decays
DECAY        15   0.000000e+00 # tau decays
DECAY        23     2.49520000E+00   # Z
DECAY        24     2.08500000E+00   # W
