#
#                              ======================
#                              | THE SUSYHIT OUTPUT |
#                              ======================
#
#
#              ------------------------------------------------------
#              |     This is the output of the SUSY-HIT package     |
#              |  created by A.Djouadi, M.Muehlleitner and M.Spira. |
#              |  In case of problems with SUSY-HIT email to        |
#              |           margarete.muehlleitner@cern.ch           |
#              |           michael.spira@psi.ch                     |
#              |           abdelhak.djouadi@cern.ch                 |
#              ------------------------------------------------------
#
#              ------------------------------------------------------
#              |  SUSY Les Houches Accord - MSSM Spectrum + Decays  |
#              |              based on the decay programs           |
#              |                                                    |
#              |                     SDECAY 1.3b                    |
#              |                                                    |
#              |  Authors: M.Muhlleitner, A.Djouadi and Y.Mambrini  |
#              |  Ref.:    Comput.Phys.Commun.168(2005)46           |
#              |           [hep-ph/0311167]                         |
#              |                                                    |
#              |                     HDECAY 3.4                     |
#              |                                                    |
#              |  By: A.Djouadi,J.Kalinowski,M.Muhlleitner,M.Spira  |
#              |  Ref.:    Comput.Phys.Commun.108(1998)56           |
#              |           [hep-ph/9704448]                         |
#              |                                                    |
#              |                                                    |
#              |  If not stated otherwise all DRbar couplings and   |
#              |  soft SUSY breaking masses are given at the scale  |
#              |  Q=  0.26840820E+04
#              |                                                    |
#              ------------------------------------------------------
#
#
BLOCK DCINFO  # Decay Program information
     1   SDECAY/HDECAY # decay calculator
     2   1.3b  /3.4    # version number
#
BLOCK SPINFO  # Spectrum calculator information
     1     SOFTSUSY    # spectrum calculator               
     2     3.4.0       # version number                    
#
BLOCK MODSEL  # Model selection
     1     0   #  nonUniversal                                     
#
BLOCK SMINPUTS  # Standard Model inputs
         1     1.27908970E+02   # alpha_em^-1(M_Z)^MSbar
         2     1.16637870E-05   # G_F [GeV^-2]
         3     1.18400000E-01   # alpha_S(M_Z)^MSbar
         4     9.11876000E+01   # M_Z pole mass
         5     4.18000000E+00   # mb(mb)^MSbar
         6     1.73200000E+02   # mt pole mass
         7     1.77700000E+00   # mtau pole mass
#
BLOCK MINPAR  # Input parameters - minimal models
         3     1.89300000E+01   # tanb                
#
BLOCK EXTPAR  # Input parameters - non-minimal models
         0    -1.00000000E+00   # Set                 
         1     5.53480000E+02   # M_1(MX)             
         2     9.49300000E+02   # M_2(MX)             
         3     3.70685000E+03   # M_3(MX)             
        11     4.27683000E+03   # At(MX)              
        12    -4.50860000E+02   # Ab(MX)              
        13    -1.89692000E+03   # Atau(MX)            
        23    -1.46983000E+03   # mu(MX)              
        26     1.11461000E+03   # mA(pole)            
        31     2.69143000E+03   # meL(MX)             
        32     2.69143000E+03   # mmuL(MX)            
        33     2.32676000E+03   # mtauL(MX)           
        34     1.13636000E+03   # meR(MX)             
        35     1.13636000E+03   # mmuR(MX)            
        36     3.57388000E+03   # mtauR(MX)           
        41     1.06592000E+03   # mqL1(MX)            
        42     1.06592000E+03   # mqL2(MX)            
        43     2.64413000E+03   # mqL3(MX)            
        44     2.28138000E+03   # muR(MX)             
        45     2.28138000E+03   # mcR(MX)             
        46     2.72785000E+03   # mtR(MX)             
        47     1.05239000E+03   # mdR(MX)             
        48     1.05239000E+03   # msR(MX)             
        49     2.59579000E+03   # mbR(MX)             
#
BLOCK MASS  # Mass Spectrum
# PDG code           mass       particle
        24     8.03963297E+01   # W+
        25     1.27860680E+02   # h
        35     1.11464300E+03   # H
        36     1.11461000E+03   # A
        37     1.11726181E+03   # H+
         5     4.81876030E+00   # b-quark pole mass calculated from mb(mb)_Msbar
   1000001     1.19802282E+03   # ~d_L
   2000001     1.17470689E+03   # ~d_R
   1000002     1.19547341E+03   # ~u_L
   2000002     2.37923818E+03   # ~u_R
   1000003     1.19802282E+03   # ~s_L
   2000003     1.17470689E+03   # ~s_R
   1000004     1.19547341E+03   # ~c_L
   2000004     2.37923818E+03   # ~c_R
   1000005     2.68439931E+03   # ~b_1
   2000005     2.71410192E+03   # ~b_2
   1000006     2.61098635E+03   # ~t_1
   2000006     2.83050868E+03   # ~t_2
   1000011     2.69640492E+03   # ~e_L
   2000011     1.14909749E+03   # ~e_R
   1000012     2.69494249E+03   # ~nu_eL
   1000013     2.69640492E+03   # ~mu_L
   2000013     1.14909749E+03   # ~mu_R
   1000014     2.69494249E+03   # ~nu_muL
   1000015     2.33071423E+03   # ~tau_1
   2000015     3.57797108E+03   # ~tau_2
   1000016     2.32913301E+03   # ~nu_tauL
   1000021     3.68715374E+03   # ~g
   1000022     5.46959575E+02   # ~chi_10
   1000023     9.68528157E+02   # ~chi_20
   1000025    -1.50533625E+03   # ~chi_30
   1000035     1.50958823E+03   # ~chi_40
   1000024     9.68693972E+02   # ~chi_1+
   1000037     1.51021083E+03   # ~chi_2+
#
BLOCK NMIX  # Neutralino Mixing Matrix
  1  1     9.99393491E-01   # N_11
  1  2    -1.43981029E-03   # N_12
  1  3    -3.31879351E-02   # N_13
  1  4    -1.04469511E-02   # N_14
  2  1     4.71197908E-03   # N_21
  2  2     9.95287226E-01   # N_22
  2  3     8.29982725E-02   # N_23
  2  4     4.99241505E-02   # N_24
  3  1    -1.60342373E-02   # N_31
  3  2     2.35168832E-02   # N_32
  3  3    -7.06466939E-01   # N_33
  3  4     7.07173475E-01   # N_34
  4  1     3.05507997E-02   # N_41
  4  2    -9.40649771E-02   # N_42
  4  3     7.02078565E-01   # N_43
  4  4     7.05197927E-01   # N_44
#
BLOCK UMIX  # Chargino Mixing Matrix U
  1  1     9.93055088E-01   # U_11
  1  2     1.17650293E-01   # U_12
  2  1    -1.17650293E-01   # U_21
  2  2     9.93055088E-01   # U_22
#
BLOCK VMIX  # Chargino Mixing Matrix V
  1  1     9.97480410E-01   # V_11
  1  2    -7.09424551E-02   # V_12
  2  1    -7.09424551E-02   # V_21
  2  2    -9.97480410E-01   # V_22
#
BLOCK STOPMIX  # Stop Mixing Matrix
  1  1     7.53799519E-01   # cos(theta_t)
  1  2    -6.57104471E-01   # sin(theta_t)
  2  1     6.57104471E-01   # -sin(theta_t)
  2  2     7.53799519E-01   # cos(theta_t)
#
BLOCK SBOTMIX  # Sbottom Mixing Matrix
  1  1    -5.71238090E-01   # cos(theta_b)
  1  2     8.20784408E-01   # sin(theta_b)
  2  1    -8.20784408E-01   # -sin(theta_b)
  2  2    -5.71238090E-01   # cos(theta_b)
#
BLOCK STAUMIX  # Stau Mixing Matrix
  1  1     9.99982224E-01   # cos(theta_tau)
  1  2    -5.96252329E-03   # sin(theta_tau)
  2  1     5.96252329E-03   # -sin(theta_tau)
  2  2     9.99982224E-01   # cos(theta_tau)
#
BLOCK ALPHA  # Higgs mixing
          -5.59868374E-02   # Mixing angle in the neutral Higgs boson sector
#
BLOCK HMIX Q=  2.68408200E+03  # DRbar Higgs Parameters
         1    -1.49525133E+03   # mu(Q)MSSM           
         2     1.81355162E+01   # tan                 
         3     2.42463738E+02   # higgs               
         4     8.76544082E+05   # mA^2(Q)MSSM         
#
BLOCK GAUGE Q=  2.68408200E+03  # The gauge couplings
     1     3.64568014E-01   # gprime(Q) DRbar
     2     6.38161425E-01   # g(Q) DRbar
     3     1.01163254E+00   # g3(Q) DRbar
#
BLOCK AU Q=  2.68408200E+03  # The trilinear couplings
  1  1     0.00000000E+00   # A_u(Q) DRbar
  2  2     0.00000000E+00   # A_c(Q) DRbar
  3  3     4.27683002E+03   # A_t(Q) DRbar
#
BLOCK AD Q=  2.68408200E+03  # The trilinear couplings
  1  1     0.00000000E+00   # A_d(Q) DRbar
  2  2     0.00000000E+00   # A_s(Q) DRbar
  3  3    -4.50859994E+02   # A_b(Q) DRbar
#
BLOCK AE Q=  2.68408200E+03  # The trilinear couplings
  1  1     0.00000000E+00   # A_e(Q) DRbar
  2  2     0.00000000E+00   # A_mu(Q) DRbar
  3  3    -1.89692000E+03   # A_tau(Q) DRbar
#
BLOCK Yu Q=  2.68408200E+03  # The Yukawa couplings
  1  1     0.00000000E+00   # y_u(Q) DRbar
  2  2     0.00000000E+00   # y_c(Q) DRbar
  3  3     8.37790057E-01   # y_t(Q) DRbar
#
BLOCK Yd Q=  2.68408200E+03  # The Yukawa couplings
  1  1     0.00000000E+00   # y_d(Q) DRbar
  2  2     0.00000000E+00   # y_s(Q) DRbar
  3  3     2.67628394E-01   # y_b(Q) DRbar
#
BLOCK Ye Q=  2.68408200E+03  # The Yukawa couplings
  1  1     0.00000000E+00   # y_e(Q) DRbar
  2  2     0.00000000E+00   # y_mu(Q) DRbar
  3  3     1.82062467E-01   # y_tau(Q) DRbar
#
BLOCK MSOFT Q=  2.68408200E+03  # The soft SUSY breaking masses at the scale Q
         1     5.53480000E+02   # M_1(Q)              
         2     9.49300000E+02   # M_2(Q)              
         3     3.70685000E+03   # M_3(Q)              
        21    -1.02531952E+06   # mH1^2(Q)            
        22    -2.10710040E+06   # mH2^2(Q)            
        31     2.69143000E+03   # meL(Q)              
        32     2.69143000E+03   # mmuL(Q)             
        33     2.32676000E+03   # mtauL(Q)            
        34     1.13636000E+03   # meR(Q)              
        35     1.13636000E+03   # mmuR(Q)             
        36     3.57388000E+03   # mtauR(Q)            
        41     1.06591997E+03   # mqL1(Q)             
        42     1.06591997E+03   # mqL2(Q)             
        43     2.64412998E+03   # mqL3(Q)             
        44     2.28137999E+03   # muR(Q)              
        45     2.28137999E+03   # mcR(Q)              
        46     2.72784998E+03   # mtR(Q)              
        47     1.05238997E+03   # mdR(Q)              
        48     1.05238997E+03   # msR(Q)              
        49     2.59578999E+03   # mbR(Q)              
#
Block HiggsBoundsInputHiggsCouplingsFermions
# ScalarNormEffCoupSq PseudoSNormEffCoupSq NP   IP1 IP2 IP2
    1.03299056E+00    0.00000000E+00        3  25   5   5  # h0-b-b eff. coupling^2, normalised to SM
    3.28863957E+02    0.00000000E+00        3  35   5   5  # H0-b-b eff. coupling^2, normalised to SM
    0.00000000E+00    3.28896948E+02        3  36   5   5  # A0-b-b eff. coupling^2, normalised to SM
#
    9.99899693E-01    0.00000000E+00        3  25   6   6  # h0-t-t eff. coupling^2, normalised to SM
    3.14077271E-03    0.00000000E+00        3  35   6   6  # H0-t-t eff. coupling^2, normalised to SM
    0.00000000E+00    3.04046604E-03        3  36   6   6  # A0-t-t eff. coupling^2, normalised to SM
#
    1.03299056E+00    0.00000000E+00        3  25  15  15  # h0-tau-tau eff. coupling^2, normalised to SM
    3.28863957E+02    0.00000000E+00        3  35  15  15  # H0-tau-tau eff. coupling^2, normalised to SM
    0.00000000E+00    3.28896948E+02        3  36  15  15  # A0-tau-tau eff. coupling^2, normalised to SM
#
Block HiggsBoundsInputHiggsCouplingsBosons
    9.99999186E-01        3  25  24  24  # h0-W-W eff. coupling^2, normalised to SM
    8.13962404E-07        3  35  24  24  # H0-W-W eff. coupling^2, normalised to SM
    0.00000000E+00        3  36  24  24  # A0-W-W eff. coupling^2, normalised to SM
#
    9.99999186E-01        3  25  23  23  # h0-Z-Z eff. coupling^2, normalised to SM
    8.13962404E-07        3  35  23  23  # H0-Z-Z eff. coupling^2, normalised to SM
    0.00000000E+00        3  36  23  23  # A0-Z-Z eff. coupling^2, normalised to SM
#
    8.83460062E-01        3  25  21  21  # h0-g-g eff. coupling^2, normalised to SM
    1.96134950E-06        3  35  21  21  # H0-g-g eff. coupling^2, normalised to SM
    2.27017799E-05        3  36  21  21  # A0-g-g eff. coupling^2, normalised to SM
#
    0.00000000E+00        3  25  25  23  # h0-h0-Z eff. coupling^2, normalised to SM
    0.00000000E+00        3  35  25  23  # H0-h0-Z eff. coupling^2, normalised to SM
    8.13962404E-07        3  36  25  23  # A0-h0-Z eff. coupling^2, normalised to SM
    0.00000000E+00        3  35  35  23  # H0-H0-Z eff. coupling^2, normalised to SM
    9.99999186E-01        3  36  35  23  # A0-H0-Z eff. coupling^2, normalised to SM
    0.00000000E+00        3  36  36  23  # A0-A0-Z eff. coupling^2, normalised to SM
#
    0.00000000E+00        4  25  21  21  23  # h0-g-g-Z eff. coupling^2, normalised to SM
    0.00000000E+00        4  35  21  21  23  # H0-g-g-Z eff. coupling^2, normalised to SM
    0.00000000E+00        4  36  21  21  23  # A0-g-g-Z eff. coupling^2, normalised to SM
#
#
#
#                             =================
#                             |The decay table|
#                             =================
#
# - The QCD corrections to the decays gluino -> squark  + quark
#                                     squark -> gaugino + quark_prime
#                                     squark -> squark_prime + Higgs
#                                     squark -> gluino  + quark
#   are included.
#
# - The multi-body decays for the inos, stops and sbottoms are included.
#
# - The loop induced decays for the gluino, neutralinos and stops
#   are included.
#
# - The SUSY decays of the top quark are included.
#
#
#         PDG            Width
DECAY         6     1.43398801E+00   # top decays
#          BR         NDA      ID1       ID2
     1.00000000E+00    2           5        24   # BR(t ->  b    W+)
#
#         PDG            Width
DECAY   1000021     4.70085676E+02   # gluino decays
#          BR         NDA      ID1       ID2
     6.29489148E-02    2     1000001        -1   # BR(~g -> ~d_L  db)
     6.29489148E-02    2    -1000001         1   # BR(~g -> ~d_L* d )
     6.35230023E-02    2     2000001        -1   # BR(~g -> ~d_R  db)
     6.35230023E-02    2    -2000001         1   # BR(~g -> ~d_R* d )
     6.30121082E-02    2     1000002        -2   # BR(~g -> ~u_L  ub)
     6.30121082E-02    2    -1000002         2   # BR(~g -> ~u_L* u )
     2.68010977E-02    2     2000002        -2   # BR(~g -> ~u_R  ub)
     2.68010977E-02    2    -2000002         2   # BR(~g -> ~u_R* u )
     6.29489148E-02    2     1000003        -3   # BR(~g -> ~s_L  sb)
     6.29489148E-02    2    -1000003         3   # BR(~g -> ~s_L* s )
     6.35230023E-02    2     2000003        -3   # BR(~g -> ~s_R  sb)
     6.35230023E-02    2    -2000003         3   # BR(~g -> ~s_R* s )
     6.30121050E-02    2     1000004        -4   # BR(~g -> ~c_L  cb)
     6.30121050E-02    2    -1000004         4   # BR(~g -> ~c_L* c )
     2.68010851E-02    2     2000004        -4   # BR(~g -> ~c_R  cb)
     2.68010851E-02    2    -2000004         4   # BR(~g -> ~c_R* c )
     1.75609016E-02    2     1000005        -5   # BR(~g -> ~b_1  bb)
     1.75609016E-02    2    -1000005         5   # BR(~g -> ~b_1* b )
     1.65657637E-02    2     2000005        -5   # BR(~g -> ~b_2  bb)
     1.65657637E-02    2    -2000005         5   # BR(~g -> ~b_2* b )
     2.28601930E-02    2     1000006        -6   # BR(~g -> ~t_1  tb)
     2.28601930E-02    2    -1000006         6   # BR(~g -> ~t_1* t )
     1.04429114E-02    2     2000006        -6   # BR(~g -> ~t_2  tb)
     1.04429114E-02    2    -2000006         6   # BR(~g -> ~t_2* t )
#
#         PDG            Width
DECAY   1000006     3.88388411E+01   # stop1 decays
#          BR         NDA      ID1       ID2
     6.29883397E-02    2     1000022         6   # BR(~t_1 -> ~chi_10 t )
     9.51966849E-02    2     1000023         6   # BR(~t_1 -> ~chi_20 t )
     1.77254653E-01    2     1000025         6   # BR(~t_1 -> ~chi_30 t )
     2.45943600E-01    2     1000035         6   # BR(~t_1 -> ~chi_40 t )
     1.93824386E-01    2     1000024         5   # BR(~t_1 -> ~chi_1+ b )
     2.24792337E-01    2     1000037         5   # BR(~t_1 -> ~chi_2+ b )
#
#         PDG            Width
DECAY   2000006     5.51861600E+01   # stop2 decays
#          BR         NDA      ID1       ID2
     6.86093323E-02    2     1000022         6   # BR(~t_2 -> ~chi_10 t )
     8.40941899E-02    2     1000023         6   # BR(~t_2 -> ~chi_20 t )
     2.02845401E-01    2     1000025         6   # BR(~t_2 -> ~chi_30 t )
     1.49875303E-01    2     1000035         6   # BR(~t_2 -> ~chi_40 t )
     1.70922058E-01    2     1000024         5   # BR(~t_2 -> ~chi_1+ b )
     2.04280733E-01    2     1000037         5   # BR(~t_2 -> ~chi_2+ b )
     1.85094724E-03    2     1000006        25   # BR(~t_2 -> ~t_1    h )
     8.12266472E-02    2     1000006        23   # BR(~t_2 -> ~t_1    Z )
     2.14852649E-02    2     1000005        24   # BR(~t_2 -> ~b_1    W+)
     1.48101242E-02    2     2000005        24   # BR(~t_2 -> ~b_2    W+)
#
#         PDG            Width
DECAY   1000005     1.76655066E+01   # sbottom1 decays
#          BR         NDA      ID1       ID2
     6.82080267E-02    2     1000022         5   # BR(~b_1 -> ~chi_10 b )
     1.72766999E-01    2     1000023         5   # BR(~b_1 -> ~chi_20 b )
     4.70158044E-02    2     1000025         5   # BR(~b_1 -> ~chi_30 b )
     3.84401277E-02    2     1000035         5   # BR(~b_1 -> ~chi_40 b )
     3.39661820E-01    2    -1000024         6   # BR(~b_1 -> ~chi_1- t )
     3.33907222E-01    2    -1000037         6   # BR(~b_1 -> ~chi_2- t )
#
#         PDG            Width
DECAY   2000005     3.25663796E+01   # sbottom2 decays
#          BR         NDA      ID1       ID2
     1.92111871E-02    2     1000022         5   # BR(~b_2 -> ~chi_10 b )
     1.60134970E-01    2     1000023         5   # BR(~b_2 -> ~chi_20 b )
     3.06534486E-02    2     1000025         5   # BR(~b_2 -> ~chi_30 b )
     3.59190267E-02    2     1000035         5   # BR(~b_2 -> ~chi_40 b )
     3.14733420E-01    2    -1000024         6   # BR(~b_2 -> ~chi_1- t )
     4.24374227E-01    2    -1000037         6   # BR(~b_2 -> ~chi_2- t )
     1.49737216E-02    2     1000006       -24   # BR(~b_2 -> ~t_1    W-)
#
#         PDG            Width
DECAY   1000002     1.90882216E+00   # sup_L decays
#          BR         NDA      ID1       ID2
     5.87054029E-02    2     1000022         2   # BR(~u_L -> ~chi_10 u)
     3.13491063E-01    2     1000023         2   # BR(~u_L -> ~chi_20 u)
     6.27803534E-01    2     1000024         1   # BR(~u_L -> ~chi_1+ d)
#
#         PDG            Width
DECAY   2000002     5.01922782E+00   # sup_R decays
#          BR         NDA      ID1       ID2
     9.99504410E-01    2     1000022         2   # BR(~u_R -> ~chi_10 u)
     1.72727984E-05    2     1000023         2   # BR(~u_R -> ~chi_20 u)
     1.03908324E-04    2     1000025         2   # BR(~u_R -> ~chi_30 u)
     3.74408397E-04    2     1000035         2   # BR(~u_R -> ~chi_40 u)
#
#         PDG            Width
DECAY   1000001     1.93241373E+00   # sdown_L decays
#          BR         NDA      ID1       ID2
     6.00263718E-02    2     1000022         1   # BR(~d_L -> ~chi_10 d)
     3.14152598E-01    2     1000023         1   # BR(~d_L -> ~chi_20 d)
     6.25821030E-01    2    -1000024         2   # BR(~d_L -> ~chi_1- u)
#
#         PDG            Width
DECAY   2000001     4.39171559E-01   # sdown_R decays
#          BR         NDA      ID1       ID2
     9.99996217E-01    2     1000022         1   # BR(~d_R -> ~chi_10 d)
     3.78322808E-06    2     1000023         1   # BR(~d_R -> ~chi_20 d)
#
#         PDG            Width
DECAY   1000004     1.81199560E+00   # scharm_L decays
#          BR         NDA      ID1       ID2
     5.96022571E-02    2     1000022         4   # BR(~c_L -> ~chi_10 c)
     3.13190144E-01    2     1000023         4   # BR(~c_L -> ~chi_20 c)
     6.27207598E-01    2     1000024         3   # BR(~c_L -> ~chi_1+ s)
#
#         PDG            Width
DECAY   2000004     5.01300201E+00   # scharm_R decays
#          BR         NDA      ID1       ID2
     9.99508005E-01    2     1000022         4   # BR(~c_R -> ~chi_10 c)
     1.72391269E-05    2     1000023         4   # BR(~c_R -> ~chi_20 c)
     1.03140978E-04    2     1000025         4   # BR(~c_R -> ~chi_30 c)
     3.71615285E-04    2     1000035         4   # BR(~c_R -> ~chi_40 c)
#
#         PDG            Width
DECAY   1000003     1.83496531E+00   # sstrange_L decays
#          BR         NDA      ID1       ID2
     6.09312050E-02    2     1000022         3   # BR(~s_L -> ~chi_10 s)
     3.13858986E-01    2     1000023         3   # BR(~s_L -> ~chi_20 s)
     6.25209809E-01    2    -1000024         4   # BR(~s_L -> ~chi_1- c)
#
#         PDG            Width
DECAY   2000003     4.22891176E-01   # sstrange_R decays
#          BR         NDA      ID1       ID2
     9.99996284E-01    2     1000022         3   # BR(~s_R -> ~chi_10 s)
     3.71613626E-06    2     1000023         3   # BR(~s_R -> ~chi_20 s)
#
#         PDG            Width
DECAY   1000011     2.80253353E+01   # selectron_L decays
#          BR         NDA      ID1       ID2
     1.16218499E-01    2     1000022        11   # BR(~e_L -> ~chi_10 e-)
     2.94479860E-01    2     1000023        11   # BR(~e_L -> ~chi_20 e-)
     3.80633094E-05    2     1000025        11   # BR(~e_L -> ~chi_30 e-)
     1.07833231E-03    2     1000035        11   # BR(~e_L -> ~chi_40 e-)
     5.83103086E-01    2    -1000024        12   # BR(~e_L -> ~chi_1- nu_e)
     5.08215982E-03    2    -1000037        12   # BR(~e_L -> ~chi_2- nu_e)
#
#         PDG            Width
DECAY   2000011     3.63072949E+00   # selectron_R decays
#          BR         NDA      ID1       ID2
     9.99996884E-01    2     1000022        11   # BR(~e_R -> ~chi_10 e-)
     3.11634704E-06    2     1000023        11   # BR(~e_R -> ~chi_20 e-)
#
#         PDG            Width
DECAY   1000013     2.80253352E+01   # smuon_L decays
#          BR         NDA      ID1       ID2
     1.16218499E-01    2     1000022        13   # BR(~mu_L -> ~chi_10 mu-)
     2.94479859E-01    2     1000023        13   # BR(~mu_L -> ~chi_20 mu-)
     3.80633093E-05    2     1000025        13   # BR(~mu_L -> ~chi_30 mu-)
     1.07833231E-03    2     1000035        13   # BR(~mu_L -> ~chi_40 mu-)
     5.83103087E-01    2    -1000024        14   # BR(~mu_L -> ~chi_1- nu_mu)
     5.08215983E-03    2    -1000037        14   # BR(~mu_L -> ~chi_2- nu_mu)
#
#         PDG            Width
DECAY   2000013     3.63072939E+00   # smuon_R decays
#          BR         NDA      ID1       ID2
     9.99996884E-01    2     1000022        13   # BR(~mu_R -> ~chi_10 mu-)
     3.11634650E-06    2     1000023        13   # BR(~mu_R -> ~chi_20 mu-)
#
#         PDG            Width
DECAY   1000015     2.25506213E+01   # stau_1 decays
#          BR         NDA      ID1       ID2
     1.21356083E-01    2     1000022        15   # BR(~tau_1 -> ~chi_10  tau-)
     2.85855975E-01    2     1000023        15   # BR(~tau_1 -> ~chi_20  tau-)
     1.15711060E-02    2     1000025        15   # BR(~tau_1 -> ~chi_30  tau-)
     1.20852447E-02    2     1000035        15   # BR(~tau_1 -> ~chi_40  tau-)
     5.65341875E-01    2    -1000024        16   # BR(~tau_1 -> ~chi_1-  nu_tau)
     3.78971599E-03    2    -1000037        16   # BR(~tau_1 -> ~chi_2-  nu_tau)
#
#         PDG            Width
DECAY   2000015     2.19975983E+01   # stau_2 decays
#          BR         NDA      ID1       ID2
     8.19468882E-01    2     1000022        15   # BR(~tau_2 -> ~chi_10  tau-)
     4.46650675E-04    2     1000023        15   # BR(~tau_2 -> ~chi_20  tau-)
     3.64601954E-02    2     1000025        15   # BR(~tau_2 -> ~chi_30  tau-)
     3.64276280E-02    2     1000035        15   # BR(~tau_2 -> ~chi_40  tau-)
     8.64773006E-04    2    -1000024        16   # BR(~tau_2 -> ~chi_1-  nu_tau)
     7.17943328E-02    2    -1000037        16   # BR(~tau_2 -> ~chi_2-  nu_tau)
     8.27418090E-03    2     1000016       -37   # BR(~tau_2 -> ~nu_tauL H-)
     8.82021916E-03    2     1000016       -24   # BR(~tau_2 -> ~nu_tauL W-)
     4.61171912E-03    2     1000015        25   # BR(~tau_2 -> ~tau_1   h)
     4.15553812E-03    2     1000015        35   # BR(~tau_2 -> ~tau_1   H)
     4.15134951E-03    2     1000015        36   # BR(~tau_2 -> ~tau_1   A)
     4.52453109E-03    2     1000015        23   # BR(~tau_2 -> ~tau_1   Z)
#
#         PDG            Width
DECAY   1000012     2.80395819E+01   # snu_eL decays
#          BR         NDA      ID1       ID2
     1.17262567E-01    2     1000022        12   # BR(~nu_eL -> ~chi_10 nu_e)
     2.90911707E-01    2     1000023        12   # BR(~nu_eL -> ~chi_20 nu_e)
     1.96782115E-04    2     1000025        12   # BR(~nu_eL -> ~chi_30 nu_e)
     2.28014529E-03    2     1000035        12   # BR(~nu_eL -> ~chi_40 nu_e)
     5.87504687E-01    2     1000024        11   # BR(~nu_eL -> ~chi_1+ e-)
     1.84411198E-03    2     1000037        11   # BR(~nu_eL -> ~chi_2+ e-)
#
#         PDG            Width
DECAY   1000014     2.80395819E+01   # snu_muL decays
#          BR         NDA      ID1       ID2
     1.17262567E-01    2     1000022        14   # BR(~nu_muL -> ~chi_10 nu_mu)
     2.90911707E-01    2     1000023        14   # BR(~nu_muL -> ~chi_20 nu_mu)
     1.96782116E-04    2     1000025        14   # BR(~nu_muL -> ~chi_30 nu_mu)
     2.28014530E-03    2     1000035        14   # BR(~nu_muL -> ~chi_40 nu_mu)
     5.87504686E-01    2     1000024        13   # BR(~nu_muL -> ~chi_1+ mu-)
     1.84411197E-03    2     1000037        13   # BR(~nu_muL -> ~chi_2+ mu-)
#
#         PDG            Width
DECAY   1000016     2.25589768E+01   # snu_tauL decays
#          BR         NDA      ID1       ID2
     1.22326738E-01    2     1000022        16   # BR(~nu_tauL -> ~chi_10 nu_tau)
     2.81889930E-01    2     1000023        16   # BR(~nu_tauL -> ~chi_20 nu_tau)
     1.51422839E-04    2     1000025        16   # BR(~nu_tauL -> ~chi_30 nu_tau)
     1.74931263E-03    2     1000035        16   # BR(~nu_tauL -> ~chi_40 nu_tau)
     5.69934255E-01    2     1000024        15   # BR(~nu_tauL -> ~chi_1+ tau-)
     2.39483408E-02    2     1000037        15   # BR(~nu_tauL -> ~chi_2+ tau-)
#
#         PDG            Width
DECAY   1000024     3.70577427E-03   # chargino1+ decays
#          BR         NDA      ID1       ID2
     1.00000000E+00    2     1000022        24   # BR(~chi_1+ -> ~chi_10  W+)
#
#         PDG            Width
DECAY   1000037     7.11631209E+00   # chargino2+ decays
#          BR         NDA      ID1       ID2
     1.88507456E-03    2     1000002        -1   # BR(~chi_2+ -> ~u_L     db)
     5.11139404E-03    2    -1000001         2   # BR(~chi_2+ -> ~d_L*    u )
     1.88507341E-03    2     1000004        -3   # BR(~chi_2+ -> ~c_L     sb)
     5.11134361E-03    2    -1000003         4   # BR(~chi_2+ -> ~s_L*     c )
     2.86801637E-01    2     1000024        23   # BR(~chi_2+ -> ~chi_1+  Z )
     1.16441952E-01    2     1000022        24   # BR(~chi_2+ -> ~chi_10  W+)
     2.83562012E-01    2     1000023        24   # BR(~chi_2+ -> ~chi_20  W+)
     2.99201513E-01    2     1000024        25   # BR(~chi_2+ -> ~chi_1+  h )
#
#         PDG            Width
DECAY   1000022     0.00000000E+00   # neutralino1 decays
#
#         PDG            Width
DECAY   1000023     4.13667938E-03   # neutralino2 decays
#          BR         NDA      ID1       ID2
     1.18699049E-01    2     1000022        23   # BR(~chi_20 -> ~chi_10   Z )
     8.81300951E-01    2     1000022        25   # BR(~chi_20 -> ~chi_10   h )
#
#         PDG            Width
DECAY   1000025     6.81695574E+00   # neutralino3 decays
#          BR         NDA      ID1       ID2
     9.94433146E-02    2     1000022        23   # BR(~chi_30 -> ~chi_10   Z )
     2.75378443E-01    2     1000023        23   # BR(~chi_30 -> ~chi_20   Z )
     2.89771185E-01    2     1000024       -24   # BR(~chi_30 -> ~chi_1+   W-)
     2.89771185E-01    2    -1000024        24   # BR(~chi_30 -> ~chi_1-   W+)
     2.78792191E-02    2     1000022        25   # BR(~chi_30 -> ~chi_10   h )
     1.67698705E-02    2     1000023        25   # BR(~chi_30 -> ~chi_20   h )
     7.98707757E-05    2     1000002        -2   # BR(~chi_30 -> ~u_L      ub)
     7.98707757E-05    2    -1000002         2   # BR(~chi_30 -> ~u_L*     u )
     1.32722844E-04    2     1000001        -1   # BR(~chi_30 -> ~d_L      db)
     1.32722844E-04    2    -1000001         1   # BR(~chi_30 -> ~d_L*     d )
     7.96197098E-06    2     2000001        -1   # BR(~chi_30 -> ~d_R      db)
     7.96197098E-06    2    -2000001         1   # BR(~chi_30 -> ~d_R*     d )
     7.98699749E-05    2     1000004        -4   # BR(~chi_30 -> ~c_L      cb)
     7.98699749E-05    2    -1000004         4   # BR(~chi_30 -> ~c_L*     c )
     1.32722844E-04    2     1000003        -3   # BR(~chi_30 -> ~s _L      sb)
     1.32722844E-04    2    -1000003         3   # BR(~chi_30 -> ~s _L*     s )
     7.96197098E-06    2     2000003        -3   # BR(~chi_30 -> ~s _R      sb)
     7.96197098E-06    2    -2000003         3   # BR(~chi_30 -> ~s _R*     s )
     2.61408056E-05    2     2000011       -11   # BR(~chi_30 -> ~e_R-     e+)
     2.61408056E-05    2    -2000011        11   # BR(~chi_30 -> ~e_R+     e-)
     2.61408056E-05    2     2000013       -13   # BR(~chi_30 -> ~mu_R-    mu+)
     2.61408056E-05    2    -2000013        13   # BR(~chi_30 -> ~mu_R+    mu-)
#
#         PDG            Width
DECAY   1000035     7.08223586E+00   # neutralino4 decays
#          BR         NDA      ID1       ID2
     2.63917812E-02    2     1000022        23   # BR(~chi_40 -> ~chi_10   Z )
     1.76781187E-02    2     1000023        23   # BR(~chi_40 -> ~chi_20   Z )
     2.79656663E-01    2     1000024       -24   # BR(~chi_40 -> ~chi_1+   W-)
     2.79656663E-01    2    -1000024        24   # BR(~chi_40 -> ~chi_1-   W+)
     9.88176045E-02    2     1000022        25   # BR(~chi_40 -> ~chi_10   h )
     2.84089628E-01    2     1000023        25   # BR(~chi_40 -> ~chi_20   h )
     1.46088080E-03    2     1000002        -2   # BR(~chi_40 -> ~u_L      ub)
     1.46088080E-03    2    -1000002         2   # BR(~chi_40 -> ~u_L*     u )
     1.84508178E-03    2     1000001        -1   # BR(~chi_40 -> ~d_L      db)
     1.84508178E-03    2    -1000001         1   # BR(~chi_40 -> ~d_L*     d )
     2.83817720E-05    2     2000001        -1   # BR(~chi_40 -> ~d_R      db)
     2.83817720E-05    2    -2000001         1   # BR(~chi_40 -> ~d_R*     d )
     1.46086659E-03    2     1000004        -4   # BR(~chi_40 -> ~c_L      cb)
     1.46086659E-03    2    -1000004         4   # BR(~chi_40 -> ~c_L*     c )
     1.84508178E-03    2     1000003        -3   # BR(~chi_40 -> ~s _L      sb)
     1.84508178E-03    2    -1000003         3   # BR(~chi_40 -> ~s _L*     s )
     2.83817720E-05    2     2000003        -3   # BR(~chi_40 -> ~s _R      sb)
     2.83817720E-05    2    -2000003         3   # BR(~chi_40 -> ~s _R*     s )
     9.30483719E-05    2     2000011       -11   # BR(~chi_40 -> ~e_R-     e+)
     9.30483719E-05    2    -2000011        11   # BR(~chi_40 -> ~e_R+     e-)
     9.30483719E-05    2     2000013       -13   # BR(~chi_40 -> ~mu_R-    mu+)
     9.30483719E-05    2    -2000013        13   # BR(~chi_40 -> ~mu_R+    mu-)
#
#         PDG            Width
DECAY        25     4.36526051E-03   # h decays
#          BR         NDA      ID1       ID2
     5.39151404E-01    2           5        -5   # BR(h -> b       bb     )
     6.26643302E-02    2         -15        15   # BR(h -> tau+    tau-   )
     2.21792901E-04    2         -13        13   # BR(h -> mu+     mu-    )
     2.42954050E-04    2           3        -3   # BR(h -> s       sb     )
     2.02305498E-02    2           4        -4   # BR(h -> c       cb     )
     7.79391527E-02    2          21        21   # BR(h -> g       g      )
     2.37556790E-03    2          22        22   # BR(h -> gam     gam    )
     1.83310968E-03    2          22        23   # BR(h -> Z       gam    )
     2.61307010E-01    2          24       -24   # BR(h -> W+      W-     )
     3.40341279E-02    2          23        23   # BR(h -> Z       Z      )
#
#         PDG            Width
DECAY        35     7.02476200E+00   # H decays
#          BR         NDA      ID1       ID2
     8.66130255E-01    2           5        -5   # BR(H -> b       bb     )
     1.11435359E-01    2         -15        15   # BR(H -> tau+    tau-   )
     3.93547713E-04    2         -13        13   # BR(H -> mu+     mu-    )
     4.48003195E-04    2           3        -3   # BR(H -> s       sb     )
     2.35268891E-07    2           4        -4   # BR(H -> c       cb     )
     2.12507290E-02    2           6        -6   # BR(H -> t       tb     )
     5.20071859E-05    2          21        21   # BR(H -> g       g      )
     6.13519309E-08    2          22        22   # BR(H -> gam     gam    )
     3.57799771E-08    2          23        22   # BR(H -> Z       gam    )
     5.01416152E-05    2          24       -24   # BR(H -> W+      W-     )
     2.48157939E-05    2          23        23   # BR(H -> Z       Z      )
     2.11695800E-04    2          25        25   # BR(H -> h       h      )
     3.11355993E-06    2     1000022   1000022   # BR(H -> ~chi_10 ~chi_10)
#
#         PDG            Width
DECAY        36     7.03202186E+00   # A decays
#          BR         NDA      ID1       ID2
     8.65364518E-01    2           5        -5   # BR(A -> b       bb     )
     1.11329151E-01    2         -15        15   # BR(A -> tau+    tau-   )
     3.93168665E-04    2         -13        13   # BR(A -> mu+     mu-    )
     4.47662029E-04    2           3        -3   # BR(A -> s       sb     )
     2.29595558E-07    2           4        -4   # BR(A -> c       cb     )
     2.21601142E-02    2           6        -6   # BR(A -> t       tb     )
     1.76645955E-04    2          21        21   # BR(A -> g       g      )
     2.40006707E-07    2          22        22   # BR(A -> gam     gam    )
     1.02417493E-07    2          23        22   # BR(A -> Z       gam    )
     4.95009331E-05    2          23        25   # BR(A -> Z       h      )
     7.86675603E-05    2     1000022   1000022   # BR(A -> ~chi_10 ~chi_10)
#
#         PDG            Width
DECAY        37     7.22555404E+00   # H+ decays
#          BR         NDA      ID1       ID2
     1.48196727E-03    2           4        -5   # BR(H+ -> c       bb     )
     1.08605041E-01    2         -15        16   # BR(H+ -> tau+    nu_tau )
     3.83548224E-04    2         -13        14   # BR(H+ -> mu+     nu_mu  )
     1.48195547E-05    2           2        -5   # BR(H+ -> u       bb     )
     2.17575643E-05    2           2        -3   # BR(H+ -> u       sb     )
     4.28468382E-04    2           4        -3   # BR(H+ -> c       sb     )
     8.89015637E-01    2           6        -5   # BR(H+ -> t       bb     )
     4.87606239E-05    2          24        25   # BR(H+ -> W+      h      )
     2.38184995E-11    2          24        36   # BR(H+ -> W+      A      )

DECAY         5   0.000000e+00 # b decays
DECAY        15   0.000000e+00 # tau decays
DECAY        23     2.49520000E+00   # Z
DECAY        24     2.08500000E+00   # W
