# SUSY Les Houches Accord 2 - MSSM spectrum + Decays
# SPheno v4.0.5be
# W. Porod, Comput. Phys. Commun. 153 (2003) 275-315, hep-ph/0301101;
# W. Porod, F.~Staub, Comput. Phys. Commun. 183 (2012) 2458
#                     arXiv:1104.1573 [hep-ph] 
# in case of problems send email to porod@physik.uni-wuerzburg.de
# Created: 12.05.2022,  16:40
Block SPINFO         # Program information
     1   SPheno      # spectrum calculator
     2   v4.0.5be    # version number
#
Block SPhenoINFO     # SPheno specific information
    1      2         # using 2-loop RGEs
    2      2         # using pole masses for boundary conditions at mZ
Block MODSEL  # Model selection
    1    0    # general MSSM
Block MINPAR  # Input parameters
    3    8.61286501E+00  # tanb at m_Z    
    4    1.00000000E+00  # Sign(mu)
Block EXTPAR  # non-universal input parameters
    0    3.76925828E+03  # scale for input parameters
    1   -8.50804134E+02  # M_1
    2    6.76860315E+02  # M_2
    3    1.18103542E+03  # M_3
   11   -7.46514616E+03  # A_t
   12    9.82400299E+02  # A_b
   13   -7.47159613E+02  # A_tau
   23    2.77759740E+02  # mu
   25    8.18611633E+00  # tan(beta)
   26    2.64726790E+03  # m_A, pole mass
   31    1.00000000E+04  # M_L11
   32    1.00000000E+04  # M_L22
   33    1.00000000E+04  # M_L33
   34    1.00000000E+04  # M_E11
   35    1.00000000E+04  # M_E22
   36    1.00000000E+04  # M_E33
   41    1.00000000E+04  # M_Q11
   42    1.00000000E+04  # M_Q22
   43    4.40578570E+03  # M_Q33
   44    1.00000000E+04  # M_U11
   45    1.00000000E+04  # M_U22
   46    3.35378860E+03  # M_U33
   47    1.00000000E+04  # M_D11
   48    1.00000000E+04  # M_D22
   49    3.38453001E+03  # M_D33
Block SMINPUTS  # SM parameters
         1     1.27908970E+02  # alpha_em^-1(MZ)^MSbar
         2     1.16637870E-05  # G_mu [GeV^-2]
         3     1.18400000E-01  # alpha_s(MZ)^MSbar
         4     9.11876000E+01  # m_Z(pole)
         5     4.18000000E+00  # m_b(m_b), MSbar
         6     1.73200000E+02  # m_t(pole)
         7     1.77700000E+00  # m_tau(pole)
         8     0.00000000E+00  # m_nu_3
        11     5.10998930E-04  # m_e(pole)
        12     0.00000000E+00  # m_nu_1
        13     1.05658372E-01  # m_muon(pole)
        14     0.00000000E+00  # m_nu_2
        21     5.00000000E-03  # m_d(2 GeV), MSbar
        22     2.50000000E-03  # m_u(2 GeV), MSbar
        23     9.50000000E-02  # m_s(2 GeV), MSbar
        24     1.27000000E+00  # m_c(m_c), MSbar
Block gauge Q=  3.76925828E+03  # (SUSY scale)
   1    3.55362975E-01  # g'(Q)^DRbar
   2    6.65198874E-01  # g(Q)^DRbar
   3    1.21977796E+00  # g3(Q)^DRbar
Block Yu Q=  3.76925828E+03  # (SUSY scale)
  1  1     8.44669875E-06   # Y_u(Q)^DRbar
  2  2     4.29092296E-03   # Y_c(Q)^DRbar
  3  3     1.02042905E+00   # Y_t(Q)^DRbar
Block Yd Q=  3.76925828E+03  # (SUSY scale)
  1  1     1.38945717E-04   # Y_d(Q)^DRbar
  2  2     2.63996863E-03   # Y_s(Q)^DRbar
  3  3     1.37790612E-01   # Y_b(Q)^DRbar
Block Ye Q=  3.76925828E+03  # (SUSY scale)
  1  1     2.42470437E-05   # Y_e(Q)^DRbar
  2  2     5.01351962E-03   # Y_mu(Q)^DRbar
  3  3     8.43191524E-02   # Y_tau(Q)^DRbar
Block Au Q=  3.76925828E+03  # (SUSY scale)
  1  1     0.00000000E+00   # A_u(Q)^DRbar
  2  2     0.00000000E+00   # A_c(Q)^DRbar
  3  3    -7.46514907E+03   # A_t(Q)^DRbar
Block Ad Q=  3.76925828E+03  # (SUSY scale)
  1  1     0.00000000E+00   # A_d(Q)^DRbar
  2  2     0.00000000E+00   # A_s(Q)^DRbar
  3  3     9.82400107E+02   # A_b(Q)^DRbar
Block Ae Q=  3.76925828E+03  # (SUSY scale)
  1  1     0.00000000E+00   # A_e(Q)^DRbar
  2  2     0.00000000E+00   # A_mu(Q)^DRbar
  3  3    -7.47159478E+02   # A_tau(Q)^DRbar
Block MSOFT Q=  3.76925828E+03  # soft SUSY breaking masses at Q
   1   -8.50804134E+02  # M_1
   2    6.76860315E+02  # M_2
   3    1.18103542E+03  # M_3
  21    6.81686941E+06  # M^2_(H,d)
  22    3.08113223E+05  # M^2_(H,u)
  31    1.00000000E+04  # M_(L,11)
  32    1.00000000E+04  # M_(L,22)
  33    1.00000000E+04  # M_(L,33)
  34    1.00000000E+04  # M_(E,11)
  35    1.00000000E+04  # M_(E,22)
  36    1.00000000E+04  # M_(E,33)
  41    1.00000000E+04  # M_(Q,11)
  42    1.00000000E+04  # M_(Q,22)
  43    4.40578570E+03  # M_(Q,33)
  44    1.00000000E+04  # M_(U,11)
  45    1.00000000E+04  # M_(U,22)
  46    3.35378860E+03  # M_(U,33)
  47    1.00000000E+04  # M_(D,11)
  48    1.00000000E+04  # M_(D,22)
  49    3.38453001E+03  # M_(D,33)
Block MASS  # Mass spectrum
#   PDG code      mass          particle
         6     1.73200000E+02  # m_t(pole)
        23     9.11876000E+01  # m_Z(pole)
        24     8.04299946E+01  # W+
        15     1.77700000E+00  # m_tau(pole)
        25     1.27803510E+02  # h0
        35     2.64708009E+03  # H0
        36     2.64726790E+03  # A0
        37     2.64619261E+03  # H+
   1000001     1.01230345E+04  # ~d_L
   2000001     1.00979173E+04  # ~d_R
   1000002     1.01226866E+04  # ~u_L
   2000002     1.01009157E+04  # ~u_R
   1000003     1.01230350E+04  # ~s_L
   2000003     1.00979176E+04  # ~s_R
   1000004     1.01226870E+04  # ~c_L
   2000004     1.01009164E+04  # ~c_R
   1000005     3.42905656E+03  # ~b_1
   2000005     4.36281382E+03  # ~b_2
   1000006     3.24454531E+03  # ~t_1
   2000006     4.37882865E+03  # ~t_2
   1000011     1.00211451E+04  # ~e_L-
   2000011     1.00090034E+04  # ~e_R-
   1000012     1.00203905E+04  # ~nu_eL
   1000013     1.00211457E+04  # ~mu_L-
   2000013     1.00090045E+04  # ~mu_R-
   1000014     1.00203911E+04  # ~nu_muL
   1000015     1.00093156E+04  # ~tau_1-
   2000015     1.00213143E+04  # ~tau_2-
   1000016     1.00205536E+04  # ~nu_tauL
   1000021     1.50464653E+03  # ~g
   1000022     2.84226499E+02  # ~chi_10
   1000023     2.93054258E+02  # ~chi_20
   1000025     7.43877766E+02  # ~chi_30
   1000035     8.58340758E+02  # ~chi_40
   1000024     2.85751229E+02  # ~chi_1+
   1000037     7.44008026E+02  # ~chi_2+
# Higgs mixing
Block alpha # Effective Higgs mixing angle
          -1.15976705E-01   # alpha
Block Hmix Q=  3.76925828E+03  # Higgs mixing parameters
   1    2.77759740E+02  # mu
   2    8.18611633E+00  # tan[beta](Q)
   3    2.42957053E+02  # v(Q)
   4    7.00802733E+06  # m^2_A(Q)
Block stopmix # stop mixing matrix
   1  1     1.21205916E-01   # Re[R_st(1,1)]
   1  2     9.92627385E-01   # Re[R_st(1,2)]
   2  1    -9.92627385E-01   # Re[R_st(2,1)]
   2  2     1.21205916E-01   # Re[R_st(2,2)]
Block sbotmix # sbottom mixing matrix
   1  1     3.63208703E-04   # Re[R_sb(1,1)]
   1  2     9.99999934E-01   # Re[R_sb(1,2)]
   2  1    -9.99999934E-01   # Re[R_sb(2,1)]
   2  2     3.63208703E-04   # Re[R_sb(2,2)]
Block staumix # stau mixing matrix
   1  1     2.23315500E-02   # Re[R_sta(1,1)]
   1  2     9.99750620E-01   # Re[R_sta(1,2)]
   2  1    -9.99750620E-01   # Re[R_sta(2,1)]
   2  2     2.23315500E-02   # Re[R_sta(2,2)]
Block Nmix # neutralino mixing matrix
   1  1    -3.01319977E-02   # Re[N(1,1)]
   1  2    -1.37986096E-01   # Re[N(1,2)]
   1  3     7.07405683E-01   # Re[N(1,3)]
   1  4    -6.92552597E-01   # Re[N(1,4)]
   2  1     4.87792592E-02   # Re[N(2,1)]
   2  2     4.84488453E-02   # Re[N(2,2)]
   2  3     7.03772547E-01   # Re[N(2,3)]
   2  4     7.07090867E-01   # Re[N(2,4)]
   3  1     3.85689601E-03   # Re[N(3,1)]
   3  2    -9.89244763E-01   # Re[N(3,2)]
   3  3    -6.41706962E-02   # Re[N(3,3)]
   3  4     1.31385100E-01   # Re[N(3,4)]
   4  1     9.98347520E-01   # Re[N(4,1)]
   4  2    -2.71015983E-03   # Re[N(4,2)]
   4  3    -1.27875886E-02   # Re[N(4,3)]
   4  4    -5.59585710E-02   # Re[N(4,4)]
Block Umix # chargino mixing matrix
   1  1    -9.09254746E-02   # Re[U(1,1)]
   1  2     9.95857700E-01   # Re[U(1,2)]
   2  1     9.95857700E-01   # Re[U(2,1)]
   2  2     9.09254746E-02   # Re[U(2,2)]
Block Vmix # chargino mixing matrix
   1  1    -1.86598060E-01   # Re[V(1,1)]
   1  2     9.82436341E-01   # Re[V(1,2)]
   2  1     9.82436341E-01   # Re[V(2,1)]
   2  2     1.86598060E-01   # Re[V(2,2)]
DECAY        23     2.49520000E+00   # Z
DECAY        24     2.08500000E+00   # W
DECAY   2000011     4.95567402E+01   # ~e^-_R
#    BR                NDA      ID1      ID2
     9.19916272E-04    2     1000022        11   # BR(~e^-_R -> chi^0_1 e^-)
     2.41056187E-03    2     1000023        11   # BR(~e^-_R -> chi^0_2 e^-)
     9.96654590E-01    2     1000035        11   # BR(~e^-_R -> chi^0_4 e^-)
DECAY   1000011     1.43294024E+02   # ~e^-_L
#    BR                NDA      ID1      ID2
     7.29632554E-03    2     1000022        11   # BR(~e^-_L -> chi^0_1 e^-)
     1.70589427E-03    2     1000023        11   # BR(~e^-_L -> chi^0_2 e^-)
     2.96680903E-01    2     1000025        11   # BR(~e^-_L -> chi^0_3 e^-)
     8.54036512E-02    2     1000035        11   # BR(~e^-_L -> chi^0_4 e^-)
     5.08144289E-03    2    -1000024        12   # BR(~e^-_L -> chi^-_1 nu_e)
     6.03831783E-01    2    -1000037        12   # BR(~e^-_L -> chi^-_2 nu_e)
#    BR                NDA      ID1      ID2       ID3
DECAY   2000013     4.95667386E+01   # ~mu^-_R
#    BR                NDA      ID1      ID2
     9.70178884E-04    2     1000022        13   # BR(~mu^-_R -> chi^0_1 mu^-)
     2.46000133E-03    2     1000023        13   # BR(~mu^-_R -> chi^0_2 mu^-)
     9.96453678E-01    2     1000035        13   # BR(~mu^-_R -> chi^0_4 mu^-)
DECAY   1000013     1.43299035E+02   # ~mu^-_L
#    BR                NDA      ID1      ID2
     7.31354139E-03    2     1000022        13   # BR(~mu^-_L -> chi^0_1 mu^-)
     1.72312516E-03    2     1000023        13   # BR(~mu^-_L -> chi^0_2 mu^-)
     2.96670689E-01    2     1000025        13   # BR(~mu^-_L -> chi^0_3 mu^-)
     8.54006754E-02    2     1000035        13   # BR(~mu^-_L -> chi^0_4 mu^-)
     5.08126549E-03    2    -1000024        14   # BR(~mu^-_L -> chi^-_1 nu_mu)
     6.03810703E-01    2    -1000037        14   # BR(~mu^-_L -> chi^-_2 nu_mu)
#    BR                NDA      ID1      ID2       ID3
DECAY   1000015     5.24316619E+01   # ~tau^-_1
#    BR                NDA      ID1      ID2
     1.49486159E-02    2     1000022        15   # BR(~tau^-_1 -> chi^0_1 tau^-)
     1.55247020E-02    2     1000023        15   # BR(~tau^-_1 -> chi^0_2 tau^-)
     1.04800764E-04    2     1000025        15   # BR(~tau^-_1 -> chi^0_3 tau^-)
     9.41642586E-01    2     1000035        15   # BR(~tau^-_1 -> chi^0_4 tau^-)
     2.75884289E-02    2    -1000024        16   # BR(~tau^-_1 -> chi^-_1 nu_tau)
     1.90866555E-04    2    -1000037        16   # BR(~tau^-_1 -> chi^-_2 nu_tau)
DECAY   2000015     1.44664838E+02   # ~tau^-_2
#    BR                NDA      ID1      ID2
     1.19089767E-02    2     1000022        15   # BR(~tau^-_2 -> chi^0_1 tau^-)
     6.57246820E-03    2     1000023        15   # BR(~tau^-_2 -> chi^0_2 tau^-)
     2.93921750E-01    2     1000025        15   # BR(~tau^-_2 -> chi^0_3 tau^-)
     8.47419497E-02    2     1000035        15   # BR(~tau^-_2 -> chi^0_4 tau^-)
     4.72368244E-03    2    -1000024        16   # BR(~tau^-_2 -> chi^-_1 nu_tau)
     5.98131173E-01    2    -1000037        16   # BR(~tau^-_2 -> chi^-_2 nu_tau)
#    BR                NDA      ID1      ID2       ID3
DECAY   1000012     1.43298265E+02   # ~nu_e
#    BR                NDA      ID1      ID2
     4.56537551E-03    2     1000022        12   # BR(~nu_e -> chi^0_1 nu_e)
     1.54031727E-04    2     1000023        12   # BR(~nu_e -> chi^0_2 nu_e)
     2.99131100E-01    2     1000025        12   # BR(~nu_e -> chi^0_3 nu_e)
     8.71480088E-02    2     1000035        12   # BR(~nu_e -> chi^0_4 nu_e)
     2.13985573E-02    2     1000024        11   # BR(~nu_e -> chi^+_1 e^-)
     5.87602927E-01    2     1000037        11   # BR(~nu_e -> chi^+_2 e^-)
#    BR                NDA      ID1      ID2       ID3
DECAY   1000014     1.43303276E+02   # ~nu_mu
#    BR                NDA      ID1      ID2
     4.56521615E-03    2     1000022        14   # BR(~nu_mu -> chi^0_1 nu_mu)
     1.54026350E-04    2     1000023        14   # BR(~nu_mu -> chi^0_2 nu_mu)
     2.99120659E-01    2     1000025        14   # BR(~nu_mu -> chi^0_3 nu_mu)
     8.71449669E-02    2     1000035        14   # BR(~nu_mu -> chi^0_4 nu_mu)
     2.14324289E-02    2     1000024        13   # BR(~nu_mu -> chi^+_1 mu^-)
     5.87582703E-01    2     1000037        13   # BR(~nu_mu -> chi^+_2 mu^-)
#    BR                NDA      ID1      ID2       ID3
DECAY   1000016     1.44715581E+02   # ~nu_tau
#    BR                NDA      ID1      ID2
     4.52073694E-03    2     1000022        16   # BR(~nu_tau -> chi^0_1 nu_tau)
     1.52525661E-04    2     1000023        16   # BR(~nu_tau -> chi^0_2 nu_tau)
     2.96206397E-01    2     1000025        16   # BR(~nu_tau -> chi^0_3 nu_tau)
     8.62959445E-02    2     1000035        16   # BR(~nu_tau -> chi^0_4 nu_tau)
     3.08862512E-02    2     1000024        15   # BR(~nu_tau -> chi^+_1 tau^-)
     5.81938145E-01    2     1000037        15   # BR(~nu_tau -> chi^+_2 tau^-)
#    BR                NDA      ID1      ID2       ID3
DECAY   2000001     7.67618023E+02   # ~d_R
#    BR                NDA      ID1      ID2
     7.21462100E-03    2     1000035         1   # BR(~d_R -> chi^0_4 d)
     9.92761158E-01    2     1000021         1   # BR(~d_R -> ~g d)
DECAY   1000001     8.97766308E+02   # ~d_L
#    BR                NDA      ID1      ID2
     8.71539772E-04    2     1000022         1   # BR(~d_L -> chi^0_1 d)
     4.81125048E-02    2     1000025         1   # BR(~d_L -> chi^0_3 d)
     1.59362794E-03    2     1000035         1   # BR(~d_L -> chi^0_4 d)
     8.19330939E-04    2    -1000024         2   # BR(~d_L -> chi^-_1 u)
     9.73801703E-02    2    -1000037         2   # BR(~d_L -> chi^-_2 u)
     8.51144486E-01    2     1000021         1   # BR(~d_L -> ~g d)
DECAY   2000003     7.67620835E+02   # ~s_R
#    BR                NDA      ID1      ID2
     7.21459509E-03    2     1000035         3   # BR(~s_R -> chi^0_4 s)
     9.92757552E-01    2     1000021         3   # BR(~s_R -> ~g s)
DECAY   1000003     8.97771454E+02   # ~s_L
#    BR                NDA      ID1      ID2
     8.72313722E-04    2     1000022         3   # BR(~s_L -> chi^0_1 s)
     4.81122379E-02    2     1000025         3   # BR(~s_L -> chi^0_3 s)
     1.59361914E-03    2     1000035         3   # BR(~s_L -> chi^0_4 s)
     8.23305429E-04    2    -1000024         4   # BR(~s_L -> chi^-_1 c)
     9.73797604E-02    2    -1000037         4   # BR(~s_L -> chi^-_2 c)
     8.51139653E-01    2     1000021         3   # BR(~s_L -> ~g s)
DECAY   1000005     1.80701157E+02   # ~b_1
#    BR                NDA      ID1      ID2
     3.54885452E-03    2     1000022         5   # BR(~b_1 -> chi^0_1 b)
     3.52291478E-03    2     1000023         5   # BR(~b_1 -> chi^0_2 b)
     9.27862925E-03    2     1000035         5   # BR(~b_1 -> chi^0_4 b)
     6.97579519E-03    2    -1000024         6   # BR(~b_1 -> chi^-_1 t)
     9.76596413E-01    2     1000021         5   # BR(~b_1 -> ~g b)
DECAY   2000005     4.86656402E+02   # ~b_2
#    BR                NDA      ID1      ID2
     2.36731623E-03    2     1000022         5   # BR(~b_2 -> chi^0_1 b)
     1.72411326E-03    2     1000023         5   # BR(~b_2 -> chi^0_2 b)
     3.64669516E-02    2     1000025         5   # BR(~b_2 -> chi^0_3 b)
     1.18843692E-03    2     1000035         5   # BR(~b_2 -> chi^0_4 b)
     1.77677617E-01    2    -1000024         6   # BR(~b_2 -> chi^-_1 t)
     8.02000507E-02    2    -1000037         6   # BR(~b_2 -> chi^-_2 t)
     5.49303336E-01    2     1000021         5   # BR(~b_2 -> ~g b)
     1.51070871E-01    2     1000006       -24   # BR(~b_2 -> ~t_1 W^-)
DECAY   2000002     7.84541611E+02   # ~u_R
#    BR                NDA      ID1      ID2
     2.82445970E-02    2     1000035         2   # BR(~u_R -> chi^0_4 u)
     9.71660619E-01    2     1000021         2   # BR(~u_R -> ~g u)
DECAY   1000002     8.97756907E+02   # ~u_L
#    BR                NDA      ID1      ID2
     1.01826659E-03    2     1000022         2   # BR(~u_L -> chi^0_1 u)
     1.61740411E-04    2     1000023         2   # BR(~u_L -> chi^0_2 u)
     4.79778939E-02    2     1000025         2   # BR(~u_L -> chi^0_3 u)
     1.49931066E-03    2     1000035         2   # BR(~u_L -> chi^0_4 u)
     3.45058361E-03    2     1000024         1   # BR(~u_L -> chi^+_1 d)
     9.47707012E-02    2     1000037         1   # BR(~u_L -> chi^+_2 d)
     8.51121504E-01    2     1000021         2   # BR(~u_L -> ~g u)
DECAY   2000004     7.84549024E+02   # ~c_R
#    BR                NDA      ID1      ID2
     2.82443446E-02    2     1000035         4   # BR(~c_R -> chi^0_4 c)
     9.71651472E-01    2     1000021         4   # BR(~c_R -> ~g c)
DECAY   1000004     8.97762013E+02   # ~c_L
#    BR                NDA      ID1      ID2
     1.02023791E-03    2     1000022         4   # BR(~c_L -> chi^0_1 c)
     1.63800712E-04    2     1000023         4   # BR(~c_L -> chi^0_2 c)
     4.79776941E-02    2     1000025         4   # BR(~c_L -> chi^0_3 c)
     1.49931510E-03    2     1000035         4   # BR(~c_L -> chi^0_4 c)
     3.45210762E-03    2     1000024         3   # BR(~c_L -> chi^+_1 s)
     9.47701790E-02    2     1000037         3   # BR(~c_L -> chi^+_2 s)
     8.51116666E-01    2     1000021         4   # BR(~c_L -> ~g c)
DECAY   1000006     2.96127166E+02   # ~t_1
#    BR                NDA      ID1      ID2
     1.08476673E-01    2     1000022         6   # BR(~t_1 -> chi^0_1 t)
     1.11224698E-01    2     1000023         6   # BR(~t_1 -> chi^0_2 t)
     1.17636855E-03    2     1000025         6   # BR(~t_1 -> chi^0_3 t)
     2.17436460E-02    2     1000035         6   # BR(~t_1 -> chi^0_4 t)
     2.19046066E-01    2     1000024         5   # BR(~t_1 -> chi^+_1 b)
     2.35904892E-03    2     1000037         5   # BR(~t_1 -> chi^+_2 b)
     5.35971294E-01    2     1000021         6   # BR(~t_1 -> ~g t)
#    BR                NDA      ID1      ID2       ID3
DECAY   2000006     5.05668165E+02   # ~t_2
#    BR                NDA      ID1      ID2
     8.41718157E-02    2     1000022         6   # BR(~t_2 -> chi^0_1 t)
     8.84961613E-02    2     1000023         6   # BR(~t_2 -> chi^0_2 t)
     4.01304572E-02    2     1000025         6   # BR(~t_2 -> chi^0_3 t)
     1.29658892E-03    2     1000035         6   # BR(~t_2 -> chi^0_4 t)
     3.16947544E-03    2     1000024         5   # BR(~t_2 -> chi^+_1 b)
     7.33466756E-02    2     1000037         5   # BR(~t_2 -> chi^+_2 b)
     5.25561838E-01    2     1000021         6   # BR(~t_2 -> ~g t)
     7.42518028E-02    2     1000006        23   # BR(~t_2 -> ~t_1 Z)
     1.09574345E-01    2     1000006        25   # BR(~t_2 -> ~t_1 h^0)
DECAY   1000024     6.65147407E-12   # chi^+_1
#    BR                NDA      ID1      ID2       ID3
     6.00185471E-01    3     1000022        -1         2   # BR(chi^+_1 -> chi^0_1 d_bar u)
     4.35989495E-03    3     1000022        -3         4   # BR(chi^+_1 -> chi^0_1 s_bar c)
     2.00075243E-01    3     1000022       -11        12   # BR(chi^+_1 -> chi^0_1 e^+ nu_e)
     1.95379392E-01    3     1000022       -13        14   # BR(chi^+_1 -> chi^0_1 mu^+ nu_mu)
DECAY   1000037     7.02138271E+00   # chi^+_2
#    BR                NDA      ID1      ID2
     2.51180515E-01    2     1000022        24   # BR(chi^+_2 -> chi^0_1 W^+)
     2.68238777E-01    2     1000023        24   # BR(chi^+_2 -> chi^0_2 W^+)
     2.48538247E-01    2     1000024        23   # BR(chi^+_2 -> chi^+_1 Z)
     2.28368647E-01    2     1000024        25   # BR(chi^+_2 -> chi^+_1 h^0)
#    BR                NDA      ID1      ID2       ID3
     5.20298976E-04    3     1000024         6        -6   # BR(chi^+_2 -> chi^+_1 t t_bar)
     1.85564747E-03    3     1000022        -5         6   # BR(chi^+_2 -> chi^0_1 b_bar t)
     1.29780178E-03    3     1000023        -5         6   # BR(chi^+_2 -> chi^0_2 b_bar t)
DECAY   1000022     0.00000000E+00   # chi^0_1
DECAY   1000023     4.10302109E-07   # chi^0_2
#    BR                NDA      ID1      ID2
     2.76470528E-01    2     1000022        22   # BR(chi^0_2 -> chi^0_1 photon)
#    BR                NDA      ID1      ID2       ID3
     5.06710695E-02    3     1000022         2        -2   # BR(chi^0_2 -> chi^0_1 u u_bar)
     3.83910632E-02    3     1000022         4        -4   # BR(chi^0_2 -> chi^0_1 c c_bar)
     6.49703332E-02    3     1000022         1        -1   # BR(chi^0_2 -> chi^0_1 d d_bar)
     6.48829182E-02    3     1000022         3        -3   # BR(chi^0_2 -> chi^0_1 s s_bar)
     3.67636329E-04    3     1000022         5        -5   # BR(chi^0_2 -> chi^0_1 b b_bar)
     1.46619432E-02    3     1000022        11       -11   # BR(chi^0_2 -> chi^0_1 e^- e^+)
     1.46308849E-02    3     1000022        13       -13   # BR(chi^0_2 -> chi^0_1 mu^- mu^+)
     7.98477497E-03    3     1000022        15       -15   # BR(chi^0_2 -> chi^0_1 tau^- tau^+)
     8.68840808E-02    3     1000022        12       -12   # BR(chi^0_2 -> chi^0_1 nu_e nu_bar_e)
     6.83336692E-02    3     1000024         1        -2   # BR(chi^0_2 -> chi^+_1 d u_bar)
     6.83336692E-02    3    -1000024        -1         2   # BR(chi^0_2 -> chi^-_1 d_bar u)
     5.90091195E-02    3     1000024         3        -4   # BR(chi^0_2 -> chi^+_1 s c_bar)
     5.90091195E-02    3    -1000024        -3         4   # BR(chi^0_2 -> chi^-_1 s_bar c)
     2.27778757E-02    3     1000024        11       -12   # BR(chi^0_2 -> chi^+_1 e^- nu_bar_e)
     2.27778757E-02    3    -1000024       -11        12   # BR(chi^0_2 -> chi^-_1 e^+ nu_e)
     2.27541799E-02    3     1000024        13       -14   # BR(chi^0_2 -> chi^+_1 mu^- nu_bar_mu)
     2.27541799E-02    3    -1000024       -13        14   # BR(chi^0_2 -> chi^-_1 mu^+ nu_mu)
     1.71675395E-02    3     1000024        15       -16   # BR(chi^0_2 -> chi^+_1 tau^- nu_bar_tau)
     1.71675395E-02    3    -1000024       -15        16   # BR(chi^0_2 -> chi^-_1 tau^+ nu_tau)
DECAY   1000025     7.85116371E+00   # chi^0_3
#    BR                NDA      ID1      ID2
     2.29794806E-01    2     1000024       -24   # BR(chi^0_3 -> chi^+_1 W^-)
     2.29794806E-01    2    -1000024        24   # BR(chi^0_3 -> chi^-_1 W^+)
     2.41322482E-02    2     1000022        23   # BR(chi^0_3 -> chi^0_1 Z)
     2.14659877E-01    2     1000023        23   # BR(chi^0_3 -> chi^0_2 Z)
     1.77758668E-01    2     1000022        25   # BR(chi^0_3 -> chi^0_1 h^0)
     1.20315021E-01    2     1000023        25   # BR(chi^0_3 -> chi^0_2 h^0)
#    BR                NDA      ID1      ID2       ID3
     1.16393293E-04    3     1000022         6        -6   # BR(chi^0_3 -> chi^0_1 t t_bar)
     1.66967242E-03    3     1000024         5        -6   # BR(chi^0_3 -> chi^+_1 b t_bar)
     1.66967242E-03    3    -1000024        -5         6   # BR(chi^0_3 -> chi^-_1 b_bar t)
DECAY   1000035     2.33387147E+00   # chi^0_4
#    BR                NDA      ID1      ID2
     2.12806421E-01    2     1000024       -24   # BR(chi^0_4 -> chi^+_1 W^-)
     2.12806421E-01    2    -1000024        24   # BR(chi^0_4 -> chi^-_1 W^+)
     1.36373212E-04    2     1000037       -24   # BR(chi^0_4 -> chi^+_2 W^-)
     1.36373212E-04    2    -1000037        24   # BR(chi^0_4 -> chi^-_2 W^+)
     1.52703278E-01    2     1000022        23   # BR(chi^0_4 -> chi^0_1 Z)
     6.10815559E-02    2     1000023        23   # BR(chi^0_4 -> chi^0_2 Z)
     1.29629693E-04    2     1000025        23   # BR(chi^0_4 -> chi^0_3 Z)
     2.14689483E-01    2     1000022        25   # BR(chi^0_4 -> chi^0_1 h^0)
     1.37277388E-01    2     1000023        25   # BR(chi^0_4 -> chi^0_2 h^0)
#    BR                NDA      ID1      ID2       ID3
     6.23903281E-04    3     1000022         6        -6   # BR(chi^0_4 -> chi^0_1 t t_bar)
     4.42173366E-04    3     1000023         6        -6   # BR(chi^0_4 -> chi^0_2 t t_bar)
     3.57902087E-03    3     1000024         5        -6   # BR(chi^0_4 -> chi^+_1 b t_bar)
     3.57902087E-03    3    -1000024        -5         6   # BR(chi^0_4 -> chi^-_1 b_bar t)
DECAY   1000021     3.20419364E-03   # ~g
#    BR                NDA      ID1      ID2
     1.53807302E-02    2     1000022        21   # BR(~g -> chi^0_1 g)
     1.63844287E-02    2     1000023        21   # BR(~g -> chi^0_2 g)
     2.19339575E-04    2     1000025        21   # BR(~g -> chi^0_3 g)
#    BR                NDA      ID1      ID2       ID3
     2.10762191E-01    3     1000022         6        -6   # BR(~g -> chi^0_1 t t_bar)
     5.03505214E-03    3     1000022         5        -5   # BR(~g -> chi^0_1 b b_bar)
     2.20473688E-01    3     1000023         6        -6   # BR(~g -> chi^0_2 t t_bar)
     4.56398931E-03    3     1000023         5        -5   # BR(~g -> chi^0_2 b b_bar)
     1.93332033E-04    3     1000025         2        -2   # BR(~g -> chi^0_3 u u_bar)
     1.93331001E-04    3     1000025         4        -4   # BR(~g -> chi^0_3 c c_bar)
     6.98917379E-03    3     1000025         6        -6   # BR(~g -> chi^0_3 t t_bar)
     1.93841558E-04    3     1000025         1        -1   # BR(~g -> chi^0_3 d d_bar)
     1.93841573E-04    3     1000025         3        -3   # BR(~g -> chi^0_3 s s_bar)
     6.33163613E-03    3     1000025         5        -5   # BR(~g -> chi^0_3 b b_bar)
     2.06275988E-03    3     1000035         6        -6   # BR(~g -> chi^0_4 t t_bar)
     1.38294614E-03    3     1000035         5        -5   # BR(~g -> chi^0_4 b b_bar)
     2.39788792E-01    3     1000024         5        -6   # BR(~g -> chi^+_1 b t_bar)
     2.39788792E-01    3    -1000024        -5         6   # BR(~g -> chi^-_1 b_bar t)
     3.86853700E-04    3     1000037         1        -2   # BR(~g -> chi^+_2 d u_bar)
     3.86853700E-04    3    -1000037        -1         2   # BR(~g -> chi^-_2 d_bar u)
     3.86852665E-04    3     1000037         3        -4   # BR(~g -> chi^+_2 s c_bar)
     3.86852665E-04    3    -1000037        -3         4   # BR(~g -> chi^-_2 s_bar c)
     1.40667895E-02    3     1000037         5        -6   # BR(~g -> chi^+_2 b t_bar)
     1.40667895E-02    3    -1000037        -5         6   # BR(~g -> chi^-_2 b_bar t)
DECAY        25     4.00959371E-03   # Gamma(h0)
     2.50964959E-03   2        22        22   # BR(h0 -> photon photon)
     1.85272853E-03   2        22        23   # BR(h0 -> photon Z)
     3.76638048E-02   2        23        23   # BR(h0 -> Z Z)
     2.94969217E-01   2       -24        24   # BR(h0 -> W W)
     7.48116172E-02   2        21        21   # BR(h0 -> gluon gluon)
     4.54856847E-09   2       -11        11   # BR(h0 -> Electron electron)
     2.02329825E-04   2       -13        13   # BR(h0 -> Muon muon)
     5.83422148E-02   2       -15        15   # BR(h0 -> Tau tau)
     1.28380016E-07   2        -2         2   # BR(h0 -> Up up)
     2.49168494E-02   2        -4         4   # BR(h0 -> Charm charm)
     5.24413027E-07   2        -1         1   # BR(h0 -> Down down)
     1.89668186E-04   2        -3         3   # BR(h0 -> Strange strange)
     5.04541263E-01   2        -5         5   # BR(h0 -> Bottom bottom)
DECAY        35     3.40103489E+01   # Gamma(HH)
     2.40953917E-07   2        22        22   # BR(HH -> photon photon)
     3.06338996E-07   2        22        23   # BR(HH -> photon Z)
     1.78448109E-05   2        23        23   # BR(HH -> Z Z)
     6.37447396E-06   2       -24        24   # BR(HH -> W W)
     8.36577390E-06   2        21        21   # BR(HH -> gluon gluon)
     8.37958657E-10   2       -11        11   # BR(HH -> Electron electron)
     3.73085409E-05   2       -13        13   # BR(HH -> Muon muon)
     1.07749482E-02   2       -15        15   # BR(HH -> Tau tau)
     2.48497493E-12   2        -2         2   # BR(HH -> Up up)
     4.82045064E-07   2        -4         4   # BR(HH -> Charm charm)
     3.55318182E-02   2        -6         6   # BR(HH -> Top top)
     6.25379776E-08   2        -1         1   # BR(HH -> Down down)
     2.26204940E-05   2        -3         3   # BR(HH -> Strange strange)
     5.96465917E-02   2        -5         5   # BR(HH -> Bottom bottom)
     2.15230193E-02   2  -1000024   1000024   # BR(HH -> Chargino1 chargino1)
     2.62968892E-01   2  -1000024   1000037   # BR(HH -> Chargino1 chargino2)
     2.62968892E-01   2  -1000037   1000024   # BR(HH -> Chargino2 chargino1)
     2.19836967E-03   2  -1000037   1000037   # BR(HH -> Chargino2 chargino2)
     4.25126293E-03   2   1000022   1000022   # BR(HH -> neutralino1 neutralino1)
     2.45230422E-03   2   1000022   1000023   # BR(HH -> neutralino1 neutralino2)
     9.44255867E-02   2   1000022   1000025   # BR(HH -> neutralino1 neutralino3)
     2.95578379E-02   2   1000022   1000035   # BR(HH -> neutralino1 neutralino4)
     2.68112471E-04   2   1000023   1000023   # BR(HH -> neutralino2 neutralino2)
     1.71021327E-01   2   1000023   1000025   # BR(HH -> neutralino2 neutralino3)
     4.04926903E-02   2   1000023   1000035   # BR(HH -> neutralino2 neutralino4)
     1.13175288E-03   2   1000025   1000025   # BR(HH -> neutralino3 neutralino3)
     5.64050092E-04   2   1000025   1000035   # BR(HH -> neutralino3 neutralino4)
     2.65820372E-05   2   1000035   1000035   # BR(HH -> neutralino4 neutralino4)
     1.02355544E-04   2        25        25   # BR(HH -> h0 h0)
DECAY        36     3.38771911E+01   # Gamma(A0)
     2.67698838E-07   2        22        22   # BR(A0 -> photon photon)
     3.09884446E-07   2        22        23   # BR(A0 -> photon Z)
     2.46234266E-05   2        21        21   # BR(A0 -> gluon gluon)
     8.12799280E-10   2       -11        11   # BR(A0 -> Electron electron)
     3.61881785E-05   2       -13        13   # BR(A0 -> Muon muon)
     1.04514008E-02   2       -15        15   # BR(A0 -> Tau tau)
     2.34416300E-12   2        -2         2   # BR(A0 -> Up up)
     4.54706288E-07   2        -4         4   # BR(A0 -> Charm charm)
     3.41241596E-02   2        -6         6   # BR(A0 -> Top top)
     6.06591155E-08   2        -1         1   # BR(A0 -> Down down)
     2.19409689E-05   2        -3         3   # BR(A0 -> Strange strange)
     5.78549566E-02   2        -5         5   # BR(A0 -> Bottom bottom)
     2.82918500E-02   2  -1000024   1000024   # BR(A0 -> Chargino1 chargino1)
     2.57792545E-01   2  -1000024   1000037   # BR(A0 -> Chargino1 chargino2)
     2.57792545E-01   2  -1000037   1000024   # BR(A0 -> Chargino2 chargino1)
     8.03125436E-03   2  -1000037   1000037   # BR(A0 -> Chargino2 chargino2)
     7.02373645E-03   2   1000022   1000022   # BR(A0 -> neutralino1 neutralino1)
     1.16020521E-03   2   1000022   1000023   # BR(A0 -> neutralino1 neutralino2)
     1.66634971E-01   2   1000022   1000025   # BR(A0 -> neutralino1 neutralino3)
     4.08170632E-02   2   1000022   1000035   # BR(A0 -> neutralino1 neutralino4)
     1.76062248E-04   2   1000023   1000023   # BR(A0 -> neutralino2 neutralino2)
     9.56176155E-02   2   1000023   1000025   # BR(A0 -> neutralino2 neutralino3)
     2.95928960E-02   2   1000023   1000035   # BR(A0 -> neutralino2 neutralino4)
     4.05624659E-03   2   1000025   1000025   # BR(A0 -> neutralino3 neutralino3)
     4.67537120E-04   2   1000025   1000035   # BR(A0 -> neutralino3 neutralino4)
     4.22121018E-06   2   1000035   1000035   # BR(A0 -> neutralino4 neutralino4)
     2.68880432E-05   2        23        25   # BR(A0 -> Z h0)
     2.41348883E-39   2        25        25   # BR(A0 -> h0 h0)
DECAY        37     3.43327962E+01   # Gamma(Hp)
     9.45514562E-10   2       -11        12   # BR(Hp -> Electron nu_e)
     4.04237006E-05   2       -13        14   # BR(Hp -> Muon nu_mu)
     1.14341189E-02   2       -15        16   # BR(Hp -> Tau nu_tau)
     6.13029188E-08   2        -1         2   # BR(Hp -> Down up)
     1.03326009E-06   2        -3         2   # BR(Hp -> Strange up)
     6.69501079E-07   2        -5         2   # BR(Hp -> Bottom up)
     2.76269834E-08   2        -1         4   # BR(Hp -> Down charm)
     2.26225097E-05   2        -3         4   # BR(Hp -> Strange charm)
     9.37549160E-05   2        -5         4   # BR(Hp -> Bottom charm)
     2.70457815E-06   2        -1         6   # BR(Hp -> Down top)
     5.90013563E-05   2        -3         6   # BR(Hp -> Strange top)
     1.04779934E-01   2        -5         6   # BR(Hp -> Bottom top)
     1.27791099E-03   2   1000022   1000024   # BR(Hp -> neutralino1 chargino1)
     2.77450402E-01   2   1000022   1000037   # BR(Hp -> neutralino1 chargino2)
     9.44063014E-03   2   1000023   1000024   # BR(Hp -> neutralino2 chargino1)
     2.61028195E-01   2   1000023   1000037   # BR(Hp -> neutralino2 chargino2)
     2.65821020E-01   2   1000024   1000025   # BR(Hp -> chargino1 neutralino3)
     1.56917593E-07   2   1000025   1000037   # BR(Hp -> neutralino3 chargino2)
     6.75119055E-02   2   1000024   1000035   # BR(Hp -> chargino1 neutralino4)
     1.00890735E-03   2   1000035   1000037   # BR(Hp -> neutralino4 chargino2)
     2.65199066E-05   2        24        25   # BR(Hp -> W h0)
DECAY         6     2.43000000E+00   # top
#    BR                NDA      ID1      ID2
     1.00000000E+00    2           5        24   # BR(t -> b W)
Block HiggsBoundsInputHiggsCouplingsFermions
# ScalarNormEffCoupSq PseudoSNormEffCoupSq NP IP1 IP2 IP2
    9.10714450E-01    0.00000000E+00        3  25   5   5  # h0-b-b eff. coupling^2, normalised to SM
    6.71017861E+01    0.00000000E+00        3  35   5   5  # H0-b-b eff. coupling^2, normalised to SM
    0.00000000E+00    6.70125006E+01        3  36   5   5  # A0-b-b eff. coupling^2, normalised to SM
#
    1.00133237E+00    0.00000000E+00        3  25   6   6  # h0-t-t eff. coupling^2, normalised to SM
    1.35902174E-02    0.00000000E+00        3  35   6   6  # H0-t-t eff. coupling^2, normalised to SM
    0.00000000E+00    1.49225889E-02        3  36   6   6  # A0-t-t eff. coupling^2, normalised to SM
#
    9.10714450E-01    0.00000000E+00        3  25  15  15  # h0-tau-tau eff. coupling^2, normalised to SM
    6.71017861E+01    0.00000000E+00        3  35  15  15  # H0-tau-tau eff. coupling^2, normalised to SM
    0.00000000E+00    6.70125006E+01        3  36  15  15  # A0-tau-tau eff. coupling^2, normalised to SM
#
Block HiggsBoundsInputHiggsCouplingsBosons
    9.99968874E-01        3  25  24  24  # h0-W-W eff. coupling^2, normalised to SM
    3.11259123E-05        3  35  24  24  # H0-W-W eff. coupling^2, normalised to SM
    0.00000000E+00        3  36  24  24  # A0-W-W eff. coupling^2, normalised to SM
#
    9.99968874E-01        3  25  23  23  # h0-Z-Z eff. coupling^2, normalised to SM
    3.11259123E-05        3  35  23  23  # H0-Z-Z eff. coupling^2, normalised to SM
    0.00000000E+00        3  36  23  23  # A0-Z-Z eff. coupling^2, normalised to SM
#
    1.26769905E+00        3  25  21  21  # h0-g-g eff. coupling^2, normalised to SM
    9.91598584E-03        3  35  21  21  # H0-g-g eff. coupling^2, normalised to SM
    1.40260345E-01        3  36  21  21  # A0-g-g eff. coupling^2, normalised to SM
#
    0.00000000E+00        3  25  25  23  # h0-h0-Z eff. coupling^2, normalised to SM
    0.00000000E+00        3  35  25  23  # H0-h0-Z eff. coupling^2, normalised to SM
    3.11259123E-05        3  36  25  23  # A0-h0-Z eff. coupling^2, normalised to SM
    0.00000000E+00        3  35  35  23  # H0-H0-Z eff. coupling^2, normalised to SM
    9.99968874E-01        3  36  35  23  # A0-H0-Z eff. coupling^2, normalised to SM
    0.00000000E+00        3  36  36  23  # A0-A0-Z eff. coupling^2, normalised to SM
#
    0.00000000E+00        4  25  21  21  23  # h0-g-g-Z eff. coupling^2, normalised to SM
    0.00000000E+00        4  35  21  21  23  # H0-g-g-Z eff. coupling^2, normalised to SM
    0.00000000E+00        4  36  21  21  23  # A0-g-g-Z eff. coupling^2, normalised to SM
Block SPhenoLowEnergy  # low energy observables
    1    3.23243041E-04   # BR(b -> s gamma)
    2    1.59076419E-06   # BR(b -> s mu+ mu-)
    3    3.52710394E-05   # BR(b -> s nu nu)
    4    2.76883166E-15   # BR(Bd -> e+ e-)
    5    1.18281329E-10   # BR(Bd -> mu+ mu-)
    6    2.47600660E-08   # BR(Bd -> tau+ tau-)
    7    9.32794271E-14   # BR(Bs -> e+ e-)
    8    3.98489361E-09   # BR(Bs -> mu+ mu-)
    9    8.45198176E-07   # BR(Bs -> tau+ tau-)
   10    9.67443203E-05   # BR(B_u -> tau nu)
   11    9.99331791E-01   # BR(B_u -> tau nu)/BR(B_u -> tau nu)_SM
   12    5.42372193E-01   # |Delta(M_Bd)| [ps^-1] 
   13    1.93791575E+01   # |Delta(M_Bs)| [ps^-1] 
   14    0.00000000E+00   # neutron EDM according to the chiral quark model
   15    0.00000000E+00   # neutron EDM according to the relativistic quark-parton model
   16    2.15882902E-03   # epsilon_K
   17    2.28167367E-15   # Delta(M_K)
   18    2.48130869E-11   # BR(K^0 -> pi^0 nu nu)
   19    8.29351879E-11   # BR(K^+ -> pi^+ nu nu)
   20    5.38429146E-17   # Delta(g-2)_electron/2
   21    2.30195313E-12   # Delta(g-2)_muon/2
   22    6.51032873E-10   # Delta(g-2)_tau/2
   23    0.00000000E+00   # electric dipole moment of the electron
   24    0.00000000E+00   # electric dipole moment of the muon
   25    0.00000000E+00   # electric dipole moment of the tau
   26    0.00000000E+00   # Br(mu -> e gamma)
   27    0.00000000E+00   # Br(tau -> e gamma)
   28    0.00000000E+00   # Br(tau -> mu gamma)
   29    0.00000000E+00   # Br(mu -> 3 e)
   30    0.00000000E+00   # Br(tau -> 3 e)
   31    0.00000000E+00   # Br(tau -> 3 mu)
   39   -7.86620501E-05   # Delta(rho_parameter)
   40    0.00000000E+00   # BR(Z -> e mu)
   41    0.00000000E+00   # BR(Z -> e tau)
   42    0.00000000E+00   # BR(Z -> mu tau)
Block FWCOEF Q=  1.60000000E+02  # Wilson coefficients at scale Q
#    id        order  M        value         comment
     0305 4422   00   0    -1.88819110E-01   # C7
     0305 4422   00   2    -1.90969258E-01   # C7
     0305 4322   00   2    -1.24078001E-04   # C7'
     0305 6421   00   0    -9.52278348E-02   # C8
     0305 6421   00   2    -1.02815987E-01   # C8
     0305 6321   00   2    -1.98988797E-04   # C8'
 03051111 4133   00   0     1.62413940E+00   # C9 e+e-
 03051111 4133   00   2     1.62456095E+00   # C9 e+e-
 03051111 4233   00   2     2.01592527E-05   # C9' e+e-
 03051111 4137   00   0    -4.44683151E+00   # C10 e+e-
 03051111 4137   00   2    -4.44697627E+00   # C10 e+e-
 03051111 4237   00   2    -1.48496482E-04   # C10' e+e-
 03051313 4133   00   0     1.62413940E+00   # C9 mu+mu-
 03051313 4133   00   2     1.62456093E+00   # C9 mu+mu-
 03051313 4233   00   2     2.01592514E-05   # C9' mu+mu-
 03051313 4137   00   0    -4.44683151E+00   # C10 mu+mu-
 03051313 4137   00   2    -4.44697629E+00   # C10 mu+mu-
 03051313 4237   00   2    -1.48496482E-04   # C10' mu+mu-
 03051212 4137   00   0     1.50535012E+00   # C11 nu_1 nu_1
 03051212 4137   00   2     1.50538334E+00   # C11 nu_1 nu_1
 03051212 4237   00   2     3.21281837E-05   # C11' nu_1 nu_1
 03051414 4137   00   0     1.50535012E+00   # C11 nu_2 nu_2
 03051414 4137   00   2     1.50538334E+00   # C11 nu_2 nu_2
 03051414 4237   00   2     3.21281840E-05   # C11' nu_2 nu_2
 03051616 4137   00   0     1.50535012E+00   # C11 nu_3 nu_3
 03051616 4137   00   2     1.50538334E+00   # C11 nu_3 nu_3
 03051616 4237   00   2     3.21282472E-05   # C11' nu_3 nu_3
Block IMFWCOEF Q=  1.60000000E+02  # Im(Wilson coefficients) at scale Q
#    id        order  M        value         comment
     0305 4422   00   0     3.85826052E-07   # C7
     0305 4422   00   2     3.74637751E-06   # C7
     0305 4322   00   2     7.00717666E-07   # C7'
     0305 6421   00   0     3.30485530E-07   # C8
     0305 6421   00   2    -9.12739991E-06   # C8
     0305 6321   00   2     1.86138548E-07   # C8'
 03051111 4133   00   2    -2.62743921E-07   # C9 e+e-
 03051111 4233   00   2     4.01802476E-07   # C9' e+e-
 03051111 4137   00   2     7.31954555E-06   # C10 e+e-
 03051111 4237   00   2    -2.96250782E-06   # C10' e+e-
 03051313 4133   00   2    -2.62744131E-07   # C9 mu+mu-
 03051313 4233   00   2     4.01802472E-07   # C9' mu+mu-
 03051313 4137   00   2     7.31954574E-06   # C10 mu+mu-
 03051313 4237   00   2    -2.96250783E-06   # C10' mu+mu-
 03051212 4137   00   2    -1.55006136E-06   # C11 nu_1 nu_1
 03051212 4237   00   2     6.40959505E-07   # C11' nu_1 nu_1
 03051414 4137   00   2    -1.55006135E-06   # C11 nu_2 nu_2
 03051414 4237   00   2     6.40959505E-07   # C11' nu_2 nu_2
 03051616 4137   00   2    -1.55005854E-06   # C11 nu_3 nu_3
 03051616 4237   00   2     6.40959504E-07   # C11' nu_3 nu_3
