# SUSY Les Houches Accord 2 - MSSM spectrum + Decays
# SPheno v4.0.5be
# W. Porod, Comput. Phys. Commun. 153 (2003) 275-315, hep-ph/0301101;
# W. Porod, F.~Staub, Comput. Phys. Commun. 183 (2012) 2458
#                     arXiv:1104.1573 [hep-ph] 
# in case of problems send email to porod@physik.uni-wuerzburg.de
# Created: 08.09.2021,  19:48
Block SPINFO         # Program information
     1   SPheno      # spectrum calculator
     2   v4.0.5be    # version number
#
Block SPhenoINFO     # SPheno specific information
    1      2         # using 2-loop RGEs
    2      2         # using pole masses for boundary conditions at mZ
Block MODSEL  # Model selection
    1    0    # general MSSM
Block MINPAR  # Input parameters
    3    7.27627879E+00  # tanb at m_Z    
    4    1.00000000E+00  # Sign(mu)
Block EXTPAR  # non-universal input parameters
    0    3.94670525E+03  # scale for input parameters
    1   -2.13450882E+02  # M_1
    2    6.82372584E+02  # M_2
    3    3.13511807E+03  # M_3
   11   -3.33027766E+02  # A_t
   12    5.70278644E+02  # A_b
   13   -9.04278345E+02  # A_tau
   23    2.06839171E+02  # mu
   25    6.90817070E+00  # tan(beta)
   26    1.68646263E+03  # m_A, pole mass
   31    1.00000000E+04  # M_L11
   32    1.00000000E+04  # M_L22
   33    1.00000000E+04  # M_L33
   34    1.00000000E+04  # M_E11
   35    1.00000000E+04  # M_E22
   36    1.00000000E+04  # M_E33
   41    1.00000000E+04  # M_Q11
   42    1.00000000E+04  # M_Q22
   43    3.42472455E+03  # M_Q33
   44    1.00000000E+04  # M_U11
   45    1.00000000E+04  # M_U22
   46    4.36517481E+03  # M_U33
   47    1.00000000E+04  # M_D11
   48    1.00000000E+04  # M_D22
   49    3.22550019E+03  # M_D33
Block SMINPUTS  # SM parameters
         1     1.27908970E+02  # alpha_em^-1(MZ)^MSbar
         2     1.16637870E-05  # G_mu [GeV^-2]
         3     1.18400000E-01  # alpha_s(MZ)^MSbar
         4     9.11876000E+01  # m_Z(pole)
         5     4.18000000E+00  # m_b(m_b), MSbar
         6     1.73200000E+02  # m_t(pole)
         7     1.77700000E+00  # m_tau(pole)
         8     0.00000000E+00  # m_nu_3
        11     5.10998930E-04  # m_e(pole)
        12     0.00000000E+00  # m_nu_1
        13     1.05658372E-01  # m_muon(pole)
        14     0.00000000E+00  # m_nu_2
        21     5.00000000E-03  # m_d(2 GeV), MSbar
        22     2.50000000E-03  # m_u(2 GeV), MSbar
        23     9.50000000E-02  # m_s(2 GeV), MSbar
        24     1.27000000E+00  # m_c(m_c), MSbar
Block gauge Q=  3.94670525E+03  # (SUSY scale)
   1    3.55362975E-01  # g'(Q)^DRbar
   2    6.65198874E-01  # g(Q)^DRbar
   3    1.21977796E+00  # g3(Q)^DRbar
Block Yu Q=  3.94670525E+03  # (SUSY scale)
  1  1     8.47176118E-06   # Y_u(Q)^DRbar
  2  2     4.30365468E-03   # Y_c(Q)^DRbar
  3  3     1.02345680E+00   # Y_t(Q)^DRbar
Block Yd Q=  3.94670525E+03  # (SUSY scale)
  1  1     1.17602624E-04   # Y_d(Q)^DRbar
  2  2     2.23444986E-03   # Y_s(Q)^DRbar
  3  3     1.16624952E-01   # Y_b(Q)^DRbar
Block Ye Q=  3.94670525E+03  # (SUSY scale)
  1  1     2.05225179E-05   # Y_e(Q)^DRbar
  2  2     4.24340581E-03   # Y_mu(Q)^DRbar
  3  3     7.13671050E-02   # Y_tau(Q)^DRbar
Block Au Q=  3.94670525E+03  # (SUSY scale)
  1  1     0.00000000E+00   # A_u(Q)^DRbar
  2  2     0.00000000E+00   # A_c(Q)^DRbar
  3  3    -3.33027769E+02   # A_t(Q)^DRbar
Block Ad Q=  3.94670525E+03  # (SUSY scale)
  1  1     0.00000000E+00   # A_d(Q)^DRbar
  2  2     0.00000000E+00   # A_s(Q)^DRbar
  3  3     5.70278642E+02   # A_b(Q)^DRbar
Block Ae Q=  3.94670525E+03  # (SUSY scale)
  1  1     0.00000000E+00   # A_e(Q)^DRbar
  2  2     0.00000000E+00   # A_mu(Q)^DRbar
  3  3    -9.04278342E+02   # A_tau(Q)^DRbar
Block MSOFT Q=  3.94670525E+03  # soft SUSY breaking masses at Q
   1   -2.13450882E+02  # M_1
   2    6.82372584E+02  # M_2
   3    3.13511807E+03  # M_3
  21    2.73649312E+06  # M^2_(H,d)
  22    3.66246465E+05  # M^2_(H,u)
  31    1.00000000E+04  # M_(L,11)
  32    1.00000000E+04  # M_(L,22)
  33    1.00000000E+04  # M_(L,33)
  34    1.00000000E+04  # M_(E,11)
  35    1.00000000E+04  # M_(E,22)
  36    1.00000000E+04  # M_(E,33)
  41    1.00000000E+04  # M_(Q,11)
  42    1.00000000E+04  # M_(Q,22)
  43    3.42472455E+03  # M_(Q,33)
  44    1.00000000E+04  # M_(U,11)
  45    1.00000000E+04  # M_(U,22)
  46    4.36517481E+03  # M_(U,33)
  47    1.00000000E+04  # M_(D,11)
  48    1.00000000E+04  # M_(D,22)
  49    3.22550019E+03  # M_(D,33)
Block MASS  # Mass spectrum
#   PDG code      mass          particle
         6     1.73200000E+02  # m_t(pole)
        23     9.11876000E+01  # m_Z(pole)
        24     8.04299946E+01  # W+
        15     1.77700000E+00  # m_tau(pole)
        25     1.20578180E+02  # h0
        35     1.68647505E+03  # H0
        36     1.68646263E+03  # A0
        37     1.68867479E+03  # H+
   1000001     1.01091324E+04  # ~d_L
   2000001     1.00842737E+04  # ~d_R
   1000002     1.01087764E+04  # ~u_L
   2000002     1.00874149E+04  # ~u_R
   1000003     1.01091328E+04  # ~s_L
   2000003     1.00842738E+04  # ~s_R
   1000004     1.01087768E+04  # ~c_L
   2000004     1.00874155E+04  # ~c_R
   1000005     3.35434291E+03  # ~b_1
   2000005     3.53015881E+03  # ~b_2
   1000006     3.53205063E+03  # ~t_1
   2000006     4.41003936E+03  # ~t_2
   1000011     1.00212954E+04  # ~e_L-
   2000011     1.00089538E+04  # ~e_R-
   1000012     1.00205353E+04  # ~nu_eL
   1000013     1.00212959E+04  # ~mu_L-
   2000013     1.00089546E+04  # ~mu_R-
   1000014     1.00205357E+04  # ~nu_muL
   1000015     1.00091820E+04  # ~tau_1-
   2000015     1.00214177E+04  # ~tau_2-
   1000016     1.00206540E+04  # ~nu_tauL
   1000021     3.60790529E+03  # ~g
   1000022     1.95640198E+02  # ~chi_10
   1000023     2.20090456E+02  # ~chi_20
   1000025     2.49731867E+02  # ~chi_30
   1000035     7.45971807E+02  # ~chi_40
   1000024     2.19772643E+02  # ~chi_1+
   1000037     7.46174280E+02  # ~chi_2+
# Higgs mixing
Block alpha # Effective Higgs mixing angle
          -1.37649675E-01   # alpha
Block Hmix Q=  3.94670525E+03  # Higgs mixing parameters
   1    2.06839171E+02  # mu
   2    6.90817070E+00  # tan[beta](Q)
   3    2.42975337E+02  # v(Q)
   4    2.84415620E+06  # m^2_A(Q)
Block stopmix # stop mixing matrix
   1  1     9.99917331E-01   # Re[R_st(1,1)]
   1  2     1.28580928E-02   # Re[R_st(1,2)]
   2  1    -1.28580928E-02   # Re[R_st(2,1)]
   2  2     9.99917331E-01   # Re[R_st(2,2)]
Block sbotmix # sbottom mixing matrix
   1  1     1.71875601E-03   # Re[R_sb(1,1)]
   1  2     9.99998523E-01   # Re[R_sb(1,2)]
   2  1    -9.99998523E-01   # Re[R_sb(2,1)]
   2  2     1.71875601E-03   # Re[R_sb(2,2)]
Block staumix # stau mixing matrix
   1  1     1.67259131E-02   # Re[R_sta(1,1)]
   1  2     9.99860112E-01   # Re[R_sta(1,2)]
   2  1    -9.99860112E-01   # Re[R_sta(2,1)]
   2  2     1.67259131E-02   # Re[R_sta(2,2)]
Block Nmix # neutralino mixing matrix
   1  1     7.64076628E-01   # Re[N(1,1)]
   1  2     2.93253382E-02   # Re[N(1,2)]
   1  3     4.96051417E-01   # Re[N(1,3)]
   1  4     4.11412108E-01   # Re[N(1,4)]
   2  1    -7.98760309E-02   # Re[N(2,1)]
   2  2    -1.22088745E-01   # Re[N(2,2)]
   2  3     7.05471659E-01   # Re[N(2,3)]
   2  4    -6.93558863E-01   # Re[N(2,4)]
   3  1    -6.40134102E-01   # Re[N(3,1)]
   3  2     4.10690897E-02   # Re[N(3,2)]
   3  3     5.03592871E-01   # Re[N(3,3)]
   3  4     5.78736452E-01   # Re[N(3,4)]
   4  1     5.92093946E-03   # Re[N(4,1)]
   4  2    -9.91235438E-01   # Re[N(4,2)]
   4  3    -5.13512442E-02   # Re[N(4,3)]
   4  4     1.21574255E-01   # Re[N(4,4)]
Block Umix # chargino mixing matrix
   1  1    -7.25480070E-02   # Re[U(1,1)]
   1  2     9.97364922E-01   # Re[U(1,2)]
   2  1     9.97364922E-01   # Re[U(2,1)]
   2  2     7.25480070E-02   # Re[U(2,2)]
Block Vmix # chargino mixing matrix
   1  1    -1.72316472E-01   # Re[V(1,1)]
   1  2     9.85041640E-01   # Re[V(1,2)]
   2  1     9.85041640E-01   # Re[V(2,1)]
   2  2     1.72316472E-01   # Re[V(2,2)]
DECAY        23     2.49520000E+00   # Z
DECAY        24     2.08500000E+00   # W
DECAY   2000011     5.02429252E+01   # ~e^-_R
#    BR                NDA      ID1      ID2
     5.83929172E-01    2     1000022        11   # BR(~e^-_R -> chi^0_1 e^-)
     6.38015428E-03    2     1000023        11   # BR(~e^-_R -> chi^0_2 e^-)
     4.09655970E-01    2     1000025        11   # BR(~e^-_R -> chi^0_3 e^-)
DECAY   1000011     1.43456037E+02   # ~e^-_L
#    BR                NDA      ID1      ID2
     5.88104836E-02    2     1000022        11   # BR(~e^-_L -> chi^0_1 e^-)
     8.33860913E-03    2     1000023        11   # BR(~e^-_L -> chi^0_2 e^-)
     2.78050624E-02    2     1000025        11   # BR(~e^-_L -> chi^0_3 e^-)
     2.96865243E-01    2     1000035        11   # BR(~e^-_L -> chi^0_4 e^-)
     3.23348846E-03    2    -1000024        12   # BR(~e^-_L -> chi^-_1 nu_e)
     6.04947113E-01    2    -1000037        12   # BR(~e^-_L -> chi^-_2 nu_e)
#    BR                NDA      ID1      ID2       ID3
DECAY   2000013     5.02500928E+01   # ~mu^-_R
#    BR                NDA      ID1      ID2
     5.83863469E-01    2     1000022        13   # BR(~mu^-_R -> chi^0_1 mu^-)
     6.41472161E-03    2     1000023        13   # BR(~mu^-_R -> chi^0_2 mu^-)
     4.09615645E-01    2     1000025        13   # BR(~mu^-_R -> chi^0_3 mu^-)
DECAY   1000013     1.43459630E+02   # ~mu^-_L
#    BR                NDA      ID1      ID2
     5.88151665E-02    2     1000022        13   # BR(~mu^-_L -> chi^0_1 mu^-)
     8.35084218E-03    2     1000023        13   # BR(~mu^-_L -> chi^0_2 mu^-)
     2.78107050E-02    2     1000025        13   # BR(~mu^-_L -> chi^0_3 mu^-)
     2.96857888E-01    2     1000035        13   # BR(~mu^-_L -> chi^0_4 mu^-)
     3.23340763E-03    2    -1000024        14   # BR(~mu^-_L -> chi^-_1 nu_mu)
     6.04931991E-01    2    -1000037        14   # BR(~mu^-_L -> chi^-_2 nu_mu)
#    BR                NDA      ID1      ID2       ID3
DECAY   1000015     5.22965421E+01   # ~tau^-_1
#    BR                NDA      ID1      ID2
     5.66470528E-01    2     1000022        15   # BR(~tau^-_1 -> chi^0_1 tau^-)
     1.60163688E-02    2     1000023        15   # BR(~tau^-_1 -> chi^0_2 tau^-)
     3.97578819E-01    2     1000025        15   # BR(~tau^-_1 -> chi^0_3 tau^-)
     1.97067719E-02    2    -1000024        16   # BR(~tau^-_1 -> chi^-_1 nu_tau)
     1.31961507E-04    2    -1000037        16   # BR(~tau^-_1 -> chi^-_2 nu_tau)
DECAY   2000015     1.44446094E+02   # ~tau^-_2
#    BR                NDA      ID1      ID2
     5.98862540E-02    2     1000022        15   # BR(~tau^-_2 -> chi^0_1 tau^-)
     1.16883780E-02    2     1000023        15   # BR(~tau^-_2 -> chi^0_2 tau^-)
     2.97260362E-02    2     1000025        15   # BR(~tau^-_2 -> chi^0_3 tau^-)
     2.94848378E-01    2     1000035        15   # BR(~tau^-_2 -> chi^0_4 tau^-)
     3.05399584E-03    2    -1000024        16   # BR(~tau^-_2 -> chi^-_1 nu_tau)
     6.00796958E-01    2    -1000037        16   # BR(~tau^-_2 -> chi^-_2 nu_tau)
#    BR                NDA      ID1      ID2       ID3
DECAY   1000012     1.43460000E+02   # ~nu_e
#    BR                NDA      ID1      ID2
     4.40950676E-02    2     1000022        12   # BR(~nu_e -> chi^0_1 nu_e)
     1.93720057E-03    2     1000023        12   # BR(~nu_e -> chi^0_2 nu_e)
     4.50522280E-02    2     1000025        12   # BR(~nu_e -> chi^0_3 nu_e)
     3.00647178E-01    2     1000035        12   # BR(~nu_e -> chi^0_4 nu_e)
     1.82401726E-02    2     1000024        11   # BR(~nu_e -> chi^+_1 e^-)
     5.90028153E-01    2     1000037        11   # BR(~nu_e -> chi^+_2 e^-)
#    BR                NDA      ID1      ID2       ID3
DECAY   1000014     1.43463591E+02   # ~nu_mu
#    BR                NDA      ID1      ID2
     4.40939654E-02    2     1000022        14   # BR(~nu_mu -> chi^0_1 nu_mu)
     1.93715215E-03    2     1000023        14   # BR(~nu_mu -> chi^0_2 nu_mu)
     4.50511019E-02    2     1000025        14   # BR(~nu_mu -> chi^0_3 nu_mu)
     3.00639663E-01    2     1000035        14   # BR(~nu_mu -> chi^0_4 nu_mu)
     1.82645810E-02    2     1000024        13   # BR(~nu_mu -> chi^+_1 mu^-)
     5.90013536E-01    2     1000037        13   # BR(~nu_mu -> chi^+_2 mu^-)
#    BR                NDA      ID1      ID2       ID3
DECAY   1000016     1.44476073E+02   # ~nu_tau
#    BR                NDA      ID1      ID2
     4.37854748E-02    2     1000022        16   # BR(~nu_tau -> chi^0_1 nu_tau)
     1.92359943E-03    2     1000023        16   # BR(~nu_tau -> chi^0_2 nu_tau)
     4.47359154E-02    2     1000025        16   # BR(~nu_tau -> chi^0_3 nu_tau)
     2.98536398E-01    2     1000035        16   # BR(~nu_tau -> chi^0_4 nu_tau)
     2.50961315E-02    2     1000024        15   # BR(~nu_tau -> chi^+_1 tau^-)
     5.85922481E-01    2     1000037        15   # BR(~nu_tau -> chi^+_2 tau^-)
#    BR                NDA      ID1      ID2       ID3
DECAY   2000001     6.10874642E+02   # ~d_R
#    BR                NDA      ID1      ID2
     5.37652231E-03    2     1000022         1   # BR(~d_R -> chi^0_1 d)
     3.77193085E-03    2     1000025         1   # BR(~d_R -> chi^0_3 d)
     9.90792475E-01    2     1000021         1   # BR(~d_R -> ~g d)
DECAY   1000001     7.41074651E+02   # ~d_L
#    BR                NDA      ID1      ID2
     6.83527841E-04    2     1000022         1   # BR(~d_L -> chi^0_1 d)
     6.97919008E-04    2     1000023         1   # BR(~d_L -> chi^0_2 d)
     1.44186611E-03    2     1000025         1   # BR(~d_L -> chi^0_3 d)
     5.84776002E-02    2     1000035         1   # BR(~d_L -> chi^0_4 d)
     6.31430347E-04    2    -1000024         2   # BR(~d_L -> chi^-_1 u)
     1.18153905E-01    2    -1000037         2   # BR(~d_L -> chi^-_2 u)
     8.19913752E-01    2     1000021         1   # BR(~d_L -> ~g d)
DECAY   2000003     6.10876646E+02   # ~s_R
#    BR                NDA      ID1      ID2
     5.37690669E-03    2     1000022         3   # BR(~s_R -> chi^0_1 s)
     3.77233277E-03    2     1000025         3   # BR(~s_R -> chi^0_3 s)
     9.90789238E-01    2     1000021         3   # BR(~s_R -> ~g s)
DECAY   1000003     7.41079415E+02   # ~s_L
#    BR                NDA      ID1      ID2
     6.83855682E-04    2     1000022         3   # BR(~s_L -> chi^0_1 s)
     6.98586342E-04    2     1000023         3   # BR(~s_L -> chi^0_2 s)
     1.44219920E-03    2     1000025         3   # BR(~s_L -> chi^0_3 s)
     5.84772302E-02    2     1000035         3   # BR(~s_L -> chi^0_4 s)
     6.36298106E-04    2    -1000024         4   # BR(~s_L -> chi^-_1 c)
     1.18153299E-01    2    -1000037         4   # BR(~s_L -> chi^-_2 c)
     8.19908532E-01    2     1000021         3   # BR(~s_L -> ~g s)
DECAY   1000005     3.65111913E+00   # ~b_1
#    BR                NDA      ID1      ID2
     3.58767962E-01    2     1000022         5   # BR(~b_1 -> chi^0_1 b)
     1.26103134E-01    2     1000023         5   # BR(~b_1 -> chi^0_2 b)
     2.69587119E-01    2     1000025         5   # BR(~b_1 -> chi^0_3 b)
     4.60256394E-04    2     1000035         5   # BR(~b_1 -> chi^0_4 b)
     2.44202053E-01    2    -1000024         6   # BR(~b_1 -> chi^-_1 t)
     8.79475335E-04    2    -1000037         6   # BR(~b_1 -> chi^-_2 t)
DECAY   2000005     1.16610563E+02   # ~b_2
#    BR                NDA      ID1      ID2
     3.49039143E-03    2     1000022         5   # BR(~b_2 -> chi^0_1 b)
     5.57644408E-03    2     1000023         5   # BR(~b_2 -> chi^0_2 b)
     5.25104475E-03    2     1000025         5   # BR(~b_2 -> chi^0_3 b)
     1.19771182E-01    2     1000035         5   # BR(~b_2 -> chi^0_4 b)
     6.05450774E-01    2    -1000024         6   # BR(~b_2 -> chi^-_1 t)
     2.60459576E-01    2    -1000037         6   # BR(~b_2 -> chi^-_2 t)
DECAY   2000002     6.28054793E+02   # ~u_R
#    BR                NDA      ID1      ID2
     2.09243213E-02    2     1000022         2   # BR(~u_R -> chi^0_1 u)
     2.28625001E-04    2     1000023         2   # BR(~u_R -> chi^0_2 u)
     1.46795836E-02    2     1000025         2   # BR(~u_R -> chi^0_3 u)
     9.64166226E-01    2     1000021         2   # BR(~u_R -> ~g u)
DECAY   1000002     7.41059742E+02   # ~u_L
#    BR                NDA      ID1      ID2
     1.64106883E-03    2     1000022         2   # BR(~u_L -> chi^0_1 u)
     1.11457271E-03    2     1000023         2   # BR(~u_L -> chi^0_2 u)
     3.18884766E-04    2     1000025         2   # BR(~u_L -> chi^0_3 u)
     5.82283975E-02    2     1000035         2   # BR(~u_L -> chi^0_4 u)
     3.56222972E-03    2     1000024         1   # BR(~u_L -> chi^+_1 d)
     1.15250333E-01    2     1000037         1   # BR(~u_L -> chi^+_2 d)
     8.19884514E-01    2     1000021         2   # BR(~u_L -> ~g u)
DECAY   2000004     6.28062244E+02   # ~c_R
#    BR                NDA      ID1      ID2
     2.09250760E-02    2     1000022         4   # BR(~c_R -> chi^0_1 c)
     2.31466630E-04    2     1000023         4   # BR(~c_R -> chi^0_2 c)
     1.46813871E-02    2     1000025         4   # BR(~c_R -> chi^0_3 c)
     9.64154829E-01    2     1000021         4   # BR(~c_R -> ~g c)
DECAY   1000004     7.41064475E+02   # ~c_L
#    BR                NDA      ID1      ID2
     1.64190805E-03    2     1000022         4   # BR(~c_L -> chi^0_1 c)
     1.11698043E-03    2     1000023         4   # BR(~c_L -> chi^0_2 c)
     3.20564473E-04    2     1000025         4   # BR(~c_L -> chi^0_3 c)
     5.82281019E-02    2     1000035         4   # BR(~c_L -> chi^0_4 c)
     3.56354976E-03    2     1000024         3   # BR(~c_L -> chi^+_1 s)
     1.15249608E-01    2     1000037         3   # BR(~c_L -> chi^+_2 s)
     8.19879287E-01    2     1000021         4   # BR(~c_L -> ~g c)
DECAY   1000006     1.16895434E+02   # ~t_1
#    BR                NDA      ID1      ID2
     1.07639429E-01    2     1000022         6   # BR(~t_1 -> chi^0_1 t)
     3.01536460E-01    2     1000023         6   # BR(~t_1 -> chi^0_2 t)
     2.10231907E-01    2     1000025         6   # BR(~t_1 -> chi^0_3 t)
     1.27378934E-01    2     1000035         6   # BR(~t_1 -> chi^0_4 t)
     1.77743339E-02    2     1000024         5   # BR(~t_1 -> chi^+_1 b)
     2.33942582E-01    2     1000037         5   # BR(~t_1 -> chi^+_2 b)
#    BR                NDA      ID1      ID2       ID3
     1.49584655E-03    3     1000022        24         5   # BR(~t_1 -> chi^0_1 W^+ b)
DECAY   2000006     2.29663203E+02   # ~t_2
#    BR                NDA      ID1      ID2
     9.31324166E-02    2     1000022         6   # BR(~t_2 -> chi^0_1 t)
     1.91017840E-01    2     1000023         6   # BR(~t_2 -> chi^0_2 t)
     1.48700665E-01    2     1000025         6   # BR(~t_2 -> chi^0_3 t)
     6.11901383E-03    2     1000035         6   # BR(~t_2 -> chi^0_4 t)
     3.85147572E-01    2     1000024         5   # BR(~t_2 -> chi^+_1 b)
     1.23058145E-02    2     1000037         5   # BR(~t_2 -> chi^+_2 b)
     1.60233760E-01    2     1000021         6   # BR(~t_2 -> ~g t)
     1.92279169E-03    2     2000005        24   # BR(~t_2 -> ~b_2 W^+)
     9.52181556E-04    2     1000006        23   # BR(~t_2 -> ~t_1 Z)
     4.67935680E-04    2     1000006        25   # BR(~t_2 -> ~t_1 h^0)
DECAY   1000024     1.30131590E-05   # chi^+_1
#    BR                NDA      ID1      ID2       ID3
     3.35747763E-01    3     1000022        -1         2   # BR(chi^+_1 -> chi^0_1 d_bar u)
     3.31346795E-01    3     1000022        -3         4   # BR(chi^+_1 -> chi^0_1 s_bar c)
     1.11914511E-01    3     1000022       -11        12   # BR(chi^+_1 -> chi^0_1 e^+ nu_e)
     1.11907465E-01    3     1000022       -13        14   # BR(chi^+_1 -> chi^0_1 mu^+ nu_mu)
     1.09083466E-01    3     1000022       -15        16   # BR(chi^+_1 -> chi^0_1 tau^+ nu_tau)
DECAY   1000037     7.20005780E+00   # chi^+_2
#    BR                NDA      ID1      ID2
     1.10633394E-01    2     1000022        24   # BR(chi^+_2 -> chi^0_1 W^+)
     2.52420709E-01    2     1000023        24   # BR(chi^+_2 -> chi^0_2 W^+)
     1.50606536E-01    2     1000025        24   # BR(chi^+_2 -> chi^0_3 W^+)
     2.48587366E-01    2     1000024        23   # BR(chi^+_2 -> chi^+_1 Z)
     2.32732890E-01    2     1000024        25   # BR(chi^+_2 -> chi^+_1 h^0)
#    BR                NDA      ID1      ID2       ID3
     1.06138375E-03    3     1000024         6        -6   # BR(chi^+_2 -> chi^+_1 t t_bar)
     7.47105556E-04    3     1000022        -5         6   # BR(chi^+_2 -> chi^0_1 b_bar t)
     2.35365564E-03    3     1000023        -5         6   # BR(chi^+_2 -> chi^0_2 b_bar t)
     8.56685077E-04    3     1000025        -5         6   # BR(chi^+_2 -> chi^0_3 b_bar t)
DECAY   1000022     0.00000000E+00   # chi^0_1
DECAY   1000023     1.10632290E-05   # chi^0_2
#    BR                NDA      ID1      ID2
     4.98547425E-02    2     1000022        22   # BR(chi^0_2 -> chi^0_1 photon)
#    BR                NDA      ID1      ID2       ID3
     1.18612873E-01    3     1000022         2        -2   # BR(chi^0_2 -> chi^0_1 u u_bar)
     1.14504115E-01    3     1000022         4        -4   # BR(chi^0_2 -> chi^0_1 c c_bar)
     1.52084560E-01    3     1000022         1        -1   # BR(chi^0_2 -> chi^0_1 d d_bar)
     1.52058658E-01    3     1000022         3        -3   # BR(chi^0_2 -> chi^0_1 s s_bar)
     1.09053056E-01    3     1000022         5        -5   # BR(chi^0_2 -> chi^0_1 b b_bar)
     3.43201451E-02    3     1000022        11       -11   # BR(chi^0_2 -> chi^0_1 e^- e^+)
     3.43108922E-02    3     1000022        13       -13   # BR(chi^0_2 -> chi^0_1 mu^- mu^+)
     3.18219023E-02    3     1000022        15       -15   # BR(chi^0_2 -> chi^0_1 tau^- tau^+)
     2.03379056E-01    3     1000022        12       -12   # BR(chi^0_2 -> chi^0_1 nu_e nu_bar_e)
DECAY   1000025     1.56684599E-04   # chi^0_3
#    BR                NDA      ID1      ID2
     7.37654260E-04    2     1000022        22   # BR(chi^0_3 -> chi^0_1 photon)
     1.60047560E-02    2     1000023        22   # BR(chi^0_3 -> chi^0_2 photon)
#    BR                NDA      ID1      ID2       ID3
     1.75804036E-04    3     1000022         2        -2   # BR(chi^0_3 -> chi^0_1 u u_bar)
     1.74858636E-04    3     1000022         4        -4   # BR(chi^0_3 -> chi^0_1 c c_bar)
     2.25074907E-04    3     1000022         1        -1   # BR(chi^0_3 -> chi^0_1 d d_bar)
     2.25069150E-04    3     1000022         3        -3   # BR(chi^0_3 -> chi^0_1 s s_bar)
     2.14406915E-04    3     1000022         5        -5   # BR(chi^0_3 -> chi^0_1 b b_bar)
     3.01462940E-04    3     1000022        12       -12   # BR(chi^0_3 -> chi^0_1 nu_e nu_bar_e)
     3.18192636E-02    3     1000023         2        -2   # BR(chi^0_3 -> chi^0_2 u u_bar)
     3.10768349E-02    3     1000023         4        -4   # BR(chi^0_3 -> chi^0_2 c c_bar)
     4.07987224E-02    3     1000023         1        -1   # BR(chi^0_3 -> chi^0_2 d d_bar)
     4.07940833E-02    3     1000023         3        -3   # BR(chi^0_3 -> chi^0_2 s s_bar)
     3.27244765E-02    3     1000023         5        -5   # BR(chi^0_3 -> chi^0_2 b b_bar)
     9.20729604E-03    3     1000023        11       -11   # BR(chi^0_3 -> chi^0_2 e^- e^+)
     9.20563667E-03    3     1000023        13       -13   # BR(chi^0_3 -> chi^0_2 mu^- mu^+)
     8.75289061E-03    3     1000023        15       -15   # BR(chi^0_3 -> chi^0_2 tau^- tau^+)
     5.45600237E-02    3     1000023        12       -12   # BR(chi^0_3 -> chi^0_2 nu_e nu_bar_e)
     1.21021741E-01    3     1000024         1        -2   # BR(chi^0_3 -> chi^+_1 d u_bar)
     1.21021741E-01    3    -1000024        -1         2   # BR(chi^0_3 -> chi^-_1 d_bar u)
     1.20023609E-01    3     1000024         3        -4   # BR(chi^0_3 -> chi^+_1 s c_bar)
     1.20023609E-01    3    -1000024        -3         4   # BR(chi^0_3 -> chi^-_1 s_bar c)
     4.03409366E-02    3     1000024        11       -12   # BR(chi^0_3 -> chi^+_1 e^- nu_bar_e)
     4.03409366E-02    3    -1000024       -11        12   # BR(chi^0_3 -> chi^-_1 e^+ nu_e)
     4.03393534E-02    3     1000024        13       -14   # BR(chi^0_3 -> chi^+_1 mu^- nu_bar_mu)
     4.03393534E-02    3    -1000024       -13        14   # BR(chi^0_3 -> chi^-_1 mu^+ nu_mu)
     3.96996627E-02    3     1000024        15       -16   # BR(chi^0_3 -> chi^+_1 tau^- nu_bar_tau)
     3.96996627E-02    3    -1000024       -15        16   # BR(chi^0_3 -> chi^-_1 tau^+ nu_tau)
DECAY   1000035     7.84580440E+00   # chi^0_4
#    BR                NDA      ID1      ID2
     2.34067125E-01    2     1000024       -24   # BR(chi^0_4 -> chi^+_1 W^-)
     2.34067125E-01    2    -1000024        24   # BR(chi^0_4 -> chi^-_1 W^+)
     8.49634838E-02    2     1000022        23   # BR(chi^0_4 -> chi^0_1 Z)
     3.26331825E-02    2     1000023        23   # BR(chi^0_4 -> chi^0_2 Z)
     1.20881657E-01    2     1000025        23   # BR(chi^0_4 -> chi^0_3 Z)
     4.39931450E-02    2     1000022        25   # BR(chi^0_4 -> chi^0_1 h^0)
     1.80257029E-01    2     1000023        25   # BR(chi^0_4 -> chi^0_2 h^0)
     6.43087597E-02    2     1000025        25   # BR(chi^0_4 -> chi^0_3 h^0)
#    BR                NDA      ID1      ID2       ID3
     1.18852405E-04    3     1000022         6        -6   # BR(chi^0_4 -> chi^0_1 t t_bar)
     2.95882488E-04    3     1000023         6        -6   # BR(chi^0_4 -> chi^0_2 t t_bar)
     2.15656716E-03    3     1000024         5        -6   # BR(chi^0_4 -> chi^+_1 b t_bar)
     2.15656716E-03    3    -1000024        -5         6   # BR(chi^0_4 -> chi^-_1 b_bar t)
DECAY   1000021     2.94653877E+00   # ~g
#    BR                NDA      ID1      ID2
     3.33251802E-01    2     1000005        -5   # BR(~g -> ~b_1 b_bar)
     3.33251802E-01    2    -1000005         5   # BR(~g -> ~b^*_1 b)
     3.28982394E-02    2     2000005        -5   # BR(~g -> ~b_2 b_bar)
     3.28982394E-02    2    -2000005         5   # BR(~g -> ~b^*_2 b)
     1.05628788E-04    2     1000022        21   # BR(~g -> chi^0_1 g)
     6.42970776E-04    2     1000023        21   # BR(~g -> chi^0_2 g)
     7.17438581E-04    2     1000025        21   # BR(~g -> chi^0_3 g)
#    BR                NDA      ID1      ID2       ID3
     3.29887706E-02    3     1000022         6        -6   # BR(~g -> chi^0_1 t t_bar)
     8.35575363E-02    3     1000023         6        -6   # BR(~g -> chi^0_2 t t_bar)
     5.70899474E-02    3     1000025         6        -6   # BR(~g -> chi^0_3 t t_bar)
     2.85620657E-02    3     1000035         6        -6   # BR(~g -> chi^0_4 t t_bar)
     8.91820482E-03    3     1000024         5        -6   # BR(~g -> chi^+_1 b t_bar)
     8.91820482E-03    3    -1000024        -5         6   # BR(~g -> chi^-_1 b_bar t)
     1.42529565E-04    3     1000037         1        -2   # BR(~g -> chi^+_2 d u_bar)
     1.42529565E-04    3    -1000037        -1         2   # BR(~g -> chi^-_2 d_bar u)
     1.42529762E-04    3     1000037         3        -4   # BR(~g -> chi^+_2 s c_bar)
     1.42529762E-04    3    -1000037        -3         4   # BR(~g -> chi^-_2 s_bar c)
     2.26004253E-02    3     1000037         5        -6   # BR(~g -> chi^+_2 b t_bar)
     2.26004253E-02    3    -1000037        -5         6   # BR(~g -> chi^-_2 b_bar t)
DECAY        25     3.03443753E-03   # Gamma(h0)
     2.61201535E-03   2        22        22   # BR(h0 -> photon photon)
     1.26373786E-03   2        22        23   # BR(h0 -> photon Z)
     1.98721444E-02   2        23        23   # BR(h0 -> Z Z)
     1.79449600E-01   2       -24        24   # BR(h0 -> W W)
     8.35012396E-02   2        21        21   # BR(h0 -> gluon gluon)
     5.46993881E-09   2       -11        11   # BR(h0 -> Electron electron)
     2.43310010E-04   2       -13        13   # BR(h0 -> Muon muon)
     7.01485895E-02   2       -15        15   # BR(h0 -> Tau tau)
     1.54575627E-07   2        -2         2   # BR(h0 -> Up up)
     2.99975231E-02   2        -4         4   # BR(h0 -> Charm charm)
     6.37221212E-07   2        -1         1   # BR(h0 -> Down down)
     2.30467518E-04   2        -3         3   # BR(h0 -> Strange strange)
     6.12680576E-01   2        -5         5   # BR(h0 -> Bottom bottom)
DECAY        35     1.82641057E+01   # Gamma(HH)
     5.62870468E-07   2        22        22   # BR(HH -> photon photon)
     6.36446572E-07   2        22        23   # BR(HH -> photon Z)
     7.30768935E-05   2        23        23   # BR(HH -> Z Z)
     4.94773061E-05   2       -24        24   # BR(HH -> W W)
     2.88094992E-05   2        21        21   # BR(HH -> gluon gluon)
     6.85299175E-10   2       -11        11   # BR(HH -> Electron electron)
     3.05073208E-05   2       -13        13   # BR(HH -> Muon muon)
     8.81007046E-03   2       -15        15   # BR(HH -> Tau tau)
     4.11119536E-12   2        -2         2   # BR(HH -> Up up)
     7.97412322E-07   2        -4         4   # BR(HH -> Charm charm)
     5.70384411E-02   2        -6         6   # BR(HH -> Top top)
     5.40480025E-08   2        -1         1   # BR(HH -> Down down)
     1.95493137E-05   2        -3         3   # BR(HH -> Strange strange)
     5.11706434E-02   2        -5         5   # BR(HH -> Bottom bottom)
     2.05319277E-02   2  -1000024   1000024   # BR(HH -> Chargino1 chargino1)
     2.50861186E-01   2  -1000024   1000037   # BR(HH -> Chargino1 chargino2)
     2.50861186E-01   2  -1000037   1000024   # BR(HH -> Chargino2 chargino1)
     3.44262073E-04   2  -1000037   1000037   # BR(HH -> Chargino2 chargino2)
     2.74164339E-02   2   1000022   1000022   # BR(HH -> neutralino1 neutralino1)
     2.20358612E-02   2   1000022   1000023   # BR(HH -> neutralino1 neutralino2)
     5.21443129E-03   2   1000022   1000025   # BR(HH -> neutralino1 neutralino3)
     1.05265086E-01   2   1000022   1000035   # BR(HH -> neutralino1 neutralino4)
     1.91627914E-03   2   1000023   1000023   # BR(HH -> neutralino2 neutralino2)
     1.82033542E-02   2   1000023   1000025   # BR(HH -> neutralino2 neutralino3)
     7.85526485E-02   2   1000023   1000035   # BR(HH -> neutralino2 neutralino4)
     3.06482886E-02   2   1000025   1000025   # BR(HH -> neutralino3 neutralino3)
     7.03560411E-02   2   1000025   1000035   # BR(HH -> neutralino3 neutralino4)
     1.79567119E-04   2   1000035   1000035   # BR(HH -> neutralino4 neutralino4)
     3.90820332E-04   2        25        25   # BR(HH -> h0 h0)
DECAY        36     1.82096037E+01   # Gamma(A0)
     7.49028764E-07   2        22        22   # BR(A0 -> photon photon)
     9.60407392E-07   2        22        23   # BR(A0 -> photon Z)
     6.44693744E-05   2        21        21   # BR(A0 -> gluon gluon)
     6.69670060E-10   2       -11        11   # BR(A0 -> Electron electron)
     2.98116312E-05   2       -13        13   # BR(A0 -> Muon muon)
     8.60920620E-03   2       -15        15   # BR(A0 -> Tau tau)
     3.90996112E-12   2        -2         2   # BR(A0 -> Up up)
     7.58308033E-07   2        -4         4   # BR(A0 -> Charm charm)
     5.67629159E-02   2        -6         6   # BR(A0 -> Top top)
     5.28156325E-08   2        -1         1   # BR(A0 -> Down down)
     1.91035753E-05   2        -3         3   # BR(A0 -> Strange strange)
     5.00065027E-02   2        -5         5   # BR(A0 -> Bottom bottom)
     2.74082607E-02   2  -1000024   1000024   # BR(A0 -> Chargino1 chargino1)
     2.46069480E-01   2  -1000024   1000037   # BR(A0 -> Chargino1 chargino2)
     2.46069480E-01   2  -1000037   1000024   # BR(A0 -> Chargino2 chargino1)
     4.32508305E-03   2  -1000037   1000037   # BR(A0 -> Chargino2 chargino2)
     1.78332830E-02   2   1000022   1000022   # BR(A0 -> neutralino1 neutralino1)
     2.98888787E-02   2   1000022   1000023   # BR(A0 -> neutralino1 neutralino2)
     4.26591789E-03   2   1000022   1000025   # BR(A0 -> neutralino1 neutralino3)
     4.91920683E-02   2   1000022   1000035   # BR(A0 -> neutralino1 neutralino4)
     3.51260478E-03   2   1000023   1000023   # BR(A0 -> neutralino2 neutralino2)
     3.46408588E-02   2   1000023   1000025   # BR(A0 -> neutralino2 neutralino3)
     1.71939317E-01   2   1000023   1000035   # BR(A0 -> neutralino2 neutralino4)
     1.70302373E-02   2   1000025   1000025   # BR(A0 -> neutralino3 neutralino3)
     3.00389040E-02   2   1000025   1000035   # BR(A0 -> neutralino3 neutralino4)
     2.19407715E-03   2   1000035   1000035   # BR(A0 -> neutralino4 neutralino4)
     9.70200350E-05   2        23        25   # BR(A0 -> Z h0)
     1.60800419E-37   2        25        25   # BR(A0 -> h0 h0)
DECAY        37     1.86108871E+01   # Gamma(Hp)
     7.94434823E-10   2       -11        12   # BR(Hp -> Electron nu_e)
     3.39645697E-05   2       -13        14   # BR(Hp -> Muon nu_mu)
     9.60709720E-03   2       -15        16   # BR(Hp -> Tau nu_tau)
     5.44474881E-08   2        -1         2   # BR(Hp -> Down up)
     9.12672907E-07   2        -3         2   # BR(Hp -> Strange up)
     5.82847477E-07   2        -5         2   # BR(Hp -> Bottom up)
     4.54997103E-08   2        -1         4   # BR(Hp -> Down charm)
     2.05455264E-05   2        -3         4   # BR(Hp -> Strange charm)
     8.16208602E-05   2        -5         4   # BR(Hp -> Bottom charm)
     4.63402414E-06   2        -1         6   # BR(Hp -> Down top)
     1.01065483E-04   2        -3         6   # BR(Hp -> Strange top)
     1.26251305E-01   2        -5         6   # BR(Hp -> Bottom top)
     7.04712968E-02   2   1000022   1000024   # BR(Hp -> neutralino1 chargino1)
     1.50590324E-01   2   1000022   1000037   # BR(Hp -> neutralino1 chargino2)
     3.19583269E-03   2   1000023   1000024   # BR(Hp -> neutralino2 chargino1)
     2.58369981E-01   2   1000023   1000037   # BR(Hp -> neutralino2 chargino2)
     3.46645444E-02   2   1000024   1000025   # BR(Hp -> chargino1 neutralino3)
     9.74540710E-02   2   1000025   1000037   # BR(Hp -> neutralino3 chargino2)
     2.49056532E-01   2   1000024   1000035   # BR(Hp -> chargino1 neutralino4)
     9.17489602E-08   2   1000035   1000037   # BR(Hp -> neutralino4 chargino2)
     9.54976702E-05   2        24        25   # BR(Hp -> W h0)
     3.76366209E-12   2        24        35   # BR(Hp -> W HH)
     3.87109316E-12   2        24        36   # BR(Hp -> W A0)
DECAY         6     2.43000000E+00   # top
#    BR                NDA      ID1      ID2
     1.00000000E+00    2           5        24   # BR(t -> b W)
Block HiggsBoundsInputHiggsCouplingsFermions
# ScalarNormEffCoupSq PseudoSNormEffCoupSq NP IP1 IP2 IP2
    9.17356542E-01    0.00000000E+00        3  25   5   5  # h0-b-b eff. coupling^2, normalised to SM
    4.78054659E+01    0.00000000E+00        3  35   5   5  # H0-b-b eff. coupling^2, normalised to SM
    0.00000000E+00    4.77228224E+01        3  36   5   5  # A0-b-b eff. coupling^2, normalised to SM
#
    1.00173174E+00    0.00000000E+00        3  25   6   6  # h0-t-t eff. coupling^2, normalised to SM
    1.92225961E-02    0.00000000E+00        3  35   6   6  # H0-t-t eff. coupling^2, normalised to SM
    0.00000000E+00    2.09543348E-02        3  36   6   6  # A0-t-t eff. coupling^2, normalised to SM
#
    9.17356542E-01    0.00000000E+00        3  25  15  15  # h0-tau-tau eff. coupling^2, normalised to SM
    4.78054659E+01    0.00000000E+00        3  35  15  15  # H0-tau-tau eff. coupling^2, normalised to SM
    0.00000000E+00    4.77228224E+01        3  36  15  15  # A0-tau-tau eff. coupling^2, normalised to SM
#
Block HiggsBoundsInputHiggsCouplingsBosons
    9.99962694E-01        3  25  24  24  # h0-W-W eff. coupling^2, normalised to SM
    3.73057622E-05        3  35  24  24  # H0-W-W eff. coupling^2, normalised to SM
    0.00000000E+00        3  36  24  24  # A0-W-W eff. coupling^2, normalised to SM
#
    9.99962694E-01        3  25  23  23  # h0-Z-Z eff. coupling^2, normalised to SM
    3.73057622E-05        3  35  23  23  # H0-Z-Z eff. coupling^2, normalised to SM
    0.00000000E+00        3  36  23  23  # A0-Z-Z eff. coupling^2, normalised to SM
#
    1.27349268E+00        3  25  21  21  # h0-g-g eff. coupling^2, normalised to SM
    1.55246633E-02        3  35  21  21  # H0-g-g eff. coupling^2, normalised to SM
    1.60520477E-01        3  36  21  21  # A0-g-g eff. coupling^2, normalised to SM
#
    0.00000000E+00        3  25  25  23  # h0-h0-Z eff. coupling^2, normalised to SM
    0.00000000E+00        3  35  25  23  # H0-h0-Z eff. coupling^2, normalised to SM
    3.73057622E-05        3  36  25  23  # A0-h0-Z eff. coupling^2, normalised to SM
    0.00000000E+00        3  35  35  23  # H0-H0-Z eff. coupling^2, normalised to SM
    9.99962694E-01        3  36  35  23  # A0-H0-Z eff. coupling^2, normalised to SM
    0.00000000E+00        3  36  36  23  # A0-A0-Z eff. coupling^2, normalised to SM
#
    0.00000000E+00        4  25  21  21  23  # h0-g-g-Z eff. coupling^2, normalised to SM
    0.00000000E+00        4  35  21  21  23  # H0-g-g-Z eff. coupling^2, normalised to SM
    0.00000000E+00        4  36  21  21  23  # A0-g-g-Z eff. coupling^2, normalised to SM
Block SPhenoLowEnergy  # low energy observables
    1    3.36204731E-04   # BR(b -> s gamma)
    2    1.58904639E-06   # BR(b -> s mu+ mu-)
    3    3.52629665E-05   # BR(b -> s nu nu)
    4    2.57096653E-15   # BR(Bd -> e+ e-)
    5    1.09828771E-10   # BR(Bd -> mu+ mu-)
    6    2.29915438E-08   # BR(Bd -> tau+ tau-)
    7    8.65713390E-14   # BR(Bs -> e+ e-)
    8    3.69832483E-09   # BR(Bs -> mu+ mu-)
    9    7.84446120E-07   # BR(Bs -> tau+ tau-)
   10    9.66934981E-05   # BR(B_u -> tau nu)
   11    9.98806817E-01   # BR(B_u -> tau nu)/BR(B_u -> tau nu)_SM
   12    5.42541126E-01   # |Delta(M_Bd)| [ps^-1] 
   13    1.93848439E+01   # |Delta(M_Bs)| [ps^-1] 
   14    0.00000000E+00   # neutron EDM according to the chiral quark model
   15    0.00000000E+00   # neutron EDM according to the relativistic quark-parton model
   16    2.15957354E-03   # epsilon_K
   17    2.28168165E-15   # Delta(M_K)
   18    2.48057551E-11   # BR(K^0 -> pi^0 nu nu)
   19    8.29188849E-11   # BR(K^+ -> pi^+ nu nu)
   20    4.99667404E-17   # Delta(g-2)_electron/2
   21    2.13623467E-12   # Delta(g-2)_muon/2
   22    6.04253946E-10   # Delta(g-2)_tau/2
   23    0.00000000E+00   # electric dipole moment of the electron
   24    0.00000000E+00   # electric dipole moment of the muon
   25    0.00000000E+00   # electric dipole moment of the tau
   26    0.00000000E+00   # Br(mu -> e gamma)
   27    0.00000000E+00   # Br(tau -> e gamma)
   28    0.00000000E+00   # Br(tau -> mu gamma)
   29    0.00000000E+00   # Br(mu -> 3 e)
   30    0.00000000E+00   # Br(tau -> 3 e)
   31    0.00000000E+00   # Br(tau -> 3 mu)
   39   -1.09634088E-04   # Delta(rho_parameter)
   40    0.00000000E+00   # BR(Z -> e mu)
   41    0.00000000E+00   # BR(Z -> e tau)
   42    0.00000000E+00   # BR(Z -> mu tau)
Block FWCOEF Q=  1.60000000E+02  # Wilson coefficients at scale Q
#    id        order  M        value         comment
     0305 4422   00   0    -1.88819110E-01   # C7
     0305 4422   00   2    -2.04659801E-01   # C7
     0305 4322   00   2    -3.25907982E-04   # C7'
     0305 6421   00   0    -9.52278348E-02   # C8
     0305 6421   00   2    -1.15866374E-01   # C8
     0305 6321   00   2    -4.11667755E-04   # C8'
 03051111 4133   00   0     1.62573861E+00   # C9 e+e-
 03051111 4133   00   2     1.62613149E+00   # C9 e+e-
 03051111 4233   00   2     1.17554469E-05   # C9' e+e-
 03051111 4137   00   0    -4.44843071E+00   # C10 e+e-
 03051111 4137   00   2    -4.44777760E+00   # C10 e+e-
 03051111 4237   00   2    -8.63300788E-05   # C10' e+e-
 03051313 4133   00   0     1.62573861E+00   # C9 mu+mu-
 03051313 4133   00   2     1.62613148E+00   # C9 mu+mu-
 03051313 4233   00   2     1.17554441E-05   # C9' mu+mu-
 03051313 4137   00   0    -4.44843071E+00   # C10 mu+mu-
 03051313 4137   00   2    -4.44777760E+00   # C10 mu+mu-
 03051313 4237   00   2    -8.63300766E-05   # C10' mu+mu-
 03051212 4137   00   0     1.50535012E+00   # C11 nu_1 nu_1
 03051212 4137   00   2     1.50521052E+00   # C11 nu_1 nu_1
 03051212 4237   00   2     1.86708829E-05   # C11' nu_1 nu_1
 03051414 4137   00   0     1.50535012E+00   # C11 nu_2 nu_2
 03051414 4137   00   2     1.50521052E+00   # C11 nu_2 nu_2
 03051414 4237   00   2     1.86708835E-05   # C11' nu_2 nu_2
 03051616 4137   00   0     1.50535012E+00   # C11 nu_3 nu_3
 03051616 4137   00   2     1.50521052E+00   # C11 nu_3 nu_3
 03051616 4237   00   2     1.86710421E-05   # C11' nu_3 nu_3
Block IMFWCOEF Q=  1.60000000E+02  # Im(Wilson coefficients) at scale Q
#    id        order  M        value         comment
     0305 4422   00   0     3.85822636E-07   # C7
     0305 4422   00   2     2.76958700E-06   # C7
     0305 4322   00   2     1.24043939E-07   # C7'
     0305 6421   00   0     3.30482604E-07   # C8
     0305 6421   00   2    -1.14777544E-06   # C8
     0305 6321   00   2    -4.96812719E-09   # C8'
 03051111 4133   00   2     5.97782473E-07   # C9 e+e-
 03051111 4233   00   2     2.70000767E-07   # C9' e+e-
 03051111 4137   00   2     2.04481559E-07   # C10 e+e-
 03051111 4237   00   2    -1.98711070E-06   # C10' e+e-
 03051313 4133   00   2     5.97782348E-07   # C9 mu+mu-
 03051313 4233   00   2     2.70000764E-07   # C9' mu+mu-
 03051313 4137   00   2     2.04481688E-07   # C10 mu+mu-
 03051313 4237   00   2    -1.98711070E-06   # C10' mu+mu-
 03051212 4137   00   2    -1.47393507E-08   # C11 nu_1 nu_1
 03051212 4237   00   2     4.29763551E-07   # C11' nu_1 nu_1
 03051414 4137   00   2    -1.47393443E-08   # C11 nu_2 nu_2
 03051414 4237   00   2     4.29763551E-07   # C11' nu_2 nu_2
 03051616 4137   00   2    -1.47375501E-08   # C11 nu_3 nu_3
 03051616 4237   00   2     4.29763550E-07   # C11' nu_3 nu_3
