# SUSY Les Houches Accord 2 - MSSM spectrum + Decays
# SPheno v4.0.5be
# W. Porod, Comput. Phys. Commun. 153 (2003) 275-315, hep-ph/0301101;
# W. Porod, F.~Staub, Comput. Phys. Commun. 183 (2012) 2458
#                     arXiv:1104.1573 [hep-ph] 
# in case of problems send email to porod@physik.uni-wuerzburg.de
# Created: 12.05.2022,  22:35
Block SPINFO         # Program information
     1   SPheno      # spectrum calculator
     2   v4.0.5be    # version number
#
Block SPhenoINFO     # SPheno specific information
    1      2         # using 2-loop RGEs
    2      2         # using pole masses for boundary conditions at mZ
Block MODSEL  # Model selection
    1    0    # general MSSM
Block MINPAR  # Input parameters
    3    2.91458099E+01  # tanb at m_Z    
    4   -1.00000000E+00  # Sign(mu)
Block EXTPAR  # non-universal input parameters
    0    3.10825818E+03  # scale for input parameters
    1   -4.74588902E+01  # M_1
    2   -1.25021303E+03  # M_2
    3    2.47944841E+03  # M_3
   11   -7.54971053E+03  # A_t
   12   -1.15486949E+02  # A_b
   13   -6.82386580E+02  # A_tau
   23   -2.41512080E+02  # mu
   25    2.81348280E+01  # tan(beta)
   26    3.20831793E+03  # m_A, pole mass
   31    1.00000000E+04  # M_L11
   32    1.00000000E+04  # M_L22
   33    1.00000000E+04  # M_L33
   34    1.00000000E+04  # M_E11
   35    1.00000000E+04  # M_E22
   36    1.00000000E+04  # M_E33
   41    1.00000000E+04  # M_Q11
   42    1.00000000E+04  # M_Q22
   43    2.16818053E+03  # M_Q33
   44    1.00000000E+04  # M_U11
   45    1.00000000E+04  # M_U22
   46    4.39104814E+03  # M_U33
   47    1.00000000E+04  # M_D11
   48    1.00000000E+04  # M_D22
   49    2.27112198E+03  # M_D33
Block SMINPUTS  # SM parameters
         1     1.27908970E+02  # alpha_em^-1(MZ)^MSbar
         2     1.16637870E-05  # G_mu [GeV^-2]
         3     1.18400000E-01  # alpha_s(MZ)^MSbar
         4     9.11876000E+01  # m_Z(pole)
         5     4.18000000E+00  # m_b(m_b), MSbar
         6     1.73200000E+02  # m_t(pole)
         7     1.77700000E+00  # m_tau(pole)
         8     0.00000000E+00  # m_nu_3
        11     5.10998930E-04  # m_e(pole)
        12     0.00000000E+00  # m_nu_1
        13     1.05658372E-01  # m_muon(pole)
        14     0.00000000E+00  # m_nu_2
        21     5.00000000E-03  # m_d(2 GeV), MSbar
        22     2.50000000E-03  # m_u(2 GeV), MSbar
        23     9.50000000E-02  # m_s(2 GeV), MSbar
        24     1.27000000E+00  # m_c(m_c), MSbar
Block gauge Q=  3.10825818E+03  # (SUSY scale)
   1    3.55362975E-01  # g'(Q)^DRbar
   2    6.65198874E-01  # g(Q)^DRbar
   3    1.21977796E+00  # g3(Q)^DRbar
Block Yu Q=  3.10825818E+03  # (SUSY scale)
  1  1     8.38966651E-06   # Y_u(Q)^DRbar
  2  2     4.26195059E-03   # Y_c(Q)^DRbar
  3  3     1.01353910E+00   # Y_t(Q)^DRbar
Block Yd Q=  3.10825818E+03  # (SUSY scale)
  1  1     4.74317567E-04   # Y_d(Q)^DRbar
  2  2     9.01203378E-03   # Y_s(Q)^DRbar
  3  3     4.70374397E-01   # Y_b(Q)^DRbar
Block Ye Q=  3.10825818E+03  # (SUSY scale)
  1  1     8.27718840E-05   # Y_e(Q)^DRbar
  2  2     1.71146004E-02   # Y_mu(Q)^DRbar
  3  3     2.87839424E-01   # Y_tau(Q)^DRbar
Block Au Q=  3.10825818E+03  # (SUSY scale)
  1  1     0.00000000E+00   # A_u(Q)^DRbar
  2  2     0.00000000E+00   # A_c(Q)^DRbar
  3  3    -7.54971116E+03   # A_t(Q)^DRbar
Block Ad Q=  3.10825818E+03  # (SUSY scale)
  1  1     0.00000000E+00   # A_d(Q)^DRbar
  2  2     0.00000000E+00   # A_s(Q)^DRbar
  3  3    -1.15486958E+02   # A_b(Q)^DRbar
Block Ae Q=  3.10825818E+03  # (SUSY scale)
  1  1     0.00000000E+00   # A_e(Q)^DRbar
  2  2     0.00000000E+00   # A_mu(Q)^DRbar
  3  3    -6.82386575E+02   # A_tau(Q)^DRbar
Block MSOFT Q=  3.10825818E+03  # soft SUSY breaking masses at Q
   1   -4.74588902E+01  # M_1
   2   -1.25021303E+03  # M_2
   3    2.47944841E+03  # M_3
  21    1.01394015E+07  # M^2_(H,d)
  22   -5.68346842E+04  # M^2_(H,u)
  31    1.00000000E+04  # M_(L,11)
  32    1.00000000E+04  # M_(L,22)
  33    1.00000000E+04  # M_(L,33)
  34    1.00000000E+04  # M_(E,11)
  35    1.00000000E+04  # M_(E,22)
  36    1.00000000E+04  # M_(E,33)
  41    1.00000000E+04  # M_(Q,11)
  42    1.00000000E+04  # M_(Q,22)
  43    2.16818053E+03  # M_(Q,33)
  44    1.00000000E+04  # M_(U,11)
  45    1.00000000E+04  # M_(U,22)
  46    4.39104814E+03  # M_(U,33)
  47    1.00000000E+04  # M_(D,11)
  48    1.00000000E+04  # M_(D,22)
  49    2.27112198E+03  # M_(D,33)
Block MASS  # Mass spectrum
#   PDG code      mass          particle
         6     1.73200000E+02  # m_t(pole)
        23     9.11876000E+01  # m_Z(pole)
        24     8.04299946E+01  # W+
        15     1.77700000E+00  # m_tau(pole)
        25     1.28167985E+02  # h0
        35     3.20776384E+03  # H0
        36     3.20831793E+03  # A0
        37     3.20966521E+03  # H+
   1000001     1.01092162E+04  # ~d_L
   2000001     1.00850816E+04  # ~d_R
   1000002     1.01088606E+04  # ~u_L
   2000002     1.00884281E+04  # ~u_R
   1000003     1.01092199E+04  # ~s_L
   2000003     1.00850876E+04  # ~s_R
   1000004     1.01088644E+04  # ~c_L
   2000004     1.00884295E+04  # ~c_R
   1000005     2.25374578E+03  # ~b_1
   2000005     2.37638930E+03  # ~b_2
   1000006     2.23850458E+03  # ~t_1
   2000006     4.31594780E+03  # ~t_2
   1000011     1.00206195E+04  # ~e_L-
   2000011     1.00087456E+04  # ~e_R-
   1000012     1.00198629E+04  # ~nu_eL
   1000013     1.00206352E+04  # ~mu_L-
   2000013     1.00087757E+04  # ~mu_R-
   1000014     1.00198784E+04  # ~nu_muL
   1000015     1.00173026E+04  # ~tau_1-
   2000015     1.00250638E+04  # ~tau_2-
   1000016     1.00242667E+04  # ~nu_tauL
   1000021     2.87998228E+03  # ~g
   1000022     4.57794811E+01  # ~chi_10
   1000023     2.51211195E+02  # ~chi_20
   1000025     2.53868784E+02  # ~chi_30
   1000035     1.34001284E+03  # ~chi_40
   1000024     2.48139809E+02  # ~chi_1+
   1000037     1.33927303E+03  # ~chi_2+
# Higgs mixing
Block alpha # Effective Higgs mixing angle
          -3.43792157E-02   # alpha
Block Hmix Q=  3.10825818E+03  # Higgs mixing parameters
   1   -2.41512080E+02  # mu
   2    2.81348280E+01  # tan[beta](Q)
   3    2.43184085E+02  # v(Q)
   4    1.02933039E+07  # m^2_A(Q)
Block stopmix # stop mixing matrix
   1  1     9.96986769E-01   # Re[R_st(1,1)]
   1  2     7.75717883E-02   # Re[R_st(1,2)]
   2  1    -7.75717883E-02   # Re[R_st(2,1)]
   2  2     9.96986769E-01   # Re[R_st(2,2)]
Block sbotmix # sbottom mixing matrix
   1  1    -9.99697603E-01   # Re[R_sb(1,1)]
   1  2     2.45906881E-02   # Re[R_sb(1,2)]
   2  1    -2.45906881E-02   # Re[R_sb(2,1)]
   2  2    -9.99697603E-01   # Re[R_sb(2,2)]
Block staumix # stau mixing matrix
   1  1    -7.04896201E-02   # Re[R_sta(1,1)]
   1  2     9.97512513E-01   # Re[R_sta(1,2)]
   2  1    -9.97512513E-01   # Re[R_sta(2,1)]
   2  2    -7.04896201E-02   # Re[R_sta(2,2)]
Block Nmix # neutralino mixing matrix
   1  1     9.82628719E-01   # Re[N(1,1)]
   1  2    -2.78343184E-03   # Re[N(1,2)]
   1  3    -1.81285239E-01   # Re[N(1,3)]
   1  4     3.96070114E-02   # Re[N(1,4)]
   2  1     1.56521811E-01   # Re[N(2,1)]
   2  2     5.41071988E-02   # Re[N(2,2)]
   2  3     6.94625641E-01   # Re[N(2,3)]
   2  4    -7.00048965E-01   # Re[N(2,4)]
   3  1    -9.96829735E-02   # Re[N(3,1)]
   3  2     3.50727664E-02   # Re[N(3,2)]
   3  3    -6.96019414E-01   # Re[N(3,3)]
   3  4    -7.10204324E-01   # Re[N(3,4)]
   4  1     2.24239418E-03   # Re[N(4,1)]
   4  2    -9.97915109E-01   # Re[N(4,2)]
   4  3     1.37060921E-02   # Re[N(4,3)]
   4  4    -6.30281692E-02   # Re[N(4,4)]
Block Umix # chargino mixing matrix
   1  1    -1.93827345E-02   # Re[U(1,1)]
   1  2    -9.99812137E-01   # Re[U(1,2)]
   2  1    -9.99812137E-01   # Re[U(2,1)]
   2  2     1.93827345E-02   # Re[U(2,2)]
Block Vmix # chargino mixing matrix
   1  1     8.91743942E-02   # Re[V(1,1)]
   1  2     9.96016028E-01   # Re[V(1,2)]
   2  1     9.96016028E-01   # Re[V(2,1)]
   2  2    -8.91743942E-02   # Re[V(2,2)]
DECAY        23     2.49520000E+00   # Z
DECAY        24     2.08500000E+00   # W
DECAY   2000011     5.02860580E+01   # ~e^-_R
#    BR                NDA      ID1      ID2
     9.65600069E-01    2     1000022        11   # BR(~e^-_R -> chi^0_1 e^-)
     2.44702923E-02    2     1000023        11   # BR(~e^-_R -> chi^0_2 e^-)
     9.92476185E-03    2     1000025        11   # BR(~e^-_R -> chi^0_3 e^-)
DECAY   1000011     1.40228690E+02   # ~e^-_L
#    BR                NDA      ID1      ID2
     8.57521742E-02    2     1000022        11   # BR(~e^-_L -> chi^0_1 e^-)
     5.95849812E-03    2     1000023        11   # BR(~e^-_L -> chi^0_2 e^-)
     1.03826357E-04    2     1000025        11   # BR(~e^-_L -> chi^0_3 e^-)
     3.01391930E-01    2     1000035        11   # BR(~e^-_L -> chi^0_4 e^-)
     2.36041389E-04    2    -1000024        12   # BR(~e^-_L -> chi^-_1 nu_e)
     6.06557530E-01    2    -1000037        12   # BR(~e^-_L -> chi^-_2 nu_e)
#    BR                NDA      ID1      ID2       ID3
DECAY   2000013     5.04027089E+01   # ~mu^-_R
#    BR                NDA      ID1      ID2
     9.63406231E-01    2     1000022        13   # BR(~mu^-_R -> chi^0_1 mu^-)
     2.49713441E-02    2     1000023        13   # BR(~mu^-_R -> chi^0_2 mu^-)
     1.04616600E-02    2     1000025        13   # BR(~mu^-_R -> chi^0_3 mu^-)
     1.15529665E-03    2    -1000024        14   # BR(~mu^-_R -> chi^-_1 nu_mu)
DECAY   1000013     1.40287243E+02   # ~mu^-_L
#    BR                NDA      ID1      ID2
     8.57301953E-02    2     1000022        13   # BR(~mu^-_L -> chi^0_1 mu^-)
     6.15660097E-03    2     1000023        13   # BR(~mu^-_L -> chi^0_2 mu^-)
     3.05163006E-04    2     1000025        13   # BR(~mu^-_L -> chi^0_3 mu^-)
     3.01266715E-01    2     1000035        13   # BR(~mu^-_L -> chi^0_4 mu^-)
     2.35943240E-04    2    -1000024        14   # BR(~mu^-_L -> chi^-_1 nu_mu)
     6.06305382E-01    2    -1000037        14   # BR(~mu^-_L -> chi^-_2 nu_mu)
#    BR                NDA      ID1      ID2       ID3
DECAY   1000015     8.36810051E+01   # ~tau^-_1
#    BR                NDA      ID1      ID2
     5.89400212E-01    2     1000022        15   # BR(~tau^-_1 -> chi^0_1 tau^-)
     1.08849545E-01    2     1000023        15   # BR(~tau^-_1 -> chi^0_2 tau^-)
     9.86199949E-02    2     1000025        15   # BR(~tau^-_1 -> chi^0_3 tau^-)
     1.94838964E-03    2     1000035        15   # BR(~tau^-_1 -> chi^0_4 tau^-)
     1.97260691E-01    2    -1000024        16   # BR(~tau^-_1 -> chi^-_1 nu_tau)
     3.92116773E-03    2    -1000037        16   # BR(~tau^-_1 -> chi^-_2 nu_tau)
DECAY   2000015     1.56428076E+02   # ~tau^-_2
#    BR                NDA      ID1      ID2
     7.92178120E-02    2     1000022        15   # BR(~tau^-_2 -> chi^0_1 tau^-)
     5.67584780E-02    2     1000023        15   # BR(~tau^-_2 -> chi^0_2 tau^-)
     5.27069070E-02    2     1000025        15   # BR(~tau^-_2 -> chi^0_3 tau^-)
     2.69305377E-01    2     1000035        15   # BR(~tau^-_2 -> chi^0_4 tau^-)
     5.41941230E-01    2    -1000037        16   # BR(~tau^-_2 -> chi^-_2 nu_tau)
#    BR                NDA      ID1      ID2       ID3
DECAY   1000012     1.40233341E+02   # ~nu_e
#    BR                NDA      ID1      ID2
     8.75808578E-02    2     1000022        12   # BR(~nu_e -> chi^0_1 nu_e)
     2.73530332E-04    2     1000023        12   # BR(~nu_e -> chi^0_2 nu_e)
     2.45034821E-03    2     1000025        12   # BR(~nu_e -> chi^0_3 nu_e)
     3.02808043E-01    2     1000035        12   # BR(~nu_e -> chi^0_4 nu_e)
     4.99564963E-03    2     1000024        11   # BR(~nu_e -> chi^+_1 e^-)
     6.01891571E-01    2     1000037        11   # BR(~nu_e -> chi^+_2 e^-)
#    BR                NDA      ID1      ID2       ID3
DECAY   1000014     1.40291886E+02   # ~nu_mu
#    BR                NDA      ID1      ID2
     8.75444445E-02    2     1000022        14   # BR(~nu_mu -> chi^0_1 nu_mu)
     2.73416607E-04    2     1000023        14   # BR(~nu_mu -> chi^0_2 nu_mu)
     2.44932945E-03    2     1000025        14   # BR(~nu_mu -> chi^0_3 nu_mu)
     3.02682179E-01    2     1000035        14   # BR(~nu_mu -> chi^0_4 nu_mu)
     5.40908673E-03    2     1000024        13   # BR(~nu_mu -> chi^+_1 mu^-)
     6.01641543E-01    2     1000037        13   # BR(~nu_mu -> chi^+_2 mu^-)
#    BR                NDA      ID1      ID2       ID3
DECAY   1000016     1.56801367E+02   # ~nu_tau
#    BR                NDA      ID1      ID2
     7.83612724E-02    2     1000022        16   # BR(~nu_tau -> chi^0_1 nu_tau)
     2.44736216E-04    2     1000023        16   # BR(~nu_tau -> chi^0_2 nu_tau)
     2.19240389E-03    2     1000025        16   # BR(~nu_tau -> chi^0_3 nu_tau)
     2.70940277E-01    2     1000035        16   # BR(~nu_tau -> chi^0_4 nu_tau)
     1.09674732E-01    2     1000024        15   # BR(~nu_tau -> chi^+_1 tau^-)
     5.38586579E-01    2     1000037        15   # BR(~nu_tau -> chi^+_2 tau^-)
#    BR                NDA      ID1      ID2       ID3
DECAY   2000001     6.77138465E+02   # ~d_R
#    BR                NDA      ID1      ID2
     8.02832682E-03    2     1000022         1   # BR(~d_R -> chi^0_1 d)
     2.03490015E-04    2     1000023         1   # BR(~d_R -> chi^0_2 d)
     9.91685525E-01    2     1000021         1   # BR(~d_R -> ~g d)
DECAY   1000001     8.03944307E+02   # ~d_L
#    BR                NDA      ID1      ID2
     1.74889236E-03    2     1000022         1   # BR(~d_L -> chi^0_1 d)
     1.54269650E-04    2     1000025         1   # BR(~d_L -> chi^0_3 d)
     5.32392833E-02    2     1000035         1   # BR(~d_L -> chi^0_4 d)
     1.06802511E-01    2    -1000037         2   # BR(~d_L -> chi^-_2 u)
     8.37975433E-01    2     1000021         1   # BR(~d_L -> ~g d)
DECAY   2000003     6.77171470E+02   # ~s_R
#    BR                NDA      ID1      ID2
     8.02872894E-03    2     1000022         3   # BR(~s_R -> chi^0_1 s)
     2.15044284E-04    2     1000023         3   # BR(~s_R -> chi^0_2 s)
     9.91637990E-01    2     1000021         3   # BR(~s_R -> ~g s)
DECAY   1000003     8.03964607E+02   # ~s_L
#    BR                NDA      ID1      ID2
     1.74951468E-03    2     1000022         3   # BR(~s_L -> chi^0_1 s)
     1.64068442E-04    2     1000025         3   # BR(~s_L -> chi^0_3 s)
     5.32379633E-02    2     1000035         3   # BR(~s_L -> chi^0_4 s)
     1.06799892E-01    2    -1000037         4   # BR(~s_L -> chi^-_2 c)
     8.37954688E-01    2     1000021         3   # BR(~s_L -> ~g s)
DECAY   1000005     6.66913098E+01   # ~b_1
#    BR                NDA      ID1      ID2
     1.02888765E-02    2     1000022         5   # BR(~b_1 -> chi^0_1 b)
     6.99567105E-02    2     1000023         5   # BR(~b_1 -> chi^0_2 b)
     7.02057151E-02    2     1000025         5   # BR(~b_1 -> chi^0_3 b)
     6.18822581E-02    2     1000035         5   # BR(~b_1 -> chi^0_4 b)
     6.59984610E-01    2    -1000024         6   # BR(~b_1 -> chi^-_1 t)
     1.27681830E-01    2    -1000037         6   # BR(~b_1 -> chi^-_2 t)
DECAY   2000005     2.17161099E+01   # ~b_2
#    BR                NDA      ID1      ID2
     7.24773718E-02    2     1000022         5   # BR(~b_2 -> chi^0_1 b)
     2.29162041E-01    2     1000023         5   # BR(~b_2 -> chi^0_2 b)
     2.30049258E-01    2     1000025         5   # BR(~b_2 -> chi^0_3 b)
     3.28051984E-04    2     1000035         5   # BR(~b_2 -> chi^0_4 b)
     4.67089920E-01    2    -1000024         6   # BR(~b_2 -> chi^-_1 t)
     6.61083921E-04    2    -1000037         6   # BR(~b_2 -> chi^-_2 t)
     1.93665755E-04    2     1000006       -24   # BR(~b_2 -> ~t_1 W^-)
DECAY   2000002     6.94337684E+02   # ~u_R
#    BR                NDA      ID1      ID2
     3.13282231E-02    2     1000022         2   # BR(~u_R -> chi^0_1 u)
     7.93936441E-04    2     1000023         2   # BR(~u_R -> chi^0_2 u)
     3.22007897E-04    2     1000025         2   # BR(~u_R -> chi^0_3 u)
     9.67555675E-01    2     1000021         2   # BR(~u_R -> ~g u)
DECAY   1000002     8.03932261E+02   # ~u_L
#    BR                NDA      ID1      ID2
     1.64103563E-03    2     1000022         2   # BR(~u_L -> chi^0_1 u)
     3.71501760E-04    2     1000023         2   # BR(~u_L -> chi^0_2 u)
     5.31529306E-02    2     1000035         2   # BR(~u_L -> chi^0_4 u)
     8.79225899E-04    2     1000024         1   # BR(~u_L -> chi^+_1 d)
     1.05990624E-01    2     1000037         1   # BR(~u_L -> chi^+_2 d)
     8.37948097E-01    2     1000021         2   # BR(~u_L -> ~g u)
DECAY   2000004     6.94345062E+02   # ~c_R
#    BR                NDA      ID1      ID2
     3.13279016E-02    2     1000022         4   # BR(~c_R -> chi^0_1 c)
     7.96497327E-04    2     1000023         4   # BR(~c_R -> chi^0_2 c)
     3.24649822E-04    2     1000025         4   # BR(~c_R -> chi^0_3 c)
     9.67545531E-01    2     1000021         4   # BR(~c_R -> ~g c)
DECAY   1000004     8.03952539E+02   # ~c_L
#    BR                NDA      ID1      ID2
     1.64100191E-03    2     1000022         4   # BR(~c_L -> chi^0_1 c)
     3.73716928E-04    2     1000023         4   # BR(~c_L -> chi^0_2 c)
     5.31516243E-02    2     1000035         4   # BR(~c_L -> chi^0_4 c)
     8.99431916E-04    2     1000024         3   # BR(~c_L -> chi^+_1 s)
     1.05988001E-01    2     1000037         3   # BR(~c_L -> chi^+_2 s)
     8.37927350E-01    2     1000021         4   # BR(~c_L -> ~g c)
DECAY   1000006     6.57498226E+01   # ~t_1
#    BR                NDA      ID1      ID2
     2.95100457E-04    2     1000022         4   # BR(~t_1 -> chi^0_1 c)
     4.83803279E-03    2     1000022         6   # BR(~t_1 -> chi^0_1 t)
     3.30066119E-01    2     1000023         6   # BR(~t_1 -> chi^0_2 t)
     3.34016572E-01    2     1000025         6   # BR(~t_1 -> chi^0_3 t)
     5.92287069E-02    2     1000035         6   # BR(~t_1 -> chi^0_4 t)
     1.45510586E-01    2     1000024         5   # BR(~t_1 -> chi^+_1 b)
     1.24460511E-01    2     1000037         5   # BR(~t_1 -> chi^+_2 b)
#    BR                NDA      ID1      ID2       ID3
     1.51910547E-03    3     1000022        24         5   # BR(~t_1 -> chi^0_1 W^+ b)
DECAY   2000006     5.72343878E+02   # ~t_2
#    BR                NDA      ID1      ID2
     1.65865029E-02    2     1000022         6   # BR(~t_2 -> chi^0_1 t)
     7.49538557E-02    2     1000023         6   # BR(~t_2 -> chi^0_2 t)
     7.78858600E-02    2     1000025         6   # BR(~t_2 -> chi^0_3 t)
     1.52541661E-01    2     1000024         5   # BR(~t_2 -> chi^+_1 b)
     1.83688644E-04    2     1000037         5   # BR(~t_2 -> chi^+_2 b)
     1.78525219E-01    2     1000021         6   # BR(~t_2 -> ~g t)
     2.20579942E-01    2     1000005        24   # BR(~t_2 -> ~b_1 W^+)
     1.17343015E-04    2     2000005        24   # BR(~t_2 -> ~b_2 W^+)
     1.11288983E-01    2     1000006        23   # BR(~t_2 -> ~t_1 Z)
     1.67243129E-01    2     1000006        25   # BR(~t_2 -> ~t_1 h^0)
DECAY   1000024     1.63166415E-01   # chi^+_1
#    BR                NDA      ID1      ID2
     9.99986784E-01    2     1000022        24   # BR(chi^+_1 -> chi^0_1 W^+)
#    BR                NDA      ID1      ID2       ID3
DECAY   1000037     1.23191073E+01   # chi^+_2
#    BR                NDA      ID1      ID2
     2.48545425E-01    2     1000023        24   # BR(chi^+_2 -> chi^0_2 W^+)
     2.47598461E-01    2     1000025        24   # BR(chi^+_2 -> chi^0_3 W^+)
     2.46266943E-01    2     1000024        23   # BR(chi^+_2 -> chi^+_1 Z)
     2.37926162E-01    2     1000024        25   # BR(chi^+_2 -> chi^+_1 h^0)
#    BR                NDA      ID1      ID2       ID3
     7.29065139E-03    3     1000024         6        -6   # BR(chi^+_2 -> chi^+_1 t t_bar)
     5.97501926E-03    3     1000023        -5         6   # BR(chi^+_2 -> chi^0_2 b_bar t)
     6.33279410E-03    3     1000025        -5         6   # BR(chi^+_2 -> chi^0_3 b_bar t)
DECAY   1000022     0.00000000E+00   # chi^0_1
DECAY   1000023     1.12644562E-01   # chi^0_2
#    BR                NDA      ID1      ID2
     4.49240339E-01    2     1000022        23   # BR(chi^0_2 -> chi^0_1 Z)
     5.50734861E-01    2     1000022        25   # BR(chi^0_2 -> chi^0_1 h^0)
#    BR                NDA      ID1      ID2       ID3
DECAY   1000025     1.87757222E-01   # chi^0_3
#    BR                NDA      ID1      ID2
     6.87407879E-01    2     1000022        23   # BR(chi^0_3 -> chi^0_1 Z)
     3.12583224E-01    2     1000022        25   # BR(chi^0_3 -> chi^0_1 h^0)
#    BR                NDA      ID1      ID2       ID3
DECAY   1000035     1.33533356E+01   # chi^0_4
#    BR                NDA      ID1      ID2
     2.30308927E-01    2     1000024       -24   # BR(chi^0_4 -> chi^+_1 W^-)
     2.30308927E-01    2    -1000024        24   # BR(chi^0_4 -> chi^-_1 W^+)
     6.62898314E-02    2     1000023        23   # BR(chi^0_4 -> chi^0_2 Z)
     1.62891982E-01    2     1000025        23   # BR(chi^0_4 -> chi^0_3 Z)
     1.55201654E-01    2     1000023        25   # BR(chi^0_4 -> chi^0_2 h^0)
     1.36838453E-01    2     1000025        25   # BR(chi^0_4 -> chi^0_3 h^0)
#    BR                NDA      ID1      ID2       ID3
     2.90620485E-03    3     1000023         6        -6   # BR(chi^0_4 -> chi^0_2 t t_bar)
     2.82674277E-03    3     1000025         6        -6   # BR(chi^0_4 -> chi^0_3 t t_bar)
     6.15672745E-03    3     1000024         5        -6   # BR(chi^0_4 -> chi^+_1 b t_bar)
     6.15672745E-03    3    -1000024        -5         6   # BR(chi^0_4 -> chi^-_1 b_bar t)
DECAY   1000021     3.47802652E+01   # ~g
#    BR                NDA      ID1      ID2
     1.27650390E-02    2     1000006        -4   # BR(~g -> ~t_1 c_bar)
     1.27650390E-02    2    -1000006         4   # BR(~g -> ~t^*_1 c)
     1.77810783E-01    2     1000006        -6   # BR(~g -> ~t_1 t_bar)
     1.77810783E-01    2    -1000006         6   # BR(~g -> ~t^*_1 t)
     1.84185007E-01    2     1000005        -5   # BR(~g -> ~b_1 b_bar)
     1.84185007E-01    2    -1000005         5   # BR(~g -> ~b^*_1 b)
     1.24762578E-01    2     2000005        -5   # BR(~g -> ~b_2 b_bar)
     1.24762578E-01    2    -2000005         5   # BR(~g -> ~b^*_2 b)
#    BR                NDA      ID1      ID2       ID3
     1.84833300E-04    3     1000023         6        -6   # BR(~g -> chi^0_2 t t_bar)
     2.00055038E-04    3     1000025         6        -6   # BR(~g -> chi^0_3 t t_bar)
     1.90986427E-04    3     1000024         5        -6   # BR(~g -> chi^+_1 b t_bar)
     1.90986427E-04    3    -1000024        -5         6   # BR(~g -> chi^-_1 b_bar t)
DECAY        25     4.04909126E-03   # Gamma(h0)
     2.50394168E-03   2        22        22   # BR(h0 -> photon photon)
     1.88637506E-03   2        22        23   # BR(h0 -> photon Z)
     3.89426594E-02   2        23        23   # BR(h0 -> Z Z)
     3.03006061E-01   2       -24        24   # BR(h0 -> W W)
     7.45895068E-02   2        21        21   # BR(h0 -> gluon gluon)
     4.05198359E-09   2       -11        11   # BR(h0 -> Electron electron)
     1.80240848E-04   2       -13        13   # BR(h0 -> Muon muon)
     5.19731124E-02   2       -15        15   # BR(h0 -> Tau tau)
     1.14567130E-07   2        -2         2   # BR(h0 -> Up up)
     2.22382532E-02   2        -4         4   # BR(h0 -> Charm charm)
     4.66896878E-07   2        -1         1   # BR(h0 -> Down down)
     1.68865453E-04   2        -3         3   # BR(h0 -> Strange strange)
     4.48556349E-01   2        -5         5   # BR(h0 -> Bottom bottom)
     5.59540506E-02   2   1000022   1000022   # BR(h0 -> neutralino1 neutralino1)
DECAY        35     6.15008732E+01   # Gamma(HH)
     1.59727388E-08   2        22        22   # BR(HH -> photon photon)
     3.85487197E-08   2        22        23   # BR(HH -> photon Z)
     6.94533513E-07   2        23        23   # BR(HH -> Z Z)
     1.92223750E-07   2       -24        24   # BR(HH -> W W)
     3.43916308E-06   2        21        21   # BR(HH -> gluon gluon)
     5.63717349E-09   2       -11        11   # BR(HH -> Electron electron)
     2.50998196E-04   2       -13        13   # BR(HH -> Muon muon)
     7.24920656E-02   2       -15        15   # BR(HH -> Tau tau)
     1.23794580E-13   2        -2         2   # BR(HH -> Up up)
     2.40155159E-08   2        -4         4   # BR(HH -> Charm charm)
     1.87671516E-03   2        -6         6   # BR(HH -> Top top)
     4.13707307E-07   2        -1         1   # BR(HH -> Down down)
     1.49634088E-04   2        -3         3   # BR(HH -> Strange strange)
     4.09486462E-01   2        -5         5   # BR(HH -> Bottom bottom)
     3.62660894E-03   2  -1000024   1000024   # BR(HH -> Chargino1 chargino1)
     1.50046806E-01   2  -1000024   1000037   # BR(HH -> Chargino1 chargino2)
     1.50046806E-01   2  -1000037   1000024   # BR(HH -> Chargino2 chargino1)
     3.30190428E-05   2  -1000037   1000037   # BR(HH -> Chargino2 chargino2)
     3.96024295E-03   2   1000022   1000022   # BR(HH -> neutralino1 neutralino1)
     2.57324328E-02   2   1000022   1000023   # BR(HH -> neutralino1 neutralino2)
     2.80101940E-02   2   1000022   1000025   # BR(HH -> neutralino1 neutralino3)
     4.63389657E-03   2   1000022   1000035   # BR(HH -> neutralino1 neutralino4)
     1.39645111E-04   2   1000023   1000023   # BR(HH -> neutralino2 neutralino2)
     1.36869099E-03   2   1000023   1000025   # BR(HH -> neutralino2 neutralino3)
     6.28199829E-02   2   1000023   1000035   # BR(HH -> neutralino2 neutralino4)
     1.75328619E-03   2   1000025   1000025   # BR(HH -> neutralino3 neutralino3)
     8.35473067E-02   2   1000025   1000035   # BR(HH -> neutralino3 neutralino4)
     1.66463011E-05   2   1000035   1000035   # BR(HH -> neutralino4 neutralino4)
     3.73611868E-06   2        25        25   # BR(HH -> h0 h0)
DECAY        36     6.01791273E+01   # Gamma(A0)
     7.11910554E-08   2        22        22   # BR(A0 -> photon photon)
     9.48484508E-08   2        22        23   # BR(A0 -> photon Z)
     1.17553767E-05   2        21        21   # BR(A0 -> gluon gluon)
     5.50361378E-09   2       -11        11   # BR(A0 -> Electron electron)
     2.45051721E-04   2       -13        13   # BR(A0 -> Muon muon)
     7.07747327E-02   2       -15        15   # BR(A0 -> Tau tau)
     1.20293868E-13   2        -2         2   # BR(A0 -> Up up)
     2.33351880E-08   2        -4         4   # BR(A0 -> Charm charm)
     1.84582402E-03   2        -6         6   # BR(A0 -> Top top)
     4.03896831E-07   2        -1         1   # BR(A0 -> Down down)
     1.46085910E-04   2        -3         3   # BR(A0 -> Strange strange)
     3.99781171E-01   2        -5         5   # BR(A0 -> Bottom bottom)
     3.91049303E-03   2  -1000024   1000024   # BR(A0 -> Chargino1 chargino1)
     1.53216530E-01   2  -1000024   1000037   # BR(A0 -> Chargino1 chargino2)
     1.53216530E-01   2  -1000037   1000024   # BR(A0 -> Chargino2 chargino1)
     1.61827785E-04   2  -1000037   1000037   # BR(A0 -> Chargino2 chargino2)
     4.17604320E-03   2   1000022   1000022   # BR(A0 -> neutralino1 neutralino1)
     3.03809677E-02   2   1000022   1000023   # BR(A0 -> neutralino1 neutralino2)
     2.45688396E-02   2   1000022   1000025   # BR(A0 -> neutralino1 neutralino3)
     4.88247725E-03   2   1000022   1000035   # BR(A0 -> neutralino1 neutralino4)
     1.67770944E-04   2   1000023   1000023   # BR(A0 -> neutralino2 neutralino2)
     1.47060153E-03   2   1000023   1000025   # BR(A0 -> neutralino2 neutralino3)
     8.49660536E-02   2   1000023   1000035   # BR(A0 -> neutralino2 neutralino4)
     1.59487829E-03   2   1000025   1000025   # BR(A0 -> neutralino3 neutralino3)
     6.43992179E-02   2   1000025   1000035   # BR(A0 -> neutralino3 neutralino4)
     8.13340868E-05   2   1000035   1000035   # BR(A0 -> neutralino4 neutralino4)
     1.21450714E-06   2        23        25   # BR(A0 -> Z h0)
     4.85738006E-38   2        25        25   # BR(A0 -> h0 h0)
DECAY        37     6.76392128E+01   # Gamma(Hp)
     6.66613510E-09   2       -11        12   # BR(Hp -> Electron nu_e)
     2.84998096E-04   2       -13        14   # BR(Hp -> Muon nu_mu)
     8.06136748E-02   2       -15        16   # BR(Hp -> Tau nu_tau)
     4.25861390E-07   2        -1         2   # BR(Hp -> Down up)
     7.19358681E-06   2        -3         2   # BR(Hp -> Strange up)
     4.73773879E-06   2        -5         2   # BR(Hp -> Bottom up)
     2.12073189E-08   2        -1         4   # BR(Hp -> Down charm)
     1.53495224E-04   2        -3         4   # BR(Hp -> Strange charm)
     6.63453011E-04   2        -5         4   # BR(Hp -> Bottom charm)
     1.42800101E-07   2        -1         6   # BR(Hp -> Down top)
     3.34110775E-06   2        -3         6   # BR(Hp -> Strange top)
     4.49517602E-01   2        -5         6   # BR(Hp -> Bottom top)
     5.35776845E-02   2   1000022   1000024   # BR(Hp -> neutralino1 chargino1)
     8.58895957E-03   2   1000022   1000037   # BR(Hp -> neutralino1 chargino2)
     2.81695163E-03   2   1000023   1000024   # BR(Hp -> neutralino2 chargino1)
     1.33733771E-01   2   1000023   1000037   # BR(Hp -> neutralino2 chargino2)
     5.82408183E-06   2   1000024   1000025   # BR(Hp -> chargino1 neutralino3)
     1.33172051E-01   2   1000025   1000037   # BR(Hp -> neutralino3 chargino2)
     1.36854582E-01   2   1000024   1000035   # BR(Hp -> chargino1 neutralino4)
     3.68418007E-10   2   1000035   1000037   # BR(Hp -> neutralino4 chargino2)
     1.08251210E-06   2        24        25   # BR(Hp -> W h0)
     5.00109339E-13   2        24        35   # BR(Hp -> W HH)
     8.93442125E-14   2        24        36   # BR(Hp -> W A0)
DECAY         6     2.43000000E+00   # top
#    BR                NDA      ID1      ID2
     1.00000000E+00    2           5        24   # BR(t -> b W)
Block HiggsBoundsInputHiggsCouplingsFermions
# ScalarNormEffCoupSq PseudoSNormEffCoupSq NP IP1 IP2 IP2
    9.36391913E-01    0.00000000E+00        3  25   5   5  # h0-b-b eff. coupling^2, normalised to SM
    7.91632155E+02    0.00000000E+00        3  35   5   5  # H0-b-b eff. coupling^2, normalised to SM
    0.00000000E+00    7.91568547E+02        3  36   5   5  # A0-b-b eff. coupling^2, normalised to SM
#
    1.00008036E+00    0.00000000E+00        3  25   6   6  # h0-t-t eff. coupling^2, normalised to SM
    1.18295745E-03    0.00000000E+00        3  35   6   6  # H0-t-t eff. coupling^2, normalised to SM
    0.00000000E+00    1.26331447E-03        3  36   6   6  # A0-t-t eff. coupling^2, normalised to SM
#
    9.36391913E-01    0.00000000E+00        3  25  15  15  # h0-tau-tau eff. coupling^2, normalised to SM
    7.91632155E+02    0.00000000E+00        3  35  15  15  # H0-tau-tau eff. coupling^2, normalised to SM
    0.00000000E+00    7.91568547E+02        3  36  15  15  # A0-tau-tau eff. coupling^2, normalised to SM
#
Block HiggsBoundsInputHiggsCouplingsBosons
    9.99998680E-01        3  25  24  24  # h0-W-W eff. coupling^2, normalised to SM
    1.32011680E-06        3  35  24  24  # H0-W-W eff. coupling^2, normalised to SM
    0.00000000E+00        3  36  24  24  # A0-W-W eff. coupling^2, normalised to SM
#
    9.99998680E-01        3  25  23  23  # h0-Z-Z eff. coupling^2, normalised to SM
    1.32011680E-06        3  35  23  23  # H0-Z-Z eff. coupling^2, normalised to SM
    0.00000000E+00        3  36  23  23  # A0-Z-Z eff. coupling^2, normalised to SM
#
    1.25832315E+00        3  25  21  21  # h0-g-g eff. coupling^2, normalised to SM
    2.14336841E-03        3  35  21  21  # H0-g-g eff. coupling^2, normalised to SM
    1.01789638E-01        3  36  21  21  # A0-g-g eff. coupling^2, normalised to SM
#
    0.00000000E+00        3  25  25  23  # h0-h0-Z eff. coupling^2, normalised to SM
    0.00000000E+00        3  35  25  23  # H0-h0-Z eff. coupling^2, normalised to SM
    1.32011680E-06        3  36  25  23  # A0-h0-Z eff. coupling^2, normalised to SM
    0.00000000E+00        3  35  35  23  # H0-H0-Z eff. coupling^2, normalised to SM
    9.99998680E-01        3  36  35  23  # A0-H0-Z eff. coupling^2, normalised to SM
    0.00000000E+00        3  36  36  23  # A0-A0-Z eff. coupling^2, normalised to SM
#
    0.00000000E+00        4  25  21  21  23  # h0-g-g-Z eff. coupling^2, normalised to SM
    0.00000000E+00        4  35  21  21  23  # H0-g-g-Z eff. coupling^2, normalised to SM
    0.00000000E+00        4  36  21  21  23  # A0-g-g-Z eff. coupling^2, normalised to SM
Block SPhenoLowEnergy  # low energy observables
    1    3.45655069E-04   # BR(b -> s gamma)
    2    1.58867770E-06   # BR(b -> s mu+ mu-)
    3    3.52670952E-05   # BR(b -> s nu nu)
    4    1.32129481E-15   # BR(Bd -> e+ e-)
    5    5.64445088E-11   # BR(Bd -> mu+ mu-)
    6    1.18334496E-08   # BR(Bd -> tau+ tau-)
    7    4.60478224E-14   # BR(Bs -> e+ e-)
    8    1.96717236E-09   # BR(Bs -> mu+ mu-)
    9    4.17901569E-07   # BR(Bs -> tau+ tau-)
   10    9.62933659E-05   # BR(B_u -> tau nu)
   11    9.94673604E-01   # BR(B_u -> tau nu)/BR(B_u -> tau nu)_SM
   12    5.41923318E-01   # |Delta(M_Bd)| [ps^-1] 
   13    1.93550450E+01   # |Delta(M_Bs)| [ps^-1] 
   14    0.00000000E+00   # neutron EDM according to the chiral quark model
   15    0.00000000E+00   # neutron EDM according to the relativistic quark-parton model
   16    2.15728236E-03   # epsilon_K
   17    2.28165824E-15   # Delta(M_K)
   18    2.48186051E-11   # BR(K^0 -> pi^0 nu nu)
   19    8.29468901E-11   # BR(K^+ -> pi^+ nu nu)
   20    2.54442716E-16   # Delta(g-2)_electron/2
   21    1.08782459E-11   # Delta(g-2)_muon/2
   22    3.07890788E-09   # Delta(g-2)_tau/2
   23    0.00000000E+00   # electric dipole moment of the electron
   24    0.00000000E+00   # electric dipole moment of the muon
   25    0.00000000E+00   # electric dipole moment of the tau
   26    0.00000000E+00   # Br(mu -> e gamma)
   27    0.00000000E+00   # Br(tau -> e gamma)
   28    0.00000000E+00   # Br(tau -> mu gamma)
   29    0.00000000E+00   # Br(mu -> 3 e)
   30    0.00000000E+00   # Br(tau -> 3 e)
   31    0.00000000E+00   # Br(tau -> 3 mu)
   39    8.11352893E-05   # Delta(rho_parameter)
   40    0.00000000E+00   # BR(Z -> e mu)
   41    0.00000000E+00   # BR(Z -> e tau)
   42    0.00000000E+00   # BR(Z -> mu tau)
Block FWCOEF Q=  1.60000000E+02  # Wilson coefficients at scale Q
#    id        order  M        value         comment
     0305 4422   00   0    -1.88819110E-01   # C7
     0305 4422   00   2    -2.17804492E-01   # C7
     0305 4322   00   2    -2.03954287E-04   # C7'
     0305 6421   00   0    -9.52278348E-02   # C8
     0305 6421   00   2    -1.14396913E-01   # C8
     0305 6321   00   2    -1.51202873E-04   # C8'
 03051111 4133   00   0     1.61778203E+00   # C9 e+e-
 03051111 4133   00   2     1.61818567E+00   # C9 e+e-
 03051111 4233   00   2     3.23600941E-04   # C9' e+e-
 03051111 4137   00   0    -4.44047413E+00   # C10 e+e-
 03051111 4137   00   2    -4.44031894E+00   # C10 e+e-
 03051111 4237   00   2    -2.42498288E-03   # C10' e+e-
 03051313 4133   00   0     1.61778203E+00   # C9 mu+mu-
 03051313 4133   00   2     1.61818559E+00   # C9 mu+mu-
 03051313 4233   00   2     3.23600834E-04   # C9' mu+mu-
 03051313 4137   00   0    -4.44047413E+00   # C10 mu+mu-
 03051313 4137   00   2    -4.44031902E+00   # C10 mu+mu-
 03051313 4237   00   2    -2.42498293E-03   # C10' mu+mu-
 03051212 4137   00   0     1.50535012E+00   # C11 nu_1 nu_1
 03051212 4137   00   2     1.50531881E+00   # C11 nu_1 nu_1
 03051212 4237   00   2     5.25423159E-04   # C11' nu_1 nu_1
 03051414 4137   00   0     1.50535012E+00   # C11 nu_2 nu_2
 03051414 4137   00   2     1.50531881E+00   # C11 nu_2 nu_2
 03051414 4237   00   2     5.25423173E-04   # C11' nu_2 nu_2
 03051616 4137   00   0     1.50535012E+00   # C11 nu_3 nu_3
 03051616 4137   00   2     1.50531881E+00   # C11 nu_3 nu_3
 03051616 4237   00   2     5.25427228E-04   # C11' nu_3 nu_3
Block IMFWCOEF Q=  1.60000000E+02  # Im(Wilson coefficients) at scale Q
#    id        order  M        value         comment
     0305 4422   00   0     3.85805032E-07   # C7
     0305 4422   00   2     1.71080208E-06   # C7
     0305 4322   00   2    -1.53788770E-06   # C7'
     0305 6421   00   0     3.30467525E-07   # C8
     0305 6421   00   2     5.33090391E-05   # C8
     0305 6321   00   2     2.58192436E-08   # C8'
 03051111 4133   00   2     1.14394658E-07   # C9 e+e-
 03051111 4233   00   2     6.12057767E-06   # C9' e+e-
 03051111 4137   00   2     7.31724603E-06   # C10 e+e-
 03051111 4237   00   2    -4.58685294E-05   # C10' e+e-
 03051313 4133   00   2     1.14392052E-07   # C9 mu+mu-
 03051313 4233   00   2     6.12057695E-06   # C9' mu+mu-
 03051313 4137   00   2     7.31724915E-06   # C10 mu+mu-
 03051313 4237   00   2    -4.58685316E-05   # C10' mu+mu-
 03051212 4137   00   2    -1.54381591E-06   # C11 nu_1 nu_1
 03051212 4237   00   2     9.93837568E-06   # C11' nu_1 nu_1
 03051414 4137   00   2    -1.54381580E-06   # C11 nu_2 nu_2
 03051414 4237   00   2     9.93837568E-06   # C11' nu_2 nu_2
 03051616 4137   00   2    -1.54378431E-06   # C11 nu_3 nu_3
 03051616 4237   00   2     9.93837566E-06   # C11' nu_3 nu_3
