# SUSY Les Houches Accord 2 - MSSM spectrum + Decays
# SPheno v4.0.5be
# W. Porod, Comput. Phys. Commun. 153 (2003) 275-315, hep-ph/0301101;
# W. Porod, F.~Staub, Comput. Phys. Commun. 183 (2012) 2458
#                     arXiv:1104.1573 [hep-ph] 
# in case of problems send email to porod@physik.uni-wuerzburg.de
# Created: 15.03.2021,  16:06
Block SPINFO         # Program information
     1   SPheno      # spectrum calculator
     2   v4.0.5be    # version number
#
Block SPhenoINFO     # SPheno specific information
    1      2         # using 2-loop RGEs
    2      2         # using pole masses for boundary conditions at mZ
Block MODSEL  # Model selection
    1    0    # general MSSM
Block MINPAR  # Input parameters
    3    2.69939158E+01  # tanb at m_Z    
    4   -1.00000000E+00  # Sign(mu)
Block EXTPAR  # non-universal input parameters
    0    3.15549536E+03  # scale for input parameters
    1    1.71284714E+03  # M_1
    2   -6.02328617E+02  # M_2
    3    2.86416548E+03  # M_3
   11    6.54625598E+03  # A_t
   12    1.75894790E+03  # A_b
   13   -1.18876632E+03  # A_tau
   23   -1.56923203E+02  # mu
   25    2.59284778E+01  # tan(beta)
   26    4.11374233E+03  # m_A, pole mass
   31    1.00000000E+04  # M_L11
   32    1.00000000E+04  # M_L22
   33    1.00000000E+04  # M_L33
   34    1.00000000E+04  # M_E11
   35    1.00000000E+04  # M_E22
   36    1.00000000E+04  # M_E33
   41    1.00000000E+04  # M_Q11
   42    1.00000000E+04  # M_Q22
   43    3.11971493E+03  # M_Q33
   44    1.00000000E+04  # M_U11
   45    1.00000000E+04  # M_U22
   46    3.24281265E+03  # M_U33
   47    1.00000000E+04  # M_D11
   48    1.00000000E+04  # M_D22
   49    4.74474728E+03  # M_D33
Block SMINPUTS  # SM parameters
         1     1.27908970E+02  # alpha_em^-1(MZ)^MSbar
         2     1.16637870E-05  # G_mu [GeV^-2]
         3     1.18400000E-01  # alpha_s(MZ)^MSbar
         4     9.11876000E+01  # m_Z(pole)
         5     4.18000000E+00  # m_b(m_b), MSbar
         6     1.73200000E+02  # m_t(pole)
         7     1.77700000E+00  # m_tau(pole)
         8     0.00000000E+00  # m_nu_3
        11     5.10998930E-04  # m_e(pole)
        12     0.00000000E+00  # m_nu_1
        13     1.05658372E-01  # m_muon(pole)
        14     0.00000000E+00  # m_nu_2
        21     5.00000000E-03  # m_d(2 GeV), MSbar
        22     2.50000000E-03  # m_u(2 GeV), MSbar
        23     9.50000000E-02  # m_s(2 GeV), MSbar
        24     1.27000000E+00  # m_c(m_c), MSbar
Block gauge Q=  3.15549536E+03  # (SUSY scale)
   1    3.55362975E-01  # g'(Q)^DRbar
   2    6.65198874E-01  # g(Q)^DRbar
   3    1.21977796E+00  # g3(Q)^DRbar
Block Yu Q=  3.15549536E+03  # (SUSY scale)
  1  1     8.39060554E-06   # Y_u(Q)^DRbar
  2  2     4.26242761E-03   # Y_c(Q)^DRbar
  3  3     1.01365254E+00   # Y_t(Q)^DRbar
Block Yd Q=  3.15549536E+03  # (SUSY scale)
  1  1     4.37170223E-04   # Y_d(Q)^DRbar
  2  2     8.30623423E-03   # Y_s(Q)^DRbar
  3  3     4.33535872E-01   # Y_b(Q)^DRbar
Block Ye Q=  3.15549536E+03  # (SUSY scale)
  1  1     7.62894007E-05   # Y_e(Q)^DRbar
  2  2     1.57742285E-02   # Y_mu(Q)^DRbar
  3  3     2.65296573E-01   # Y_tau(Q)^DRbar
Block Au Q=  3.15549536E+03  # (SUSY scale)
  1  1     0.00000000E+00   # A_u(Q)^DRbar
  2  2     0.00000000E+00   # A_c(Q)^DRbar
  3  3     6.54625600E+03   # A_t(Q)^DRbar
Block Ad Q=  3.15549536E+03  # (SUSY scale)
  1  1     0.00000000E+00   # A_d(Q)^DRbar
  2  2     0.00000000E+00   # A_s(Q)^DRbar
  3  3     1.75894793E+03   # A_b(Q)^DRbar
Block Ae Q=  3.15549536E+03  # (SUSY scale)
  1  1     0.00000000E+00   # A_e(Q)^DRbar
  2  2     0.00000000E+00   # A_mu(Q)^DRbar
  3  3    -1.18876633E+03   # A_tau(Q)^DRbar
Block MSOFT Q=  3.15549536E+03  # soft SUSY breaking masses at Q
   1    1.71284714E+03  # M_1
   2   -6.02328617E+02  # M_2
   3    2.86416548E+03  # M_3
  21    1.68098202E+07  # M^2_(H,d)
  22    1.99988315E+05  # M^2_(H,u)
  31    1.00000000E+04  # M_(L,11)
  32    1.00000000E+04  # M_(L,22)
  33    1.00000000E+04  # M_(L,33)
  34    1.00000000E+04  # M_(E,11)
  35    1.00000000E+04  # M_(E,22)
  36    1.00000000E+04  # M_(E,33)
  41    1.00000000E+04  # M_(Q,11)
  42    1.00000000E+04  # M_(Q,22)
  43    3.11971493E+03  # M_(Q,33)
  44    1.00000000E+04  # M_(U,11)
  45    1.00000000E+04  # M_(U,22)
  46    3.24281265E+03  # M_(U,33)
  47    1.00000000E+04  # M_(D,11)
  48    1.00000000E+04  # M_(D,22)
  49    4.74474728E+03  # M_(D,33)
Block MASS  # Mass spectrum
#   PDG code      mass          particle
         6     1.73200000E+02  # m_t(pole)
        23     9.11876000E+01  # m_Z(pole)
        24     8.04299946E+01  # W+
        15     1.77700000E+00  # m_tau(pole)
        25     1.29630186E+02  # h0
        35     4.11295215E+03  # H0
        36     4.11374233E+03  # A0
        37     4.11409327E+03  # H+
   1000001     1.01059812E+04  # ~d_L
   2000001     1.00811088E+04  # ~d_R
   1000002     1.01056205E+04  # ~u_L
   2000002     1.00837672E+04  # ~u_R
   1000003     1.01059843E+04  # ~s_L
   2000003     1.00811135E+04  # ~s_R
   1000004     1.01056236E+04  # ~c_L
   2000004     1.00837685E+04  # ~c_R
   1000005     3.14805363E+03  # ~b_1
   2000005     4.80351057E+03  # ~b_2
   1000006     3.02993660E+03  # ~t_1
   2000006     3.28625721E+03  # ~t_2
   1000011     1.00210081E+04  # ~e_L-
   2000011     1.00085282E+04  # ~e_R-
   1000012     1.00202451E+04  # ~nu_eL
   1000013     1.00210204E+04  # ~mu_L-
   2000013     1.00085521E+04  # ~mu_R-
   1000014     1.00202574E+04  # ~nu_muL
   1000015     1.00153560E+04  # ~tau_1-
   2000015     1.00245196E+04  # ~tau_2-
   1000016     1.00237467E+04  # ~nu_tauL
   1000021     3.31060155E+03  # ~g
   1000022     1.65202889E+02  # ~chi_10
   1000023     1.74974590E+02  # ~chi_20
   1000025     6.64624432E+02  # ~chi_30
   1000035     1.73138473E+03  # ~chi_40
   1000024     1.68500408E+02  # ~chi_1+
   1000037     6.64832927E+02  # ~chi_2+
# Higgs mixing
Block alpha # Effective Higgs mixing angle
          -3.70836706E-02   # alpha
Block Hmix Q=  3.15549536E+03  # Higgs mixing parameters
   1   -1.56923203E+02  # mu
   2    2.59284778E+01  # tan[beta](Q)
   3    2.43147233E+02  # v(Q)
   4    1.69228760E+07  # m^2_A(Q)
Block stopmix # stop mixing matrix
   1  1    -7.53963705E-01   # Re[R_st(1,1)]
   1  2     6.56916077E-01   # Re[R_st(1,2)]
   2  1    -6.56916077E-01   # Re[R_st(2,1)]
   2  2    -7.53963705E-01   # Re[R_st(2,2)]
Block sbotmix # sbottom mixing matrix
   1  1    -9.99999714E-01   # Re[R_sb(1,1)]
   1  2     7.55762858E-04   # Re[R_sb(1,2)]
   2  1    -7.55762858E-04   # Re[R_sb(2,1)]
   2  2    -9.99999714E-01   # Re[R_sb(2,2)]
Block staumix # stau mixing matrix
   1  1    -2.67806879E-02   # Re[R_sta(1,1)]
   1  2     9.99641333E-01   # Re[R_sta(1,2)]
   2  1    -9.99641333E-01   # Re[R_sta(2,1)]
   2  2    -2.67806879E-02   # Re[R_sta(2,2)]
Block Nmix # neutralino mixing matrix
   1  1    -1.66865362E-02   # Re[N(1,1)]
   1  2    -1.17926054E-01   # Re[N(1,2)]
   1  3    -7.14713074E-01   # Re[N(1,3)]
   1  4     6.89202603E-01   # Re[N(1,4)]
   2  1     1.94390097E-02   # Re[N(2,1)]
   2  2     6.71547227E-02   # Re[N(2,2)]
   2  3    -6.98397606E-01   # Re[N(2,3)]
   2  4    -7.12287268E-01   # Re[N(2,4)]
   3  1     2.42729552E-03   # Re[N(3,1)]
   3  2    -9.90748674E-01   # Re[N(3,2)]
   3  3     3.77302962E-02   # Re[N(3,3)]
   3  4    -1.30336482E-01   # Re[N(3,4)]
   4  1     9.99668841E-01   # Re[N(4,1)]
   4  2    -8.68646532E-04   # Re[N(4,2)]
   4  3     1.55900598E-03   # Re[N(4,3)]
   4  4     2.56714298E-02   # Re[N(4,4)]
Block Umix # chargino mixing matrix
   1  1    -5.36576019E-02   # Re[U(1,1)]
   1  2    -9.98559393E-01   # Re[U(1,2)]
   2  1    -9.98559393E-01   # Re[U(2,1)]
   2  2     5.36576019E-02   # Re[U(2,2)]
Block Vmix # chargino mixing matrix
   1  1     1.85584188E-01   # Re[V(1,1)]
   1  2     9.82628368E-01   # Re[V(1,2)]
   2  1     9.82628368E-01   # Re[V(2,1)]
   2  2    -1.85584188E-01   # Re[V(2,2)]
DECAY        23     2.49520000E+00   # Z
DECAY        24     2.08500000E+00   # W
DECAY   2000011     4.73262833E+01   # ~e^-_R
#    BR                NDA      ID1      ID2
     2.95723869E-04    2     1000022        11   # BR(~e^-_R -> chi^0_1 e^-)
     4.01298918E-04    2     1000023        11   # BR(~e^-_R -> chi^0_2 e^-)
     9.99296747E-01    2     1000035        11   # BR(~e^-_R -> chi^0_4 e^-)
DECAY   1000011     1.43021328E+02   # ~e^-_L
#    BR                NDA      ID1      ID2
     4.95898589E-03    2     1000022        11   # BR(~e^-_L -> chi^0_1 e^-)
     1.85308437E-03    2     1000023        11   # BR(~e^-_L -> chi^0_2 e^-)
     2.99277493E-01    2     1000025        11   # BR(~e^-_L -> chi^0_3 e^-)
     8.25144514E-02    2     1000035        11   # BR(~e^-_L -> chi^0_4 e^-)
     1.77484595E-03    2    -1000024        12   # BR(~e^-_L -> chi^-_1 nu_e)
     6.09621140E-01    2    -1000037        12   # BR(~e^-_L -> chi^-_2 nu_e)
#    BR                NDA      ID1      ID2       ID3
DECAY   2000013     4.74254389E+01   # ~mu^-_R
#    BR                NDA      ID1      ID2
     8.28444471E-04    2     1000022        13   # BR(~mu^-_R -> chi^0_1 mu^-)
     9.09693675E-04    2     1000023        13   # BR(~mu^-_R -> chi^0_2 mu^-)
     9.97210125E-01    2     1000035        13   # BR(~mu^-_R -> chi^0_4 mu^-)
     1.04108903E-03    2    -1000024        14   # BR(~mu^-_R -> chi^-_1 nu_mu)
DECAY   1000013     1.43071084E+02   # ~mu^-_L
#    BR                NDA      ID1      ID2
     5.13428042E-03    2     1000022        13   # BR(~mu^-_L -> chi^0_1 mu^-)
     2.02145355E-03    2     1000023        13   # BR(~mu^-_L -> chi^0_2 mu^-)
     2.99174274E-01    2     1000025        13   # BR(~mu^-_L -> chi^0_3 mu^-)
     8.24858697E-02    2     1000035        13   # BR(~mu^-_L -> chi^0_4 mu^-)
     1.77423089E-03    2    -1000024        14   # BR(~mu^-_L -> chi^-_1 nu_mu)
     6.09409891E-01    2    -1000037        14   # BR(~mu^-_L -> chi^-_2 nu_mu)
#    BR                NDA      ID1      ID2       ID3
DECAY   1000015     7.54529673E+01   # ~tau^-_1
#    BR                NDA      ID1      ID2
     9.64539230E-02    2     1000022        15   # BR(~tau^-_1 -> chi^0_1 tau^-)
     9.01542759E-02    2     1000023        15   # BR(~tau^-_1 -> chi^0_2 tau^-)
     6.26915796E-01    2     1000035        15   # BR(~tau^-_1 -> chi^0_4 tau^-)
     1.86424675E-01    2    -1000024        16   # BR(~tau^-_1 -> chi^-_1 nu_tau)
DECAY   2000015     1.57041140E+02   # ~tau^-_2
#    BR                NDA      ID1      ID2
     4.94862798E-02    2     1000022        15   # BR(~tau^-_2 -> chi^0_1 tau^-)
     4.55928747E-02    2     1000023        15   # BR(~tau^-_2 -> chi^0_2 tau^-)
     2.72901842E-01    2     1000025        15   # BR(~tau^-_2 -> chi^0_3 tau^-)
     7.53474063E-02    2     1000035        15   # BR(~tau^-_2 -> chi^0_4 tau^-)
     1.03711998E-03    2    -1000024        16   # BR(~tau^-_2 -> chi^-_1 nu_tau)
     5.55634478E-01    2    -1000037        16   # BR(~tau^-_2 -> chi^-_2 nu_tau)
#    BR                NDA      ID1      ID2       ID3
DECAY   1000012     1.43026409E+02   # ~nu_e
#    BR                NDA      ID1      ID2
     3.66248502E-03    2     1000022        12   # BR(~nu_e -> chi^0_1 nu_e)
     9.93203403E-04    2     1000023        12   # BR(~nu_e -> chi^0_2 nu_e)
     3.00814406E-01    2     1000025        12   # BR(~nu_e -> chi^0_3 nu_e)
     8.30430042E-02    2     1000035        12   # BR(~nu_e -> chi^0_4 nu_e)
     2.12291068E-02    2     1000024        11   # BR(~nu_e -> chi^+_1 e^-)
     5.90257795E-01    2     1000037        11   # BR(~nu_e -> chi^+_2 e^-)
#    BR                NDA      ID1      ID2       ID3
DECAY   1000014     1.43076161E+02   # ~nu_mu
#    BR                NDA      ID1      ID2
     3.66121595E-03    2     1000022        14   # BR(~nu_mu -> chi^0_1 nu_mu)
     9.92859253E-04    2     1000023        14   # BR(~nu_mu -> chi^0_2 nu_mu)
     3.00710178E-01    2     1000025        14   # BR(~nu_mu -> chi^0_3 nu_mu)
     8.30142417E-02    2     1000035        14   # BR(~nu_mu -> chi^0_4 nu_mu)
     2.15672345E-02    2     1000024        13   # BR(~nu_mu -> chi^+_1 mu^-)
     5.90054270E-01    2     1000037        13   # BR(~nu_mu -> chi^+_2 mu^-)
#    BR                NDA      ID1      ID2       ID3
DECAY   1000016     1.57104786E+02   # ~nu_tau
#    BR                NDA      ID1      ID2
     3.33545110E-03    2     1000022        16   # BR(~nu_tau -> chi^0_1 nu_tau)
     9.04517431E-04    2     1000023        16   # BR(~nu_tau -> chi^0_2 nu_tau)
     2.73955402E-01    2     1000025        16   # BR(~nu_tau -> chi^0_3 nu_tau)
     7.56310762E-02    2     1000035        16   # BR(~nu_tau -> chi^0_4 nu_tau)
     1.08362998E-01    2     1000024        15   # BR(~nu_tau -> chi^+_1 tau^-)
     5.37810556E-01    2     1000037        15   # BR(~nu_tau -> chi^+_2 tau^-)
#    BR                NDA      ID1      ID2       ID3
DECAY   2000001     6.38660520E+02   # ~d_R
#    BR                NDA      ID1      ID2
     8.29481560E-03    2     1000035         1   # BR(~d_R -> chi^0_4 d)
     9.91699232E-01    2     1000021         1   # BR(~d_R -> ~g d)
DECAY   1000001     7.69306150E+02   # ~d_L
#    BR                NDA      ID1      ID2
     7.63691031E-04    2     1000022         1   # BR(~d_L -> chi^0_1 d)
     2.34451258E-04    2     1000023         1   # BR(~d_L -> chi^0_2 d)
     5.63149139E-02    2     1000025         1   # BR(~d_L -> chi^0_3 d)
     1.74319375E-03    2     1000035         1   # BR(~d_L -> chi^0_4 d)
     3.32761809E-04    2    -1000024         2   # BR(~d_L -> chi^-_1 u)
     1.14312308E-01    2    -1000037         2   # BR(~d_L -> chi^-_2 u)
     8.26298680E-01    2     1000021         1   # BR(~d_L -> ~g d)
DECAY   2000003     6.38688542E+02   # ~s_R
#    BR                NDA      ID1      ID2
     8.29445604E-03    2     1000035         3   # BR(~s_R -> chi^0_4 s)
     9.91656408E-01    2     1000021         3   # BR(~s_R -> ~g s)
DECAY   1000003     7.69323954E+02   # ~s_L
#    BR                NDA      ID1      ID2
     7.72853541E-04    2     1000022         3   # BR(~s_L -> chi^0_1 s)
     2.43210758E-04    2     1000023         3   # BR(~s_L -> chi^0_2 s)
     5.63136532E-02    2     1000025         3   # BR(~s_L -> chi^0_3 s)
     1.74315404E-03    2     1000035         3   # BR(~s_L -> chi^0_4 s)
     3.37335769E-04    2    -1000024         4   # BR(~s_L -> chi^-_1 c)
     1.14309861E-01    2    -1000037         4   # BR(~s_L -> chi^-_2 c)
     8.26279931E-01    2     1000021         3   # BR(~s_L -> ~g s)
DECAY   1000005     1.15339165E+02   # ~b_1
#    BR                NDA      ID1      ID2
     5.34399961E-02    2     1000022         5   # BR(~b_1 -> chi^0_1 b)
     4.99485462E-02    2     1000023         5   # BR(~b_1 -> chi^0_2 b)
     1.07860006E-01    2     1000025         5   # BR(~b_1 -> chi^0_3 b)
     1.87030732E-03    2     1000035         5   # BR(~b_1 -> chi^0_4 b)
     5.32830226E-01    2    -1000024         6   # BR(~b_1 -> chi^-_1 t)
     2.37649598E-01    2    -1000037         6   # BR(~b_1 -> chi^-_2 t)
     1.64013203E-02    2     1000006       -24   # BR(~b_1 -> ~t_1 W^-)
DECAY   2000005     1.42341506E+02   # ~b_2
#    BR                NDA      ID1      ID2
     6.42936916E-02    2     1000022         5   # BR(~b_2 -> chi^0_1 b)
     6.13998909E-02    2     1000023         5   # BR(~b_2 -> chi^0_2 b)
     1.80457968E-04    2     1000025         5   # BR(~b_2 -> chi^0_3 b)
     1.42537403E-02    2     1000035         5   # BR(~b_2 -> chi^0_4 b)
     1.25170479E-01    2    -1000024         6   # BR(~b_2 -> chi^-_1 t)
     3.63836587E-04    2    -1000037         6   # BR(~b_2 -> chi^-_2 t)
     7.34176245E-01    2     1000021         5   # BR(~b_2 -> ~g b)
DECAY   2000002     6.54818368E+02   # ~u_R
#    BR                NDA      ID1      ID2
     3.23701245E-02    2     1000035         2   # BR(~u_R -> chi^0_4 u)
     9.67607117E-01    2     1000021         2   # BR(~u_R -> ~g u)
DECAY   1000002     7.69292577E+02   # ~u_L
#    BR                NDA      ID1      ID2
     8.44650380E-04    2     1000022         2   # BR(~u_L -> chi^0_1 u)
     2.88153600E-04    2     1000023         2   # BR(~u_L -> chi^0_2 u)
     5.62156752E-02    2     1000025         2   # BR(~u_L -> chi^0_3 u)
     1.70946055E-03    2     1000035         2   # BR(~u_L -> chi^0_4 u)
     3.98061753E-03    2     1000024         1   # BR(~u_L -> chi^+_1 d)
     1.10691859E-01    2     1000037         1   # BR(~u_L -> chi^+_2 d)
     8.26269584E-01    2     1000021         2   # BR(~u_L -> ~g u)
DECAY   2000004     6.54825745E+02   # ~c_R
#    BR                NDA      ID1      ID2
     3.23697677E-02    2     1000035         4   # BR(~c_R -> chi^0_4 c)
     9.67596355E-01    2     1000021         4   # BR(~c_R -> ~g c)
DECAY   1000004     7.69310347E+02   # ~c_L
#    BR                NDA      ID1      ID2
     8.46885555E-04    2     1000022         4   # BR(~c_L -> chi^0_1 c)
     2.90554707E-04    2     1000023         4   # BR(~c_L -> chi^0_2 c)
     5.62144695E-02    2     1000025         4   # BR(~c_L -> chi^0_3 c)
     1.70942430E-03    2     1000035         4   # BR(~c_L -> chi^0_4 c)
     3.99844490E-03    2     1000024         3   # BR(~c_L -> chi^+_1 s)
     1.10689388E-01    2     1000037         3   # BR(~c_L -> chi^+_2 s)
     8.26250833E-01    2     1000021         4   # BR(~c_L -> ~g c)
DECAY   1000006     1.17733425E+02   # ~t_1
#    BR                NDA      ID1      ID2
     1.12645444E-04    2     1000022         4   # BR(~t_1 -> chi^0_1 c)
     2.67309645E-01    2     1000022         6   # BR(~t_1 -> chi^0_1 t)
     2.75168802E-01    2     1000023         6   # BR(~t_1 -> chi^0_2 t)
     3.60831376E-02    2     1000025         6   # BR(~t_1 -> chi^0_3 t)
     1.31327802E-02    2     1000035         6   # BR(~t_1 -> chi^0_4 t)
     3.38400249E-01    2     1000024         5   # BR(~t_1 -> chi^+_1 b)
     6.33927310E-02    2     1000037         5   # BR(~t_1 -> chi^+_2 b)
#    BR                NDA      ID1      ID2       ID3
     6.36160596E-03    3     1000022        24         5   # BR(~t_1 -> chi^0_1 W^+ b)
DECAY   2000006     1.39539939E+02   # ~t_2
#    BR                NDA      ID1      ID2
     2.09328771E-01    2     1000022         6   # BR(~t_2 -> chi^0_1 t)
     2.31576314E-01    2     1000023         6   # BR(~t_2 -> chi^0_2 t)
     7.30713109E-02    2     1000025         6   # BR(~t_2 -> chi^0_3 t)
     1.54003928E-02    2     1000035         6   # BR(~t_2 -> chi^0_4 t)
     2.46860820E-01    2     1000024         5   # BR(~t_2 -> chi^+_1 b)
     1.40724122E-01    2     1000037         5   # BR(~t_2 -> chi^+_2 b)
     2.24159427E-02    2     1000005        24   # BR(~t_2 -> ~b_1 W^+)
     5.83557372E-02    2     1000006        23   # BR(~t_2 -> ~t_1 Z)
     2.26658916E-03    2     1000006        25   # BR(~t_2 -> ~t_1 h^0)
DECAY   1000024     1.22504156E-09   # chi^+_1
#    BR                NDA      ID1      ID2       ID3
     4.48170248E-01    3     1000022        -1         2   # BR(chi^+_1 -> chi^0_1 d_bar u)
     2.18687904E-01    3     1000022        -3         4   # BR(chi^+_1 -> chi^0_1 s_bar c)
     1.49391211E-01    3     1000022       -11        12   # BR(chi^+_1 -> chi^0_1 e^+ nu_e)
     1.48629567E-01    3     1000022       -13        14   # BR(chi^+_1 -> chi^0_1 mu^+ nu_mu)
     3.51210696E-02    3     1000022       -15        16   # BR(chi^+_1 -> chi^0_1 tau^+ nu_tau)
DECAY   1000037     5.78962416E+00   # chi^+_2
#    BR                NDA      ID1      ID2
     2.55785478E-01    2     1000022        24   # BR(chi^+_2 -> chi^0_1 W^+)
     2.60766987E-01    2     1000023        24   # BR(chi^+_2 -> chi^0_2 W^+)
     2.50808615E-01    2     1000024        23   # BR(chi^+_2 -> chi^+_1 Z)
     2.28405355E-01    2     1000024        25   # BR(chi^+_2 -> chi^+_1 h^0)
#    BR                NDA      ID1      ID2       ID3
     6.51242010E-04    3     1000024         6        -6   # BR(chi^+_2 -> chi^+_1 t t_bar)
     1.71554316E-03    3     1000022        -5         6   # BR(chi^+_2 -> chi^0_1 b_bar t)
     1.86640938E-03    3     1000023        -5         6   # BR(chi^+_2 -> chi^0_2 b_bar t)
DECAY   1000022     0.00000000E+00   # chi^0_1
DECAY   1000023     3.52899181E-07   # chi^0_2
#    BR                NDA      ID1      ID2
     2.69235143E-01    2     1000022        22   # BR(chi^0_2 -> chi^0_1 photon)
#    BR                NDA      ID1      ID2       ID3
     9.47528008E-02    3     1000022         2        -2   # BR(chi^0_2 -> chi^0_1 u u_bar)
     7.55931749E-02    3     1000022         4        -4   # BR(chi^0_2 -> chi^0_1 c c_bar)
     1.21491794E-01    3     1000022         1        -1   # BR(chi^0_2 -> chi^0_1 d d_bar)
     1.21358472E-01    3     1000022         3        -3   # BR(chi^0_2 -> chi^0_1 s s_bar)
     5.22093874E-03    3     1000022         5        -5   # BR(chi^0_2 -> chi^0_1 b b_bar)
     2.74172366E-02    3     1000022        11       -11   # BR(chi^0_2 -> chi^0_1 e^- e^+)
     2.73698560E-02    3     1000022        13       -13   # BR(chi^0_2 -> chi^0_1 mu^- mu^+)
     1.67759844E-02    3     1000022        15       -15   # BR(chi^0_2 -> chi^0_1 tau^- tau^+)
     1.62469702E-01    3     1000022        12       -12   # BR(chi^0_2 -> chi^0_1 nu_e nu_bar_e)
     1.43509833E-02    3     1000024         1        -2   # BR(chi^0_2 -> chi^+_1 d u_bar)
     1.43509833E-02    3    -1000024        -1         2   # BR(chi^0_2 -> chi^-_1 d_bar u)
     1.19098263E-02    3     1000024         3        -4   # BR(chi^0_2 -> chi^+_1 s c_bar)
     1.19098263E-02    3    -1000024        -3         4   # BR(chi^0_2 -> chi^-_1 s_bar c)
     4.78366003E-03    3     1000024        11       -12   # BR(chi^0_2 -> chi^+_1 e^- nu_bar_e)
     4.78366003E-03    3    -1000024       -11        12   # BR(chi^0_2 -> chi^-_1 e^+ nu_e)
     4.77729872E-03    3     1000024        13       -14   # BR(chi^0_2 -> chi^+_1 mu^- nu_bar_mu)
     4.77729872E-03    3    -1000024       -13        14   # BR(chi^0_2 -> chi^-_1 mu^+ nu_mu)
     3.33568060E-03    3     1000024        15       -16   # BR(chi^0_2 -> chi^+_1 tau^- nu_bar_tau)
     3.33568060E-03    3    -1000024       -15        16   # BR(chi^0_2 -> chi^-_1 tau^+ nu_tau)
DECAY   1000025     6.54022989E+00   # chi^0_3
#    BR                NDA      ID1      ID2
     2.38353708E-01    2     1000024       -24   # BR(chi^0_3 -> chi^+_1 W^-)
     2.38353708E-01    2    -1000024        24   # BR(chi^0_3 -> chi^-_1 W^+)
     5.13228542E-02    2     1000022        23   # BR(chi^0_3 -> chi^0_1 Z)
     1.80501896E-01    2     1000023        23   # BR(chi^0_3 -> chi^0_2 Z)
     1.47110841E-01    2     1000022        25   # BR(chi^0_3 -> chi^0_1 h^0)
     1.39911704E-01    2     1000023        25   # BR(chi^0_3 -> chi^0_2 h^0)
#    BR                NDA      ID1      ID2       ID3
     1.88219256E-04    3     1000022         6        -6   # BR(chi^0_3 -> chi^0_1 t t_bar)
     1.75665158E-04    3     1000023         6        -6   # BR(chi^0_3 -> chi^0_2 t t_bar)
     2.01175031E-03    3     1000024         5        -6   # BR(chi^0_3 -> chi^+_1 b t_bar)
     2.01175031E-03    3    -1000024        -5         6   # BR(chi^0_3 -> chi^-_1 b_bar t)
DECAY   1000035     4.80167646E+00   # chi^0_4
#    BR                NDA      ID1      ID2
     2.32292713E-01    2     1000024       -24   # BR(chi^0_4 -> chi^+_1 W^-)
     2.32292713E-01    2    -1000024        24   # BR(chi^0_4 -> chi^-_1 W^+)
     3.25991549E-03    2     1000037       -24   # BR(chi^0_4 -> chi^+_2 W^-)
     3.25991549E-03    2    -1000037        24   # BR(chi^0_4 -> chi^-_2 W^+)
     1.26747658E-01    2     1000022        23   # BR(chi^0_4 -> chi^0_1 Z)
     1.05625517E-01    2     1000023        23   # BR(chi^0_4 -> chi^0_2 Z)
     2.66540254E-03    2     1000025        23   # BR(chi^0_4 -> chi^0_3 Z)
     1.38669863E-01    2     1000022        25   # BR(chi^0_4 -> chi^0_1 h^0)
     1.27859429E-01    2     1000023        25   # BR(chi^0_4 -> chi^0_2 h^0)
     2.59614678E-03    2     1000025        25   # BR(chi^0_4 -> chi^0_3 h^0)
#    BR                NDA      ID1      ID2       ID3
     4.79511979E-03    3     1000022         6        -6   # BR(chi^0_4 -> chi^0_1 t t_bar)
     4.98630155E-03    3     1000023         6        -6   # BR(chi^0_4 -> chi^0_2 t t_bar)
     7.34847969E-03    3     1000024         5        -6   # BR(chi^0_4 -> chi^+_1 b t_bar)
     7.34847969E-03    3    -1000024        -5         6   # BR(chi^0_4 -> chi^-_1 b_bar t)
DECAY   1000021     4.81465358E+00   # ~g
#    BR                NDA      ID1      ID2
     1.83623744E-02    2     1000006        -4   # BR(~g -> ~t_1 c_bar)
     1.83623744E-02    2    -1000006         4   # BR(~g -> ~t^*_1 c)
     3.49304422E-01    2     1000006        -6   # BR(~g -> ~t_1 t_bar)
     3.49304422E-01    2    -1000006         6   # BR(~g -> ~t^*_1 t)
     9.33477290E-02    2     1000005        -5   # BR(~g -> ~b_1 b_bar)
     9.33477290E-02    2    -1000005         5   # BR(~g -> ~b^*_1 b)
     1.79848195E-03    2     1000022        21   # BR(~g -> chi^0_1 g)
     2.02872494E-03    2     1000023        21   # BR(~g -> chi^0_2 g)
#    BR                NDA      ID1      ID2       ID3
     1.81088467E-02    3     1000022         6        -6   # BR(~g -> chi^0_1 t t_bar)
     3.64673684E-04    3     1000022         5        -5   # BR(~g -> chi^0_1 b b_bar)
     2.00228355E-02    3     1000023         6        -6   # BR(~g -> chi^0_2 t t_bar)
     3.47697602E-04    3     1000023         5        -5   # BR(~g -> chi^0_2 b b_bar)
     5.39198746E-03    3     1000025         6        -6   # BR(~g -> chi^0_3 t t_bar)
     5.66859724E-04    3     1000035         6        -6   # BR(~g -> chi^0_4 t t_bar)
     9.83125181E-03    3     1000024         5        -6   # BR(~g -> chi^+_1 b t_bar)
     9.83125181E-03    3    -1000024        -5         6   # BR(~g -> chi^-_1 b_bar t)
     4.67329547E-03    3     1000037         5        -6   # BR(~g -> chi^+_2 b t_bar)
     4.67329547E-03    3    -1000037        -5         6   # BR(~g -> chi^-_2 b_bar t)
DECAY        25     4.18253119E-03   # Gamma(h0)
     2.55457974E-03   2        22        22   # BR(h0 -> photon photon)
     2.06052007E-03   2        22        23   # BR(h0 -> photon Z)
     4.47108749E-02   2        23        23   # BR(h0 -> Z Z)
     3.39374233E-01   2       -24        24   # BR(h0 -> W W)
     7.48189785E-02   2        21        21   # BR(h0 -> gluon gluon)
     4.15964256E-09   2       -11        11   # BR(h0 -> Electron electron)
     1.85030382E-04   2       -13        13   # BR(h0 -> Muon muon)
     5.33556443E-02   2       -15        15   # BR(h0 -> Tau tau)
     1.17576090E-07   2        -2         2   # BR(h0 -> Up up)
     2.28220822E-02   2        -4         4   # BR(h0 -> Charm charm)
     4.78347244E-07   2        -1         1   # BR(h0 -> Down down)
     1.73007181E-04   2        -3         3   # BR(h0 -> Strange strange)
     4.59944450E-01   2        -5         5   # BR(h0 -> Bottom bottom)
DECAY        35     8.45737730E+01   # Gamma(HH)
     1.65405579E-08   2        22        22   # BR(HH -> photon photon)
     4.03568222E-08   2        22        23   # BR(HH -> photon Z)
     3.77001550E-07   2        23        23   # BR(HH -> Z Z)
     7.71105588E-08   2       -24        24   # BR(HH -> W W)
     1.66354276E-06   2        21        21   # BR(HH -> gluon gluon)
     4.70454427E-09   2       -11        11   # BR(HH -> Electron electron)
     2.09488583E-04   2       -13        13   # BR(HH -> Muon muon)
     6.05058645E-02   2       -15        15   # BR(HH -> Tau tau)
     1.47980203E-13   2        -2         2   # BR(HH -> Up up)
     2.87089141E-08   2        -4         4   # BR(HH -> Charm charm)
     2.18571768E-03   2        -6         6   # BR(HH -> Top top)
     3.34557356E-07   2        -1         1   # BR(HH -> Down down)
     1.21013541E-04   2        -3         3   # BR(HH -> Strange strange)
     3.28024485E-01   2        -5         5   # BR(HH -> Bottom bottom)
     1.53075433E-02   2  -1000024   1000024   # BR(HH -> Chargino1 chargino1)
     1.82083090E-01   2  -1000024   1000037   # BR(HH -> Chargino1 chargino2)
     1.82083090E-01   2  -1000037   1000024   # BR(HH -> Chargino2 chargino1)
     8.35156758E-04   2  -1000037   1000037   # BR(HH -> Chargino2 chargino2)
     2.60746138E-03   2   1000022   1000022   # BR(HH -> neutralino1 neutralino1)
     3.53401953E-04   2   1000022   1000023   # BR(HH -> neutralino1 neutralino2)
     8.66206650E-02   2   1000022   1000025   # BR(HH -> neutralino1 neutralino3)
     1.91928250E-02   2   1000022   1000035   # BR(HH -> neutralino1 neutralino4)
     7.97427152E-04   2   1000023   1000023   # BR(HH -> neutralino2 neutralino2)
     9.90311585E-02   2   1000023   1000025   # BR(HH -> neutralino2 neutralino3)
     1.95450805E-02   2   1000023   1000035   # BR(HH -> neutralino2 neutralino4)
     4.25216715E-04   2   1000025   1000025   # BR(HH -> neutralino3 neutralino3)
     6.64113258E-05   2   1000025   1000035   # BR(HH -> neutralino3 neutralino4)
     1.03737140E-07   2   1000035   1000035   # BR(HH -> neutralino4 neutralino4)
     2.25614917E-06   2        25        25   # BR(HH -> h0 h0)
DECAY        36     8.28110713E+01   # Gamma(A0)
     5.17846233E-08   2        22        22   # BR(A0 -> photon photon)
     7.41303279E-08   2        22        23   # BR(A0 -> photon Z)
     6.99629663E-06   2        21        21   # BR(A0 -> gluon gluon)
     4.54782180E-09   2       -11        11   # BR(A0 -> Electron electron)
     2.02510206E-04   2       -13        13   # BR(A0 -> Muon muon)
     5.84903751E-02   2       -15        15   # BR(A0 -> Tau tau)
     1.37066297E-13   2        -2         2   # BR(A0 -> Up up)
     2.65909051E-08   2        -4         4   # BR(A0 -> Charm charm)
     2.04055840E-03   2        -6         6   # BR(A0 -> Top top)
     3.23404438E-07   2        -1         1   # BR(A0 -> Down down)
     1.16979524E-04   2        -3         3   # BR(A0 -> Strange strange)
     3.17092305E-01   2        -5         5   # BR(A0 -> Bottom bottom)
     1.63999474E-02   2  -1000024   1000024   # BR(A0 -> Chargino1 chargino1)
     1.85252010E-01   2  -1000024   1000037   # BR(A0 -> Chargino1 chargino2)
     1.85252010E-01   2  -1000037   1000024   # BR(A0 -> Chargino2 chargino1)
     1.58374030E-03   2  -1000037   1000037   # BR(A0 -> Chargino2 chargino2)
     3.08691957E-03   2   1000022   1000022   # BR(A0 -> neutralino1 neutralino1)
     2.17024058E-04   2   1000022   1000023   # BR(A0 -> neutralino1 neutralino2)
     1.04042287E-01   2   1000022   1000025   # BR(A0 -> neutralino1 neutralino3)
     2.10250254E-02   2   1000022   1000035   # BR(A0 -> neutralino1 neutralino4)
     7.04093641E-04   2   1000023   1000023   # BR(A0 -> neutralino2 neutralino2)
     8.50688707E-02   2   1000023   1000025   # BR(A0 -> neutralino2 neutralino3)
     1.85509889E-02   2   1000023   1000035   # BR(A0 -> neutralino2 neutralino4)
     7.97510871E-04   2   1000025   1000025   # BR(A0 -> neutralino3 neutralino3)
     6.85161312E-05   2   1000025   1000035   # BR(A0 -> neutralino3 neutralino4)
     1.28359132E-08   2   1000035   1000035   # BR(A0 -> neutralino4 neutralino4)
     8.37408910E-07   2        23        25   # BR(A0 -> Z h0)
     5.84588371E-38   2        25        25   # BR(A0 -> h0 h0)
DECAY        37     9.06735919E+01   # Gamma(Hp)
     5.46746179E-09   2       -11        12   # BR(Hp -> Electron nu_e)
     2.33751068E-04   2       -13        14   # BR(Hp -> Muon nu_mu)
     6.61181157E-02   2       -15        16   # BR(Hp -> Tau nu_tau)
     3.37899368E-07   2        -1         2   # BR(Hp -> Down up)
     5.72393350E-06   2        -3         2   # BR(Hp -> Strange up)
     3.84463530E-06   2        -5         2   # BR(Hp -> Bottom up)
     1.72510724E-08   2        -1         4   # BR(Hp -> Down charm)
     1.21810064E-04   2        -3         4   # BR(Hp -> Strange charm)
     5.38386632E-04   2        -5         4   # BR(Hp -> Bottom charm)
     1.55358293E-07   2        -1         6   # BR(Hp -> Down top)
     3.56883623E-06   2        -3         6   # BR(Hp -> Strange top)
     3.65216603E-01   2        -5         6   # BR(Hp -> Bottom top)
     1.08654144E-03   2   1000022   1000024   # BR(Hp -> neutralino1 chargino1)
     1.83822960E-01   2   1000022   1000037   # BR(Hp -> neutralino1 chargino2)
     3.58397286E-03   2   1000023   1000024   # BR(Hp -> neutralino2 chargino1)
     1.69809385E-01   2   1000023   1000037   # BR(Hp -> neutralino2 chargino2)
     1.73477090E-01   2   1000024   1000025   # BR(Hp -> chargino1 neutralino3)
     1.80323624E-08   2   1000025   1000037   # BR(Hp -> neutralino3 chargino2)
     3.58518576E-02   2   1000024   1000035   # BR(Hp -> chargino1 neutralino4)
     1.25090435E-04   2   1000035   1000037   # BR(Hp -> neutralino4 chargino2)
     7.65243752E-07   2        24        25   # BR(Hp -> W h0)
     2.90555392E-14   2        24        35   # BR(Hp -> W HH)
DECAY         6     2.43000000E+00   # top
#    BR                NDA      ID1      ID2
     1.00000000E+00    2           5        24   # BR(t -> b W)
Block HiggsBoundsInputHiggsCouplingsFermions
# ScalarNormEffCoupSq PseudoSNormEffCoupSq NP IP1 IP2 IP2
    9.25477573E-01    0.00000000E+00        3  25   5   5  # h0-b-b eff. coupling^2, normalised to SM
    6.72360483E+02    0.00000000E+00        3  35   5   5  # H0-b-b eff. coupling^2, normalised to SM
    0.00000000E+00    6.72285961E+02        3  36   5   5  # A0-b-b eff. coupling^2, normalised to SM
#
    1.00011085E+00    0.00000000E+00        3  25   6   6  # h0-t-t eff. coupling^2, normalised to SM
    1.37661297E-03    0.00000000E+00        3  35   6   6  # H0-t-t eff. coupling^2, normalised to SM
    0.00000000E+00    1.48746227E-03        3  36   6   6  # A0-t-t eff. coupling^2, normalised to SM
#
    9.25477573E-01    0.00000000E+00        3  25  15  15  # h0-tau-tau eff. coupling^2, normalised to SM
    6.72360483E+02    0.00000000E+00        3  35  15  15  # H0-tau-tau eff. coupling^2, normalised to SM
    0.00000000E+00    6.72285961E+02        3  36  15  15  # A0-tau-tau eff. coupling^2, normalised to SM
#
Block HiggsBoundsInputHiggsCouplingsBosons
    9.99997854E-01        3  25  24  24  # h0-W-W eff. coupling^2, normalised to SM
    2.14580214E-06        3  35  24  24  # H0-W-W eff. coupling^2, normalised to SM
    0.00000000E+00        3  36  24  24  # A0-W-W eff. coupling^2, normalised to SM
#
    9.99997854E-01        3  25  23  23  # h0-Z-Z eff. coupling^2, normalised to SM
    2.14580214E-06        3  35  23  23  # H0-Z-Z eff. coupling^2, normalised to SM
    0.00000000E+00        3  36  23  23  # A0-Z-Z eff. coupling^2, normalised to SM
#
    1.26270499E+00        3  25  21  21  # h0-g-g eff. coupling^2, normalised to SM
    1.30108087E-03        3  35  21  21  # H0-g-g eff. coupling^2, normalised to SM
    9.62169258E-02        3  36  21  21  # A0-g-g eff. coupling^2, normalised to SM
#
    0.00000000E+00        3  25  25  23  # h0-h0-Z eff. coupling^2, normalised to SM
    0.00000000E+00        3  35  25  23  # H0-h0-Z eff. coupling^2, normalised to SM
    2.14580214E-06        3  36  25  23  # A0-h0-Z eff. coupling^2, normalised to SM
    0.00000000E+00        3  35  35  23  # H0-H0-Z eff. coupling^2, normalised to SM
    9.99997854E-01        3  36  35  23  # A0-H0-Z eff. coupling^2, normalised to SM
    0.00000000E+00        3  36  36  23  # A0-A0-Z eff. coupling^2, normalised to SM
#
    0.00000000E+00        4  25  21  21  23  # h0-g-g-Z eff. coupling^2, normalised to SM
    0.00000000E+00        4  35  21  21  23  # H0-g-g-Z eff. coupling^2, normalised to SM
    0.00000000E+00        4  36  21  21  23  # A0-g-g-Z eff. coupling^2, normalised to SM
Block SPhenoLowEnergy  # low energy observables
    1    3.10769869E-04   # BR(b -> s gamma)
    2    1.59181112E-06   # BR(b -> s mu+ mu-)
    3    3.52549928E-05   # BR(b -> s nu nu)
    4    3.28970441E-15   # BR(Bd -> e+ e-)
    5    1.40531828E-10   # BR(Bd -> mu+ mu-)
    6    2.93832169E-08   # BR(Bd -> tau+ tau-)
    7    1.11827125E-13   # BR(Bs -> e+ e-)
    8    4.77723005E-09   # BR(Bs -> mu+ mu-)
    9    1.01203606E-06   # BR(Bs -> tau+ tau-)
   10    9.65641356E-05   # BR(B_u -> tau nu)
   11    9.97470551E-01   # BR(B_u -> tau nu)/BR(B_u -> tau nu)_SM
   12    5.42093613E-01   # |Delta(M_Bd)| [ps^-1] 
   13    1.93686526E+01   # |Delta(M_Bs)| [ps^-1] 
   14    0.00000000E+00   # neutron EDM according to the chiral quark model
   15    0.00000000E+00   # neutron EDM according to the relativistic quark-parton model
   16    2.15779734E-03   # epsilon_K
   17    2.28166320E-15   # Delta(M_K)
   18    2.47993553E-11   # BR(K^0 -> pi^0 nu nu)
   19    8.29037762E-11   # BR(K^+ -> pi^+ nu nu)
   20    2.17945647E-16   # Delta(g-2)_electron/2
   21    9.31790615E-12   # Delta(g-2)_muon/2
   22    2.63992035E-09   # Delta(g-2)_tau/2
   23    0.00000000E+00   # electric dipole moment of the electron
   24    0.00000000E+00   # electric dipole moment of the muon
   25    0.00000000E+00   # electric dipole moment of the tau
   26    0.00000000E+00   # Br(mu -> e gamma)
   27    0.00000000E+00   # Br(tau -> e gamma)
   28    0.00000000E+00   # Br(tau -> mu gamma)
   29    0.00000000E+00   # Br(mu -> 3 e)
   30    0.00000000E+00   # Br(tau -> 3 e)
   31    0.00000000E+00   # Br(tau -> 3 mu)
   39    5.83342843E-05   # Delta(rho_parameter)
   40    0.00000000E+00   # BR(Z -> e mu)
   41    0.00000000E+00   # BR(Z -> e tau)
   42    0.00000000E+00   # BR(Z -> mu tau)
Block FWCOEF Q=  1.60000000E+02  # Wilson coefficients at scale Q
#    id        order  M        value         comment
     0305 4422   00   0    -1.88819110E-01   # C7
     0305 4422   00   2    -1.76922760E-01   # C7
     0305 4322   00   2     5.21197399E-07   # C7'
     0305 6421   00   0    -9.52278348E-02   # C8
     0305 6421   00   2    -9.18033649E-02   # C8
     0305 6321   00   2    -6.30315795E-05   # C8'
 03051111 4133   00   0     1.61824825E+00   # C9 e+e-
 03051111 4133   00   2     1.61870427E+00   # C9 e+e-
 03051111 4233   00   2     2.00663055E-04   # C9' e+e-
 03051111 4137   00   0    -4.44094035E+00   # C10 e+e-
 03051111 4137   00   2    -4.43955789E+00   # C10 e+e-
 03051111 4237   00   2    -1.50300673E-03   # C10' e+e-
 03051313 4133   00   0     1.61824825E+00   # C9 mu+mu-
 03051313 4133   00   2     1.61870419E+00   # C9 mu+mu-
 03051313 4233   00   2     2.00663010E-04   # C9' mu+mu-
 03051313 4137   00   0    -4.44094035E+00   # C10 mu+mu-
 03051313 4137   00   2    -4.43955797E+00   # C10 mu+mu-
 03051313 4237   00   2    -1.50300679E-03   # C10' mu+mu-
 03051212 4137   00   0     1.50535012E+00   # C11 nu_1 nu_1
 03051212 4137   00   2     1.50505257E+00   # C11 nu_1 nu_1
 03051212 4237   00   2     3.25624079E-04   # C11' nu_1 nu_1
 03051414 4137   00   0     1.50535012E+00   # C11 nu_2 nu_2
 03051414 4137   00   2     1.50505257E+00   # C11 nu_2 nu_2
 03051414 4237   00   2     3.25624083E-04   # C11' nu_2 nu_2
 03051616 4137   00   0     1.50535012E+00   # C11 nu_3 nu_3
 03051616 4137   00   2     1.50505257E+00   # C11 nu_3 nu_3
 03051616 4237   00   2     3.25625286E-04   # C11' nu_3 nu_3
Block IMFWCOEF Q=  1.60000000E+02  # Im(Wilson coefficients) at scale Q
#    id        order  M        value         comment
     0305 4422   00   0     3.85829400E-07   # C7
     0305 4422   00   2     6.99710415E-06   # C7
     0305 4322   00   2     1.40579283E-06   # C7'
     0305 6421   00   0     3.30488398E-07   # C8
     0305 6421   00   2     9.74630299E-06   # C8
     0305 6321   00   2     7.13964333E-07   # C8'
 03051111 4133   00   2     6.03241864E-07   # C9 e+e-
 03051111 4233   00   2     3.77918200E-06   # C9' e+e-
 03051111 4137   00   2     2.08621058E-06   # C10 e+e-
 03051111 4237   00   2    -2.83078945E-05   # C10' e+e-
 03051313 4133   00   2     6.03239729E-07   # C9 mu+mu-
 03051313 4233   00   2     3.77918156E-06   # C9' mu+mu-
 03051313 4137   00   2     2.08621260E-06   # C10 mu+mu-
 03051313 4237   00   2    -2.83078958E-05   # C10' mu+mu-
 03051212 4137   00   2    -4.17151825E-07   # C11 nu_1 nu_1
 03051212 4237   00   2     6.13286174E-06   # C11' nu_1 nu_1
 03051414 4137   00   2    -4.17151724E-07   # C11 nu_2 nu_2
 03051414 4237   00   2     6.13286174E-06   # C11' nu_2 nu_2
 03051616 4137   00   2    -4.17123383E-07   # C11 nu_3 nu_3
 03051616 4237   00   2     6.13286173E-06   # C11' nu_3 nu_3
