# SUSY Les Houches Accord 2 - MSSM spectrum + Decays
# SPheno v4.0.5be
# W. Porod, Comput. Phys. Commun. 153 (2003) 275-315, hep-ph/0301101;
# W. Porod, F.~Staub, Comput. Phys. Commun. 183 (2012) 2458
#                     arXiv:1104.1573 [hep-ph] 
# in case of problems send email to porod@physik.uni-wuerzburg.de
# Created: 07.09.2021,  20:20
Block SPINFO         # Program information
     1   SPheno      # spectrum calculator
     2   v4.0.5be    # version number
#
Block SPhenoINFO     # SPheno specific information
    1      2         # using 2-loop RGEs
    2      2         # using pole masses for boundary conditions at mZ
Block MODSEL  # Model selection
    1    0    # general MSSM
Block MINPAR  # Input parameters
    3    3.57119107E+01  # tanb at m_Z    
    4    1.00000000E+00  # Sign(mu)
Block EXTPAR  # non-universal input parameters
    0    3.26694296E+03  # scale for input parameters
    1   -2.22101559E+02  # M_1
    2   -1.64595164E+03  # M_2
    3    3.72143638E+03  # M_3
   11   -4.03722085E+01  # A_t
   12   -9.23263387E+02  # A_b
   13    9.60881125E+02  # A_tau
   23    2.26415272E+02  # mu
   25    3.45948370E+01  # tan(beta)
   26    4.66112212E+03  # m_A, pole mass
   31    1.00000000E+04  # M_L11
   32    1.00000000E+04  # M_L22
   33    1.00000000E+04  # M_L33
   34    1.00000000E+04  # M_E11
   35    1.00000000E+04  # M_E22
   36    1.00000000E+04  # M_E33
   41    1.00000000E+04  # M_Q11
   42    1.00000000E+04  # M_Q22
   43    3.25053557E+03  # M_Q33
   44    1.00000000E+04  # M_U11
   45    1.00000000E+04  # M_U22
   46    3.08370466E+03  # M_U33
   47    1.00000000E+04  # M_D11
   48    1.00000000E+04  # M_D22
   49    3.65518852E+03  # M_D33
Block SMINPUTS  # SM parameters
         1     1.27908970E+02  # alpha_em^-1(MZ)^MSbar
         2     1.16637870E-05  # G_mu [GeV^-2]
         3     1.18400000E-01  # alpha_s(MZ)^MSbar
         4     9.11876000E+01  # m_Z(pole)
         5     4.18000000E+00  # m_b(m_b), MSbar
         6     1.73200000E+02  # m_t(pole)
         7     1.77700000E+00  # m_tau(pole)
         8     0.00000000E+00  # m_nu_3
        11     5.10998930E-04  # m_e(pole)
        12     0.00000000E+00  # m_nu_1
        13     1.05658372E-01  # m_muon(pole)
        14     0.00000000E+00  # m_nu_2
        21     5.00000000E-03  # m_d(2 GeV), MSbar
        22     2.50000000E-03  # m_u(2 GeV), MSbar
        23     9.50000000E-02  # m_s(2 GeV), MSbar
        24     1.27000000E+00  # m_c(m_c), MSbar
Block gauge Q=  3.26694296E+03  # (SUSY scale)
   1    3.55362975E-01  # g'(Q)^DRbar
   2    6.65198874E-01  # g(Q)^DRbar
   3    1.21977796E+00  # g3(Q)^DRbar
Block Yu Q=  3.26694296E+03  # (SUSY scale)
  1  1     8.38787422E-06   # Y_u(Q)^DRbar
  2  2     4.26104011E-03   # Y_c(Q)^DRbar
  3  3     1.01332258E+00   # Y_t(Q)^DRbar
Block Yd Q=  3.26694296E+03  # (SUSY scale)
  1  1     5.83100543E-04   # Y_d(Q)^DRbar
  2  2     1.10789103E-02   # Y_s(Q)^DRbar
  3  3     5.78253021E-01   # Y_b(Q)^DRbar
Block Ye Q=  3.26694296E+03  # (SUSY scale)
  1  1     1.01755309E-04   # Y_e(Q)^DRbar
  2  2     2.10397706E-02   # Y_mu(Q)^DRbar
  3  3     3.53854329E-01   # Y_tau(Q)^DRbar
Block Au Q=  3.26694296E+03  # (SUSY scale)
  1  1     0.00000000E+00   # A_u(Q)^DRbar
  2  2     0.00000000E+00   # A_c(Q)^DRbar
  3  3    -4.03722087E+01   # A_t(Q)^DRbar
Block Ad Q=  3.26694296E+03  # (SUSY scale)
  1  1     0.00000000E+00   # A_d(Q)^DRbar
  2  2     0.00000000E+00   # A_s(Q)^DRbar
  3  3    -9.23263400E+02   # A_b(Q)^DRbar
Block Ae Q=  3.26694296E+03  # (SUSY scale)
  1  1     0.00000000E+00   # A_e(Q)^DRbar
  2  2     0.00000000E+00   # A_mu(Q)^DRbar
  3  3     9.60881123E+02   # A_tau(Q)^DRbar
Block MSOFT Q=  3.26694296E+03  # soft SUSY breaking masses at Q
   1   -2.22101559E+02  # M_1
   2   -1.64595164E+03  # M_2
   3    3.72143638E+03  # M_3
  21    2.15690854E+07  # M^2_(H,d)
  22    1.70289810E+05  # M^2_(H,u)
  31    1.00000000E+04  # M_(L,11)
  32    1.00000000E+04  # M_(L,22)
  33    1.00000000E+04  # M_(L,33)
  34    1.00000000E+04  # M_(E,11)
  35    1.00000000E+04  # M_(E,22)
  36    1.00000000E+04  # M_(E,33)
  41    1.00000000E+04  # M_(Q,11)
  42    1.00000000E+04  # M_(Q,22)
  43    3.25053557E+03  # M_(Q,33)
  44    1.00000000E+04  # M_(U,11)
  45    1.00000000E+04  # M_(U,22)
  46    3.08370466E+03  # M_(U,33)
  47    1.00000000E+04  # M_(D,11)
  48    1.00000000E+04  # M_(D,22)
  49    3.65518852E+03  # M_(D,33)
Block MASS  # Mass spectrum
#   PDG code      mass          particle
         6     1.73200000E+02  # m_t(pole)
        23     9.11876000E+01  # m_Z(pole)
        24     8.04299946E+01  # W+
        15     1.77700000E+00  # m_tau(pole)
        25     1.20552596E+02  # h0
        35     4.65991669E+03  # H0
        36     4.66112212E+03  # A0
        37     4.66067266E+03  # H+
   1000001     1.00933385E+04  # ~d_L
   2000001     1.00701562E+04  # ~d_R
   1000002     1.00929674E+04  # ~u_L
   2000002     1.00733730E+04  # ~u_R
   1000003     1.00933434E+04  # ~s_L
   2000003     1.00701646E+04  # ~s_R
   1000004     1.00929723E+04  # ~c_L
   2000004     1.00733743E+04  # ~c_R
   1000005     3.36138801E+03  # ~b_1
   2000005     3.75729305E+03  # ~b_2
   1000006     3.17297433E+03  # ~t_1
   2000006     3.36369451E+03  # ~t_2
   1000011     1.00200426E+04  # ~e_L-
   2000011     1.00087676E+04  # ~e_R-
   1000012     1.00192768E+04  # ~nu_eL
   1000013     1.00200648E+04  # ~mu_L-
   2000013     1.00088106E+04  # ~mu_R-
   1000014     1.00192988E+04  # ~nu_muL
   1000015     1.00209713E+04  # ~tau_1-
   2000015     1.00263986E+04  # ~tau_2-
   1000016     1.00255629E+04  # ~nu_tauL
   1000021     4.15659167E+03  # ~g
   1000022     2.01439494E+02  # ~chi_10
   1000023     2.44234024E+02  # ~chi_20
   1000025     2.63450435E+02  # ~chi_30
   1000035     1.75465593E+03  # ~chi_40
   1000024     2.40166183E+02  # ~chi_1+
   1000037     1.75462338E+03  # ~chi_2+
# Higgs mixing
Block alpha # Effective Higgs mixing angle
          -2.80215602E-02   # alpha
Block Hmix Q=  3.26694296E+03  # Higgs mixing parameters
   1    2.26415272E+02  # mu
   2    3.45948370E+01  # tan[beta](Q)
   3    2.43181588E+02  # v(Q)
   4    2.17260594E+07  # m^2_A(Q)
Block stopmix # stop mixing matrix
   1  1     2.15924607E-02   # Re[R_st(1,1)]
   1  2     9.99766856E-01   # Re[R_st(1,2)]
   2  1    -9.99766856E-01   # Re[R_st(2,1)]
   2  2     2.15924607E-02   # Re[R_st(2,2)]
Block sbotmix # sbottom mixing matrix
   1  1     9.99979051E-01   # Re[R_sb(1,1)]
   1  2     6.47289132E-03   # Re[R_sb(1,2)]
   2  1    -6.47289132E-03   # Re[R_sb(2,1)]
   2  2     9.99979051E-01   # Re[R_sb(2,2)]
Block staumix # stau mixing matrix
   1  1     1.11667081E-01   # Re[R_sta(1,1)]
   1  2     9.93745673E-01   # Re[R_sta(1,2)]
   2  1    -9.93745673E-01   # Re[R_sta(2,1)]
   2  2     1.11667081E-01   # Re[R_sta(2,2)]
Block Nmix # neutralino mixing matrix
   1  1    -7.68902161E-01   # Re[N(1,1)]
   1  2     2.03195322E-02   # Re[N(1,2)]
   1  3    -4.91649516E-01   # Re[N(1,3)]
   1  4    -4.08236864E-01   # Re[N(1,4)]
   2  1    -6.94273183E-02   # Re[N(2,1)]
   2  2     2.95332556E-02   # Re[N(2,2)]
   2  3     6.99704791E-01   # Re[N(2,3)]
   2  4    -7.10437077E-01   # Re[N(2,4)]
   3  1     6.35584271E-01   # Re[N(3,1)]
   3  2     3.00020257E-02   # Re[N(3,2)]
   3  3    -5.18333991E-01   # Re[N(3,3)]
   3  4    -5.71368871E-01   # Re[N(3,4)]
   4  1     1.39619499E-03   # Re[N(4,1)]
   4  2    -9.98906793E-01   # Re[N(4,2)]
   4  3    -4.88193444E-03   # Re[N(4,3)]
   4  4    -4.64697265E-02   # Re[N(4,4)]
Block Umix # chargino mixing matrix
   1  1    -6.91477789E-03   # Re[U(1,1)]
   1  2     9.99976093E-01   # Re[U(1,2)]
   2  1    -9.99976093E-01   # Re[U(2,1)]
   2  2    -6.91477789E-03   # Re[U(2,2)]
Block Vmix # chargino mixing matrix
   1  1     6.57412942E-02   # Re[V(1,1)]
   1  2     9.97836701E-01   # Re[V(1,2)]
   2  1     9.97836701E-01   # Re[V(2,1)]
   2  2    -6.57412942E-02   # Re[V(2,2)]
DECAY        23     2.49520000E+00   # Z
DECAY        24     2.08500000E+00   # W
DECAY   2000011     5.02378870E+01   # ~e^-_R
#    BR                NDA      ID1      ID2
     5.91349177E-01    2     1000022        11   # BR(~e^-_R -> chi^0_1 e^-)
     4.81946646E-03    2     1000023        11   # BR(~e^-_R -> chi^0_2 e^-)
     4.03829482E-01    2     1000025        11   # BR(~e^-_R -> chi^0_3 e^-)
DECAY   1000011     1.36903424E+02   # ~e^-_L
#    BR                NDA      ID1      ID2
     4.90709622E-02    2     1000022        11   # BR(~e^-_L -> chi^0_1 e^-)
     4.39329886E-02    2     1000025        11   # BR(~e^-_L -> chi^0_3 e^-)
     3.01583247E-01    2     1000035        11   # BR(~e^-_L -> chi^0_4 e^-)
     6.05363651E-01    2    -1000037        12   # BR(~e^-_L -> chi^-_2 nu_e)
#    BR                NDA      ID1      ID2       ID3
DECAY   2000013     5.04141848E+01   # ~mu^-_R
#    BR                NDA      ID1      ID2
     5.89706029E-01    2     1000022        13   # BR(~mu^-_R -> chi^0_1 mu^-)
     5.65759217E-03    2     1000023        13   # BR(~mu^-_R -> chi^0_2 mu^-)
     4.02888127E-01    2     1000025        13   # BR(~mu^-_R -> chi^0_3 mu^-)
     1.74630798E-03    2    -1000024        14   # BR(~mu^-_R -> chi^-_1 nu_mu)
DECAY   1000013     1.36991902E+02   # ~mu^-_L
#    BR                NDA      ID1      ID2
     4.91949545E-02    2     1000022        13   # BR(~mu^-_L -> chi^0_1 mu^-)
     3.33353310E-04    2     1000023        13   # BR(~mu^-_L -> chi^0_2 mu^-)
     4.40775293E-02    2     1000025        13   # BR(~mu^-_L -> chi^0_3 mu^-)
     3.01389233E-01    2     1000035        13   # BR(~mu^-_L -> chi^0_4 mu^-)
     6.04974179E-01    2    -1000037        14   # BR(~mu^-_L -> chi^-_2 nu_mu)
#    BR                NDA      ID1      ID2       ID3
DECAY   1000015     1.00943378E+02   # ~tau^-_1
#    BR                NDA      ID1      ID2
     3.66994962E-01    2     1000022        15   # BR(~tau^-_1 -> chi^0_1 tau^-)
     1.19902479E-01    2     1000023        15   # BR(~tau^-_1 -> chi^0_2 tau^-)
     2.54120449E-01    2     1000025        15   # BR(~tau^-_1 -> chi^0_3 tau^-)
     4.77270678E-03    2     1000035        15   # BR(~tau^-_1 -> chi^0_4 tau^-)
     2.44629978E-01    2    -1000024        16   # BR(~tau^-_1 -> chi^-_1 nu_tau)
     9.57942574E-03    2    -1000037        16   # BR(~tau^-_1 -> chi^-_2 nu_tau)
DECAY   2000015     1.61170715E+02   # ~tau^-_2
#    BR                NDA      ID1      ID2
     7.12383675E-02    2     1000022        15   # BR(~tau^-_2 -> chi^0_1 tau^-)
     7.79425241E-02    2     1000023        15   # BR(~tau^-_2 -> chi^0_2 tau^-)
     8.73501769E-02    2     1000025        15   # BR(~tau^-_2 -> chi^0_3 tau^-)
     2.53373839E-01    2     1000035        15   # BR(~tau^-_2 -> chi^0_4 tau^-)
     1.50933628E-03    2    -1000024        16   # BR(~tau^-_2 -> chi^-_1 nu_tau)
     5.08585756E-01    2    -1000037        16   # BR(~tau^-_2 -> chi^-_2 nu_tau)
#    BR                NDA      ID1      ID2       ID3
DECAY   1000012     1.36907219E+02   # ~nu_e
#    BR                NDA      ID1      ID2
     5.98113627E-02    2     1000022        12   # BR(~nu_e -> chi^0_1 nu_e)
     1.42804596E-03    2     1000023        12   # BR(~nu_e -> chi^0_2 nu_e)
     3.08209916E-02    2     1000025        12   # BR(~nu_e -> chi^0_3 nu_e)
     3.02450926E-01    2     1000035        12   # BR(~nu_e -> chi^0_4 nu_e)
     2.78113976E-03    2     1000024        11   # BR(~nu_e -> chi^+_1 e^-)
     6.02707534E-01    2     1000037        11   # BR(~nu_e -> chi^+_2 e^-)
#    BR                NDA      ID1      ID2       ID3
DECAY   1000014     1.36995687E+02   # ~nu_mu
#    BR                NDA      ID1      ID2
     5.97728696E-02    2     1000022        14   # BR(~nu_mu -> chi^0_1 nu_mu)
     1.42712691E-03    2     1000023        14   # BR(~nu_mu -> chi^0_2 nu_mu)
     3.08011561E-02    2     1000025        14   # BR(~nu_mu -> chi^0_3 nu_mu)
     3.02256359E-01    2     1000035        14   # BR(~nu_mu -> chi^0_4 nu_mu)
     3.42264960E-03    2     1000024        13   # BR(~nu_mu -> chi^+_1 mu^-)
     6.02319839E-01    2     1000037        13   # BR(~nu_mu -> chi^+_2 mu^-)
#    BR                NDA      ID1      ID2       ID3
DECAY   1000016     1.61948237E+02   # ~nu_tau
#    BR                NDA      ID1      ID2
     5.05948897E-02    2     1000022        16   # BR(~nu_tau -> chi^0_1 nu_tau)
     1.20799559E-03    2     1000023        16   # BR(~nu_tau -> chi^0_2 nu_tau)
     2.60717316E-02    2     1000025        16   # BR(~nu_tau -> chi^0_3 nu_tau)
     2.55865591E-01    2     1000035        16   # BR(~nu_tau -> chi^0_4 nu_tau)
     1.56378293E-01    2     1000024        15   # BR(~nu_tau -> chi^+_1 tau^-)
     5.09881499E-01    2     1000037        15   # BR(~nu_tau -> chi^+_2 tau^-)
#    BR                NDA      ID1      ID2       ID3
DECAY   2000001     5.52710205E+02   # ~d_R
#    BR                NDA      ID1      ID2
     6.00893341E-03    2     1000022         1   # BR(~d_R -> chi^0_1 d)
     4.10351292E-03    2     1000025         1   # BR(~d_R -> chi^0_3 d)
     9.89838379E-01    2     1000021         1   # BR(~d_R -> ~g d)
DECAY   1000001     6.76143714E+02   # ~d_L
#    BR                NDA      ID1      ID2
     1.62326431E-03    2     1000022         1   # BR(~d_L -> chi^0_1 d)
     1.15247181E-04    2     1000023         1   # BR(~d_L -> chi^0_2 d)
     4.54001652E-04    2     1000025         1   # BR(~d_L -> chi^0_3 d)
     6.16893638E-02    2     1000035         1   # BR(~d_L -> chi^0_4 d)
     1.23581775E-01    2    -1000037         2   # BR(~d_L -> chi^-_2 u)
     8.12530071E-01    2     1000021         1   # BR(~d_L -> ~g d)
DECAY   2000003     5.52760029E+02   # ~s_R
#    BR                NDA      ID1      ID2
     6.01911112E-03    2     1000022         3   # BR(~s_R -> chi^0_1 s)
     4.11504966E-03    2     1000025         3   # BR(~s_R -> chi^0_3 s)
     9.89750662E-01    2     1000021         3   # BR(~s_R -> ~g s)
DECAY   1000003     6.76172459E+02   # ~s_L
#    BR                NDA      ID1      ID2
     1.63197523E-03    2     1000022         3   # BR(~s_L -> chi^0_1 s)
     1.33017783E-04    2     1000023         3   # BR(~s_L -> chi^0_2 s)
     4.63735422E-04    2     1000025         3   # BR(~s_L -> chi^0_3 s)
     6.16867759E-02    2     1000035         3   # BR(~s_L -> chi^0_4 s)
     1.23576611E-01    2    -1000037         4   # BR(~s_L -> chi^-_2 c)
     8.12496246E-01    2     1000021         3   # BR(~s_L -> ~g s)
DECAY   1000005     1.13644328E+02   # ~b_1
#    BR                NDA      ID1      ID2
     5.08476598E-02    2     1000022         5   # BR(~b_1 -> chi^0_1 b)
     9.54484053E-02    2     1000023         5   # BR(~b_1 -> chi^0_2 b)
     5.27801105E-02    2     1000025         5   # BR(~b_1 -> chi^0_3 b)
     6.87846616E-02    2     1000035         5   # BR(~b_1 -> chi^0_4 b)
     5.92231378E-01    2    -1000024         6   # BR(~b_1 -> chi^-_1 t)
     1.39806383E-01    2    -1000037         6   # BR(~b_1 -> chi^-_2 t)
     1.01402192E-04    2     1000006       -24   # BR(~b_1 -> ~t_1 W^-)
DECAY   2000005     5.15887820E+01   # ~b_2
#    BR                NDA      ID1      ID2
     1.39251011E-01    2     1000022         5   # BR(~b_2 -> chi^0_1 b)
     2.35632186E-01    2     1000023         5   # BR(~b_2 -> chi^0_2 b)
     1.45980913E-01    2     1000025         5   # BR(~b_2 -> chi^0_3 b)
     4.78513324E-01    2    -1000024         6   # BR(~b_2 -> chi^-_1 t)
     2.15026606E-04    2     2000006       -24   # BR(~b_2 -> ~t_2 W^-)
     1.07421215E-04    2     1000005        23   # BR(~b_2 -> ~b_1 Z)
     2.08098507E-04    2     1000005        25   # BR(~b_2 -> ~b_1 h^0)
DECAY   2000002     5.69884455E+02   # ~u_R
#    BR                NDA      ID1      ID2
     2.33187269E-02    2     1000022         2   # BR(~u_R -> chi^0_1 u)
     1.90046618E-04    2     1000023         2   # BR(~u_R -> chi^0_2 u)
     1.59243626E-02    2     1000025         2   # BR(~u_R -> chi^0_3 u)
     9.60566792E-01    2     1000021         2   # BR(~u_R -> ~g u)
DECAY   1000002     6.76126232E+02   # ~u_L
#    BR                NDA      ID1      ID2
     8.92600745E-04    2     1000022         2   # BR(~u_L -> chi^0_1 u)
     1.34519048E-03    2     1000025         2   # BR(~u_L -> chi^0_3 u)
     6.16270222E-02    2     1000035         2   # BR(~u_L -> chi^0_4 u)
     5.67395644E-04    2     1000024         1   # BR(~u_L -> chi^+_1 d)
     1.23051642E-01    2     1000037         1   # BR(~u_L -> chi^+_2 d)
     8.12496801E-01    2     1000021         2   # BR(~u_L -> ~g u)
DECAY   2000004     5.69891821E+02   # ~c_R
#    BR                NDA      ID1      ID2
     2.33194926E-02    2     1000022         4   # BR(~c_R -> chi^0_1 c)
     1.93263231E-04    2     1000023         4   # BR(~c_R -> chi^0_2 c)
     1.59262370E-02    2     1000025         4   # BR(~c_R -> chi^0_3 c)
     9.60554546E-01    2     1000021         4   # BR(~c_R -> ~g c)
DECAY   1000004     6.76154942E+02   # ~c_L
#    BR                NDA      ID1      ID2
     8.93460793E-04    2     1000022         4   # BR(~c_L -> chi^0_1 c)
     1.34689249E-03    2     1000025         4   # BR(~c_L -> chi^0_3 c)
     6.16244449E-02    2     1000035         4   # BR(~c_L -> chi^0_4 c)
     6.03678242E-04    2     1000024         3   # BR(~c_L -> chi^+_1 s)
     1.23046486E-01    2     1000037         3   # BR(~c_L -> chi^+_2 s)
     8.12462973E-01    2     1000021         4   # BR(~c_L -> ~g c)
DECAY   1000006     1.34340455E+02   # ~t_1
#    BR                NDA      ID1      ID2
     1.09006476E-01    2     1000022         6   # BR(~t_1 -> chi^0_1 t)
     2.39036126E-01    2     1000023         6   # BR(~t_1 -> chi^0_2 t)
     1.75867412E-01    2     1000025         6   # BR(~t_1 -> chi^0_3 t)
     7.29396088E-04    2     1000035         6   # BR(~t_1 -> chi^0_4 t)
     4.73872992E-01    2     1000024         5   # BR(~t_1 -> chi^+_1 b)
     1.48325807E-03    2     1000037         5   # BR(~t_1 -> chi^+_2 b)
#    BR                NDA      ID1      ID2       ID3
DECAY   2000006     1.13744689E+02   # ~t_2
#    BR                NDA      ID1      ID2
     1.03153342E-01    2     1000022         6   # BR(~t_2 -> chi^0_1 t)
     3.00830125E-01    2     1000023         6   # BR(~t_2 -> chi^0_2 t)
     1.94719321E-01    2     1000025         6   # BR(~t_2 -> chi^0_3 t)
     6.74374820E-02    2     1000035         6   # BR(~t_2 -> chi^0_4 t)
     1.97130547E-01    2     1000024         5   # BR(~t_2 -> chi^+_1 b)
     1.36676069E-01    2     1000037         5   # BR(~t_2 -> chi^+_2 b)
DECAY   1000024     1.48606514E-04   # chi^+_1
#    BR                NDA      ID1      ID2       ID3
     3.34200004E-01    3     1000022        -1         2   # BR(chi^+_1 -> chi^0_1 d_bar u)
     3.32622139E-01    3     1000022        -3         4   # BR(chi^+_1 -> chi^0_1 s_bar c)
     1.11400308E-01    3     1000022       -11        12   # BR(chi^+_1 -> chi^0_1 e^+ nu_e)
     1.11397748E-01    3     1000022       -13        14   # BR(chi^+_1 -> chi^0_1 mu^+ nu_mu)
     1.10379801E-01    3     1000022       -15        16   # BR(chi^+_1 -> chi^0_1 tau^+ nu_tau)
DECAY   1000037     1.55456500E+01   # chi^+_2
#    BR                NDA      ID1      ID2
     7.33204291E-02    2     1000022        24   # BR(chi^+_2 -> chi^0_1 W^+)
     2.44839452E-01    2     1000023        24   # BR(chi^+_2 -> chi^0_2 W^+)
     1.69175188E-01    2     1000025        24   # BR(chi^+_2 -> chi^0_3 W^+)
     2.42875995E-01    2     1000024        23   # BR(chi^+_2 -> chi^+_1 Z)
     2.41100769E-01    2     1000024        25   # BR(chi^+_2 -> chi^+_1 h^0)
#    BR                NDA      ID1      ID2       ID3
     1.12592820E-02    3     1000024         6        -6   # BR(chi^+_2 -> chi^+_1 t t_bar)
     2.72841984E-03    3     1000022        -5         6   # BR(chi^+_2 -> chi^0_1 b_bar t)
     8.56751397E-03    3     1000023        -5         6   # BR(chi^+_2 -> chi^0_2 b_bar t)
     6.09351786E-03    3     1000025        -5         6   # BR(chi^+_2 -> chi^0_3 b_bar t)
DECAY   1000022     0.00000000E+00   # chi^0_1
DECAY   1000023     1.90612723E-04   # chi^0_2
#    BR                NDA      ID1      ID2
     1.29453938E-02    2     1000022        22   # BR(chi^0_2 -> chi^0_1 photon)
#    BR                NDA      ID1      ID2       ID3
     1.19043485E-01    3     1000022         2        -2   # BR(chi^0_2 -> chi^0_1 u u_bar)
     1.17767661E-01    3     1000022         4        -4   # BR(chi^0_2 -> chi^0_1 c c_bar)
     1.52637061E-01    3     1000022         1        -1   # BR(chi^0_2 -> chi^0_1 d d_bar)
     1.52629215E-01    3     1000022         3        -3   # BR(chi^0_2 -> chi^0_1 s s_bar)
     1.38298933E-01    3     1000022         5        -5   # BR(chi^0_2 -> chi^0_1 b b_bar)
     3.44455500E-02    3     1000022        11       -11   # BR(chi^0_2 -> chi^0_1 e^- e^+)
     3.44427148E-02    3     1000022        13       -13   # BR(chi^0_2 -> chi^0_1 mu^- mu^+)
     3.36560583E-02    3     1000022        15       -15   # BR(chi^0_2 -> chi^0_1 tau^- tau^+)
     2.04120939E-01    3     1000022        12       -12   # BR(chi^0_2 -> chi^0_1 nu_e nu_bar_e)
DECAY   1000025     3.98317701E-05   # chi^0_3
#    BR                NDA      ID1      ID2
     3.06368975E-03    2     1000022        22   # BR(chi^0_3 -> chi^0_1 photon)
     1.83108448E-02    2     1000023        22   # BR(chi^0_3 -> chi^0_2 photon)
#    BR                NDA      ID1      ID2       ID3
     5.32117167E-03    3     1000022         2        -2   # BR(chi^0_3 -> chi^0_1 u u_bar)
     5.30211172E-03    3     1000022         4        -4   # BR(chi^0_3 -> chi^0_1 c c_bar)
     6.81763517E-03    3     1000022         1        -1   # BR(chi^0_3 -> chi^0_1 d d_bar)
     6.81752402E-03    3     1000022         3        -3   # BR(chi^0_3 -> chi^0_1 s s_bar)
     6.70526531E-03    3     1000022         5        -5   # BR(chi^0_3 -> chi^0_1 b b_bar)
     1.53431284E-03    3     1000022        11       -11   # BR(chi^0_3 -> chi^0_1 e^- e^+)
     1.53428807E-03    3     1000022        13       -13   # BR(chi^0_3 -> chi^0_1 mu^- mu^+)
     1.52722530E-03    3     1000022        15       -15   # BR(chi^0_3 -> chi^0_1 tau^- tau^+)
     9.12360579E-03    3     1000022        12       -12   # BR(chi^0_3 -> chi^0_1 nu_e nu_bar_e)
     1.49580821E-02    3     1000023         2        -2   # BR(chi^0_3 -> chi^0_2 u u_bar)
     1.41205357E-02    3     1000023         4        -4   # BR(chi^0_3 -> chi^0_2 c c_bar)
     1.91793016E-02    3     1000023         1        -1   # BR(chi^0_3 -> chi^0_2 d d_bar)
     1.91739459E-02    3     1000023         3        -3   # BR(chi^0_3 -> chi^0_2 s s_bar)
     1.09984678E-02    3     1000023         5        -5   # BR(chi^0_3 -> chi^0_2 b b_bar)
     4.32825369E-03    3     1000023        11       -11   # BR(chi^0_3 -> chi^0_2 e^- e^+)
     4.32634593E-03    3     1000023        13       -13   # BR(chi^0_3 -> chi^0_2 mu^- mu^+)
     3.82587573E-03    3     1000023        15       -15   # BR(chi^0_3 -> chi^0_2 tau^- tau^+)
     2.56481232E-02    3     1000023        12       -12   # BR(chi^0_3 -> chi^0_2 nu_e nu_bar_e)
     1.37287720E-01    3     1000024         1        -2   # BR(chi^0_3 -> chi^+_1 d u_bar)
     1.37287720E-01    3    -1000024        -1         2   # BR(chi^0_3 -> chi^-_1 d_bar u)
     1.35357307E-01    3     1000024         3        -4   # BR(chi^0_3 -> chi^+_1 s c_bar)
     1.35357307E-01    3    -1000024        -3         4   # BR(chi^0_3 -> chi^-_1 s_bar c)
     4.57624743E-02    3     1000024        11       -12   # BR(chi^0_3 -> chi^+_1 e^- nu_bar_e)
     4.57624743E-02    3    -1000024       -11        12   # BR(chi^0_3 -> chi^-_1 e^+ nu_e)
     4.57593951E-02    3     1000024        13       -14   # BR(chi^0_3 -> chi^+_1 mu^- nu_bar_mu)
     4.57593951E-02    3    -1000024       -13        14   # BR(chi^0_3 -> chi^-_1 mu^+ nu_mu)
     4.45248006E-02    3     1000024        15       -16   # BR(chi^0_3 -> chi^+_1 tau^- nu_bar_tau)
     4.45248006E-02    3    -1000024       -15        16   # BR(chi^0_3 -> chi^-_1 tau^+ nu_tau)
DECAY   1000035     1.66946838E+01   # chi^0_4
#    BR                NDA      ID1      ID2
     2.27484048E-01    2     1000024       -24   # BR(chi^0_4 -> chi^+_1 W^-)
     2.27484048E-01    2    -1000024        24   # BR(chi^0_4 -> chi^-_1 W^+)
     2.91027771E-02    2     1000022        23   # BR(chi^0_4 -> chi^0_1 Z)
     1.38089508E-01    2     1000023        23   # BR(chi^0_4 -> chi^0_2 Z)
     5.94698069E-02    2     1000025        23   # BR(chi^0_4 -> chi^0_3 Z)
     3.93763784E-02    2     1000022        25   # BR(chi^0_4 -> chi^0_1 h^0)
     1.53993392E-01    2     1000023        25   # BR(chi^0_4 -> chi^0_2 h^0)
     9.65941094E-02    2     1000025        25   # BR(chi^0_4 -> chi^0_3 h^0)
#    BR                NDA      ID1      ID2       ID3
     1.53376065E-03    3     1000022         6        -6   # BR(chi^0_4 -> chi^0_1 t t_bar)
     5.16617180E-03    3     1000023         6        -6   # BR(chi^0_4 -> chi^0_2 t t_bar)
     3.42316092E-03    3     1000025         6        -6   # BR(chi^0_4 -> chi^0_3 t t_bar)
     9.10572077E-03    3     1000024         5        -6   # BR(chi^0_4 -> chi^+_1 b t_bar)
     9.10572077E-03    3    -1000024        -5         6   # BR(chi^0_4 -> chi^-_1 b_bar t)
DECAY   1000021     5.43765685E+01   # ~g
#    BR                NDA      ID1      ID2
     1.92994066E-01    2     1000006        -6   # BR(~g -> ~t_1 t_bar)
     1.92994066E-01    2    -1000006         6   # BR(~g -> ~t^*_1 t)
     1.33496422E-01    2     2000006        -6   # BR(~g -> ~t_2 t_bar)
     1.33496422E-01    2    -2000006         6   # BR(~g -> ~t^*_2 t)
     1.35443880E-01    2     1000005        -5   # BR(~g -> ~b_1 b_bar)
     1.35443880E-01    2    -1000005         5   # BR(~g -> ~b^*_1 b)
     3.78488989E-02    2     2000005        -5   # BR(~g -> ~b_2 b_bar)
     3.78488989E-02    2    -2000005         5   # BR(~g -> ~b^*_2 b)
     1.33618478E-04    2     1000023        21   # BR(~g -> chi^0_2 g)
#    BR                NDA      ID1      ID2       ID3
DECAY        25     3.00870518E-03   # Gamma(h0)
     2.60093637E-03   2        22        22   # BR(h0 -> photon photon)
     1.26449373E-03   2        22        23   # BR(h0 -> photon Z)
     1.99725850E-02   2        23        23   # BR(h0 -> Z Z)
     1.80448496E-01   2       -24        24   # BR(h0 -> W W)
     8.43138943E-02   2        21        21   # BR(h0 -> gluon gluon)
     5.45708898E-09   2       -11        11   # BR(h0 -> Electron electron)
     2.42738417E-04   2       -13        13   # BR(h0 -> Muon muon)
     6.99837429E-02   2       -15        15   # BR(h0 -> Tau tau)
     1.56378563E-07   2        -2         2   # BR(h0 -> Up up)
     3.03473046E-02   2        -4         4   # BR(h0 -> Charm charm)
     6.35744209E-07   2        -1         1   # BR(h0 -> Down down)
     2.29932953E-04   2        -3         3   # BR(h0 -> Strange strange)
     6.10595078E-01   2        -5         5   # BR(h0 -> Bottom bottom)
DECAY        35     1.06588320E+02   # Gamma(HH)
     1.03155185E-08   2        22        22   # BR(HH -> photon photon)
     2.06245502E-08   2        22        23   # BR(HH -> photon Z)
     8.97189939E-08   2        23        23   # BR(HH -> Z Z)
     1.59787959E-08   2       -24        24   # BR(HH -> W W)
     2.58045244E-06   2        21        21   # BR(HH -> gluon gluon)
     7.28474796E-09   2       -11        11   # BR(HH -> Electron electron)
     3.24397549E-04   2       -13        13   # BR(HH -> Muon muon)
     9.36964081E-02   2       -15        15   # BR(HH -> Tau tau)
     7.40032381E-14   2        -2         2   # BR(HH -> Up up)
     1.43573667E-08   2        -4         4   # BR(HH -> Charm charm)
     1.01535669E-03   2        -6         6   # BR(HH -> Top top)
     5.04018905E-07   2        -1         1   # BR(HH -> Down down)
     1.82302126E-04   2        -3         3   # BR(HH -> Strange strange)
     4.46342430E-01   2        -5         5   # BR(HH -> Bottom bottom)
     1.73407014E-03   2  -1000024   1000024   # BR(HH -> Chargino1 chargino1)
     1.35050485E-01   2  -1000024   1000037   # BR(HH -> Chargino1 chargino2)
     1.35050485E-01   2  -1000037   1000024   # BR(HH -> Chargino2 chargino1)
     1.16305306E-05   2  -1000037   1000037   # BR(HH -> Chargino2 chargino2)
     1.74377185E-02   2   1000022   1000022   # BR(HH -> neutralino1 neutralino1)
     9.87365238E-03   2   1000022   1000023   # BR(HH -> neutralino1 neutralino2)
     1.56292402E-06   2   1000022   1000025   # BR(HH -> neutralino1 neutralino3)
     3.96070309E-02   2   1000022   1000035   # BR(HH -> neutralino1 neutralino4)
     7.62366499E-04   2   1000023   1000023   # BR(HH -> neutralino2 neutralino2)
     1.29230570E-02   2   1000023   1000025   # BR(HH -> neutralino2 neutralino3)
     6.52432761E-02   2   1000023   1000035   # BR(HH -> neutralino2 neutralino4)
     9.99395500E-03   2   1000025   1000025   # BR(HH -> neutralino3 neutralino3)
     3.07401621E-02   2   1000025   1000035   # BR(HH -> neutralino3 neutralino4)
     5.82236120E-06   2   1000035   1000035   # BR(HH -> neutralino4 neutralino4)
     5.88484224E-07   2        25        25   # BR(HH -> h0 h0)
DECAY        36     1.03176933E+02   # Gamma(A0)
     1.08280558E-09   2        22        22   # BR(A0 -> photon photon)
     3.93010078E-09   2        22        23   # BR(A0 -> photon Z)
     6.52379550E-06   2        21        21   # BR(A0 -> gluon gluon)
     7.07935785E-09   2       -11        11   # BR(A0 -> Electron electron)
     3.15246293E-04   2       -13        13   # BR(A0 -> Muon muon)
     9.10532963E-02   2       -15        15   # BR(A0 -> Tau tau)
     6.74673892E-14   2        -2         2   # BR(A0 -> Up up)
     1.30892124E-08   2        -4         4   # BR(A0 -> Charm charm)
     9.28437125E-04   2        -6         6   # BR(A0 -> Top top)
     4.89777193E-07   2        -1         1   # BR(A0 -> Down down)
     1.77153240E-04   2        -3         3   # BR(A0 -> Strange strange)
     4.33736108E-01   2        -5         5   # BR(A0 -> Bottom bottom)
     1.78685684E-03   2  -1000024   1000024   # BR(A0 -> Chargino1 chargino1)
     1.39578554E-01   2  -1000024   1000037   # BR(A0 -> Chargino1 chargino2)
     1.39578554E-01   2  -1000037   1000024   # BR(A0 -> Chargino2 chargino1)
     8.46314098E-06   2  -1000037   1000037   # BR(A0 -> Chargino2 chargino2)
     1.64903630E-02   2   1000022   1000022   # BR(A0 -> neutralino1 neutralino1)
     1.17048983E-02   2   1000022   1000023   # BR(A0 -> neutralino1 neutralino2)
     5.92473029E-12   2   1000022   1000025   # BR(A0 -> neutralino1 neutralino3)
     3.99618179E-02   2   1000022   1000035   # BR(A0 -> neutralino1 neutralino4)
     8.91600460E-04   2   1000023   1000023   # BR(A0 -> neutralino2 neutralino2)
     1.43949529E-02   2   1000023   1000025   # BR(A0 -> neutralino2 neutralino3)
     6.96942821E-02   2   1000023   1000035   # BR(A0 -> neutralino2 neutralino4)
     9.21013287E-03   2   1000025   1000025   # BR(A0 -> neutralino3 neutralino3)
     3.04777656E-02   2   1000025   1000035   # BR(A0 -> neutralino3 neutralino4)
     4.24513463E-06   2   1000035   1000035   # BR(A0 -> neutralino4 neutralino4)
     2.34293922E-07   2        23        25   # BR(A0 -> Z h0)
     2.71059894E-14   2        23        35   # BR(A0 -> Z HH)
     7.01522626E-41   2        25        25   # BR(A0 -> h0 h0)
DECAY        37     1.18650119E+02   # Gamma(Hp)
     8.28451830E-09   2       -11        12   # BR(Hp -> Electron nu_e)
     3.54189033E-04   2       -13        14   # BR(Hp -> Muon nu_mu)
     1.00184840E-01   2       -15        16   # BR(Hp -> Tau nu_tau)
     4.96547784E-07   2        -1         2   # BR(Hp -> Down up)
     8.42218958E-06   2        -3         2   # BR(Hp -> Strange up)
     5.14933358E-06   2        -5         2   # BR(Hp -> Bottom up)
     2.39928186E-08   2        -1         4   # BR(Hp -> Down charm)
     1.78962707E-04   2        -3         4   # BR(Hp -> Strange charm)
     7.21091110E-04   2        -5         4   # BR(Hp -> Bottom charm)
     7.59298951E-08   2        -1         6   # BR(Hp -> Down top)
     1.92280962E-06   2        -3         6   # BR(Hp -> Strange top)
     4.86866038E-01   2        -5         6   # BR(Hp -> Bottom top)
     2.05369994E-02   2   1000022   1000024   # BR(Hp -> neutralino1 chargino1)
     7.04619018E-02   2   1000022   1000037   # BR(Hp -> neutralino1 chargino2)
     1.15926119E-06   2   1000023   1000024   # BR(Hp -> neutralino2 chargino1)
     1.19206623E-01   2   1000023   1000037   # BR(Hp -> neutralino2 chargino2)
     2.57619385E-02   2   1000024   1000025   # BR(Hp -> chargino1 neutralino3)
     5.42396622E-02   2   1000025   1000037   # BR(Hp -> neutralino3 chargino2)
     1.21470293E-01   2   1000024   1000035   # BR(Hp -> chargino1 neutralino4)
     5.66453837E-12   2   1000035   1000037   # BR(Hp -> neutralino4 chargino2)
     2.03732814E-07   2        24        25   # BR(Hp -> W h0)
DECAY         6     2.43000000E+00   # top
#    BR                NDA      ID1      ID2
     1.00000000E+00    2           5        24   # BR(t -> b W)
Block HiggsBoundsInputHiggsCouplingsFermions
# ScalarNormEffCoupSq PseudoSNormEffCoupSq NP IP1 IP2 IP2
    9.40277960E-01    0.00000000E+00        3  25   5   5  # h0-b-b eff. coupling^2, normalised to SM
    1.19686247E+03    0.00000000E+00        3  35   5   5  # H0-b-b eff. coupling^2, normalised to SM
    0.00000000E+00    1.19680275E+03        3  36   5   5  # A0-b-b eff. coupling^2, normalised to SM
#
    1.00004990E+00    0.00000000E+00        3  25   6   6  # h0-t-t eff. coupling^2, normalised to SM
    7.85658257E-04    0.00000000E+00        3  35   6   6  # H0-t-t eff. coupling^2, normalised to SM
    0.00000000E+00    8.35559579E-04        3  36   6   6  # A0-t-t eff. coupling^2, normalised to SM
#
    9.40277960E-01    0.00000000E+00        3  25  15  15  # h0-tau-tau eff. coupling^2, normalised to SM
    1.19686247E+03    0.00000000E+00        3  35  15  15  # H0-tau-tau eff. coupling^2, normalised to SM
    0.00000000E+00    1.19680275E+03        3  36  15  15  # A0-tau-tau eff. coupling^2, normalised to SM
#
Block HiggsBoundsInputHiggsCouplingsBosons
    9.99999232E-01        3  25  24  24  # h0-W-W eff. coupling^2, normalised to SM
    7.68147543E-07        3  35  24  24  # H0-W-W eff. coupling^2, normalised to SM
    0.00000000E+00        3  36  24  24  # A0-W-W eff. coupling^2, normalised to SM
#
    9.99999232E-01        3  25  23  23  # h0-Z-Z eff. coupling^2, normalised to SM
    7.68147543E-07        3  35  23  23  # H0-Z-Z eff. coupling^2, normalised to SM
    0.00000000E+00        3  36  23  23  # A0-Z-Z eff. coupling^2, normalised to SM
#
    1.26764006E+00        3  25  21  21  # h0-g-g eff. coupling^2, normalised to SM
    3.43043118E-03        3  35  21  21  # H0-g-g eff. coupling^2, normalised to SM
    1.04972538E-01        3  36  21  21  # A0-g-g eff. coupling^2, normalised to SM
#
    0.00000000E+00        3  25  25  23  # h0-h0-Z eff. coupling^2, normalised to SM
    0.00000000E+00        3  35  25  23  # H0-h0-Z eff. coupling^2, normalised to SM
    7.68147543E-07        3  36  25  23  # A0-h0-Z eff. coupling^2, normalised to SM
    0.00000000E+00        3  35  35  23  # H0-H0-Z eff. coupling^2, normalised to SM
    9.99999232E-01        3  36  35  23  # A0-H0-Z eff. coupling^2, normalised to SM
    0.00000000E+00        3  36  36  23  # A0-A0-Z eff. coupling^2, normalised to SM
#
    0.00000000E+00        4  25  21  21  23  # h0-g-g-Z eff. coupling^2, normalised to SM
    0.00000000E+00        4  35  21  21  23  # H0-g-g-Z eff. coupling^2, normalised to SM
    0.00000000E+00        4  36  21  21  23  # A0-g-g-Z eff. coupling^2, normalised to SM
Block SPhenoLowEnergy  # low energy observables
    1    3.19715316E-04   # BR(b -> s gamma)
    2    1.58984631E-06   # BR(b -> s mu+ mu-)
    3    3.52402556E-05   # BR(b -> s nu nu)
    4    2.60813100E-15   # BR(Bd -> e+ e-)
    5    1.11416318E-10   # BR(Bd -> mu+ mu-)
    6    2.33194154E-08   # BR(Bd -> tau+ tau-)
    7    8.75192046E-14   # BR(Bs -> e+ e-)
    8    3.73881549E-09   # BR(Bs -> mu+ mu-)
    9    7.92908706E-07   # BR(Bs -> tau+ tau-)
   10    9.64728465E-05   # BR(B_u -> tau nu)
   11    9.96527570E-01   # BR(B_u -> tau nu)/BR(B_u -> tau nu)_SM
   12    5.42137210E-01   # |Delta(M_Bd)| [ps^-1] 
   13    1.93691539E+01   # |Delta(M_Bs)| [ps^-1] 
   14    0.00000000E+00   # neutron EDM according to the chiral quark model
   15    0.00000000E+00   # neutron EDM according to the relativistic quark-parton model
   16    2.15799011E-03   # epsilon_K
   17    2.28166527E-15   # Delta(M_K)
   18    2.47917292E-11   # BR(K^0 -> pi^0 nu nu)
   19    8.28850799E-11   # BR(K^+ -> pi^+ nu nu)
   20   -4.04703392E-16   # Delta(g-2)_electron/2
   21   -1.73024554E-11   # Delta(g-2)_muon/2
   22   -4.90371315E-09   # Delta(g-2)_tau/2
   23    0.00000000E+00   # electric dipole moment of the electron
   24    0.00000000E+00   # electric dipole moment of the muon
   25    0.00000000E+00   # electric dipole moment of the tau
   26    0.00000000E+00   # Br(mu -> e gamma)
   27    0.00000000E+00   # Br(tau -> e gamma)
   28    0.00000000E+00   # Br(tau -> mu gamma)
   29    0.00000000E+00   # Br(mu -> 3 e)
   30    0.00000000E+00   # Br(tau -> 3 e)
   31    0.00000000E+00   # Br(tau -> 3 mu)
   39    6.73301211E-05   # Delta(rho_parameter)
   40    0.00000000E+00   # BR(Z -> e mu)
   41    0.00000000E+00   # BR(Z -> e tau)
   42    0.00000000E+00   # BR(Z -> mu tau)
Block FWCOEF Q=  1.60000000E+02  # Wilson coefficients at scale Q
#    id        order  M        value         comment
     0305 4422   00   0    -1.88819110E-01   # C7
     0305 4422   00   2    -1.87602647E-01   # C7
     0305 4322   00   2    -4.84493576E-05   # C7'
     0305 6421   00   0    -9.52278348E-02   # C8
     0305 6421   00   2    -9.78737161E-02   # C8
     0305 6321   00   2    -8.43641848E-05   # C8'
 03051111 4133   00   0     1.61974490E+00   # C9 e+e-
 03051111 4133   00   2     1.62023178E+00   # C9 e+e-
 03051111 4233   00   2     2.74079740E-04   # C9' e+e-
 03051111 4137   00   0    -4.44243700E+00   # C10 e+e-
 03051111 4137   00   2    -4.43962761E+00   # C10 e+e-
 03051111 4237   00   2    -2.04793007E-03   # C10' e+e-
 03051313 4133   00   0     1.61974490E+00   # C9 mu+mu-
 03051313 4133   00   2     1.62023169E+00   # C9 mu+mu-
 03051313 4233   00   2     2.74079633E-04   # C9' mu+mu-
 03051313 4137   00   0    -4.44243700E+00   # C10 mu+mu-
 03051313 4137   00   2    -4.43962770E+00   # C10 mu+mu-
 03051313 4237   00   2    -2.04793024E-03   # C10' mu+mu-
 03051212 4137   00   0     1.50535012E+00   # C11 nu_1 nu_1
 03051212 4137   00   2     1.50474266E+00   # C11 nu_1 nu_1
 03051212 4237   00   2     4.43531076E-04   # C11' nu_1 nu_1
 03051414 4137   00   0     1.50535012E+00   # C11 nu_2 nu_2
 03051414 4137   00   2     1.50474266E+00   # C11 nu_2 nu_2
 03051414 4237   00   2     4.43531084E-04   # C11' nu_2 nu_2
 03051616 4137   00   0     1.50535012E+00   # C11 nu_3 nu_3
 03051616 4137   00   2     1.50474266E+00   # C11 nu_3 nu_3
 03051616 4237   00   2     4.43533403E-04   # C11' nu_3 nu_3
Block IMFWCOEF Q=  1.60000000E+02  # Im(Wilson coefficients) at scale Q
#    id        order  M        value         comment
     0305 4422   00   0     3.85820434E-07   # C7
     0305 4422   00   2    -6.27701526E-06   # C7
     0305 4322   00   2     2.70761159E-07   # C7'
     0305 6421   00   0     3.30480718E-07   # C8
     0305 6421   00   2    -6.02830003E-06   # C8
     0305 6321   00   2    -7.76429983E-11   # C8'
 03051111 4133   00   2     1.44022214E-07   # C9 e+e-
 03051111 4233   00   2     5.17285041E-06   # C9' e+e-
 03051111 4137   00   2     6.28357392E-07   # C10 e+e-
 03051111 4237   00   2    -3.86535837E-05   # C10' e+e-
 03051313 4133   00   2     1.44020568E-07   # C9 mu+mu-
 03051313 4233   00   2     5.17284919E-06   # C9' mu+mu-
 03051313 4137   00   2     6.28359239E-07   # C10 mu+mu-
 03051313 4237   00   2    -3.86535873E-05   # C10' mu+mu-
 03051212 4137   00   2    -1.18627916E-07   # C11 nu_1 nu_1
 03051212 4237   00   2     8.37141235E-06   # C11' nu_1 nu_1
 03051414 4137   00   2    -1.18627849E-07   # C11 nu_2 nu_2
 03051414 4237   00   2     8.37141235E-06   # C11' nu_2 nu_2
 03051616 4137   00   2    -1.18608906E-07   # C11 nu_3 nu_3
 03051616 4237   00   2     8.37141233E-06   # C11' nu_3 nu_3
