######################################################################  
## PARAM_CARD AUTOMATICALY GENERATED BY MG5 FOLLOWING UFO MODEL   ####  
######################################################################  
##                                                                  ##  
##  Width set on Auto will be computed following the information    ##  
##        present in the decay.py files of the model.               ##  
##        See  arXiv:1402.1178 for more details.                    ##  
##                                                                  ##  
######################################################################  
                                                                        
###################################                                     
## INFORMATION FOR LOOP                                                 
###################################                                     
Block loop                                                              
    1 9.118800e+01 # MU_R                                               
                                                                        
###################################                                     
## INFORMATION FOR MASS                                                 
###################################                                     
Block mass                                                              
    6 1.730000e+02 # MT                                                 
   15 1.777000e+00 # MTA                                                
   23 9.118800e+01 # MZ                                                 
   25 1.250000e+02 # MH                                                 
## Dependent parameters, given by model restrictions.                   
## Those values should be edited following the                          
## analytical expression. MG5 ignores those values                      
## but they are important for interfacing the output of MG5             
## to external program such as Pythia.                                  
  1 0.000000 # d : 0.0                                                  
  2 0.000000 # u : 0.0                                                  
  3 0.000000 # s : 0.0                                                  
  4 0.000000 # c : 0.0                                                  
  5 0.000000 # b : 0.0                                                  
  11 0.000000 # e- : 0.0                                                
  12 0.000000 # ve : 0.0                                                
  13 0.000000 # mu- : 0.0                                               
  14 0.000000 # vm : 0.0                                                
  16 0.000000 # vt : 0.0                                                
  21 0.000000 # g : 0.0                                                 
  22 0.000000 # a : 0.0                                                 
  24 80.419002 # w+ : cmath.sqrt(MZ__exp__2/2. + cmath.sqrt(MZ__exp__4/4
                                                                        
###################################                                     
## INFORMATION FOR SMINPUTS                                             
###################################                                     
Block sminputs                                                          
    1 1.325070e+02 # aEWM1                                              
    2 1.166390e-05 # Gf                                                 
    3 1.180000e-01 # aS                                                 
                                                                        
###################################                                     
## INFORMATION FOR YUKAWA                                               
###################################                                     
Block yukawa                                                            
    6 1.730000e+02 # ymt                                                
   15 1.777000e+00 # ymtau                                              
                                                                        
###################################                                     
## INFORMATION FOR DECAY                                                
###################################                                     
DECAY   6 1.491500e+00 # WT                                             
DECAY  23 2.441404e+00 # WZ                                             
DECAY  24 2.047600e+00 # WW                                             
DECAY  25 6.382339e-03 # WH                                             
## Dependent parameters, given by model restrictions.                   
## Those values should be edited following the                          
## analytical expression. MG5 ignores those values                      
## but they are important for interfacing the output of MG5             
## to external program such as Pythia.                                  
DECAY  1 0.000000 # d : 0.0                                             
DECAY  2 0.000000 # u : 0.0                                             
DECAY  3 0.000000 # s : 0.0                                             
DECAY  4 0.000000 # c : 0.0                                             
DECAY  5 0.000000 # b : 0.0                                             
DECAY  11 0.000000 # e- : 0.0                                           
DECAY  12 0.000000 # ve : 0.0                                           
DECAY  13 0.000000 # mu- : 0.0                                          
DECAY  14 0.000000 # vm : 0.0                                           
DECAY  15 0.000000 # ta- : 0.0                                          
DECAY  16 0.000000 # vt : 0.0                                           
DECAY  21 0.000000 # g : 0.0                                            
DECAY  22 0.000000 # a : 0.0                                            
