# SUSY Les Houches Accord 2 - MSSM spectrum + Decays
# SPheno v4.0.5be
# W. Porod, Comput. Phys. Commun. 153 (2003) 275-315, hep-ph/0301101;
# W. Porod, F.~Staub, Comput. Phys. Commun. 183 (2012) 2458
#                     arXiv:1104.1573 [hep-ph] 
# in case of problems send email to porod@physik.uni-wuerzburg.de
# Created: 07.09.2021,  18:28
Block SPINFO         # Program information
     1   SPheno      # spectrum calculator
     2   v4.0.5be    # version number
#
Block SPhenoINFO     # SPheno specific information
    1      2         # using 2-loop RGEs
    2      2         # using pole masses for boundary conditions at mZ
Block MODSEL  # Model selection
    1    0    # general MSSM
Block MINPAR  # Input parameters
    3    4.92012004E+01  # tanb at m_Z    
    4    1.00000000E+00  # Sign(mu)
Block EXTPAR  # non-universal input parameters
    0    3.49663113E+03  # scale for input parameters
    1    1.88251010E+02  # M_1
    2    9.19151751E+02  # M_2
    3    2.79253217E+03  # M_3
   11    7.76518405E+03  # A_t
   12   -1.82400868E+03  # A_b
   13    1.77256328E+03  # A_tau
   23    2.12419674E+02  # mu
   25    4.82891587E+01  # tan(beta)
   26    4.26155244E+03  # m_A, pole mass
   31    1.00000000E+04  # M_L11
   32    1.00000000E+04  # M_L22
   33    1.00000000E+04  # M_L33
   34    1.00000000E+04  # M_E11
   35    1.00000000E+04  # M_E22
   36    1.00000000E+04  # M_E33
   41    1.00000000E+04  # M_Q11
   42    1.00000000E+04  # M_Q22
   43    3.49695258E+03  # M_Q33
   44    1.00000000E+04  # M_U11
   45    1.00000000E+04  # M_U22
   46    3.62793788E+03  # M_U33
   47    1.00000000E+04  # M_D11
   48    1.00000000E+04  # M_D22
   49    4.39944046E+03  # M_D33
Block SMINPUTS  # SM parameters
         1     1.27908970E+02  # alpha_em^-1(MZ)^MSbar
         2     1.16637870E-05  # G_mu [GeV^-2]
         3     1.18400000E-01  # alpha_s(MZ)^MSbar
         4     9.11876000E+01  # m_Z(pole)
         5     4.18000000E+00  # m_b(m_b), MSbar
         6     1.73200000E+02  # m_t(pole)
         7     1.77700000E+00  # m_tau(pole)
         8     0.00000000E+00  # m_nu_3
        11     5.10998930E-04  # m_e(pole)
        12     0.00000000E+00  # m_nu_1
        13     1.05658372E-01  # m_muon(pole)
        14     0.00000000E+00  # m_nu_2
        21     5.00000000E-03  # m_d(2 GeV), MSbar
        22     2.50000000E-03  # m_u(2 GeV), MSbar
        23     9.50000000E-02  # m_s(2 GeV), MSbar
        24     1.27000000E+00  # m_c(m_c), MSbar
Block gauge Q=  3.49663113E+03  # (SUSY scale)
   1    3.55362975E-01  # g'(Q)^DRbar
   2    6.65198874E-01  # g(Q)^DRbar
   3    1.21977796E+00  # g3(Q)^DRbar
Block Yu Q=  3.49663113E+03  # (SUSY scale)
  1  1     8.38616974E-06   # Y_u(Q)^DRbar
  2  2     4.26017423E-03   # Y_c(Q)^DRbar
  3  3     1.01311666E+00   # Y_t(Q)^DRbar
Block Yd Q=  3.49663113E+03  # (SUSY scale)
  1  1     8.13754747E-04   # Y_d(Q)^DRbar
  2  2     1.54613402E-02   # Y_s(Q)^DRbar
  3  3     8.06989715E-01   # Y_b(Q)^DRbar
Block Ye Q=  3.49663113E+03  # (SUSY scale)
  1  1     1.42006154E-04   # Y_e(Q)^DRbar
  2  2     2.93623688E-02   # Y_mu(Q)^DRbar
  3  3     4.93826740E-01   # Y_tau(Q)^DRbar
Block Au Q=  3.49663113E+03  # (SUSY scale)
  1  1     0.00000000E+00   # A_u(Q)^DRbar
  2  2     0.00000000E+00   # A_c(Q)^DRbar
  3  3     7.76518413E+03   # A_t(Q)^DRbar
Block Ad Q=  3.49663113E+03  # (SUSY scale)
  1  1     0.00000000E+00   # A_d(Q)^DRbar
  2  2     0.00000000E+00   # A_s(Q)^DRbar
  3  3    -1.82400867E+03   # A_b(Q)^DRbar
Block Ae Q=  3.49663113E+03  # (SUSY scale)
  1  1     0.00000000E+00   # A_e(Q)^DRbar
  2  2     0.00000000E+00   # A_mu(Q)^DRbar
  3  3     1.77256329E+03   # A_tau(Q)^DRbar
Block MSOFT Q=  3.49663113E+03  # soft SUSY breaking masses at Q
   1    1.88251010E+02  # M_1
   2    9.19151751E+02  # M_2
   3    2.79253217E+03  # M_3
  21    1.81366913E+07  # M^2_(H,d)
  22    1.98325479E+05  # M^2_(H,u)
  31    1.00000000E+04  # M_(L,11)
  32    1.00000000E+04  # M_(L,22)
  33    1.00000000E+04  # M_(L,33)
  34    1.00000000E+04  # M_(E,11)
  35    1.00000000E+04  # M_(E,22)
  36    1.00000000E+04  # M_(E,33)
  41    1.00000000E+04  # M_(Q,11)
  42    1.00000000E+04  # M_(Q,22)
  43    3.49695258E+03  # M_(Q,33)
  44    1.00000000E+04  # M_(U,11)
  45    1.00000000E+04  # M_(U,22)
  46    3.62793788E+03  # M_(U,33)
  47    1.00000000E+04  # M_(D,11)
  48    1.00000000E+04  # M_(D,22)
  49    4.39944046E+03  # M_(D,33)
Block MASS  # Mass spectrum
#   PDG code      mass          particle
         6     1.73200000E+02  # m_t(pole)
        23     9.11876000E+01  # m_Z(pole)
        24     8.04299946E+01  # W+
        15     1.77700000E+00  # m_tau(pole)
        25     1.30047630E+02  # h0
        35     4.26009715E+03  # H0
        36     4.26155244E+03  # A0
        37     4.26087575E+03  # H+
   1000001     1.01094185E+04  # ~d_L
   2000001     1.00848454E+04  # ~d_R
   1000002     1.01090610E+04  # ~u_L
   2000002     1.00877906E+04  # ~u_R
   1000003     1.01094244E+04  # ~s_L
   2000003     1.00848561E+04  # ~s_R
   1000004     1.01090669E+04  # ~c_L
   2000004     1.00877915E+04  # ~c_R
   1000005     3.48768890E+03  # ~b_1
   2000005     4.44524708E+03  # ~b_2
   1000006     3.36255439E+03  # ~t_1
   2000006     3.63605398E+03  # ~t_2
   1000011     1.00209441E+04  # ~e_L-
   2000011     1.00091207E+04  # ~e_R-
   1000012     1.00201836E+04  # ~nu_eL
   1000013     1.00209731E+04  # ~mu_L-
   2000013     1.00091765E+04  # ~mu_R-
   1000014     1.00202123E+04  # ~nu_muL
   1000015     1.00253718E+04  # ~tau_1-
   2000015     1.00294910E+04  # ~tau_2-
   1000016     1.00285926E+04  # ~nu_tauL
   1000021     3.25615644E+03  # ~g
   1000022     1.72310306E+02  # ~chi_10
   1000023     2.32222423E+02  # ~chi_20
   1000025     2.43019544E+02  # ~chi_30
   1000035     9.98198444E+02  # ~chi_40
   1000024     2.25944188E+02  # ~chi_1+
   1000037     9.97834702E+02  # ~chi_2+
# Higgs mixing
Block alpha # Effective Higgs mixing angle
          -2.03520362E-02   # alpha
Block Hmix Q=  3.49663113E+03  # Higgs mixing parameters
   1    2.12419674E+02  # mu
   2    4.82891587E+01  # tan[beta](Q)
   3    2.43027058E+02  # v(Q)
   4    1.81608292E+07  # m^2_A(Q)
Block stopmix # stop mixing matrix
   1  1    -7.55722236E-01   # Re[R_st(1,1)]
   1  2     6.54892282E-01   # Re[R_st(1,2)]
   2  1    -6.54892282E-01   # Re[R_st(2,1)]
   2  2    -7.55722236E-01   # Re[R_st(2,2)]
Block sbotmix # sbottom mixing matrix
   1  1     9.99996072E-01   # Re[R_sb(1,1)]
   1  2     2.80270307E-03   # Re[R_sb(1,2)]
   2  1    -2.80270307E-03   # Re[R_sb(2,1)]
   2  2     9.99996072E-01   # Re[R_sb(2,2)]
Block staumix # stau mixing matrix
   1  1     1.85674496E-01   # Re[R_sta(1,1)]
   1  2     9.82611308E-01   # Re[R_sta(1,2)]
   2  1    -9.82611308E-01   # Re[R_sta(2,1)]
   2  2     1.85674496E-01   # Re[R_sta(2,2)]
Block Nmix # neutralino mixing matrix
   1  1     8.47659323E-01   # Re[N(1,1)]
   1  2    -3.22573590E-02   # Re[N(1,2)]
   1  3     4.20340002E-01   # Re[N(1,3)]
   1  4    -3.22098460E-01   # Re[N(1,4)]
   2  1     7.34274551E-02   # Re[N(2,1)]
   2  2    -4.61204887E-02   # Re[N(2,2)]
   2  3    -6.97033777E-01   # Re[N(2,3)]
   2  4    -7.11776104E-01   # Re[N(2,4)]
   3  1    -5.25412693E-01   # Re[N(3,1)]
   3  2    -6.76937326E-02   # Re[N(3,2)]
   3  3     5.80539340E-01   # Re[N(3,3)]
   3  4    -6.18330926E-01   # Re[N(3,4)]
   4  1     4.85623988E-03   # Re[N(4,1)]
   4  2    -9.96117424E-01   # Re[N(4,2)]
   4  3    -2.07911179E-02   # Re[N(4,3)]
   4  4     8.54062320E-02   # Re[N(4,4)]
Block Umix # chargino mixing matrix
   1  1    -2.94065152E-02   # Re[U(1,1)]
   1  2     9.99567535E-01   # Re[U(1,2)]
   2  1     9.99567535E-01   # Re[U(2,1)]
   2  2     2.94065152E-02   # Re[U(2,2)]
Block Vmix # chargino mixing matrix
   1  1    -1.20816852E-01   # Re[V(1,1)]
   1  2     9.92674815E-01   # Re[V(1,2)]
   2  1     9.92674815E-01   # Re[V(2,1)]
   2  2     1.20816852E-01   # Re[V(2,2)]
DECAY        23     2.49520000E+00   # Z
DECAY        24     2.08500000E+00   # W
DECAY   2000011     5.02540879E+01   # ~e^-_R
#    BR                NDA      ID1      ID2
     7.18644757E-01    2     1000022        11   # BR(~e^-_R -> chi^0_1 e^-)
     5.38990891E-03    2     1000023        11   # BR(~e^-_R -> chi^0_2 e^-)
     2.75942121E-01    2     1000025        11   # BR(~e^-_R -> chi^0_3 e^-)
DECAY   1000011     1.42300350E+02   # ~e^-_L
#    BR                NDA      ID1      ID2
     5.47956078E-02    2     1000022        11   # BR(~e^-_L -> chi^0_1 e^-)
     3.75752169E-02    2     1000025        11   # BR(~e^-_L -> chi^0_3 e^-)
     2.99916434E-01    2     1000035        11   # BR(~e^-_L -> chi^0_4 e^-)
     5.35526874E-04    2    -1000024        12   # BR(~e^-_L -> chi^-_1 nu_e)
     6.07162485E-01    2    -1000037        12   # BR(~e^-_L -> chi^-_2 nu_e)
#    BR                NDA      ID1      ID2       ID3
DECAY   2000013     5.05973585E+01   # ~mu^-_R
#    BR                NDA      ID1      ID2
     7.14372306E-01    2     1000022        13   # BR(~mu^-_R -> chi^0_1 mu^-)
     7.00006766E-03    2     1000023        13   # BR(~mu^-_R -> chi^0_2 mu^-)
     2.75213732E-01    2     1000025        13   # BR(~mu^-_R -> chi^0_3 mu^-)
     3.38660379E-03    2    -1000024        14   # BR(~mu^-_R -> chi^-_1 nu_mu)
DECAY   1000013     1.42472474E+02   # ~mu^-_L
#    BR                NDA      ID1      ID2
     5.49425916E-02    2     1000022        13   # BR(~mu^-_L -> chi^0_1 mu^-)
     6.00205515E-04    2     1000023        13   # BR(~mu^-_L -> chi^0_2 mu^-)
     3.79360266E-02    2     1000025        13   # BR(~mu^-_L -> chi^0_3 mu^-)
     2.99555512E-01    2     1000035        13   # BR(~mu^-_L -> chi^0_4 mu^-)
     5.34881442E-04    2    -1000024        14   # BR(~mu^-_L -> chi^-_1 nu_mu)
     6.06430783E-01    2    -1000037        14   # BR(~mu^-_L -> chi^-_2 nu_mu)
#    BR                NDA      ID1      ID2       ID3
DECAY   1000015     1.49031643E+02   # ~tau^-_1
#    BR                NDA      ID1      ID2
     3.16904160E-01    2     1000022        15   # BR(~tau^-_1 -> chi^0_1 tau^-)
     1.53412784E-01    2     1000023        15   # BR(~tau^-_1 -> chi^0_2 tau^-)
     1.87080575E-01    2     1000025        15   # BR(~tau^-_1 -> chi^0_3 tau^-)
     7.71416051E-03    2     1000035        15   # BR(~tau^-_1 -> chi^0_4 tau^-)
     3.19247728E-01    2    -1000024        16   # BR(~tau^-_1 -> chi^-_1 nu_tau)
     1.56405928E-02    2    -1000037        16   # BR(~tau^-_1 -> chi^-_2 nu_tau)
DECAY   2000015     1.89514708E+02   # ~tau^-_2
#    BR                NDA      ID1      ID2
     7.34960185E-02    2     1000022        15   # BR(~tau^-_2 -> chi^0_1 tau^-)
     1.29974622E-01    2     1000023        15   # BR(~tau^-_2 -> chi^0_2 tau^-)
     1.27243661E-01    2     1000025        15   # BR(~tau^-_2 -> chi^0_3 tau^-)
     2.19552324E-01    2     1000035        15   # BR(~tau^-_2 -> chi^0_4 tau^-)
     5.51780364E-03    2    -1000024        16   # BR(~tau^-_2 -> chi^-_1 nu_tau)
     4.44215570E-01    2    -1000037        16   # BR(~tau^-_2 -> chi^-_2 nu_tau)
#    BR                NDA      ID1      ID2       ID3
DECAY   1000012     1.42304901E+02   # ~nu_e
#    BR                NDA      ID1      ID2
     7.28877837E-02    2     1000022        12   # BR(~nu_e -> chi^0_1 nu_e)
     2.25511328E-03    2     1000023        12   # BR(~nu_e -> chi^0_2 nu_e)
     1.40435486E-02    2     1000025        12   # BR(~nu_e -> chi^0_3 nu_e)
     3.03023587E-01    2     1000035        12   # BR(~nu_e -> chi^0_4 nu_e)
     9.03865092E-03    2     1000024        11   # BR(~nu_e -> chi^+_1 e^-)
     5.98751317E-01    2     1000037        11   # BR(~nu_e -> chi^+_2 e^-)
#    BR                NDA      ID1      ID2       ID3
DECAY   1000014     1.42477008E+02   # ~nu_mu
#    BR                NDA      ID1      ID2
     7.27999469E-02    2     1000022        14   # BR(~nu_mu -> chi^0_1 nu_mu)
     2.25239566E-03    2     1000023        14   # BR(~nu_mu -> chi^0_2 nu_mu)
     1.40266248E-02    2     1000025        14   # BR(~nu_mu -> chi^0_3 nu_mu)
     3.02658448E-01    2     1000035        14   # BR(~nu_mu -> chi^0_4 nu_mu)
     1.02317286E-02    2     1000024        13   # BR(~nu_mu -> chi^+_1 mu^-)
     5.98030856E-01    2     1000037        13   # BR(~nu_mu -> chi^+_2 mu^-)
#    BR                NDA      ID1      ID2       ID3
DECAY   1000016     1.91032571E+02   # ~nu_tau
#    BR                NDA      ID1      ID2
     5.43415377E-02    2     1000022        16   # BR(~nu_tau -> chi^0_1 nu_tau)
     1.68130263E-03    2     1000023        16   # BR(~nu_tau -> chi^0_2 nu_tau)
     1.04701876E-02    2     1000025        16   # BR(~nu_tau -> chi^0_3 nu_tau)
     2.25926813E-01    2     1000035        16   # BR(~nu_tau -> chi^0_4 nu_tau)
     2.60949580E-01    2     1000024        15   # BR(~nu_tau -> chi^+_1 tau^-)
     4.46630580E-01    2     1000037        15   # BR(~nu_tau -> chi^+_2 tau^-)
#    BR                NDA      ID1      ID2       ID3
DECAY   2000001     6.44337160E+02   # ~d_R
#    BR                NDA      ID1      ID2
     6.27494104E-03    2     1000022         1   # BR(~d_R -> chi^0_1 d)
     2.40950127E-03    2     1000025         1   # BR(~d_R -> chi^0_3 d)
     9.91267987E-01    2     1000021         1   # BR(~d_R -> ~g d)
DECAY   1000001     7.73309205E+02   # ~d_L
#    BR                NDA      ID1      ID2
     1.93017233E-03    2     1000022         1   # BR(~d_L -> chi^0_1 d)
     2.01503359E-04    2     1000023         1   # BR(~d_L -> chi^0_2 d)
     5.60842759E-02    2     1000035         1   # BR(~d_L -> chi^0_4 d)
     1.12752668E-01    2    -1000037         2   # BR(~d_L -> chi^-_2 u)
     8.28893446E-01    2     1000021         1   # BR(~d_L -> ~g d)
DECAY   2000003     6.44433719E+02   # ~s_R
#    BR                NDA      ID1      ID2
     6.28711271E-03    2     1000022         3   # BR(~s_R -> chi^0_1 s)
     2.43412780E-03    2     1000025         3   # BR(~s_R -> chi^0_3 s)
     9.91121001E-01    2     1000021         3   # BR(~s_R -> ~g s)
DECAY   1000003     7.73361375E+02   # ~s_L
#    BR                NDA      ID1      ID2
     1.94099047E-03    2     1000022         3   # BR(~s_L -> chi^0_1 s)
     2.31579400E-04    2     1000023         3   # BR(~s_L -> chi^0_2 s)
     5.60805531E-02    2     1000035         3   # BR(~s_L -> chi^0_4 s)
     1.04056085E-04    2    -1000024         4   # BR(~s_L -> chi^-_1 c)
     1.12745198E-01    2    -1000037         4   # BR(~s_L -> chi^-_2 c)
     8.28838237E-01    2     1000021         3   # BR(~s_L -> ~g s)
DECAY   1000005     1.61493985E+02   # ~b_1
#    BR                NDA      ID1      ID2
     5.25527484E-02    2     1000022         5   # BR(~b_1 -> chi^0_1 b)
     1.35017697E-01    2     1000023         5   # BR(~b_1 -> chi^0_2 b)
     9.33378880E-02    2     1000025         5   # BR(~b_1 -> chi^0_3 b)
     7.97284765E-02    2     1000035         5   # BR(~b_1 -> chi^0_4 b)
     4.28848513E-01    2    -1000024         6   # BR(~b_1 -> chi^-_1 t)
     1.66370321E-01    2    -1000037         6   # BR(~b_1 -> chi^-_2 t)
     2.80861894E-02    2     1000021         5   # BR(~b_1 -> ~g b)
     1.60581664E-02    2     1000006       -24   # BR(~b_1 -> ~t_1 W^-)
DECAY   2000005     1.92313267E+02   # ~b_2
#    BR                NDA      ID1      ID2
     6.17952835E-02    2     1000022         5   # BR(~b_2 -> chi^0_1 b)
     1.44833615E-01    2     1000023         5   # BR(~b_2 -> chi^0_2 b)
     1.03991939E-01    2     1000025         5   # BR(~b_2 -> chi^0_3 b)
     1.36041372E-04    2     1000035         5   # BR(~b_2 -> chi^0_4 b)
     2.96726608E-01    2    -1000024         6   # BR(~b_2 -> chi^-_1 t)
     2.70906712E-04    2    -1000037         6   # BR(~b_2 -> chi^-_2 t)
     3.91851815E-01    2     1000021         5   # BR(~b_2 -> ~g b)
     1.08237186E-04    2     1000006       -24   # BR(~b_2 -> ~t_1 W^-)
     1.79788638E-04    2     1000005        25   # BR(~b_2 -> ~b_1 h^0)
DECAY   2000002     6.61495117E+02   # ~u_R
#    BR                NDA      ID1      ID2
     2.44557293E-02    2     1000022         2   # BR(~u_R -> chi^0_1 u)
     1.83420537E-04    2     1000023         2   # BR(~u_R -> chi^0_2 u)
     9.39049058E-03    2     1000025         2   # BR(~u_R -> chi^0_3 u)
     9.65969572E-01    2     1000021         2   # BR(~u_R -> ~g u)
DECAY   1000002     7.73295946E+02   # ~u_L
#    BR                NDA      ID1      ID2
     8.10087640E-04    2     1000022         2   # BR(~u_L -> chi^0_1 u)
     1.49450378E-03    2     1000025         2   # BR(~u_L -> chi^0_3 u)
     5.58887618E-02    2     1000035         2   # BR(~u_L -> chi^0_4 u)
     1.67827736E-03    2     1000024         1   # BR(~u_L -> chi^+_1 d)
     1.11200831E-01    2     1000037         1   # BR(~u_L -> chi^+_2 d)
     8.28864773E-01    2     1000021         2   # BR(~u_L -> ~g u)
DECAY   2000004     6.61502447E+02   # ~c_R
#    BR                NDA      ID1      ID2
     2.44560294E-02    2     1000022         4   # BR(~c_R -> chi^0_1 c)
     1.86204820E-04    2     1000023         4   # BR(~c_R -> chi^0_2 c)
     9.39249163E-03    2     1000025         4   # BR(~c_R -> chi^0_3 c)
     9.65958948E-01    2     1000021         4   # BR(~c_R -> ~g c)
DECAY   1000004     7.73348083E+02   # ~c_L
#    BR                NDA      ID1      ID2
     8.10523035E-04    2     1000022         4   # BR(~c_L -> chi^0_1 c)
     1.49620557E-03    2     1000025         4   # BR(~c_L -> chi^0_3 c)
     5.58850618E-02    2     1000035         4   # BR(~c_L -> chi^0_4 c)
     1.74004394E-03    2     1000024         3   # BR(~c_L -> chi^+_1 s)
     1.11193455E-01    2     1000037         3   # BR(~c_L -> chi^+_2 s)
     8.28809561E-01    2     1000021         4   # BR(~c_L -> ~g c)
DECAY   1000006     1.46759930E+02   # ~t_1
#    BR                NDA      ID1      ID2
     3.67662141E-04    2     1000022         4   # BR(~t_1 -> chi^0_1 c)
     3.12650815E-02    2     1000022         6   # BR(~t_1 -> chi^0_1 t)
     2.22393283E-01    2     1000023         6   # BR(~t_1 -> chi^0_2 t)
     2.12770994E-01    2     1000025         6   # BR(~t_1 -> chi^0_3 t)
     6.57988543E-02    2     1000035         6   # BR(~t_1 -> chi^0_4 t)
     3.29388347E-01    2     1000024         5   # BR(~t_1 -> chi^+_1 b)
     1.27289646E-01    2     1000037         5   # BR(~t_1 -> chi^+_2 b)
     1.82503308E-03    2     1000021         4   # BR(~t_1 -> ~g c)
#    BR                NDA      ID1      ID2       ID3
     8.87272078E-03    3     1000022        24         5   # BR(~t_1 -> chi^0_1 W^+ b)
DECAY   2000006     1.87551517E+02   # ~t_2
#    BR                NDA      ID1      ID2
     8.66743038E-02    2     1000022         6   # BR(~t_2 -> chi^0_1 t)
     2.07828057E-01    2     1000023         6   # BR(~t_2 -> chi^0_2 t)
     1.32647418E-01    2     1000025         6   # BR(~t_2 -> chi^0_3 t)
     2.03367619E-02    2     1000035         6   # BR(~t_2 -> chi^0_4 t)
     3.59504727E-01    2     1000024         5   # BR(~t_2 -> chi^+_1 b)
     3.81919415E-02    2     1000037         5   # BR(~t_2 -> chi^+_2 b)
     7.55633718E-02    2     1000021         6   # BR(~t_2 -> ~g t)
     2.26696452E-02    2     1000005        24   # BR(~t_2 -> ~b_1 W^+)
     5.43022430E-02    2     1000006        23   # BR(~t_2 -> ~t_1 Z)
     2.28153070E-03    2     1000006        25   # BR(~t_2 -> ~t_1 h^0)
DECAY   1000024     1.75201125E-04   # chi^+_1
#    BR                NDA      ID1      ID2       ID3
     3.33777291E-01    3     1000022        -1         2   # BR(chi^+_1 -> chi^0_1 d_bar u)
     3.33025601E-01    3     1000022        -3         4   # BR(chi^+_1 -> chi^0_1 s_bar c)
     1.11259280E-01    3     1000022       -11        12   # BR(chi^+_1 -> chi^0_1 e^+ nu_e)
     1.11258708E-01    3     1000022       -13        14   # BR(chi^+_1 -> chi^0_1 mu^+ nu_mu)
     1.10679121E-01    3     1000022       -15        16   # BR(chi^+_1 -> chi^0_1 tau^+ nu_tau)
DECAY   1000037     8.83829843E+00   # chi^+_2
#    BR                NDA      ID1      ID2
     3.98877643E-02    2     1000022        24   # BR(chi^+_2 -> chi^0_1 W^+)
     2.53378980E-01    2     1000023        24   # BR(chi^+_2 -> chi^0_2 W^+)
     2.08800800E-01    2     1000025        24   # BR(chi^+_2 -> chi^0_3 W^+)
     2.47465576E-01    2     1000024        23   # BR(chi^+_2 -> chi^+_1 Z)
     2.38657742E-01    2     1000024        25   # BR(chi^+_2 -> chi^+_1 h^0)
#    BR                NDA      ID1      ID2       ID3
     3.61357777E-03    3     1000024         6        -6   # BR(chi^+_2 -> chi^+_1 t t_bar)
     7.14776121E-04    3     1000022        -5         6   # BR(chi^+_2 -> chi^0_1 b_bar t)
     4.05633063E-03    3     1000023        -5         6   # BR(chi^+_2 -> chi^0_2 b_bar t)
     3.41867268E-03    3     1000025        -5         6   # BR(chi^+_2 -> chi^0_3 b_bar t)
DECAY   1000022     0.00000000E+00   # chi^0_1
DECAY   1000023     8.01978674E-04   # chi^0_2
#    BR                NDA      ID1      ID2
     6.56786328E-03    2     1000022        22   # BR(chi^0_2 -> chi^0_1 photon)
#    BR                NDA      ID1      ID2       ID3
     1.18713124E-01    3     1000022         2        -2   # BR(chi^0_2 -> chi^0_1 u u_bar)
     1.18140248E-01    3     1000022         4        -4   # BR(chi^0_2 -> chi^0_1 c c_bar)
     1.52213310E-01    3     1000022         1        -1   # BR(chi^0_2 -> chi^0_1 d d_bar)
     1.52209853E-01    3     1000022         3        -3   # BR(chi^0_2 -> chi^0_1 s s_bar)
     1.45814349E-01    3     1000022         5        -5   # BR(chi^0_2 -> chi^0_1 b b_bar)
     3.43499259E-02    3     1000022        11       -11   # BR(chi^0_2 -> chi^0_1 e^- e^+)
     3.43486744E-02    3     1000022        13       -13   # BR(chi^0_2 -> chi^0_1 mu^- mu^+)
     3.39981121E-02    3     1000022        15       -15   # BR(chi^0_2 -> chi^0_1 tau^- tau^+)
     2.03554991E-01    3     1000022        12       -12   # BR(chi^0_2 -> chi^0_1 nu_e nu_bar_e)
DECAY   1000025     2.06065240E-05   # chi^0_3
#    BR                NDA      ID1      ID2
     5.44200707E-03    2     1000022        22   # BR(chi^0_3 -> chi^0_1 photon)
     6.61865702E-03    2     1000023        22   # BR(chi^0_3 -> chi^0_2 photon)
#    BR                NDA      ID1      ID2       ID3
     1.00143366E-01    3     1000022         2        -2   # BR(chi^0_3 -> chi^0_1 u u_bar)
     9.98373193E-02    3     1000022         4        -4   # BR(chi^0_3 -> chi^0_1 c c_bar)
     1.28367876E-01    3     1000022         1        -1   # BR(chi^0_3 -> chi^0_1 d d_bar)
     1.28366309E-01    3     1000022         3        -3   # BR(chi^0_3 -> chi^0_1 s s_bar)
     1.26123731E-01    3     1000022         5        -5   # BR(chi^0_3 -> chi^0_1 b b_bar)
     2.89374413E-02    3     1000022        11       -11   # BR(chi^0_3 -> chi^0_1 e^- e^+)
     2.89369565E-02    3     1000022        13       -13   # BR(chi^0_3 -> chi^0_1 mu^- mu^+)
     2.87861618E-02    3     1000022        15       -15   # BR(chi^0_3 -> chi^0_1 tau^- tau^+)
     1.71702508E-01    3     1000022        12       -12   # BR(chi^0_3 -> chi^0_1 nu_e nu_bar_e)
     1.98546282E-03    3     1000023         2        -2   # BR(chi^0_3 -> chi^0_2 u u_bar)
     1.65072364E-03    3     1000023         4        -4   # BR(chi^0_3 -> chi^0_2 c c_bar)
     2.54576370E-03    3     1000023         1        -1   # BR(chi^0_3 -> chi^0_2 d d_bar)
     2.54347830E-03    3     1000023         3        -3   # BR(chi^0_3 -> chi^0_2 s s_bar)
     2.67927988E-04    3     1000023         5        -5   # BR(chi^0_3 -> chi^0_2 b b_bar)
     5.74509466E-04    3     1000023        11       -11   # BR(chi^0_3 -> chi^0_2 e^- e^+)
     5.73697145E-04    3     1000023        13       -13   # BR(chi^0_3 -> chi^0_2 mu^- mu^+)
     3.85331977E-04    3     1000023        15       -15   # BR(chi^0_3 -> chi^0_2 tau^- tau^+)
     3.40440599E-03    3     1000023        12       -12   # BR(chi^0_3 -> chi^0_2 nu_e nu_bar_e)
     2.24633664E-02    3     1000024         1        -2   # BR(chi^0_3 -> chi^+_1 d u_bar)
     2.24633664E-02    3    -1000024        -1         2   # BR(chi^0_3 -> chi^-_1 d_bar u)
     2.18645088E-02    3     1000024         3        -4   # BR(chi^0_3 -> chi^+_1 s c_bar)
     2.18645088E-02    3    -1000024        -3         4   # BR(chi^0_3 -> chi^-_1 s_bar c)
     7.48776669E-03    3     1000024        11       -12   # BR(chi^0_3 -> chi^+_1 e^- nu_bar_e)
     7.48776669E-03    3    -1000024       -11        12   # BR(chi^0_3 -> chi^-_1 e^+ nu_e)
     7.48764148E-03    3     1000024        13       -14   # BR(chi^0_3 -> chi^+_1 mu^- nu_bar_mu)
     7.48764148E-03    3    -1000024       -13        14   # BR(chi^0_3 -> chi^-_1 mu^+ nu_mu)
     7.09989937E-03    3     1000024        15       -16   # BR(chi^0_3 -> chi^+_1 tau^- nu_bar_tau)
     7.09989937E-03    3    -1000024       -15        16   # BR(chi^0_3 -> chi^-_1 tau^+ nu_tau)
DECAY   1000035     9.75627005E+00   # chi^0_4
#    BR                NDA      ID1      ID2
     2.27677320E-01    2     1000024       -24   # BR(chi^0_4 -> chi^+_1 W^-)
     2.27677320E-01    2    -1000024        24   # BR(chi^0_4 -> chi^-_1 W^+)
     1.12575973E-02    2     1000022        23   # BR(chi^0_4 -> chi^0_1 Z)
     1.68440082E-01    2     1000023        23   # BR(chi^0_4 -> chi^0_2 Z)
     4.85613545E-02    2     1000025        23   # BR(chi^0_4 -> chi^0_3 Z)
     2.42399837E-02    2     1000022        25   # BR(chi^0_4 -> chi^0_1 h^0)
     1.48957629E-01    2     1000023        25   # BR(chi^0_4 -> chi^0_2 h^0)
     1.33033608E-01    2     1000025        25   # BR(chi^0_4 -> chi^0_3 h^0)
#    BR                NDA      ID1      ID2       ID3
     2.50664357E-04    3     1000022         6        -6   # BR(chi^0_4 -> chi^0_1 t t_bar)
     1.30466634E-03    3     1000023         6        -6   # BR(chi^0_4 -> chi^0_2 t t_bar)
     1.08362120E-03    3     1000025         6        -6   # BR(chi^0_4 -> chi^0_3 t t_bar)
     3.75129972E-03    3     1000024         5        -6   # BR(chi^0_4 -> chi^+_1 b t_bar)
     3.75129972E-03    3    -1000024        -5         6   # BR(chi^0_4 -> chi^-_1 b_bar t)
DECAY   1000021     1.13275961E+00   # ~g
#    BR                NDA      ID1      ID2
     2.97390054E-04    2     1000022        21   # BR(~g -> chi^0_1 g)
     2.19235683E-03    2     1000023        21   # BR(~g -> chi^0_2 g)
     1.56947629E-03    2     1000025        21   # BR(~g -> chi^0_3 g)
#    BR                NDA      ID1      ID2       ID3
     3.19226183E-02    3     1000022         6        -6   # BR(~g -> chi^0_1 t t_bar)
     2.13029537E-02    3     1000022         5        -5   # BR(~g -> chi^0_1 b b_bar)
     1.59963950E-01    3     1000023         6        -6   # BR(~g -> chi^0_2 t t_bar)
     5.44441111E-02    3     1000023         5        -5   # BR(~g -> chi^0_2 b b_bar)
     1.37752766E-01    3     1000025         6        -6   # BR(~g -> chi^0_3 t t_bar)
     3.78130451E-02    3     1000025         5        -5   # BR(~g -> chi^0_3 b b_bar)
     2.71241731E-02    3     1000035         6        -6   # BR(~g -> chi^0_4 t t_bar)
     1.89264255E-02    3     1000035         5        -5   # BR(~g -> chi^0_4 b b_bar)
     2.06832602E-01    3     1000024         5        -6   # BR(~g -> chi^+_1 b t_bar)
     2.06832602E-01    3    -1000024        -5         6   # BR(~g -> chi^-_1 b_bar t)
     1.62629290E-04    3     1000037         1        -2   # BR(~g -> chi^+_2 d u_bar)
     1.62629290E-04    3    -1000037        -1         2   # BR(~g -> chi^-_2 d_bar u)
     1.62629083E-04    3     1000037         3        -4   # BR(~g -> chi^+_2 s c_bar)
     1.62629083E-04    3    -1000037        -3         4   # BR(~g -> chi^-_2 s_bar c)
     4.59129180E-02    3     1000037         5        -6   # BR(~g -> chi^+_2 b t_bar)
     4.59129180E-02    3    -1000037        -5         6   # BR(~g -> chi^-_2 b_bar t)
DECAY        25     4.29267564E-03   # Gamma(h0)
     2.51569022E-03   2        22        22   # BR(h0 -> photon photon)
     2.07345792E-03   2        22        23   # BR(h0 -> photon Z)
     4.57015149E-02   2        23        23   # BR(h0 -> Z Z)
     3.44601080E-01   2       -24        24   # BR(h0 -> W W)
     7.35755130E-02   2        21        21   # BR(h0 -> gluon gluon)
     4.12522017E-09   2       -11        11   # BR(h0 -> Electron electron)
     1.83499374E-04   2       -13        13   # BR(h0 -> Muon muon)
     5.29145376E-02   2       -15        15   # BR(h0 -> Tau tau)
     1.16540151E-07   2        -2         2   # BR(h0 -> Up up)
     2.26209270E-02   2        -4         4   # BR(h0 -> Charm charm)
     4.74113449E-07   2        -1         1   # BR(h0 -> Down down)
     1.71475791E-04   2        -3         3   # BR(h0 -> Strange strange)
     4.55641710E-01   2        -5         5   # BR(h0 -> Bottom bottom)
DECAY        35     1.53750755E+02   # Gamma(HH)
     1.88409556E-09   2        22        22   # BR(HH -> photon photon)
     1.00991782E-08   2        22        23   # BR(HH -> photon Z)
     6.59100728E-08   2        23        23   # BR(HH -> Z Z)
     1.29535100E-08   2       -24        24   # BR(HH -> W W)
     4.34710760E-06   2        21        21   # BR(HH -> gluon gluon)
     8.90255222E-09   2       -11        11   # BR(HH -> Electron electron)
     3.96425190E-04   2       -13        13   # BR(HH -> Muon muon)
     1.14498671E-01   2       -15        15   # BR(HH -> Tau tau)
     2.44244095E-14   2        -2         2   # BR(HH -> Up up)
     4.73853282E-09   2        -4         4   # BR(HH -> Charm charm)
     3.35440827E-04   2        -6         6   # BR(HH -> Top top)
     6.22142187E-07   2        -1         1   # BR(HH -> Down down)
     2.25018392E-04   2        -3         3   # BR(HH -> Strange strange)
     5.44588411E-01   2        -5         5   # BR(HH -> Bottom bottom)
     3.73306837E-03   2  -1000024   1000024   # BR(HH -> Chargino1 chargino1)
     1.00675337E-01   2  -1000024   1000037   # BR(HH -> Chargino1 chargino2)
     1.00675337E-01   2  -1000037   1000024   # BR(HH -> Chargino2 chargino1)
     1.42590377E-04   2  -1000037   1000037   # BR(HH -> Chargino2 chargino2)
     1.06330663E-02   2   1000022   1000022   # BR(HH -> neutralino1 neutralino1)
     9.51184907E-03   2   1000022   1000023   # BR(HH -> neutralino1 neutralino2)
     1.85764484E-03   2   1000022   1000025   # BR(HH -> neutralino1 neutralino3)
     2.08628870E-02   2   1000022   1000035   # BR(HH -> neutralino1 neutralino4)
     8.93677438E-04   2   1000023   1000023   # BR(HH -> neutralino2 neutralino2)
     5.78403864E-03   2   1000023   1000025   # BR(HH -> neutralino2 neutralino3)
     5.29093567E-02   2   1000023   1000035   # BR(HH -> neutralino2 neutralino4)
     3.96296070E-03   2   1000025   1000025   # BR(HH -> neutralino3 neutralino3)
     2.82363966E-02   2   1000025   1000035   # BR(HH -> neutralino3 neutralino4)
     7.23356046E-05   2   1000035   1000035   # BR(HH -> neutralino4 neutralino4)
     4.14246436E-07   2        25        25   # BR(HH -> h0 h0)
DECAY        36     1.45986454E+02   # Gamma(A0)
     3.28468239E-08   2        22        22   # BR(A0 -> photon photon)
     4.44895806E-08   2        22        23   # BR(A0 -> photon Z)
     7.57000450E-06   2        21        21   # BR(A0 -> gluon gluon)
     8.65707697E-09   2       -11        11   # BR(A0 -> Electron electron)
     3.85495396E-04   2       -13        13   # BR(A0 -> Muon muon)
     1.11341934E-01   2       -15        15   # BR(A0 -> Tau tau)
     2.31056951E-14   2        -2         2   # BR(A0 -> Up up)
     4.48256267E-09   2        -4         4   # BR(A0 -> Charm charm)
     3.19502719E-04   2        -6         6   # BR(A0 -> Top top)
     6.04958903E-07   2        -1         1   # BR(A0 -> Down down)
     2.18804512E-04   2        -3         3   # BR(A0 -> Strange strange)
     5.29550363E-01   2        -5         5   # BR(A0 -> Bottom bottom)
     4.05212072E-03   2  -1000024   1000024   # BR(A0 -> Chargino1 chargino1)
     1.05959921E-01   2  -1000024   1000037   # BR(A0 -> Chargino1 chargino2)
     1.05959921E-01   2  -1000037   1000024   # BR(A0 -> Chargino2 chargino1)
     2.58043257E-04   2  -1000037   1000037   # BR(A0 -> Chargino2 chargino2)
     1.20256791E-02   2   1000022   1000022   # BR(A0 -> neutralino1 neutralino1)
     8.94600770E-03   2   1000022   1000023   # BR(A0 -> neutralino1 neutralino2)
     2.20190999E-03   2   1000022   1000025   # BR(A0 -> neutralino1 neutralino3)
     2.41620801E-02   2   1000022   1000035   # BR(A0 -> neutralino1 neutralino4)
     8.75350337E-04   2   1000023   1000023   # BR(A0 -> neutralino2 neutralino2)
     5.75246139E-03   2   1000023   1000025   # BR(A0 -> neutralino2 neutralino3)
     4.90054992E-02   2   1000023   1000035   # BR(A0 -> neutralino2 neutralino4)
     4.61408956E-03   2   1000025   1000025   # BR(A0 -> neutralino3 neutralino3)
     3.42318640E-02   2   1000025   1000035   # BR(A0 -> neutralino3 neutralino4)
     1.30530713E-04   2   1000035   1000035   # BR(A0 -> neutralino4 neutralino4)
     1.57242414E-07   2        23        25   # BR(A0 -> Z h0)
     4.91285503E-14   2        23        35   # BR(A0 -> Z HH)
     3.12861733E-37   2        25        25   # BR(A0 -> h0 h0)
DECAY        37     1.72067690E+02   # Gamma(Hp)
     9.91314836E-09   2       -11        12   # BR(Hp -> Electron nu_e)
     4.23818054E-04   2       -13        14   # BR(Hp -> Muon nu_mu)
     1.19879888E-01   2       -15        16   # BR(Hp -> Tau nu_tau)
     6.04773810E-07   2        -1         2   # BR(Hp -> Down up)
     1.02474938E-05   2        -3         2   # BR(Hp -> Strange up)
     6.08915484E-06   2        -5         2   # BR(Hp -> Bottom up)
     2.85851387E-08   2        -1         4   # BR(Hp -> Down charm)
     2.17943830E-04   2        -3         4   # BR(Hp -> Strange charm)
     8.52699698E-04   2        -5         4   # BR(Hp -> Bottom charm)
     2.54720040E-08   2        -1         6   # BR(Hp -> Down top)
     8.80412293E-07   2        -3         6   # BR(Hp -> Strange top)
     5.74980700E-01   2        -5         6   # BR(Hp -> Bottom top)
     1.65770900E-02   2   1000022   1000024   # BR(Hp -> neutralino1 chargino1)
     3.95509317E-02   2   1000022   1000037   # BR(Hp -> neutralino1 chargino2)
     1.72987874E-04   2   1000023   1000024   # BR(Hp -> neutralino2 chargino1)
     8.84750585E-02   2   1000023   1000037   # BR(Hp -> neutralino2 chargino2)
     1.35010333E-02   2   1000024   1000025   # BR(Hp -> chargino1 neutralino3)
     5.50306510E-02   2   1000025   1000037   # BR(Hp -> neutralino3 chargino2)
     9.03191749E-02   2   1000024   1000035   # BR(Hp -> chargino1 neutralino4)
     3.53642920E-09   2   1000035   1000037   # BR(Hp -> neutralino4 chargino2)
     1.33385584E-07   2        24        25   # BR(Hp -> W h0)
DECAY         6     2.43000000E+00   # top
#    BR                NDA      ID1      ID2
     1.00000000E+00    2           5        24   # BR(t -> b W)
Block HiggsBoundsInputHiggsCouplingsFermions
# ScalarNormEffCoupSq PseudoSNormEffCoupSq NP IP1 IP2 IP2
    9.66142648E-01    0.00000000E+00        3  25   5   5  # h0-b-b eff. coupling^2, normalised to SM
    2.33187671E+03    0.00000000E+00        3  35   5   5  # H0-b-b eff. coupling^2, normalised to SM
    0.00000000E+00    2.33184285E+03        3  36   5   5  # A0-b-b eff. coupling^2, normalised to SM
#
    1.00001452E+00    0.00000000E+00        3  25   6   6  # h0-t-t eff. coupling^2, normalised to SM
    4.14325797E-04    0.00000000E+00        3  35   6   6  # H0-t-t eff. coupling^2, normalised to SM
    0.00000000E+00    4.28845366E-04        3  36   6   6  # A0-t-t eff. coupling^2, normalised to SM
#
    9.66142648E-01    0.00000000E+00        3  25  15  15  # h0-tau-tau eff. coupling^2, normalised to SM
    2.33187671E+03    0.00000000E+00        3  35  15  15  # H0-tau-tau eff. coupling^2, normalised to SM
    0.00000000E+00    2.33184285E+03        3  36  15  15  # A0-tau-tau eff. coupling^2, normalised to SM
#
Block HiggsBoundsInputHiggsCouplingsBosons
    9.99999875E-01        3  25  24  24  # h0-W-W eff. coupling^2, normalised to SM
    1.25023229E-07        3  35  24  24  # H0-W-W eff. coupling^2, normalised to SM
    0.00000000E+00        3  36  24  24  # A0-W-W eff. coupling^2, normalised to SM
#
    9.99999875E-01        3  25  23  23  # h0-Z-Z eff. coupling^2, normalised to SM
    1.25023229E-07        3  35  23  23  # H0-Z-Z eff. coupling^2, normalised to SM
    0.00000000E+00        3  36  23  23  # A0-Z-Z eff. coupling^2, normalised to SM
#
    1.26141879E+00        3  25  21  21  # h0-g-g eff. coupling^2, normalised to SM
    9.48801363E-03        3  35  21  21  # H0-g-g eff. coupling^2, normalised to SM
    1.30260405E-01        3  36  21  21  # A0-g-g eff. coupling^2, normalised to SM
#
    0.00000000E+00        3  25  25  23  # h0-h0-Z eff. coupling^2, normalised to SM
    0.00000000E+00        3  35  25  23  # H0-h0-Z eff. coupling^2, normalised to SM
    1.25023229E-07        3  36  25  23  # A0-h0-Z eff. coupling^2, normalised to SM
    0.00000000E+00        3  35  35  23  # H0-H0-Z eff. coupling^2, normalised to SM
    9.99999875E-01        3  36  35  23  # A0-H0-Z eff. coupling^2, normalised to SM
    0.00000000E+00        3  36  36  23  # A0-A0-Z eff. coupling^2, normalised to SM
#
    0.00000000E+00        4  25  21  21  23  # h0-g-g-Z eff. coupling^2, normalised to SM
    0.00000000E+00        4  35  21  21  23  # H0-g-g-Z eff. coupling^2, normalised to SM
    0.00000000E+00        4  36  21  21  23  # A0-g-g-Z eff. coupling^2, normalised to SM
Block SPhenoLowEnergy  # low energy observables
    1    3.43978172E-04   # BR(b -> s gamma)
    2    1.58802136E-06   # BR(b -> s mu+ mu-)
    3    3.52507774E-05   # BR(b -> s nu nu)
    4    2.44806532E-15   # BR(Bd -> e+ e-)
    5    1.04579120E-10   # BR(Bd -> mu+ mu-)
    6    2.19243000E-08   # BR(Bd -> tau+ tau-)
    7    8.19627998E-14   # BR(Bs -> e+ e-)
    8    3.50146724E-09   # BR(Bs -> mu+ mu-)
    9    7.43806726E-07   # BR(Bs -> tau+ tau-)
   10    9.60324835E-05   # BR(B_u -> tau nu)
   11    9.91978789E-01   # BR(B_u -> tau nu)/BR(B_u -> tau nu)_SM
   12    5.42052791E-01   # |Delta(M_Bd)| [ps^-1] 
   13    1.93641421E+01   # |Delta(M_Bs)| [ps^-1] 
   14    0.00000000E+00   # neutron EDM according to the chiral quark model
   15    0.00000000E+00   # neutron EDM according to the relativistic quark-parton model
   16    2.15775053E-03   # epsilon_K
   17    2.28166335E-15   # Delta(M_K)
   18    2.48033829E-11   # BR(K^0 -> pi^0 nu nu)
   19    8.29114980E-11   # BR(K^+ -> pi^+ nu nu)
   20    4.17352663E-16   # Delta(g-2)_electron/2
   21    1.78433429E-11   # Delta(g-2)_muon/2
   22    5.06415456E-09   # Delta(g-2)_tau/2
   23    0.00000000E+00   # electric dipole moment of the electron
   24    0.00000000E+00   # electric dipole moment of the muon
   25    0.00000000E+00   # electric dipole moment of the tau
   26    0.00000000E+00   # Br(mu -> e gamma)
   27    0.00000000E+00   # Br(tau -> e gamma)
   28    0.00000000E+00   # Br(tau -> mu gamma)
   29    0.00000000E+00   # Br(mu -> 3 e)
   30    0.00000000E+00   # Br(tau -> 3 e)
   31    0.00000000E+00   # Br(tau -> 3 mu)
   39    6.91127124E-05   # Delta(rho_parameter)
   40    0.00000000E+00   # BR(Z -> e mu)
   41    0.00000000E+00   # BR(Z -> e tau)
   42    0.00000000E+00   # BR(Z -> mu tau)
Block FWCOEF Q=  1.60000000E+02  # Wilson coefficients at scale Q
#    id        order  M        value         comment
     0305 4422   00   0    -1.88819110E-01   # C7
     0305 4422   00   2    -2.15610028E-01   # C7
     0305 4322   00   2    -1.84102725E-04   # C7'
     0305 6421   00   0    -9.52278348E-02   # C8
     0305 6421   00   2    -1.14281584E-01   # C8
     0305 6321   00   2    -1.72181359E-04   # C8'
 03051111 4133   00   0     1.62271710E+00   # C9 e+e-
 03051111 4133   00   2     1.62297678E+00   # C9 e+e-
 03051111 4233   00   2     6.80146287E-04   # C9' e+e-
 03051111 4137   00   0    -4.44540920E+00   # C10 e+e-
 03051111 4137   00   2    -4.44375057E+00   # C10 e+e-
 03051111 4237   00   2    -5.06278631E-03   # C10' e+e-
 03051313 4133   00   0     1.62271710E+00   # C9 mu+mu-
 03051313 4133   00   2     1.62297652E+00   # C9 mu+mu-
 03051313 4233   00   2     6.80145854E-04   # C9' mu+mu-
 03051313 4137   00   0    -4.44540920E+00   # C10 mu+mu-
 03051313 4137   00   2    -4.44375083E+00   # C10 mu+mu-
 03051313 4237   00   2    -5.06278688E-03   # C10' mu+mu-
 03051212 4137   00   0     1.50535012E+00   # C11 nu_1 nu_1
 03051212 4137   00   2     1.50499303E+00   # C11 nu_1 nu_1
 03051212 4237   00   2     1.09574251E-03   # C11' nu_1 nu_1
 03051414 4137   00   0     1.50535012E+00   # C11 nu_2 nu_2
 03051414 4137   00   2     1.50499303E+00   # C11 nu_2 nu_2
 03051414 4237   00   2     1.09574255E-03   # C11' nu_2 nu_2
 03051616 4137   00   0     1.50535012E+00   # C11 nu_3 nu_3
 03051616 4137   00   2     1.50499303E+00   # C11 nu_3 nu_3
 03051616 4237   00   2     1.09575371E-03   # C11' nu_3 nu_3
Block IMFWCOEF Q=  1.60000000E+02  # Im(Wilson coefficients) at scale Q
#    id        order  M        value         comment
     0305 4422   00   0     3.85797367E-07   # C7
     0305 4422   00   2     2.08073595E-05   # C7
     0305 4322   00   2    -1.97043624E-06   # C7'
     0305 6421   00   0     3.30460959E-07   # C8
     0305 6421   00   2    -1.61887117E-05   # C8
     0305 6321   00   2    -1.33549294E-06   # C8'
 03051111 4133   00   2     1.97739230E-08   # C9 e+e-
 03051111 4233   00   2     1.27467145E-05   # C9' e+e-
 03051111 4137   00   2     4.88372657E-06   # C10 e+e-
 03051111 4237   00   2    -9.48844194E-05   # C10' e+e-
 03051313 4133   00   2     1.97676853E-08   # C9 mu+mu-
 03051313 4233   00   2     1.27467101E-05   # C9' mu+mu-
 03051313 4137   00   2     4.88373387E-06   # C10 mu+mu-
 03051313 4237   00   2    -9.48844328E-05   # C10' mu+mu-
 03051212 4137   00   2    -1.02307177E-06   # C11 nu_1 nu_1
 03051212 4237   00   2     2.05359042E-05   # C11' nu_1 nu_1
 03051414 4137   00   2    -1.02307145E-06   # C11 nu_2 nu_2
 03051414 4237   00   2     2.05359042E-05   # C11' nu_2 nu_2
 03051616 4137   00   2    -1.02298383E-06   # C11 nu_3 nu_3
 03051616 4237   00   2     2.05359041E-05   # C11' nu_3 nu_3
