# SUSY Les Houches Accord 2 - MSSM spectrum + Decays
# SPheno v4.0.5be
# W. Porod, Comput. Phys. Commun. 153 (2003) 275-315, hep-ph/0301101;
# W. Porod, F.~Staub, Comput. Phys. Commun. 183 (2012) 2458
#                     arXiv:1104.1573 [hep-ph] 
# in case of problems send email to porod@physik.uni-wuerzburg.de
# Created: 15.05.2022,  06:02
Block SPINFO         # Program information
     1   SPheno      # spectrum calculator
     2   v4.0.5be    # version number
#
Block SPhenoINFO     # SPheno specific information
    1      2         # using 2-loop RGEs
    2      2         # using pole masses for boundary conditions at mZ
Block MODSEL  # Model selection
    1    0    # general MSSM
Block MINPAR  # Input parameters
    3    1.71198519E+01  # tanb at m_Z    
    4    1.00000000E+00  # Sign(mu)
Block EXTPAR  # non-universal input parameters
    0    3.75018439E+03  # scale for input parameters
    1    3.63378665E+02  # M_1
    2   -1.31706612E+03  # M_2
    3    3.24472526E+03  # M_3
   11   -5.96980116E+02  # A_t
   12   -1.59636771E+03  # A_b
   13    1.25567315E+03  # A_tau
   23    3.58065589E+02  # mu
   25    1.63329515E+01  # tan(beta)
   26    2.28382132E+03  # m_A, pole mass
   31    4.84566891E+02  # M_L11
   32    4.84566891E+02  # M_L22
   33    1.99881090E+03  # M_L33
   34    9.98482911E+02  # M_E11
   35    9.98482911E+02  # M_E22
   36    1.51031283E+03  # M_E33
   41    1.00000000E+04  # M_Q11
   42    1.00000000E+04  # M_Q22
   43    2.75868042E+03  # M_Q33
   44    1.00000000E+04  # M_U11
   45    1.00000000E+04  # M_U22
   46    4.81736665E+03  # M_U33
   47    1.00000000E+04  # M_D11
   48    1.00000000E+04  # M_D22
   49    3.43481376E+03  # M_D33
Block SMINPUTS  # SM parameters
         1     1.27908970E+02  # alpha_em^-1(MZ)^MSbar
         2     1.16637870E-05  # G_mu [GeV^-2]
         3     1.18400000E-01  # alpha_s(MZ)^MSbar
         4     9.11876000E+01  # m_Z(pole)
         5     4.18000000E+00  # m_b(m_b), MSbar
         6     1.73200000E+02  # m_t(pole)
         7     1.77700000E+00  # m_tau(pole)
         8     0.00000000E+00  # m_nu_3
        11     5.10998930E-04  # m_e(pole)
        12     0.00000000E+00  # m_nu_1
        13     1.05658372E-01  # m_muon(pole)
        14     0.00000000E+00  # m_nu_2
        21     5.00000000E-03  # m_d(2 GeV), MSbar
        22     2.50000000E-03  # m_u(2 GeV), MSbar
        23     9.50000000E-02  # m_s(2 GeV), MSbar
        24     1.27000000E+00  # m_c(m_c), MSbar
Block gauge Q=  3.75018439E+03  # (SUSY scale)
   1    3.55362975E-01  # g'(Q)^DRbar
   2    6.65198874E-01  # g(Q)^DRbar
   3    1.21977796E+00  # g3(Q)^DRbar
Block Yu Q=  3.75018439E+03  # (SUSY scale)
  1  1     8.40007232E-06   # Y_u(Q)^DRbar
  2  2     4.26723674E-03   # Y_c(Q)^DRbar
  3  3     1.01479621E+00   # Y_t(Q)^DRbar
Block Yd Q=  3.75018439E+03  # (SUSY scale)
  1  1     2.75694400E-04   # Y_d(Q)^DRbar
  2  2     5.23819360E-03   # Y_s(Q)^DRbar
  3  3     2.73402455E-01   # Y_b(Q)^DRbar
Block Ye Q=  3.75018439E+03  # (SUSY scale)
  1  1     4.81106889E-05   # Y_e(Q)^DRbar
  2  2     9.94776459E-03   # Y_mu(Q)^DRbar
  3  3     1.67305036E-01   # Y_tau(Q)^DRbar
Block Au Q=  3.75018439E+03  # (SUSY scale)
  1  1     0.00000000E+00   # A_u(Q)^DRbar
  2  2     0.00000000E+00   # A_c(Q)^DRbar
  3  3    -5.96980126E+02   # A_t(Q)^DRbar
Block Ad Q=  3.75018439E+03  # (SUSY scale)
  1  1     0.00000000E+00   # A_d(Q)^DRbar
  2  2     0.00000000E+00   # A_s(Q)^DRbar
  3  3    -1.59636767E+03   # A_b(Q)^DRbar
Block Ae Q=  3.75018439E+03  # (SUSY scale)
  1  1     0.00000000E+00   # A_e(Q)^DRbar
  2  2     0.00000000E+00   # A_mu(Q)^DRbar
  3  3     1.25567314E+03   # A_tau(Q)^DRbar
Block MSOFT Q=  3.75018439E+03  # soft SUSY breaking masses at Q
   1    3.63378665E+02  # M_1
   2   -1.31706612E+03  # M_2
   3    3.24472526E+03  # M_3
  21    5.06682193E+06  # M^2_(H,d)
  22    1.32970582E+05  # M^2_(H,u)
  31    4.84566891E+02  # M_(L,11)
  32    4.84566891E+02  # M_(L,22)
  33    1.99881090E+03  # M_(L,33)
  34    9.98482911E+02  # M_(E,11)
  35    9.98482911E+02  # M_(E,22)
  36    1.51031283E+03  # M_(E,33)
  41    1.00000000E+04  # M_(Q,11)
  42    1.00000000E+04  # M_(Q,22)
  43    2.75868042E+03  # M_(Q,33)
  44    1.00000000E+04  # M_(U,11)
  45    1.00000000E+04  # M_(U,22)
  46    4.81736665E+03  # M_(U,33)
  47    1.00000000E+04  # M_(D,11)
  48    1.00000000E+04  # M_(D,22)
  49    3.43481376E+03  # M_(D,33)
Block MASS  # Mass spectrum
#   PDG code      mass          particle
         6     1.73200000E+02  # m_t(pole)
        23     9.11876000E+01  # m_Z(pole)
        24     8.04299946E+01  # W+
        15     1.77700000E+00  # m_tau(pole)
        25     1.21143060E+02  # h0
        35     2.28370747E+03  # H0
        36     2.28382132E+03  # A0
        37     2.28792810E+03  # H+
   1000001     1.01056262E+04  # ~d_L
   2000001     1.00813264E+04  # ~d_R
   1000002     1.01052636E+04  # ~u_L
   2000002     1.00847047E+04  # ~u_R
   1000003     1.01056272E+04  # ~s_L
   2000003     1.00813275E+04  # ~s_R
   1000004     1.01052646E+04  # ~c_L
   2000004     1.00847056E+04  # ~c_R
   1000005     2.89151090E+03  # ~b_1
   2000005     3.55138980E+03  # ~b_2
   1000006     2.89395229E+03  # ~t_1
   2000006     4.85974942E+03  # ~t_2
   1000011     5.30324910E+02  # ~e_L-
   2000011     1.00252859E+03  # ~e_R-
   1000012     5.23874355E+02  # ~nu_eL
   1000013     5.30315933E+02  # ~mu_L-
   2000013     1.00251933E+03  # ~mu_R-
   1000014     5.23865757E+02  # ~nu_muL
   1000015     1.51013738E+03  # ~tau_1-
   2000015     2.01045428E+03  # ~tau_2-
   1000016     2.00834109E+03  # ~nu_tauL
   1000021     3.70293499E+03  # ~g
   1000022     3.32277361E+02  # ~chi_10
   1000023     3.66910936E+02  # ~chi_20
   1000025     3.98660999E+02  # ~chi_30
   1000035     1.38064126E+03  # ~chi_40
   1000024     3.68167993E+02  # ~chi_1+
   1000037     1.38058612E+03  # ~chi_2+
# Higgs mixing
Block alpha # Effective Higgs mixing angle
          -5.85825680E-02   # alpha
Block Hmix Q=  3.75018439E+03  # Higgs mixing parameters
   1    3.58065589E+02  # mu
   2    1.63329515E+01  # tan[beta](Q)
   3    2.43029759E+02  # v(Q)
   4    5.21583982E+06  # m^2_A(Q)
Block stopmix # stop mixing matrix
   1  1     9.99974953E-01   # Re[R_st(1,1)]
   1  2     7.07771001E-03   # Re[R_st(1,2)]
   2  1    -7.07771001E-03   # Re[R_st(2,1)]
   2  2     9.99974953E-01   # Re[R_st(2,2)]
Block sbotmix # sbottom mixing matrix
   1  1     9.99992421E-01   # Re[R_sb(1,1)]
   1  2     3.89341482E-03   # Re[R_sb(1,2)]
   2  1    -3.89341482E-03   # Re[R_sb(2,1)]
   2  2     9.99992421E-01   # Re[R_sb(2,2)]
Block staumix # stau mixing matrix
   1  1     4.65897664E-03   # Re[R_sta(1,1)]
   1  2     9.99989147E-01   # Re[R_sta(1,2)]
   2  1    -9.99989147E-01   # Re[R_sta(2,1)]
   2  2     4.65897664E-03   # Re[R_sta(2,2)]
Block Nmix # neutralino mixing matrix
   1  1    -7.56729997E-01   # Re[N(1,1)]
   1  2    -2.21272358E-02   # Re[N(1,2)]
   1  3    -4.82445297E-01   # Re[N(1,3)]
   1  4     4.40586692E-01   # Re[N(1,4)]
   2  1     3.95990829E-02   # Re[N(2,1)]
   2  2     5.23919180E-02   # Re[N(2,2)]
   2  3    -7.07301371E-01   # Re[N(2,3)]
   2  4    -7.03854936E-01   # Re[N(2,4)]
   3  1     6.52525278E-01   # Re[N(3,1)]
   3  2    -2.64777684E-02   # Re[N(3,2)]
   3  3    -5.16535819E-01   # Re[N(3,3)]
   3  4     5.53805414E-01   # Re[N(3,4)]
   4  1     1.54464435E-03   # Re[N(4,1)]
   4  2    -9.98030260E-01   # Re[N(4,2)]
   4  3    -1.27300537E-02   # Re[N(4,3)]
   4  4    -6.14097685E-02   # Re[N(4,4)]
Block Umix # chargino mixing matrix
   1  1    -1.80369648E-02   # Re[U(1,1)]
   1  2     9.99837321E-01   # Re[U(1,2)]
   2  1    -9.99837321E-01   # Re[U(2,1)]
   2  2    -1.80369648E-02   # Re[U(2,2)]
Block Vmix # chargino mixing matrix
   1  1     8.69255366E-02   # Re[V(1,1)]
   1  2     9.96214812E-01   # Re[V(1,2)]
   2  1     9.96214812E-01   # Re[V(2,1)]
   2  2    -8.69255366E-02   # Re[V(2,2)]
DECAY        23     2.49520000E+00   # Z
DECAY        24     2.08500000E+00   # W
DECAY   1000011     2.06232051E-01   # ~e^-_L
#    BR                NDA      ID1      ID2
     7.59260951E-01    2     1000022        11   # BR(~e^-_L -> chi^0_1 e^-)
     1.66394033E-02    2     1000023        11   # BR(~e^-_L -> chi^0_2 e^-)
     2.22123139E-01    2     1000025        11   # BR(~e^-_L -> chi^0_3 e^-)
     1.97641476E-03    2    -1000024        12   # BR(~e^-_L -> chi^-_1 nu_e)
#    BR                NDA      ID1      ID2       ID3
DECAY   2000011     3.81171240E+00   # ~e^-_R
#    BR                NDA      ID1      ID2
     5.99635696E-01    2     1000022        11   # BR(~e^-_R -> chi^0_1 e^-)
     1.55432995E-03    2     1000023        11   # BR(~e^-_R -> chi^0_2 e^-)
     3.98809965E-01    2     1000025        11   # BR(~e^-_R -> chi^0_3 e^-)
DECAY   1000013     2.06501865E-01   # ~mu^-_L
#    BR                NDA      ID1      ID2
     7.58671803E-01    2     1000022        13   # BR(~mu^-_L -> chi^0_1 mu^-)
     1.73001331E-02    2     1000023        13   # BR(~mu^-_L -> chi^0_2 mu^-)
     2.22054297E-01    2     1000025        13   # BR(~mu^-_L -> chi^0_3 mu^-)
     1.97367464E-03    2    -1000024        14   # BR(~mu^-_L -> chi^-_1 nu_mu)
#    BR                NDA      ID1      ID2       ID3
DECAY   2000013     3.81469815E+00   # ~mu^-_R
#    BR                NDA      ID1      ID2
     5.99252309E-01    2     1000022        13   # BR(~mu^-_R -> chi^0_1 mu^-)
     1.74732150E-03    2     1000023        13   # BR(~mu^-_R -> chi^0_2 mu^-)
     3.98590436E-01    2     1000025        13   # BR(~mu^-_R -> chi^0_3 mu^-)
     3.87113126E-04    2    -1000024        14   # BR(~mu^-_R -> chi^-_1 nu_mu)
DECAY   1000015     8.22989053E+00   # ~tau^-_1
#    BR                NDA      ID1      ID2
     4.99949489E-01    2     1000022        15   # BR(~tau^-_1 -> chi^0_1 tau^-)
     4.66029137E-02    2     1000023        15   # BR(~tau^-_1 -> chi^0_2 tau^-)
     3.63023160E-01    2     1000025        15   # BR(~tau^-_1 -> chi^0_3 tau^-)
     9.04243789E-02    2    -1000024        16   # BR(~tau^-_1 -> chi^-_1 nu_tau)
DECAY   2000015     1.08712546E+01   # ~tau^-_2
#    BR                NDA      ID1      ID2
     1.62262122E-01    2     1000022        15   # BR(~tau^-_2 -> chi^0_1 tau^-)
     5.21941873E-02    2     1000023        15   # BR(~tau^-_2 -> chi^0_2 tau^-)
     1.03760185E-01    2     1000025        15   # BR(~tau^-_2 -> chi^0_3 tau^-)
     2.26015254E-01    2     1000035        15   # BR(~tau^-_2 -> chi^0_4 tau^-)
     4.32515080E-04    2    -1000024        16   # BR(~tau^-_2 -> chi^-_1 nu_tau)
     4.54468457E-01    2    -1000037        16   # BR(~tau^-_2 -> chi^-_2 nu_tau)
     4.33794653E-04    2     1000015        23   # BR(~tau^-_2 -> ~tau^-_1 Z)
     4.33484221E-04    2     1000015        25   # BR(~tau^-_2 -> ~tau^-_1 h^0)
#    BR                NDA      ID1      ID2       ID3
DECAY   1000012     1.87266289E-01   # ~nu_e
#    BR                NDA      ID1      ID2
     6.42349416E-01    2     1000022        12   # BR(~nu_e -> chi^0_1 nu_e)
     3.11853958E-03    2     1000023        12   # BR(~nu_e -> chi^0_2 nu_e)
     3.06870199E-01    2     1000025        12   # BR(~nu_e -> chi^0_3 nu_e)
     4.76618457E-02    2     1000024        11   # BR(~nu_e -> chi^+_1 e^-)
DECAY   1000014     1.87517875E-01   # ~nu_mu
#    BR                NDA      ID1      ID2
     6.41448727E-01    2     1000022        14   # BR(~nu_mu -> chi^0_1 nu_mu)
     3.11410759E-03    2     1000023        14   # BR(~nu_mu -> chi^0_2 nu_mu)
     3.06425773E-01    2     1000025        14   # BR(~nu_mu -> chi^0_3 nu_mu)
     4.90113925E-02    2     1000024        13   # BR(~nu_mu -> chi^+_1 mu^-)
DECAY   1000016     1.08896970E+01   # ~nu_tau
#    BR                NDA      ID1      ID2
     1.12136655E-01    2     1000022        16   # BR(~nu_tau -> chi^0_1 nu_tau)
     7.40091302E-04    2     1000023        16   # BR(~nu_tau -> chi^0_2 nu_tau)
     1.05373705E-01    2     1000025        16   # BR(~nu_tau -> chi^0_3 nu_tau)
     2.25280115E-01    2     1000035        16   # BR(~nu_tau -> chi^0_4 nu_tau)
     1.07360705E-01    2     1000024        15   # BR(~nu_tau -> chi^+_1 tau^-)
     4.48242641E-01    2     1000037        15   # BR(~nu_tau -> chi^+_2 tau^-)
     8.66086731E-04    2     1000015        24   # BR(~nu_tau -> ~tau^-_1 W^+)
DECAY   2000001     6.01134393E+02   # ~d_R
#    BR                NDA      ID1      ID2
     5.34990864E-03    2     1000022         1   # BR(~d_R -> chi^0_1 d)
     3.97414922E-03    2     1000025         1   # BR(~d_R -> chi^0_3 d)
     9.90661240E-01    2     1000021         1   # BR(~d_R -> ~g d)
DECAY   1000001     7.27769283E+02   # ~d_L
#    BR                NDA      ID1      ID2
     7.73599092E-04    2     1000022         1   # BR(~d_L -> chi^0_1 d)
     1.25323726E-04    2     1000023         1   # BR(~d_L -> chi^0_2 d)
     1.24027840E-03    2     1000025         1   # BR(~d_L -> chi^0_3 d)
     5.86588766E-02    2     1000035         1   # BR(~d_L -> chi^0_4 d)
     1.17678459E-01    2    -1000037         2   # BR(~d_L -> chi^-_2 u)
     8.21483801E-01    2     1000021         1   # BR(~d_L -> ~g d)
DECAY   2000003     6.01145445E+02   # ~s_R
#    BR                NDA      ID1      ID2
     5.35193075E-03    2     1000022         3   # BR(~s_R -> chi^0_1 s)
     3.97650505E-03    2     1000025         3   # BR(~s_R -> chi^0_3 s)
     9.90643201E-01    2     1000021         3   # BR(~s_R -> ~g s)
DECAY   1000003     7.27778529E+02   # ~s_L
#    BR                NDA      ID1      ID2
     7.75344765E-04    2     1000022         3   # BR(~s_L -> chi^0_1 s)
     1.29093589E-04    2     1000023         3   # BR(~s_L -> chi^0_2 s)
     1.24227342E-03    2     1000025         3   # BR(~s_L -> chi^0_3 s)
     5.86581389E-02    2     1000035         3   # BR(~s_L -> chi^0_4 s)
     1.17677014E-01    2    -1000037         4   # BR(~s_L -> chi^-_2 c)
     8.21473495E-01    2     1000021         3   # BR(~s_L -> ~g s)
DECAY   1000005     8.41610670E+01   # ~b_1
#    BR                NDA      ID1      ID2
     1.35672755E-02    2     1000022         5   # BR(~b_1 -> chi^0_1 b)
     2.50566085E-02    2     1000023         5   # BR(~b_1 -> chi^0_2 b)
     1.59583317E-02    2     1000025         5   # BR(~b_1 -> chi^0_3 b)
     8.98240119E-02    2     1000035         5   # BR(~b_1 -> chi^0_4 b)
     6.70918790E-01    2    -1000024         6   # BR(~b_1 -> chi^-_1 t)
     1.84674983E-01    2    -1000037         6   # BR(~b_1 -> chi^-_2 t)
DECAY   2000005     1.22947453E+01   # ~b_2
#    BR                NDA      ID1      ID2
     1.87886534E-01    2     1000022         5   # BR(~b_2 -> chi^0_1 b)
     2.10456766E-01    2     1000023         5   # BR(~b_2 -> chi^0_2 b)
     1.79817060E-01    2     1000025         5   # BR(~b_2 -> chi^0_3 b)
     1.17014626E-04    2     1000035         5   # BR(~b_2 -> chi^0_4 b)
     4.18247353E-01    2    -1000024         6   # BR(~b_2 -> chi^-_1 t)
     2.34111543E-04    2    -1000037         6   # BR(~b_2 -> chi^-_2 t)
     1.39273461E-03    2     1000006       -24   # BR(~b_2 -> ~t_1 W^-)
     6.98913721E-04    2     1000005        23   # BR(~b_2 -> ~b_1 Z)
     1.14951245E-03    2     1000005        25   # BR(~b_2 -> ~b_1 h^0)
DECAY   2000002     6.18307423E+02   # ~u_R
#    BR                NDA      ID1      ID2
     2.08122550E-02    2     1000022         2   # BR(~u_R -> chi^0_1 u)
     1.54602659E-02    2     1000025         2   # BR(~u_R -> chi^0_3 u)
     9.63670431E-01    2     1000021         2   # BR(~u_R -> ~g u)
DECAY   1000002     7.27753782E+02   # ~u_L
#    BR                NDA      ID1      ID2
     1.50095089E-03    2     1000022         2   # BR(~u_L -> chi^0_1 u)
     2.15391606E-04    2     1000023         2   # BR(~u_L -> chi^0_2 u)
     4.90443865E-04    2     1000025         2   # BR(~u_L -> chi^0_3 u)
     5.85932316E-02    2     1000035         2   # BR(~u_L -> chi^0_4 u)
     9.21185829E-04    2     1000024         1   # BR(~u_L -> chi^+_1 d)
     1.16825260E-01    2     1000037         1   # BR(~u_L -> chi^+_2 d)
     8.21453536E-01    2     1000021         2   # BR(~u_L -> ~g u)
DECAY   2000004     6.18314765E+02   # ~c_R
#    BR                NDA      ID1      ID2
     2.08131505E-02    2     1000022         4   # BR(~c_R -> chi^0_1 c)
     1.54618933E-02    2     1000025         4   # BR(~c_R -> chi^0_3 c)
     9.63659077E-01    2     1000021         4   # BR(~c_R -> ~g c)
DECAY   1000004     7.27762994E+02   # ~c_L
#    BR                NDA      ID1      ID2
     1.50190701E-03    2     1000022         4   # BR(~c_L -> chi^0_1 c)
     2.17874784E-04    2     1000023         4   # BR(~c_L -> chi^0_2 c)
     4.91975027E-04    2     1000025         4   # BR(~c_L -> chi^0_3 c)
     5.85925095E-02    2     1000035         4   # BR(~c_L -> chi^0_4 c)
     9.28710713E-04    2     1000024         3   # BR(~c_L -> chi^+_1 s)
     1.16823796E-01    2     1000037         3   # BR(~c_L -> chi^+_2 s)
     8.21443227E-01    2     1000021         4   # BR(~c_L -> ~g c)
DECAY   1000006     8.43766971E+01   # ~t_1
#    BR                NDA      ID1      ID2
     1.36780727E-01    2     1000022         6   # BR(~t_1 -> chi^0_1 t)
     3.35267774E-01    2     1000023         6   # BR(~t_1 -> chi^0_2 t)
     2.05544276E-01    2     1000025         6   # BR(~t_1 -> chi^0_3 t)
     8.85573152E-02    2     1000035         6   # BR(~t_1 -> chi^0_4 t)
     5.10499746E-02    2     1000024         5   # BR(~t_1 -> chi^+_1 b)
     1.79107625E-01    2     1000037         5   # BR(~t_1 -> chi^+_2 b)
#    BR                NDA      ID1      ID2       ID3
     3.68964293E-03    3     1000022        24         5   # BR(~t_1 -> chi^0_1 W^+ b)
DECAY   2000006     2.75637059E+02   # ~t_2
#    BR                NDA      ID1      ID2
     9.07876553E-02    2     1000022         6   # BR(~t_2 -> chi^0_1 t)
     1.76550386E-01    2     1000023         6   # BR(~t_2 -> chi^0_2 t)
     1.26506500E-01    2     1000025         6   # BR(~t_2 -> chi^0_3 t)
     1.02851519E-03    2     1000035         6   # BR(~t_2 -> chi^0_4 t)
     3.54651239E-01    2     1000024         5   # BR(~t_2 -> chi^+_1 b)
     2.06770636E-03    2     1000037         5   # BR(~t_2 -> chi^+_2 b)
     2.40818088E-01    2     1000021         6   # BR(~t_2 -> ~g t)
     3.81555808E-03    2     1000005        24   # BR(~t_2 -> ~b_1 W^+)
     1.90095404E-03    2     1000006        23   # BR(~t_2 -> ~t_1 Z)
     1.87337610E-03    2     1000006        25   # BR(~t_2 -> ~t_1 h^0)
DECAY   1000024     3.51122216E-05   # chi^+_1
#    BR                NDA      ID1      ID2       ID3
     3.34582085E-01    3     1000022        -1         2   # BR(chi^+_1 -> chi^0_1 d_bar u)
     3.32666924E-01    3     1000022        -3         4   # BR(chi^+_1 -> chi^0_1 s_bar c)
     1.11274955E-01    3     1000022       -11        12   # BR(chi^+_1 -> chi^0_1 e^+ nu_e)
     1.11274850E-01    3     1000022       -13        14   # BR(chi^+_1 -> chi^0_1 mu^+ nu_mu)
     1.10200976E-01    3     1000022       -15        16   # BR(chi^+_1 -> chi^0_1 tau^+ nu_tau)
DECAY   1000037     2.91076630E+01   # chi^+_2
#    BR                NDA      ID1      ID2
     1.51652533E-01    2    -1000011        12   # BR(chi^+_2 -> ~e^+_L nu_e)
     1.51654310E-01    2    -1000013        14   # BR(chi^+_2 -> ~mu^+_L nu_mu)
     1.51818499E-01    2     1000012       -11   # BR(chi^+_2 -> ~nu_e e^+)
     1.51820201E-01    2     1000014       -13   # BR(chi^+_2 -> ~nu_mu mu^+)
     4.23437152E-02    2     1000022        24   # BR(chi^+_2 -> chi^0_1 W^+)
     9.70137489E-02    2     1000023        24   # BR(chi^+_2 -> chi^0_2 W^+)
     5.43905854E-02    2     1000025        24   # BR(chi^+_2 -> chi^0_3 W^+)
     9.61132855E-02    2     1000024        23   # BR(chi^+_2 -> chi^+_1 Z)
     9.52545071E-02    2     1000024        25   # BR(chi^+_2 -> chi^+_1 h^0)
#    BR                NDA      ID1      ID2       ID3
     2.70106409E-03    3     1000024         6        -6   # BR(chi^+_2 -> chi^+_1 t t_bar)
     1.07026191E-03    3     1000022        -5         6   # BR(chi^+_2 -> chi^0_1 b_bar t)
     2.82348577E-03    3     1000023        -5         6   # BR(chi^+_2 -> chi^0_2 b_bar t)
     1.33355955E-03    3     1000025        -5         6   # BR(chi^+_2 -> chi^0_3 b_bar t)
DECAY   1000022     0.00000000E+00   # chi^0_1
DECAY   1000023     7.40519896E-05   # chi^0_2
#    BR                NDA      ID1      ID2
     3.25984340E-02    2     1000022        22   # BR(chi^0_2 -> chi^0_1 photon)
#    BR                NDA      ID1      ID2       ID3
     1.17822087E-01    3     1000022         2        -2   # BR(chi^0_2 -> chi^0_1 u u_bar)
     1.15837519E-01    3     1000022         4        -4   # BR(chi^0_2 -> chi^0_1 c c_bar)
     1.51071153E-01    3     1000022         1        -1   # BR(chi^0_2 -> chi^0_1 d d_bar)
     1.51058833E-01    3     1000022         3        -3   # BR(chi^0_2 -> chi^0_1 s s_bar)
     1.29044340E-01    3     1000022         5        -5   # BR(chi^0_2 -> chi^0_1 b b_bar)
     3.39350169E-02    3     1000022        11       -11   # BR(chi^0_2 -> chi^0_1 e^- e^+)
     3.39312003E-02    3     1000022        13       -13   # BR(chi^0_2 -> chi^0_1 mu^- mu^+)
     3.28748151E-02    3     1000022        15       -15   # BR(chi^0_2 -> chi^0_1 tau^- tau^+)
     2.01826601E-01    3     1000022        12       -12   # BR(chi^0_2 -> chi^0_1 nu_e nu_bar_e)
DECAY   1000025     1.07513302E-04   # chi^0_3
#    BR                NDA      ID1      ID2
     5.69714761E-04    2     1000022        22   # BR(chi^0_3 -> chi^0_1 photon)
     3.39804481E-02    2     1000023        22   # BR(chi^0_3 -> chi^0_2 photon)
#    BR                NDA      ID1      ID2       ID3
     2.05429289E-04    3     1000022         2        -2   # BR(chi^0_3 -> chi^0_1 u u_bar)
     2.04917741E-04    3     1000022         4        -4   # BR(chi^0_3 -> chi^0_1 c c_bar)
     2.62619502E-04    3     1000022         1        -1   # BR(chi^0_3 -> chi^0_1 d d_bar)
     2.62617101E-04    3     1000022         3        -3   # BR(chi^0_3 -> chi^0_1 s s_bar)
     2.60593618E-04    3     1000022         5        -5   # BR(chi^0_3 -> chi^0_1 b b_bar)
     9.62487017E-04    3     1000022        12       -12   # BR(chi^0_3 -> chi^0_1 nu_e nu_bar_e)
     7.05378176E-02    3     1000023         2        -2   # BR(chi^0_3 -> chi^0_2 u u_bar)
     6.91092441E-02    3     1000023         4        -4   # BR(chi^0_3 -> chi^0_2 c c_bar)
     9.04437130E-02    3     1000023         1        -1   # BR(chi^0_3 -> chi^0_2 d d_bar)
     9.04348149E-02    3     1000023         3        -3   # BR(chi^0_3 -> chi^0_2 s s_bar)
     7.47635180E-02    3     1000023         5        -5   # BR(chi^0_3 -> chi^0_2 b b_bar)
     2.04841763E-02    3     1000023        11       -11   # BR(chi^0_3 -> chi^0_2 e^- e^+)
     2.04813800E-02    3     1000023        13       -13   # BR(chi^0_3 -> chi^0_2 mu^- mu^+)
     1.95485453E-02    3     1000023        15       -15   # BR(chi^0_3 -> chi^0_2 tau^- tau^+)
     1.21070495E-01    3     1000023        12       -12   # BR(chi^0_3 -> chi^0_2 nu_e nu_bar_e)
     6.46482245E-02    3     1000024         1        -2   # BR(chi^0_3 -> chi^+_1 d u_bar)
     6.46482245E-02    3    -1000024        -1         2   # BR(chi^0_3 -> chi^-_1 d_bar u)
     6.41211901E-02    3     1000024         3        -4   # BR(chi^0_3 -> chi^+_1 s c_bar)
     6.41211901E-02    3    -1000024        -3         4   # BR(chi^0_3 -> chi^-_1 s_bar c)
     2.16063575E-02    3     1000024        11       -12   # BR(chi^0_3 -> chi^+_1 e^- nu_bar_e)
     2.16063575E-02    3    -1000024       -11        12   # BR(chi^0_3 -> chi^-_1 e^+ nu_e)
     2.16063048E-02    3     1000024        13       -14   # BR(chi^0_3 -> chi^+_1 mu^- nu_bar_mu)
     2.16063048E-02    3    -1000024       -13        14   # BR(chi^0_3 -> chi^-_1 mu^+ nu_mu)
     2.11926149E-02    3     1000024        15       -16   # BR(chi^0_3 -> chi^+_1 tau^- nu_bar_tau)
     2.11926149E-02    3    -1000024       -15        16   # BR(chi^0_3 -> chi^-_1 tau^+ nu_tau)
DECAY   1000035     3.08403356E+01   # chi^0_4
#    BR                NDA      ID1      ID2
     7.11946806E-02    2     1000011       -11   # BR(chi^0_4 -> ~e^-_L e^+)
     7.11946806E-02    2    -1000011        11   # BR(chi^0_4 -> ~e^+_L e^-)
     7.11955131E-02    2     1000013       -13   # BR(chi^0_4 -> ~mu^-_L mu^+)
     7.11955131E-02    2    -1000013        13   # BR(chi^0_4 -> ~mu^+_L mu^-)
     7.20296400E-02    2     1000012       -12   # BR(chi^0_4 -> ~nu_e nu_bar_e)
     7.20296400E-02    2    -1000012        12   # BR(chi^0_4 -> ~nu^*_e nu_e)
     7.20304354E-02    2     1000014       -14   # BR(chi^0_4 -> ~nu_mu nu_bar_mu)
     7.20304354E-02    2    -1000014        14   # BR(chi^0_4 -> ~nu^*_mu nu_mu)
     9.20326691E-02    2     1000024       -24   # BR(chi^0_4 -> chi^+_1 W^-)
     9.20326691E-02    2    -1000024        24   # BR(chi^0_4 -> chi^-_1 W^+)
     2.69380945E-02    2     1000022        23   # BR(chi^0_4 -> chi^0_1 Z)
     2.75051643E-02    2     1000023        23   # BR(chi^0_4 -> chi^0_2 Z)
     3.71524555E-02    2     1000025        23   # BR(chi^0_4 -> chi^0_3 Z)
     3.39118216E-02    2     1000022        25   # BR(chi^0_4 -> chi^0_1 h^0)
     6.27176092E-02    2     1000023        25   # BR(chi^0_4 -> chi^0_2 h^0)
     4.63066226E-02    2     1000025        25   # BR(chi^0_4 -> chi^0_3 h^0)
#    BR                NDA      ID1      ID2       ID3
     6.04675520E-04    3     1000022         6        -6   # BR(chi^0_4 -> chi^0_1 t t_bar)
     1.15870332E-03    3     1000023         6        -6   # BR(chi^0_4 -> chi^0_2 t t_bar)
     7.19656061E-04    3     1000025         6        -6   # BR(chi^0_4 -> chi^0_3 t t_bar)
     2.99593568E-03    3     1000024         5        -6   # BR(chi^0_4 -> chi^+_1 b t_bar)
     2.99593568E-03    3    -1000024        -5         6   # BR(chi^0_4 -> chi^-_1 b_bar t)
DECAY   1000021     3.37333139E+01   # ~g
#    BR                NDA      ID1      ID2
     1.58605294E-04    2     1000006        -4   # BR(~g -> ~t_1 c_bar)
     1.58605294E-04    2    -1000006         4   # BR(~g -> ~t^*_1 c)
     2.40849162E-01    2     1000006        -6   # BR(~g -> ~t_1 t_bar)
     2.40849162E-01    2    -1000006         6   # BR(~g -> ~t^*_1 t)
     2.47396107E-01    2     1000005        -5   # BR(~g -> ~b_1 b_bar)
     2.47396107E-01    2    -1000005         5   # BR(~g -> ~b^*_1 b)
     1.04418999E-02    2     2000005        -5   # BR(~g -> ~b_2 b_bar)
     1.04418999E-02    2    -2000005         5   # BR(~g -> ~b^*_2 b)
#    BR                NDA      ID1      ID2       ID3
     2.37183579E-04    3     1000022         6        -6   # BR(~g -> chi^0_1 t t_bar)
     4.86629997E-04    3     1000023         6        -6   # BR(~g -> chi^0_2 t t_bar)
     3.80173581E-04    3     1000025         6        -6   # BR(~g -> chi^0_3 t t_bar)
     4.94592955E-04    3     1000024         5        -6   # BR(~g -> chi^+_1 b t_bar)
     4.94592955E-04    3    -1000024        -5         6   # BR(~g -> chi^-_1 b_bar t)
DECAY        25     3.02859669E-03   # Gamma(h0)
     2.62774075E-03   2        22        22   # BR(h0 -> photon photon)
     1.33138373E-03   2        22        23   # BR(h0 -> photon Z)
     2.14894637E-02   2        23        23   # BR(h0 -> Z Z)
     1.91873605E-01   2       -24        24   # BR(h0 -> W W)
     8.49059731E-02   2        21        21   # BR(h0 -> gluon gluon)
     5.35533112E-09   2       -11        11   # BR(h0 -> Electron electron)
     2.38212456E-04   2       -13        13   # BR(h0 -> Muon muon)
     6.87003997E-02   2       -15        15   # BR(h0 -> Tau tau)
     1.52456794E-07   2        -2         2   # BR(h0 -> Up up)
     2.95871699E-02   2        -4         4   # BR(h0 -> Charm charm)
     6.23617957E-07   2        -1         1   # BR(h0 -> Down down)
     2.25547302E-04   2        -3         3   # BR(h0 -> Strange strange)
     5.99019722E-01   2        -5         5   # BR(h0 -> Bottom bottom)
DECAY        35     2.06824523E+01   # Gamma(HH)
     1.33188439E-08   2        22        22   # BR(HH -> photon photon)
     9.20737865E-08   2        22        23   # BR(HH -> photon Z)
     7.47684574E-06   2        23        23   # BR(HH -> Z Z)
     3.28073284E-06   2       -24        24   # BR(HH -> W W)
     2.54823083E-06   2        21        21   # BR(HH -> gluon gluon)
     4.02946691E-09   2       -11        11   # BR(HH -> Electron electron)
     1.79396405E-04   2       -13        13   # BR(HH -> Muon muon)
     5.46936707E-02   2       -15        15   # BR(HH -> Tau tau)
     8.59510768E-13   2        -2         2   # BR(HH -> Up up)
     1.66721663E-07   2        -4         4   # BR(HH -> Charm charm)
     1.17691624E-02   2        -6         6   # BR(HH -> Top top)
     3.26411396E-07   2        -1         1   # BR(HH -> Down down)
     1.18063078E-04   2        -3         3   # BR(HH -> Strange strange)
     2.95989267E-01   2        -5         5   # BR(HH -> Bottom bottom)
     6.57170552E-03   2  -1000024   1000024   # BR(HH -> Chargino1 chargino1)
     1.70442735E-01   2  -1000024   1000037   # BR(HH -> Chargino1 chargino2)
     1.70442735E-01   2  -1000037   1000024   # BR(HH -> Chargino2 chargino1)
     2.33231599E-02   2   1000022   1000022   # BR(HH -> neutralino1 neutralino1)
     3.17035351E-02   2   1000022   1000023   # BR(HH -> neutralino1 neutralino2)
     1.53309151E-03   2   1000022   1000025   # BR(HH -> neutralino1 neutralino3)
     5.65335390E-02   2   1000022   1000035   # BR(HH -> neutralino1 neutralino4)
     5.04157279E-04   2   1000023   1000023   # BR(HH -> neutralino2 neutralino2)
     3.73649444E-02   2   1000023   1000025   # BR(HH -> neutralino2 neutralino3)
     7.10353806E-02   2   1000023   1000035   # BR(HH -> neutralino2 neutralino4)
     2.40344148E-02   2   1000025   1000025   # BR(HH -> neutralino3 neutralino3)
     4.36953324E-02   2   1000025   1000035   # BR(HH -> neutralino3 neutralino4)
     3.56258039E-05   2        25        25   # BR(HH -> h0 h0)
     1.75270154E-06   2  -1000011   1000011   # BR(HH -> Selectron1 selectron1)
     1.68197542E-13   2  -2000011   1000011   # BR(HH -> Selectron2 selectron1)
     1.68197542E-13   2  -1000011   2000011   # BR(HH -> Selectron1 selectron2)
     6.06417660E-07   2  -2000011   2000011   # BR(HH -> Selectron2 selectron2)
     1.74978927E-06   2  -1000013   1000013   # BR(HH -> Smuon1 smuon1)
     7.19094980E-09   2  -2000013   1000013   # BR(HH -> Smuon2 smuon1)
     7.19094980E-09   2  -1000013   2000013   # BR(HH -> Smuon1 smuon2)
     6.05526827E-07   2  -2000013   2000013   # BR(HH -> Smuon2 smuon2)
DECAY        36     2.04887806E+01   # Gamma(A0)
     1.43193141E-08   2        22        22   # BR(A0 -> photon photon)
     1.31229943E-07   2        22        23   # BR(A0 -> photon Z)
     2.78498564E-05   2        21        21   # BR(A0 -> gluon gluon)
     3.96243010E-09   2       -11        11   # BR(A0 -> Electron electron)
     1.76411924E-04   2       -13        13   # BR(A0 -> Muon muon)
     5.37845861E-02   2       -15        15   # BR(A0 -> Tau tau)
     8.18747709E-13   2        -2         2   # BR(A0 -> Up up)
     1.58801656E-07   2        -4         4   # BR(A0 -> Charm charm)
     1.14882852E-02   2        -6         6   # BR(A0 -> Top top)
     3.20982750E-07   2        -1         1   # BR(A0 -> Down down)
     1.16099218E-04   2        -3         3   # BR(A0 -> Strange strange)
     2.91067704E-01   2        -5         5   # BR(A0 -> Bottom bottom)
     6.99292467E-03   2  -1000024   1000024   # BR(A0 -> Chargino1 chargino1)
     1.71895491E-01   2  -1000024   1000037   # BR(A0 -> Chargino1 chargino2)
     1.71895491E-01   2  -1000037   1000024   # BR(A0 -> Chargino2 chargino1)
     3.19519542E-02   2   1000022   1000022   # BR(A0 -> neutralino1 neutralino1)
     2.38132923E-02   2   1000022   1000023   # BR(A0 -> neutralino1 neutralino2)
     1.95388453E-03   2   1000022   1000025   # BR(A0 -> neutralino1 neutralino3)
     4.21870345E-02   2   1000022   1000035   # BR(A0 -> neutralino1 neutralino4)
     4.46645479E-04   2   1000023   1000023   # BR(A0 -> neutralino2 neutralino2)
     2.59289672E-02   2   1000023   1000025   # BR(A0 -> neutralino2 neutralino3)
     1.01500561E-01   2   1000023   1000035   # BR(A0 -> neutralino2 neutralino4)
     3.55818038E-02   2   1000025   1000025   # BR(A0 -> neutralino3 neutralino3)
     2.91797809E-02   2   1000025   1000035   # BR(A0 -> neutralino3 neutralino4)
     1.05879740E-05   2        23        25   # BR(A0 -> Z h0)
     2.94418250E-39   2        25        25   # BR(A0 -> h0 h0)
     1.67625253E-13   2  -2000011   1000011   # BR(A0 -> Selectron2 selectron1)
     1.67625253E-13   2  -1000011   2000011   # BR(A0 -> Selectron1 selectron2)
     7.16650347E-09   2  -2000013   1000013   # BR(A0 -> Smuon2 smuon1)
     7.16650347E-09   2  -1000013   2000013   # BR(A0 -> Smuon1 smuon2)
DECAY        37     2.19837137E+01   # Gamma(Hp)
     5.04431250E-09   2       -11        12   # BR(Hp -> Electron nu_e)
     2.15660114E-04   2       -13        14   # BR(Hp -> Muon nu_mu)
     6.10009128E-02   2       -15        16   # BR(Hp -> Tau nu_tau)
     3.30404925E-07   2        -1         2   # BR(Hp -> Down up)
     5.55950927E-06   2        -3         2   # BR(Hp -> Strange up)
     3.42993473E-06   2        -5         2   # BR(Hp -> Bottom up)
     2.39840968E-08   2        -1         4   # BR(Hp -> Down charm)
     1.19257343E-04   2        -3         4   # BR(Hp -> Strange charm)
     4.80313739E-04   2        -5         4   # BR(Hp -> Bottom charm)
     9.36653001E-07   2        -1         6   # BR(Hp -> Down top)
     2.05970200E-05   2        -3         6   # BR(Hp -> Strange top)
     3.37691878E-01   2        -5         6   # BR(Hp -> Bottom top)
     6.41902987E-02   2   1000022   1000024   # BR(Hp -> neutralino1 chargino1)
     9.30715697E-02   2   1000022   1000037   # BR(Hp -> neutralino1 chargino2)
     1.23828235E-03   2   1000023   1000024   # BR(Hp -> neutralino2 chargino1)
     1.63519951E-01   2   1000023   1000037   # BR(Hp -> neutralino2 chargino2)
     4.78570028E-02   2   1000024   1000025   # BR(Hp -> chargino1 neutralino3)
     6.87372176E-02   2   1000025   1000037   # BR(Hp -> neutralino3 chargino2)
     1.61823914E-01   2   1000024   1000035   # BR(Hp -> chargino1 neutralino4)
     9.93242561E-06   2        24        25   # BR(Hp -> W h0)
     8.28805153E-11   2        24        35   # BR(Hp -> W HH)
     7.22880934E-11   2        24        36   # BR(Hp -> W A0)
     6.45839167E-06   2  -1000011   1000012   # BR(Hp -> Selectron1 snu_e1)
     3.23809600E-13   2  -2000011   1000012   # BR(Hp -> Selectron2 snu_e1)
     6.45455473E-06   2  -1000013   1000014   # BR(Hp -> Smuon1 snu_mu1)
     1.38437422E-08   2  -2000013   1000014   # BR(Hp -> Smuon2 snu_mu1)
DECAY         6     2.43000000E+00   # top
#    BR                NDA      ID1      ID2
     1.00000000E+00    2           5        24   # BR(t -> b W)
Block HiggsBoundsInputHiggsCouplingsFermions
# ScalarNormEffCoupSq PseudoSNormEffCoupSq NP IP1 IP2 IP2
    9.17897604E-01    0.00000000E+00        3  25   5   5  # h0-b-b eff. coupling^2, normalised to SM
    2.66847407E+02    0.00000000E+00        3  35   5   5  # H0-b-b eff. coupling^2, normalised to SM
    0.00000000E+00    2.66765305E+02        3  36   5   5  # A0-b-b eff. coupling^2, normalised to SM
#
    1.00030777E+00    0.00000000E+00        3  25   6   6  # h0-t-t eff. coupling^2, normalised to SM
    3.44084327E-03    0.00000000E+00        3  35   6   6  # H0-t-t eff. coupling^2, normalised to SM
    0.00000000E+00    3.74861342E-03        3  36   6   6  # A0-t-t eff. coupling^2, normalised to SM
#
    9.17897604E-01    0.00000000E+00        3  25  15  15  # h0-tau-tau eff. coupling^2, normalised to SM
    2.66847407E+02    0.00000000E+00        3  35  15  15  # H0-tau-tau eff. coupling^2, normalised to SM
    0.00000000E+00    2.66765305E+02        3  36  15  15  # A0-tau-tau eff. coupling^2, normalised to SM
#
Block HiggsBoundsInputHiggsCouplingsBosons
    9.99993410E-01        3  25  24  24  # h0-W-W eff. coupling^2, normalised to SM
    6.58958037E-06        3  35  24  24  # H0-W-W eff. coupling^2, normalised to SM
    0.00000000E+00        3  36  24  24  # A0-W-W eff. coupling^2, normalised to SM
#
    9.99993410E-01        3  25  23  23  # h0-Z-Z eff. coupling^2, normalised to SM
    6.58958037E-06        3  35  23  23  # H0-Z-Z eff. coupling^2, normalised to SM
    0.00000000E+00        3  36  23  23  # A0-Z-Z eff. coupling^2, normalised to SM
#
    1.27119824E+00        3  25  21  21  # h0-g-g eff. coupling^2, normalised to SM
    1.44071511E-03        3  35  21  21  # H0-g-g eff. coupling^2, normalised to SM
    1.00511394E-01        3  36  21  21  # A0-g-g eff. coupling^2, normalised to SM
#
    0.00000000E+00        3  25  25  23  # h0-h0-Z eff. coupling^2, normalised to SM
    0.00000000E+00        3  35  25  23  # H0-h0-Z eff. coupling^2, normalised to SM
    6.58958037E-06        3  36  25  23  # A0-h0-Z eff. coupling^2, normalised to SM
    0.00000000E+00        3  35  35  23  # H0-H0-Z eff. coupling^2, normalised to SM
    9.99993410E-01        3  36  35  23  # A0-H0-Z eff. coupling^2, normalised to SM
    0.00000000E+00        3  36  36  23  # A0-A0-Z eff. coupling^2, normalised to SM
#
    0.00000000E+00        4  25  21  21  23  # h0-g-g-Z eff. coupling^2, normalised to SM
    0.00000000E+00        4  35  21  21  23  # H0-g-g-Z eff. coupling^2, normalised to SM
    0.00000000E+00        4  36  21  21  23  # A0-g-g-Z eff. coupling^2, normalised to SM
Block SPhenoLowEnergy  # low energy observables
    1    3.28957896E-04   # BR(b -> s gamma)
    2    1.58911656E-06   # BR(b -> s mu+ mu-)
    3    3.52506686E-05   # BR(b -> s nu nu)
    4    2.58522905E-15   # BR(Bd -> e+ e-)
    5    1.10438052E-10   # BR(Bd -> mu+ mu-)
    6    2.31188896E-08   # BR(Bd -> tau+ tau-)
    7    8.68542582E-14   # BR(Bs -> e+ e-)
    8    3.71041130E-09   # BR(Bs -> mu+ mu-)
    9    7.87009490E-07   # BR(Bs -> tau+ tau-)
   10    9.64681555E-05   # BR(B_u -> tau nu)
   11    9.96479114E-01   # BR(B_u -> tau nu)/BR(B_u -> tau nu)_SM
   12    5.41976622E-01   # |Delta(M_Bd)| [ps^-1] 
   13    1.93634836E+01   # |Delta(M_Bs)| [ps^-1] 
   14    0.00000000E+00   # neutron EDM according to the chiral quark model
   15    0.00000000E+00   # neutron EDM according to the relativistic quark-parton model
   16    2.15726952E-03   # epsilon_K
   17    2.28165799E-15   # Delta(M_K)
   18    2.47986585E-11   # BR(K^0 -> pi^0 nu nu)
   19    8.29015974E-11   # BR(K^+ -> pi^+ nu nu)
   20    1.71800737E-15   # Delta(g-2)_electron/2
   21    7.34801979E-11   # Delta(g-2)_muon/2
   22   -1.68891389E-08   # Delta(g-2)_tau/2
   23    0.00000000E+00   # electric dipole moment of the electron
   24    0.00000000E+00   # electric dipole moment of the muon
   25    0.00000000E+00   # electric dipole moment of the tau
   26    0.00000000E+00   # Br(mu -> e gamma)
   27    0.00000000E+00   # Br(tau -> e gamma)
   28    0.00000000E+00   # Br(tau -> mu gamma)
   29    0.00000000E+00   # Br(mu -> 3 e)
   30    0.00000000E+00   # Br(tau -> 3 e)
   31    0.00000000E+00   # Br(tau -> 3 mu)
   39    5.71108101E-05   # Delta(rho_parameter)
   40    0.00000000E+00   # BR(Z -> e mu)
   41    0.00000000E+00   # BR(Z -> e tau)
   42    0.00000000E+00   # BR(Z -> mu tau)
Block FWCOEF Q=  1.60000000E+02  # Wilson coefficients at scale Q
#    id        order  M        value         comment
     0305 4422   00   0    -1.88819110E-01   # C7
     0305 4422   00   2    -1.97267200E-01   # C7
     0305 4322   00   2    -2.01737543E-04   # C7'
     0305 6421   00   0    -9.52278348E-02   # C8
     0305 6421   00   2    -1.07884543E-01   # C8
     0305 6321   00   2    -2.65518993E-04   # C8'
 03051111 4133   00   0     1.62406674E+00   # C9 e+e-
 03051111 4133   00   2     1.62430951E+00   # C9 e+e-
 03051111 4233   00   2     7.75714901E-05   # C9' e+e-
 03051111 4137   00   0    -4.44675884E+00   # C10 e+e-
 03051111 4137   00   2    -4.44487667E+00   # C10 e+e-
 03051111 4237   00   2    -5.75797859E-04   # C10' e+e-
 03051313 4133   00   0     1.62406674E+00   # C9 mu+mu-
 03051313 4133   00   2     1.62430923E+00   # C9 mu+mu-
 03051313 4233   00   2     7.75714357E-05   # C9' mu+mu-
 03051313 4137   00   0    -4.44675884E+00   # C10 mu+mu-
 03051313 4137   00   2    -4.44487695E+00   # C10 mu+mu-
 03051313 4237   00   2    -5.75797919E-04   # C10' mu+mu-
 03051212 4137   00   0     1.50535012E+00   # C11 nu_1 nu_1
 03051212 4137   00   2     1.50495219E+00   # C11 nu_1 nu_1
 03051212 4237   00   2     1.24575070E-04   # C11' nu_1 nu_1
 03051414 4137   00   0     1.50535012E+00   # C11 nu_2 nu_2
 03051414 4137   00   2     1.50495219E+00   # C11 nu_2 nu_2
 03051414 4237   00   2     1.24575076E-04   # C11' nu_2 nu_2
 03051616 4137   00   0     1.50535012E+00   # C11 nu_3 nu_3
 03051616 4137   00   2     1.50495238E+00   # C11 nu_3 nu_3
 03051616 4237   00   2     1.24577351E-04   # C11' nu_3 nu_3
Block IMFWCOEF Q=  1.60000000E+02  # Im(Wilson coefficients) at scale Q
#    id        order  M        value         comment
     0305 4422   00   0     3.85822908E-07   # C7
     0305 4422   00   2    -3.99347693E-06   # C7
     0305 4322   00   2     9.11436511E-08   # C7'
     0305 6421   00   0     3.30482836E-07   # C8
     0305 6421   00   2    -6.06277563E-06   # C8
     0305 6321   00   2    -6.67754620E-08   # C8'
 03051111 4133   00   2    -2.42214544E-07   # C9 e+e-
 03051111 4233   00   2     1.59229944E-06   # C9' e+e-
 03051111 4137   00   2     1.27955621E-06   # C10 e+e-
 03051111 4237   00   2    -1.18213564E-05   # C10' e+e-
 03051313 4133   00   2    -2.42213128E-07   # C9 mu+mu-
 03051313 4233   00   2     1.59229895E-06   # C9' mu+mu-
 03051313 4137   00   2     1.27955538E-06   # C10 mu+mu-
 03051313 4237   00   2    -1.18213579E-05   # C10' mu+mu-
 03051212 4137   00   2    -1.09971946E-07   # C11 nu_1 nu_1
 03051212 4237   00   2     2.55759538E-06   # C11' nu_1 nu_1
 03051414 4137   00   2    -1.09972291E-07   # C11 nu_2 nu_2
 03051414 4237   00   2     2.55759538E-06   # C11' nu_2 nu_2
 03051616 4137   00   2    -1.06469203E-07   # C11 nu_3 nu_3
 03051616 4237   00   2     2.55760656E-06   # C11' nu_3 nu_3
