# SUSY Les Houches Accord 2 - MSSM spectrum + Decays
# SPheno v4.0.5be
# W. Porod, Comput. Phys. Commun. 153 (2003) 275-315, hep-ph/0301101;
# W. Porod, F.~Staub, Comput. Phys. Commun. 183 (2012) 2458
#                     arXiv:1104.1573 [hep-ph] 
# in case of problems send email to porod@physik.uni-wuerzburg.de
# Created: 07.09.2021,  14:58
Block SPINFO         # Program information
     1   SPheno      # spectrum calculator
     2   v4.0.5be    # version number
#
Block SPhenoINFO     # SPheno specific information
    1      2         # using 2-loop RGEs
    2      2         # using pole masses for boundary conditions at mZ
Block MODSEL  # Model selection
    1    0    # general MSSM
Block MINPAR  # Input parameters
    3    1.34718282E+01  # tanb at m_Z    
    4    1.00000000E+00  # Sign(mu)
Block EXTPAR  # non-universal input parameters
    0    3.12118110E+03  # scale for input parameters
    1    1.95041827E+02  # M_1
    2    5.72981332E+02  # M_2
    3    1.67187145E+03  # M_3
   11   -7.46904099E+03  # A_t
   12    1.94141237E+03  # A_b
   13   -1.81724842E+03  # A_tau
   23    2.48574354E+02  # mu
   25    1.28631000E+01  # tan(beta)
   26    4.45073188E+03  # m_A, pole mass
   31    1.00000000E+04  # M_L11
   32    1.00000000E+04  # M_L22
   33    1.00000000E+04  # M_L33
   34    1.00000000E+04  # M_E11
   35    1.00000000E+04  # M_E22
   36    1.00000000E+04  # M_E33
   41    1.00000000E+04  # M_Q11
   42    1.00000000E+04  # M_Q22
   43    3.45131503E+03  # M_Q33
   44    1.00000000E+04  # M_U11
   45    1.00000000E+04  # M_U22
   46    2.98051554E+03  # M_U33
   47    1.00000000E+04  # M_D11
   48    1.00000000E+04  # M_D22
   49    4.41088343E+03  # M_D33
Block SMINPUTS  # SM parameters
         1     1.27908970E+02  # alpha_em^-1(MZ)^MSbar
         2     1.16637870E-05  # G_mu [GeV^-2]
         3     1.18400000E-01  # alpha_s(MZ)^MSbar
         4     9.11876000E+01  # m_Z(pole)
         5     4.18000000E+00  # m_b(m_b), MSbar
         6     1.73200000E+02  # m_t(pole)
         7     1.77700000E+00  # m_tau(pole)
         8     0.00000000E+00  # m_nu_3
        11     5.10998930E-04  # m_e(pole)
        12     0.00000000E+00  # m_nu_1
        13     1.05658372E-01  # m_muon(pole)
        14     0.00000000E+00  # m_nu_2
        21     5.00000000E-03  # m_d(2 GeV), MSbar
        22     2.50000000E-03  # m_u(2 GeV), MSbar
        23     9.50000000E-02  # m_s(2 GeV), MSbar
        24     1.27000000E+00  # m_c(m_c), MSbar
Block gauge Q=  3.12118110E+03  # (SUSY scale)
   1    3.55362975E-01  # g'(Q)^DRbar
   2    6.65198874E-01  # g(Q)^DRbar
   3    1.21977796E+00  # g3(Q)^DRbar
Block Yu Q=  3.12118110E+03  # (SUSY scale)
  1  1     8.40967062E-06   # Y_u(Q)^DRbar
  2  2     4.27211268E-03   # Y_c(Q)^DRbar
  3  3     1.01595576E+00   # Y_t(Q)^DRbar
Block Yd Q=  3.12118110E+03  # (SUSY scale)
  1  1     2.17372640E-04   # Y_d(Q)^DRbar
  2  2     4.13008016E-03   # Y_s(Q)^DRbar
  3  3     2.15565544E-01   # Y_b(Q)^DRbar
Block Ye Q=  3.12118110E+03  # (SUSY scale)
  1  1     3.79331152E-05   # Y_e(Q)^DRbar
  2  2     7.84336515E-03   # Y_mu(Q)^DRbar
  3  3     1.31912499E-01   # Y_tau(Q)^DRbar
Block Au Q=  3.12118110E+03  # (SUSY scale)
  1  1     0.00000000E+00   # A_u(Q)^DRbar
  2  2     0.00000000E+00   # A_c(Q)^DRbar
  3  3    -7.46904144E+03   # A_t(Q)^DRbar
Block Ad Q=  3.12118110E+03  # (SUSY scale)
  1  1     0.00000000E+00   # A_d(Q)^DRbar
  2  2     0.00000000E+00   # A_s(Q)^DRbar
  3  3     1.94141231E+03   # A_b(Q)^DRbar
Block Ae Q=  3.12118110E+03  # (SUSY scale)
  1  1     0.00000000E+00   # A_e(Q)^DRbar
  2  2     0.00000000E+00   # A_mu(Q)^DRbar
  3  3    -1.81724840E+03   # A_tau(Q)^DRbar
Block MSOFT Q=  3.12118110E+03  # soft SUSY breaking masses at Q
   1    1.95041827E+02  # M_1
   2    5.72981332E+02  # M_2
   3    1.67187145E+03  # M_3
  21    1.95663851E+07  # M^2_(H,d)
  22    2.58483089E+05  # M^2_(H,u)
  31    1.00000000E+04  # M_(L,11)
  32    1.00000000E+04  # M_(L,22)
  33    1.00000000E+04  # M_(L,33)
  34    1.00000000E+04  # M_(E,11)
  35    1.00000000E+04  # M_(E,22)
  36    1.00000000E+04  # M_(E,33)
  41    1.00000000E+04  # M_(Q,11)
  42    1.00000000E+04  # M_(Q,22)
  43    3.45131503E+03  # M_(Q,33)
  44    1.00000000E+04  # M_(U,11)
  45    1.00000000E+04  # M_(U,22)
  46    2.98051554E+03  # M_(U,33)
  47    1.00000000E+04  # M_(D,11)
  48    1.00000000E+04  # M_(D,22)
  49    4.41088343E+03  # M_(D,33)
Block MASS  # Mass spectrum
#   PDG code      mass          particle
         6     1.73200000E+02  # m_t(pole)
        23     9.11876000E+01  # m_Z(pole)
        24     8.04299946E+01  # W+
        15     1.77700000E+00  # m_tau(pole)
        25     1.28417278E+02  # h0
        35     4.45020924E+03  # H0
        36     4.45073188E+03  # A0
        37     4.45010756E+03  # H+
   1000001     1.01187606E+04  # ~d_L
   2000001     1.00936812E+04  # ~d_R
   1000002     1.01184081E+04  # ~u_L
   2000002     1.00968206E+04  # ~u_R
   1000003     1.01187619E+04  # ~s_L
   2000003     1.00936823E+04  # ~s_R
   1000004     1.01184093E+04  # ~c_L
   2000004     1.00968219E+04  # ~c_R
   1000005     3.39619943E+03  # ~b_1
   2000005     4.46041884E+03  # ~b_2
   1000006     2.83139418E+03  # ~t_1
   2000006     3.44062707E+03  # ~t_2
   1000011     1.00212356E+04  # ~e_L-
   2000011     1.00089610E+04  # ~e_R-
   1000012     1.00204778E+04  # ~nu_eL
   1000013     1.00212386E+04  # ~mu_L-
   2000013     1.00089668E+04  # ~mu_R-
   1000014     1.00204808E+04  # ~nu_muL
   1000015     1.00106455E+04  # ~tau_1-
   2000015     1.00221249E+04  # ~tau_2-
   1000016     1.00213494E+04  # ~nu_tauL
   1000021     2.04804878E+03  # ~g
   1000022     1.82367190E+02  # ~chi_10
   1000023     2.65173796E+02  # ~chi_20
   1000025     2.66152675E+02  # ~chi_30
   1000035     6.35990563E+02  # ~chi_40
   1000024     2.53441021E+02  # ~chi_1+
   1000037     6.36120272E+02  # ~chi_2+
# Higgs mixing
Block alpha # Effective Higgs mixing angle
          -7.41845304E-02   # alpha
Block Hmix Q=  3.12118110E+03  # Higgs mixing parameters
   1    2.48574354E+02  # mu
   2    1.28631000E+01  # tan[beta](Q)
   3    2.43143017E+02  # v(Q)
   4    1.98090143E+07  # m^2_A(Q)
Block stopmix # stop mixing matrix
   1  1     2.76495351E-01   # Re[R_st(1,1)]
   1  2     9.61015255E-01   # Re[R_st(1,2)]
   2  1    -9.61015255E-01   # Re[R_st(2,1)]
   2  2     2.76495351E-01   # Re[R_st(2,2)]
Block sbotmix # sbottom mixing matrix
   1  1     9.99999953E-01   # Re[R_sb(1,1)]
   1  2     3.06919345E-04   # Re[R_sb(1,2)]
   2  1    -3.06919345E-04   # Re[R_sb(2,1)]
   2  2     9.99999953E-01   # Re[R_sb(2,2)]
Block staumix # stau mixing matrix
   1  1     3.89146391E-02   # Re[R_sta(1,1)]
   1  2     9.99242539E-01   # Re[R_sta(1,2)]
   2  1    -9.99242539E-01   # Re[R_sta(2,1)]
   2  2     3.89146391E-02   # Re[R_sta(2,2)]
Block Nmix # neutralino mixing matrix
   1  1    -8.97277167E-01   # Re[N(1,1)]
   1  2     5.22752193E-02   # Re[N(1,2)]
   1  3    -3.52565281E-01   # Re[N(1,3)]
   1  4     2.60497043E-01   # Re[N(1,4)]
   2  1    -6.34023114E-02   # Re[N(2,1)]
   2  2     5.98409400E-02   # Re[N(2,2)]
   2  3     6.96487731E-01   # Re[N(2,3)]
   2  4     7.12252799E-01   # Re[N(2,4)]
   3  1    -4.36577006E-01   # Re[N(3,1)]
   3  2    -1.53497856E-01   # Re[N(3,2)]
   3  3     6.20689135E-01   # Re[N(3,3)]
   3  4    -6.32916996E-01   # Re[N(3,4)]
   4  1    -1.65635152E-02   # Re[N(4,1)]
   4  2     9.84949121E-01   # Re[N(4,2)]
   4  3     7.31270242E-02   # Re[N(4,3)]
   4  4    -1.55734764E-01   # Re[N(4,4)]
Block Umix # chargino mixing matrix
   1  1    -1.03150852E-01   # Re[U(1,1)]
   1  2     9.94665724E-01   # Re[U(1,2)]
   2  1     9.94665724E-01   # Re[U(2,1)]
   2  2     1.03150852E-01   # Re[U(2,2)]
Block Vmix # chargino mixing matrix
   1  1    -2.20227370E-01   # Re[V(1,1)]
   1  2     9.75448566E-01   # Re[V(1,2)]
   2  1     9.75448566E-01   # Re[V(2,1)]
   2  2     2.20227370E-01   # Re[V(2,2)]
DECAY        23     2.49520000E+00   # Z
DECAY        24     2.08500000E+00   # W
DECAY   2000011     5.02505481E+01   # ~e^-_R
#    BR                NDA      ID1      ID2
     8.05225497E-01    2     1000022        11   # BR(~e^-_R -> chi^0_1 e^-)
     4.01747591E-03    2     1000023        11   # BR(~e^-_R -> chi^0_2 e^-)
     1.90484661E-01    2     1000025        11   # BR(~e^-_R -> chi^0_3 e^-)
     2.72360200E-04    2     1000035        11   # BR(~e^-_R -> chi^0_4 e^-)
DECAY   1000011     1.43858753E+02   # ~e^-_L
#    BR                NDA      ID1      ID2
     5.58851061E-02    2     1000022        11   # BR(~e^-_L -> chi^0_1 e^-)
     2.06504518E-04    2     1000023        11   # BR(~e^-_L -> chi^0_2 e^-)
     4.57912700E-02    2     1000025        11   # BR(~e^-_L -> chi^0_3 e^-)
     2.89782239E-01    2     1000035        11   # BR(~e^-_L -> chi^0_4 e^-)
     6.51640467E-03    2    -1000024        12   # BR(~e^-_L -> chi^-_1 nu_e)
     6.01818476E-01    2    -1000037        12   # BR(~e^-_L -> chi^-_2 nu_e)
#    BR                NDA      ID1      ID2       ID3
DECAY   2000013     5.02750429E+01   # ~mu^-_R
#    BR                NDA      ID1      ID2
     8.04863906E-01    2     1000022        13   # BR(~mu^-_R -> chi^0_1 mu^-)
     4.13354791E-03    2     1000023        13   # BR(~mu^-_R -> chi^0_2 mu^-)
     1.90485703E-01    2     1000025        13   # BR(~mu^-_R -> chi^0_3 mu^-)
     2.73520131E-04    2     1000035        13   # BR(~mu^-_R -> chi^0_4 mu^-)
     2.40751511E-04    2    -1000024        14   # BR(~mu^-_R -> chi^-_1 nu_mu)
DECAY   1000013     1.43871044E+02   # ~mu^-_L
#    BR                NDA      ID1      ID2
     5.58909381E-02    2     1000022        13   # BR(~mu^-_L -> chi^0_1 mu^-)
     2.47781464E-04    2     1000023        13   # BR(~mu^-_L -> chi^0_2 mu^-)
     4.58201652E-02    2     1000025        13   # BR(~mu^-_L -> chi^0_3 mu^-)
     2.89758022E-01    2     1000035        13   # BR(~mu^-_L -> chi^0_4 mu^-)
     6.51584990E-03    2    -1000024        14   # BR(~mu^-_L -> chi^-_1 nu_mu)
     6.01767243E-01    2    -1000037        14   # BR(~mu^-_L -> chi^-_2 nu_mu)
#    BR                NDA      ID1      ID2       ID3
DECAY   1000015     5.73184632E+01   # ~tau^-_1
#    BR                NDA      ID1      ID2
     7.15845351E-01    2     1000022        15   # BR(~tau^-_1 -> chi^0_1 tau^-)
     3.17133189E-02    2     1000023        15   # BR(~tau^-_1 -> chi^0_2 tau^-)
     1.89377559E-01    2     1000025        15   # BR(~tau^-_1 -> chi^0_3 tau^-)
     4.50717527E-04    2     1000035        15   # BR(~tau^-_1 -> chi^0_4 tau^-)
     6.21041569E-02    2    -1000024        16   # BR(~tau^-_1 -> chi^-_1 nu_tau)
     5.08896675E-04    2    -1000037        16   # BR(~tau^-_1 -> chi^-_2 nu_tau)
DECAY   2000015     1.47198518E+02   # ~tau^-_2
#    BR                NDA      ID1      ID2
     5.66597880E-02    2     1000022        15   # BR(~tau^-_2 -> chi^0_1 tau^-)
     1.20473181E-02    2     1000023        15   # BR(~tau^-_2 -> chi^0_2 tau^-)
     5.41773510E-02    2     1000025        15   # BR(~tau^-_2 -> chi^0_3 tau^-)
     2.83400655E-01    2     1000035        15   # BR(~tau^-_2 -> chi^0_4 tau^-)
     5.44756529E-03    2    -1000024        16   # BR(~tau^-_2 -> chi^-_1 nu_tau)
     5.88267323E-01    2    -1000037        16   # BR(~tau^-_2 -> chi^-_2 nu_tau)
#    BR                NDA      ID1      ID2       ID3
DECAY   1000012     1.43863423E+02   # ~nu_e
#    BR                NDA      ID1      ID2
     8.65874185E-02    2     1000022        12   # BR(~nu_e -> chi^0_1 nu_e)
     2.68856747E-03    2     1000023        12   # BR(~nu_e -> chi^0_2 nu_e)
     1.94615862E-03    2     1000025        12   # BR(~nu_e -> chi^0_3 nu_e)
     3.00352426E-01    2     1000035        12   # BR(~nu_e -> chi^0_4 nu_e)
     2.97001057E-02    2     1000024        11   # BR(~nu_e -> chi^+_1 e^-)
     5.78725324E-01    2     1000037        11   # BR(~nu_e -> chi^+_2 e^-)
#    BR                NDA      ID1      ID2       ID3
DECAY   1000014     1.43875714E+02   # ~nu_mu
#    BR                NDA      ID1      ID2
     8.65800477E-02    2     1000022        14   # BR(~nu_mu -> chi^0_1 nu_mu)
     2.68833861E-03    2     1000023        14   # BR(~nu_mu -> chi^0_2 nu_mu)
     1.94599295E-03    2     1000025        14   # BR(~nu_mu -> chi^0_3 nu_mu)
     3.00326859E-01    2     1000035        14   # BR(~nu_mu -> chi^0_4 nu_mu)
     2.97817975E-02    2     1000024        13   # BR(~nu_mu -> chi^+_1 mu^-)
     5.78676964E-01    2     1000037        13   # BR(~nu_mu -> chi^+_2 mu^-)
#    BR                NDA      ID1      ID2       ID3
DECAY   1000016     1.47340627E+02   # ~nu_tau
#    BR                NDA      ID1      ID2
     8.45513396E-02    2     1000022        16   # BR(~nu_tau -> chi^0_1 nu_tau)
     2.62534690E-03    2     1000023        16   # BR(~nu_tau -> chi^0_2 nu_tau)
     1.90039549E-03    2     1000025        16   # BR(~nu_tau -> chi^0_3 nu_tau)
     2.93290101E-01    2     1000035        16   # BR(~nu_tau -> chi^0_4 nu_tau)
     5.22663152E-02    2     1000024        15   # BR(~nu_tau -> chi^+_1 tau^-)
     5.65366501E-01    2     1000037        15   # BR(~nu_tau -> chi^+_2 tau^-)
#    BR                NDA      ID1      ID2       ID3
DECAY   2000001     7.38106425E+02   # ~d_R
#    BR                NDA      ID1      ID2
     6.14274301E-03    2     1000022         1   # BR(~d_R -> chi^0_1 d)
     1.45315404E-03    2     1000025         1   # BR(~d_R -> chi^0_3 d)
     9.92371358E-01    2     1000021         1   # BR(~d_R -> ~g d)
DECAY   1000001     8.68593003E+02   # ~d_L
#    BR                NDA      ID1      ID2
     2.30428193E-03    2     1000022         1   # BR(~d_L -> chi^0_1 d)
     2.59087691E-04    2     1000023         1   # BR(~d_L -> chi^0_2 d)
     2.93861230E-04    2     1000025         1   # BR(~d_L -> chi^0_3 d)
     4.96478928E-02    2     1000035         1   # BR(~d_L -> chi^0_4 d)
     1.08979479E-03    2    -1000024         2   # BR(~d_L -> chi^-_1 u)
     1.00660466E-01    2    -1000037         2   # BR(~d_L -> chi^-_2 u)
     8.45744616E-01    2     1000021         1   # BR(~d_L -> ~g d)
DECAY   2000003     7.38113341E+02   # ~s_R
#    BR                NDA      ID1      ID2
     6.14326089E-03    2     1000022         3   # BR(~s_R -> chi^0_1 s)
     1.45492108E-03    2     1000025         3   # BR(~s_R -> chi^0_3 s)
     9.92362185E-01    2     1000021         3   # BR(~s_R -> ~g s)
DECAY   1000003     8.68600219E+02   # ~s_L
#    BR                NDA      ID1      ID2
     2.30475275E-03    2     1000022         3   # BR(~s_L -> chi^0_1 s)
     2.60995390E-04    2     1000023         3   # BR(~s_L -> chi^0_2 s)
     2.95375467E-04    2     1000025         3   # BR(~s_L -> chi^0_3 s)
     4.96475079E-02    2     1000035         3   # BR(~s_L -> chi^0_4 s)
     1.09380453E-03    2    -1000024         4   # BR(~s_L -> chi^-_1 c)
     1.00659847E-01    2    -1000037         4   # BR(~s_L -> chi^-_2 c)
     8.45737717E-01    2     1000021         3   # BR(~s_L -> ~g s)
DECAY   1000005     2.78490536E+02   # ~b_1
#    BR                NDA      ID1      ID2
     3.79542751E-03    2     1000022         5   # BR(~b_1 -> chi^0_1 b)
     5.67017603E-03    2     1000023         5   # BR(~b_1 -> chi^0_2 b)
     4.59317264E-03    2     1000025         5   # BR(~b_1 -> chi^0_3 b)
     4.88323049E-02    2     1000035         5   # BR(~b_1 -> chi^0_4 b)
     2.35261060E-01    2    -1000024         6   # BR(~b_1 -> chi^-_1 t)
     1.10901043E-01    2    -1000037         6   # BR(~b_1 -> chi^-_2 t)
     3.89780677E-01    2     1000021         5   # BR(~b_1 -> ~g b)
     2.01166140E-01    2     1000006       -24   # BR(~b_1 -> ~t_1 W^-)
DECAY   2000005     2.29928718E+02   # ~b_2
#    BR                NDA      ID1      ID2
     1.09070491E-02    2     1000022         5   # BR(~b_2 -> chi^0_1 b)
     8.68310377E-03    2     1000023         5   # BR(~b_2 -> chi^0_2 b)
     8.91158573E-03    2     1000025         5   # BR(~b_2 -> chi^0_3 b)
     1.75718084E-02    2    -1000024         6   # BR(~b_2 -> chi^-_1 t)
     1.85922280E-04    2    -1000037         6   # BR(~b_2 -> chi^-_2 t)
     9.53639098E-01    2     1000021         5   # BR(~b_2 -> ~g b)
DECAY   2000002     7.55272557E+02   # ~u_R
#    BR                NDA      ID1      ID2
     2.40199854E-02    2     1000022         2   # BR(~u_R -> chi^0_1 u)
     1.19843314E-04    2     1000023         2   # BR(~u_R -> chi^0_2 u)
     5.68225708E-03    2     1000025         2   # BR(~u_R -> chi^0_3 u)
     9.70169789E-01    2     1000021         2   # BR(~u_R -> ~g u)
DECAY   1000002     8.68582946E+02   # ~u_L
#    BR                NDA      ID1      ID2
     5.92226944E-04    2     1000022         2   # BR(~u_L -> chi^0_1 u)
     1.20697339E-04    2     1000023         2   # BR(~u_L -> chi^0_2 u)
     2.73798667E-03    2     1000025         2   # BR(~u_L -> chi^0_3 u)
     4.90555691E-02    2     1000035         2   # BR(~u_L -> chi^0_4 u)
     4.96743822E-03    2     1000024         1   # BR(~u_L -> chi^+_1 d)
     9.68061703E-02    2     1000037         1   # BR(~u_L -> chi^+_2 d)
     8.45719911E-01    2     1000021         2   # BR(~u_L -> ~g u)
DECAY   2000004     7.55279960E+02   # ~c_R
#    BR                NDA      ID1      ID2
     2.40200804E-02    2     1000022         4   # BR(~c_R -> chi^0_1 c)
     1.22300905E-04    2     1000023         4   # BR(~c_R -> chi^0_2 c)
     5.68414513E-03    2     1000025         4   # BR(~c_R -> chi^0_3 c)
     9.70160385E-01    2     1000021         4   # BR(~c_R -> ~g c)
DECAY   1000004     8.68590121E+02   # ~c_L
#    BR                NDA      ID1      ID2
     5.92509067E-04    2     1000022         4   # BR(~c_L -> chi^0_1 c)
     1.22838922E-04    2     1000023         4   # BR(~c_L -> chi^0_2 c)
     2.73965528E-03    2     1000025         4   # BR(~c_L -> chi^0_3 c)
     4.90552722E-02    2     1000035         4   # BR(~c_L -> chi^0_4 c)
     4.97129283E-03    2     1000024         3   # BR(~c_L -> chi^+_1 s)
     9.68054242E-02    2     1000037         3   # BR(~c_L -> chi^+_2 s)
     8.45713008E-01    2     1000021         4   # BR(~c_L -> ~g c)
DECAY   1000006     1.72043964E+02   # ~t_1
#    BR                NDA      ID1      ID2
     6.04177274E-02    2     1000022         6   # BR(~t_1 -> chi^0_1 t)
     1.71571724E-01    2     1000023         6   # BR(~t_1 -> chi^0_2 t)
     1.34304752E-01    2     1000025         6   # BR(~t_1 -> chi^0_3 t)
     5.89492845E-04    2     1000035         6   # BR(~t_1 -> chi^0_4 t)
     3.18734825E-01    2     1000024         5   # BR(~t_1 -> chi^+_1 b)
     3.85386168E-04    2     1000037         5   # BR(~t_1 -> chi^+_2 b)
     3.13948631E-01    2     1000021         6   # BR(~t_1 -> ~g t)
#    BR                NDA      ID1      ID2       ID3
DECAY   2000006     2.93546704E+02   # ~t_2
#    BR                NDA      ID1      ID2
     1.02349287E-02    2     1000022         6   # BR(~t_2 -> chi^0_1 t)
     1.16706399E-01    2     1000023         6   # BR(~t_2 -> chi^0_2 t)
     1.00764001E-01    2     1000025         6   # BR(~t_2 -> chi^0_3 t)
     5.71723967E-02    2     1000035         6   # BR(~t_2 -> chi^0_4 t)
     1.38897989E-02    2     1000024         5   # BR(~t_2 -> chi^+_1 b)
     1.02293121E-01    2     1000037         5   # BR(~t_2 -> chi^+_2 b)
     3.62118730E-01    2     1000021         6   # BR(~t_2 -> ~g t)
     1.08307370E-01    2     1000006        23   # BR(~t_2 -> ~t_1 Z)
     1.28513255E-01    2     1000006        25   # BR(~t_2 -> ~t_1 h^0)
DECAY   1000024     7.37565487E-04   # chi^+_1
#    BR                NDA      ID1      ID2       ID3
     3.33530998E-01    3     1000022        -1         2   # BR(chi^+_1 -> chi^0_1 d_bar u)
     3.33228039E-01    3     1000022        -3         4   # BR(chi^+_1 -> chi^0_1 s_bar c)
     1.11176652E-01    3     1000022       -11        12   # BR(chi^+_1 -> chi^0_1 e^+ nu_e)
     1.11176174E-01    3     1000022       -13        14   # BR(chi^+_1 -> chi^0_1 mu^+ nu_mu)
     1.10888136E-01    3     1000022       -15        16   # BR(chi^+_1 -> chi^0_1 tau^+ nu_tau)
DECAY   1000037     5.60967563E+00   # chi^+_2
#    BR                NDA      ID1      ID2
     1.88519344E-02    2     1000022        24   # BR(chi^+_2 -> chi^0_1 W^+)
     2.74125494E-01    2     1000023        24   # BR(chi^+_2 -> chi^0_2 W^+)
     2.36623852E-01    2     1000025        24   # BR(chi^+_2 -> chi^0_3 W^+)
     2.48960857E-01    2     1000024        23   # BR(chi^+_2 -> chi^+_1 Z)
     2.19488464E-01    2     1000024        25   # BR(chi^+_2 -> chi^+_1 h^0)
#    BR                NDA      ID1      ID2       ID3
     1.24001441E-04    3     1000022        -5         6   # BR(chi^+_2 -> chi^0_1 b_bar t)
     8.45965567E-04    3     1000023        -5         6   # BR(chi^+_2 -> chi^0_2 b_bar t)
     9.20502804E-04    3     1000025        -5         6   # BR(chi^+_2 -> chi^0_3 b_bar t)
DECAY   1000022     0.00000000E+00   # chi^0_1
DECAY   1000023     6.66421242E-03   # chi^0_2
#    BR                NDA      ID1      ID2
     1.41901045E-03    2     1000022        22   # BR(chi^0_2 -> chi^0_1 photon)
#    BR                NDA      ID1      ID2       ID3
     1.18763336E-01    3     1000022         2        -2   # BR(chi^0_2 -> chi^0_1 u u_bar)
     1.18546912E-01    3     1000022         4        -4   # BR(chi^0_2 -> chi^0_1 c c_bar)
     1.52277888E-01    3     1000022         1        -1   # BR(chi^0_2 -> chi^0_1 d d_bar)
     1.52276703E-01    3     1000022         3        -3   # BR(chi^0_2 -> chi^0_1 s s_bar)
     1.49861441E-01    3     1000022         5        -5   # BR(chi^0_2 -> chi^0_1 b b_bar)
     3.43646772E-02    3     1000022        11       -11   # BR(chi^0_2 -> chi^0_1 e^- e^+)
     3.43642175E-02    3     1000022        13       -13   # BR(chi^0_2 -> chi^0_1 mu^- mu^+)
     3.42289194E-02    3     1000022        15       -15   # BR(chi^0_2 -> chi^0_1 tau^- tau^+)
     2.03641011E-01    3     1000022        12       -12   # BR(chi^0_2 -> chi^0_1 nu_e nu_bar_e)
DECAY   1000025     1.21539042E-04   # chi^0_3
#    BR                NDA      ID1      ID2
     9.90664327E-04    2     1000022        22   # BR(chi^0_3 -> chi^0_1 photon)
#    BR                NDA      ID1      ID2       ID3
     1.18090264E-01    3     1000022         2        -2   # BR(chi^0_3 -> chi^0_1 u u_bar)
     1.17894175E-01    3     1000022         4        -4   # BR(chi^0_3 -> chi^0_1 c c_bar)
     1.51397861E-01    3     1000022         1        -1   # BR(chi^0_3 -> chi^0_1 d d_bar)
     1.51396799E-01    3     1000022         3        -3   # BR(chi^0_3 -> chi^0_1 s s_bar)
     1.49370880E-01    3     1000022         5        -5   # BR(chi^0_3 -> chi^0_1 b b_bar)
     3.41470801E-02    3     1000022        11       -11   # BR(chi^0_3 -> chi^0_1 e^- e^+)
     3.41467238E-02    3     1000022        13       -13   # BR(chi^0_3 -> chi^0_1 mu^- mu^+)
     3.40411037E-02    3     1000022        15       -15   # BR(chi^0_3 -> chi^0_1 tau^- tau^+)
     2.02469029E-01    3     1000022        12       -12   # BR(chi^0_3 -> chi^0_1 nu_e nu_bar_e)
     1.03602424E-03    3     1000024         1        -2   # BR(chi^0_3 -> chi^+_1 d u_bar)
     1.03602424E-03    3    -1000024        -1         2   # BR(chi^0_3 -> chi^-_1 d_bar u)
     9.86592956E-04    3     1000024         3        -4   # BR(chi^0_3 -> chi^+_1 s c_bar)
     9.86592956E-04    3    -1000024        -3         4   # BR(chi^0_3 -> chi^-_1 s_bar c)
     3.45340430E-04    3     1000024        11       -12   # BR(chi^0_3 -> chi^+_1 e^- nu_bar_e)
     3.45340430E-04    3    -1000024       -11        12   # BR(chi^0_3 -> chi^-_1 e^+ nu_e)
     3.45221887E-04    3     1000024        13       -14   # BR(chi^0_3 -> chi^+_1 mu^- nu_bar_mu)
     3.45221887E-04    3    -1000024       -13        14   # BR(chi^0_3 -> chi^-_1 mu^+ nu_mu)
     3.13958127E-04    3     1000024        15       -16   # BR(chi^0_3 -> chi^+_1 tau^- nu_bar_tau)
     3.13958127E-04    3    -1000024       -15        16   # BR(chi^0_3 -> chi^-_1 tau^+ nu_tau)
DECAY   1000035     6.39213893E+00   # chi^0_4
#    BR                NDA      ID1      ID2
     2.26644283E-01    2     1000024       -24   # BR(chi^0_4 -> chi^+_1 W^-)
     2.26644283E-01    2    -1000024        24   # BR(chi^0_4 -> chi^-_1 W^+)
     2.40456312E-03    2     1000022        23   # BR(chi^0_4 -> chi^0_1 Z)
     2.16378015E-01    2     1000023        23   # BR(chi^0_4 -> chi^0_2 Z)
     2.32587809E-02    2     1000025        23   # BR(chi^0_4 -> chi^0_3 Z)
     1.21362213E-02    2     1000022        25   # BR(chi^0_4 -> chi^0_1 h^0)
     1.35131203E-01    2     1000023        25   # BR(chi^0_4 -> chi^0_2 h^0)
     1.55441404E-01    2     1000025        25   # BR(chi^0_4 -> chi^0_3 h^0)
#    BR                NDA      ID1      ID2       ID3
     9.66705986E-04    3     1000024         5        -6   # BR(chi^0_4 -> chi^+_1 b t_bar)
     9.66705986E-04    3    -1000024        -5         6   # BR(chi^0_4 -> chi^-_1 b_bar t)
DECAY   1000021     5.32614550E-02   # ~g
#    BR                NDA      ID1      ID2
     5.12031276E-04    2     1000022        21   # BR(~g -> chi^0_1 g)
     5.49302452E-03    2     1000023        21   # BR(~g -> chi^0_2 g)
     4.51651559E-03    2     1000025        21   # BR(~g -> chi^0_3 g)
     1.45184649E-04    2     1000035        21   # BR(~g -> chi^0_4 g)
#    BR                NDA      ID1      ID2       ID3
     1.06353626E-04    3     1000022         2        -2   # BR(~g -> chi^0_1 u u_bar)
     1.06357229E-04    3     1000022         4        -4   # BR(~g -> chi^0_1 c c_bar)
     4.44947092E-02    3     1000022         6        -6   # BR(~g -> chi^0_1 t t_bar)
     3.05722845E-03    3     1000022         5        -5   # BR(~g -> chi^0_1 b b_bar)
     2.05251270E-01    3     1000023         6        -6   # BR(~g -> chi^0_2 t t_bar)
     4.21695200E-03    3     1000023         5        -5   # BR(~g -> chi^0_2 b b_bar)
     1.74525082E-01    3     1000025         6        -6   # BR(~g -> chi^0_3 t t_bar)
     3.56367911E-03    3     1000025         5        -5   # BR(~g -> chi^0_3 b b_bar)
     1.52647133E-04    3     1000035         2        -2   # BR(~g -> chi^0_4 u u_bar)
     1.52647754E-04    3     1000035         4        -4   # BR(~g -> chi^0_4 c c_bar)
     2.28343250E-02    3     1000035         6        -6   # BR(~g -> chi^0_4 t t_bar)
     1.54447726E-04    3     1000035         1        -1   # BR(~g -> chi^0_4 d d_bar)
     1.54447788E-04    3     1000035         3        -3   # BR(~g -> chi^0_4 s s_bar)
     1.72859520E-02    3     1000035         5        -5   # BR(~g -> chi^0_4 b b_bar)
     2.15107721E-01    3     1000024         5        -6   # BR(~g -> chi^+_1 b t_bar)
     2.15107721E-01    3    -1000024        -5         6   # BR(~g -> chi^-_1 b_bar t)
     3.07068225E-04    3     1000037         1        -2   # BR(~g -> chi^+_2 d u_bar)
     3.07068225E-04    3    -1000037        -1         2   # BR(~g -> chi^-_2 d_bar u)
     3.07068907E-04    3     1000037         3        -4   # BR(~g -> chi^+_2 s c_bar)
     3.07068907E-04    3    -1000037        -3         4   # BR(~g -> chi^-_2 s_bar c)
     4.08042308E-02    3     1000037         5        -6   # BR(~g -> chi^+_2 b t_bar)
     4.08042308E-02    3    -1000037        -5         6   # BR(~g -> chi^-_2 b_bar t)
DECAY        25     3.99704285E-03   # Gamma(h0)
     2.56931636E-03   2        22        22   # BR(h0 -> photon photon)
     1.95512786E-03   2        22        23   # BR(h0 -> photon Z)
     4.06261680E-02   2        23        23   # BR(h0 -> Z Z)
     3.14723434E-01   2       -24        24   # BR(h0 -> W W)
     7.60004534E-02   2        21        21   # BR(h0 -> gluon gluon)
     4.36765242E-09   2       -11        11   # BR(h0 -> Electron electron)
     1.94282583E-04   2       -13        13   # BR(h0 -> Muon muon)
     5.60224007E-02   2       -15        15   # BR(h0 -> Tau tau)
     1.23715507E-07   2        -2         2   # BR(h0 -> Up up)
     2.40127993E-02   2        -4         4   # BR(h0 -> Charm charm)
     5.03108890E-07   2        -1         1   # BR(h0 -> Down down)
     1.81962815E-04   2        -3         3   # BR(h0 -> Strange strange)
     4.83713424E-01   2        -5         5   # BR(h0 -> Bottom bottom)
DECAY        35     6.72450955E+01   # Gamma(HH)
     6.25310840E-08   2        22        22   # BR(HH -> photon photon)
     1.00792164E-07   2        22        23   # BR(HH -> photon Z)
     1.50266934E-06   2        23        23   # BR(HH -> Z Z)
     2.81329944E-07   2       -24        24   # BR(HH -> W W)
     6.05734399E-07   2        21        21   # BR(HH -> gluon gluon)
     1.62730803E-09   2       -11        11   # BR(HH -> Electron electron)
     7.24647923E-05   2       -13        13   # BR(HH -> Muon muon)
     2.09300087E-02   2       -15        15   # BR(HH -> Tau tau)
     7.92584899E-13   2        -2         2   # BR(HH -> Up up)
     1.53767833E-07   2        -4         4   # BR(HH -> Charm charm)
     1.13652313E-02   2        -6         6   # BR(HH -> Top top)
     1.14040221E-07   2        -1         1   # BR(HH -> Down down)
     4.12500599E-05   2        -3         3   # BR(HH -> Strange strange)
     1.08529948E-01   2        -5         5   # BR(HH -> Bottom bottom)
     2.81766373E-02   2  -1000024   1000024   # BR(HH -> Chargino1 chargino1)
     2.44539368E-01   2  -1000024   1000037   # BR(HH -> Chargino1 chargino2)
     2.44539368E-01   2  -1000037   1000024   # BR(HH -> Chargino2 chargino1)
     4.32564653E-03   2  -1000037   1000037   # BR(HH -> Chargino2 chargino2)
     1.95299658E-02   2   1000022   1000022   # BR(HH -> neutralino1 neutralino1)
     3.56441364E-02   2   1000022   1000023   # BR(HH -> neutralino1 neutralino2)
     1.88650608E-02   2   1000022   1000025   # BR(HH -> neutralino1 neutralino3)
     2.59955313E-02   2   1000022   1000035   # BR(HH -> neutralino1 neutralino4)
     2.84122595E-03   2   1000023   1000023   # BR(HH -> neutralino2 neutralino2)
     3.89122189E-03   2   1000023   1000025   # BR(HH -> neutralino2 neutralino3)
     1.47386208E-01   2   1000023   1000035   # BR(HH -> neutralino2 neutralino4)
     1.27537132E-03   2   1000025   1000025   # BR(HH -> neutralino3 neutralino3)
     7.97465526E-02   2   1000025   1000035   # BR(HH -> neutralino3 neutralino4)
     2.29200663E-03   2   1000035   1000035   # BR(HH -> neutralino4 neutralino4)
     9.97505002E-06   2        25        25   # BR(HH -> h0 h0)
DECAY        36     6.67803118E+01   # Gamma(A0)
     7.64314694E-08   2        22        22   # BR(A0 -> photon photon)
     9.75463566E-08   2        22        23   # BR(A0 -> photon Z)
     6.92962979E-06   2        21        21   # BR(A0 -> gluon gluon)
     1.56107294E-09   2       -11        11   # BR(A0 -> Electron electron)
     6.95153786E-05   2       -13        13   # BR(A0 -> Muon muon)
     2.00781441E-02   2       -15        15   # BR(A0 -> Tau tau)
     7.31796712E-13   2        -2         2   # BR(A0 -> Up up)
     1.41972271E-07   2        -4         4   # BR(A0 -> Charm charm)
     1.05460599E-02   2        -6         6   # BR(A0 -> Top top)
     1.09396537E-07   2        -1         1   # BR(A0 -> Down down)
     3.95704088E-05   2        -3         3   # BR(A0 -> Strange strange)
     1.04109741E-01   2        -5         5   # BR(A0 -> Bottom bottom)
     3.30175854E-02   2  -1000024   1000024   # BR(A0 -> Chargino1 chargino1)
     2.41706448E-01   2  -1000024   1000037   # BR(A0 -> Chargino1 chargino2)
     2.41706448E-01   2  -1000037   1000024   # BR(A0 -> Chargino2 chargino1)
     8.85887561E-03   2  -1000037   1000037   # BR(A0 -> Chargino2 chargino2)
     2.47908031E-02   2   1000022   1000022   # BR(A0 -> neutralino1 neutralino1)
     2.47127894E-02   2   1000022   1000023   # BR(A0 -> neutralino1 neutralino2)
     2.62301783E-02   2   1000022   1000025   # BR(A0 -> neutralino1 neutralino3)
     3.18167535E-02   2   1000022   1000035   # BR(A0 -> neutralino1 neutralino4)
     2.13731014E-03   2   1000023   1000023   # BR(A0 -> neutralino2 neutralino2)
     3.84602989E-03   2   1000023   1000025   # BR(A0 -> neutralino2 neutralino3)
     1.07254276E-01   2   1000023   1000035   # BR(A0 -> neutralino2 neutralino4)
     1.76399988E-03   2   1000025   1000025   # BR(A0 -> neutralino3 neutralino3)
     1.12687400E-01   2   1000025   1000035   # BR(A0 -> neutralino3 neutralino4)
     4.61710503E-03   2   1000035   1000035   # BR(A0 -> neutralino4 neutralino4)
     3.60875870E-06   2        23        25   # BR(A0 -> Z h0)
     4.50228684E-40   2        25        25   # BR(A0 -> h0 h0)
DECAY        37     6.88304576E+01   # Gamma(Hp)
     1.94045506E-09   2       -11        12   # BR(Hp -> Electron nu_e)
     8.29605143E-05   2       -13        14   # BR(Hp -> Muon nu_mu)
     2.34659599E-02   2       -15        16   # BR(Hp -> Tau nu_tau)
     1.18222127E-07   2        -1         2   # BR(Hp -> Down up)
     2.00432402E-06   2        -3         2   # BR(Hp -> Strange up)
     1.31373535E-06   2        -5         2   # BR(Hp -> Bottom up)
     1.35761084E-08   2        -1         4   # BR(Hp -> Down charm)
     4.27781348E-05   2        -3         4   # BR(Hp -> Strange charm)
     1.83970255E-04   2        -5         4   # BR(Hp -> Bottom charm)
     8.81835050E-07   2        -1         6   # BR(Hp -> Down top)
     1.92905158E-05   2        -3         6   # BR(Hp -> Strange top)
     1.37431558E-01   2        -5         6   # BR(Hp -> Bottom top)
     5.67447832E-02   2   1000022   1000024   # BR(Hp -> neutralino1 chargino1)
     6.00750200E-02   2   1000022   1000037   # BR(Hp -> neutralino1 chargino2)
     5.45706441E-03   2   1000023   1000024   # BR(Hp -> neutralino2 chargino1)
     2.41227451E-01   2   1000023   1000037   # BR(Hp -> neutralino2 chargino2)
     2.66522658E-02   2   1000024   1000025   # BR(Hp -> chargino1 neutralino3)
     2.04972204E-01   2   1000025   1000037   # BR(Hp -> neutralino3 chargino2)
     2.43634959E-01   2   1000024   1000035   # BR(Hp -> chargino1 neutralino4)
     1.89960937E-06   2   1000035   1000037   # BR(Hp -> neutralino4 chargino2)
     3.50077892E-06   2        24        25   # BR(Hp -> W h0)
DECAY         6     2.43000000E+00   # top
#    BR                NDA      ID1      ID2
     1.00000000E+00    2           5        24   # BR(t -> b W)
Block HiggsBoundsInputHiggsCouplingsFermions
# ScalarNormEffCoupSq PseudoSNormEffCoupSq NP IP1 IP2 IP2
    9.14403836E-01    0.00000000E+00        3  25   5   5  # h0-b-b eff. coupling^2, normalised to SM
    1.65544938E+02    0.00000000E+00        3  35   5   5  # H0-b-b eff. coupling^2, normalised to SM
    0.00000000E+00    1.65459342E+02        3  36   5   5  # A0-b-b eff. coupling^2, normalised to SM
#
    1.00051732E+00    0.00000000E+00        3  25   6   6  # h0-t-t eff. coupling^2, normalised to SM
    5.52645639E-03    0.00000000E+00        3  35   6   6  # H0-t-t eff. coupling^2, normalised to SM
    0.00000000E+00    6.04378085E-03        3  36   6   6  # A0-t-t eff. coupling^2, normalised to SM
#
    9.14403836E-01    0.00000000E+00        3  25  15  15  # h0-tau-tau eff. coupling^2, normalised to SM
    1.65544938E+02    0.00000000E+00        3  35  15  15  # H0-tau-tau eff. coupling^2, normalised to SM
    0.00000000E+00    1.65459342E+02        3  36  15  15  # A0-tau-tau eff. coupling^2, normalised to SM
#
Block HiggsBoundsInputHiggsCouplingsBosons
    9.99988432E-01        3  25  24  24  # h0-W-W eff. coupling^2, normalised to SM
    1.15679432E-05        3  35  24  24  # H0-W-W eff. coupling^2, normalised to SM
    0.00000000E+00        3  36  24  24  # A0-W-W eff. coupling^2, normalised to SM
#
    9.99988432E-01        3  25  23  23  # h0-Z-Z eff. coupling^2, normalised to SM
    1.15679432E-05        3  35  23  23  # H0-Z-Z eff. coupling^2, normalised to SM
    0.00000000E+00        3  36  23  23  # A0-Z-Z eff. coupling^2, normalised to SM
#
    1.25987965E+00        3  25  21  21  # h0-g-g eff. coupling^2, normalised to SM
    2.53312896E-03        3  35  21  21  # H0-g-g eff. coupling^2, normalised to SM
    1.04757078E-01        3  36  21  21  # A0-g-g eff. coupling^2, normalised to SM
#
    0.00000000E+00        3  25  25  23  # h0-h0-Z eff. coupling^2, normalised to SM
    0.00000000E+00        3  35  25  23  # H0-h0-Z eff. coupling^2, normalised to SM
    1.15679432E-05        3  36  25  23  # A0-h0-Z eff. coupling^2, normalised to SM
    0.00000000E+00        3  35  35  23  # H0-H0-Z eff. coupling^2, normalised to SM
    9.99988432E-01        3  36  35  23  # A0-H0-Z eff. coupling^2, normalised to SM
    0.00000000E+00        3  36  36  23  # A0-A0-Z eff. coupling^2, normalised to SM
#
    0.00000000E+00        4  25  21  21  23  # h0-g-g-Z eff. coupling^2, normalised to SM
    0.00000000E+00        4  35  21  21  23  # H0-g-g-Z eff. coupling^2, normalised to SM
    0.00000000E+00        4  36  21  21  23  # A0-g-g-Z eff. coupling^2, normalised to SM
Block SPhenoLowEnergy  # low energy observables
    1    3.10781578E-04   # BR(b -> s gamma)
    2    1.59327734E-06   # BR(b -> s mu+ mu-)
    3    3.52853660E-05   # BR(b -> s nu nu)
    4    3.00584087E-15   # BR(Bd -> e+ e-)
    5    1.28406025E-10   # BR(Bd -> mu+ mu-)
    6    2.68755569E-08   # BR(Bd -> tau+ tau-)
    7    1.01291051E-13   # BR(Bs -> e+ e-)
    8    4.32714766E-09   # BR(Bs -> mu+ mu-)
    9    9.17657088E-07   # BR(Bs -> tau+ tau-)
   10    9.67548675E-05   # BR(B_u -> tau nu)
   11    9.99440739E-01   # BR(B_u -> tau nu)/BR(B_u -> tau nu)_SM
   12    5.42276398E-01   # |Delta(M_Bd)| [ps^-1] 
   13    1.93757683E+01   # |Delta(M_Bs)| [ps^-1] 
   14    0.00000000E+00   # neutron EDM according to the chiral quark model
   15    0.00000000E+00   # neutron EDM according to the relativistic quark-parton model
   16    2.15845871E-03   # epsilon_K
   17    2.28166971E-15   # Delta(M_K)
   18    2.48232470E-11   # BR(K^0 -> pi^0 nu nu)
   19    8.29592724E-11   # BR(K^+ -> pi^+ nu nu)
   20    8.80775325E-17   # Delta(g-2)_electron/2
   21    3.76559315E-12   # Delta(g-2)_muon/2
   22    1.06550617E-09   # Delta(g-2)_tau/2
   23    0.00000000E+00   # electric dipole moment of the electron
   24    0.00000000E+00   # electric dipole moment of the muon
   25    0.00000000E+00   # electric dipole moment of the tau
   26    0.00000000E+00   # Br(mu -> e gamma)
   27    0.00000000E+00   # Br(tau -> e gamma)
   28    0.00000000E+00   # Br(tau -> mu gamma)
   29    0.00000000E+00   # Br(mu -> 3 e)
   30    0.00000000E+00   # Br(tau -> 3 e)
   31    0.00000000E+00   # Br(tau -> 3 mu)
   39    4.51420066E-05   # Delta(rho_parameter)
   40    0.00000000E+00   # BR(Z -> e mu)
   41    0.00000000E+00   # BR(Z -> e tau)
   42    0.00000000E+00   # BR(Z -> mu tau)
Block FWCOEF Q=  1.60000000E+02  # Wilson coefficients at scale Q
#    id        order  M        value         comment
     0305 4422   00   0    -1.88819110E-01   # C7
     0305 4422   00   2    -1.77192943E-01   # C7
     0305 4322   00   2     6.03951841E-06   # C7'
     0305 6421   00   0    -9.52278348E-02   # C8
     0305 6421   00   2    -9.09898937E-02   # C8
     0305 6321   00   2    -6.25525996E-05   # C8'
 03051111 4133   00   0     1.61759424E+00   # C9 e+e-
 03051111 4133   00   2     1.61832964E+00   # C9 e+e-
 03051111 4233   00   2     5.53684957E-05   # C9' e+e-
 03051111 4137   00   0    -4.44028634E+00   # C10 e+e-
 03051111 4137   00   2    -4.44185064E+00   # C10 e+e-
 03051111 4237   00   2    -4.14705662E-04   # C10' e+e-
 03051313 4133   00   0     1.61759424E+00   # C9 mu+mu-
 03051313 4133   00   2     1.61832961E+00   # C9 mu+mu-
 03051313 4233   00   2     5.53684932E-05   # C9' mu+mu-
 03051313 4137   00   0    -4.44028634E+00   # C10 mu+mu-
 03051313 4137   00   2    -4.44185067E+00   # C10 mu+mu-
 03051313 4237   00   2    -4.14705666E-04   # C10' mu+mu-
 03051212 4137   00   0     1.50535012E+00   # C11 nu_1 nu_1
 03051212 4137   00   2     1.50569135E+00   # C11 nu_1 nu_1
 03051212 4237   00   2     8.98579927E-05   # C11' nu_1 nu_1
 03051414 4137   00   0     1.50535012E+00   # C11 nu_2 nu_2
 03051414 4137   00   2     1.50569135E+00   # C11 nu_2 nu_2
 03051414 4237   00   2     8.98579929E-05   # C11' nu_2 nu_2
 03051616 4137   00   0     1.50535012E+00   # C11 nu_3 nu_3
 03051616 4137   00   2     1.50569135E+00   # C11 nu_3 nu_3
 03051616 4237   00   2     8.98580501E-05   # C11' nu_3 nu_3
Block IMFWCOEF Q=  1.60000000E+02  # Im(Wilson coefficients) at scale Q
#    id        order  M        value         comment
     0305 4422   00   0     3.85829427E-07   # C7
     0305 4422   00   2     6.67056004E-06   # C7
     0305 4322   00   2     1.32322731E-06   # C7'
     0305 6421   00   0     3.30488421E-07   # C8
     0305 6421   00   2    -8.26134085E-06   # C8
     0305 6321   00   2     4.98862514E-07   # C8'
 03051111 4133   00   2    -5.01199898E-07   # C9 e+e-
 03051111 4233   00   2     1.03182534E-06   # C9' e+e-
 03051111 4137   00   2     1.23368512E-05   # C10 e+e-
 03051111 4237   00   2    -7.72885301E-06   # C10' e+e-
 03051313 4133   00   2    -5.01200539E-07   # C9 mu+mu-
 03051313 4233   00   2     1.03182532E-06   # C9' mu+mu-
 03051313 4137   00   2     1.23368517E-05   # C10 mu+mu-
 03051313 4237   00   2    -7.72885310E-06   # C10' mu+mu-
 03051212 4137   00   2    -2.63290443E-06   # C11 nu_1 nu_1
 03051212 4237   00   2     1.67468037E-06   # C11' nu_1 nu_1
 03051414 4137   00   2    -2.63290440E-06   # C11 nu_2 nu_2
 03051414 4237   00   2     1.67468037E-06   # C11' nu_2 nu_2
 03051616 4137   00   2    -2.63289596E-06   # C11 nu_3 nu_3
 03051616 4237   00   2     1.67468037E-06   # C11' nu_3 nu_3
