# SUSY Les Houches Accord 2 - MSSM spectrum + Decays
# SPheno v4.0.5be
# W. Porod, Comput. Phys. Commun. 153 (2003) 275-315, hep-ph/0301101;
# W. Porod, F.~Staub, Comput. Phys. Commun. 183 (2012) 2458
#                     arXiv:1104.1573 [hep-ph] 
# in case of problems send email to porod@physik.uni-wuerzburg.de
# Created: 07.09.2021,  18:34
Block SPINFO         # Program information
     1   SPheno      # spectrum calculator
     2   v4.0.5be    # version number
#
Block SPhenoINFO     # SPheno specific information
    1      2         # using 2-loop RGEs
    2      2         # using pole masses for boundary conditions at mZ
Block MODSEL  # Model selection
    1    0    # general MSSM
Block MINPAR  # Input parameters
    3    4.36751803E+01  # tanb at m_Z    
    4   -1.00000000E+00  # Sign(mu)
Block EXTPAR  # non-universal input parameters
    0    3.78544747E+03  # scale for input parameters
    1   -2.37345464E+02  # M_1
    2   -1.47602955E+03  # M_2
    3    2.11216357E+03  # M_3
   11   -6.72217350E+03  # A_t
   12    1.25980136E+03  # A_b
   13    1.18606841E+03  # A_tau
   23   -2.53544908E+02  # mu
   25    4.27675079E+01  # tan(beta)
   26    4.87473999E+03  # m_A, pole mass
   31    1.00000000E+04  # M_L11
   32    1.00000000E+04  # M_L22
   33    1.00000000E+04  # M_L33
   34    1.00000000E+04  # M_E11
   35    1.00000000E+04  # M_E22
   36    1.00000000E+04  # M_E33
   41    1.00000000E+04  # M_Q11
   42    1.00000000E+04  # M_Q22
   43    3.89367470E+03  # M_Q33
   44    1.00000000E+04  # M_U11
   45    1.00000000E+04  # M_U22
   46    3.78072122E+03  # M_U33
   47    1.00000000E+04  # M_D11
   48    1.00000000E+04  # M_D22
   49    2.28641737E+03  # M_D33
Block SMINPUTS  # SM parameters
         1     1.27908970E+02  # alpha_em^-1(MZ)^MSbar
         2     1.16637870E-05  # G_mu [GeV^-2]
         3     1.18400000E-01  # alpha_s(MZ)^MSbar
         4     9.11876000E+01  # m_Z(pole)
         5     4.18000000E+00  # m_b(m_b), MSbar
         6     1.73200000E+02  # m_t(pole)
         7     1.77700000E+00  # m_tau(pole)
         8     0.00000000E+00  # m_nu_3
        11     5.10998930E-04  # m_e(pole)
        12     0.00000000E+00  # m_nu_1
        13     1.05658372E-01  # m_muon(pole)
        14     0.00000000E+00  # m_nu_2
        21     5.00000000E-03  # m_d(2 GeV), MSbar
        22     2.50000000E-03  # m_u(2 GeV), MSbar
        23     9.50000000E-02  # m_s(2 GeV), MSbar
        24     1.27000000E+00  # m_c(m_c), MSbar
Block gauge Q=  3.78544747E+03  # (SUSY scale)
   1    3.55362975E-01  # g'(Q)^DRbar
   2    6.65198874E-01  # g(Q)^DRbar
   3    1.21977796E+00  # g3(Q)^DRbar
Block Yu Q=  3.78544747E+03  # (SUSY scale)
  1  1     8.38666381E-06   # Y_u(Q)^DRbar
  2  2     4.26042522E-03   # Y_c(Q)^DRbar
  3  3     1.01317635E+00   # Y_t(Q)^DRbar
Block Yd Q=  3.78544747E+03  # (SUSY scale)
  1  1     7.20747967E-04   # Y_d(Q)^DRbar
  2  2     1.36942114E-02   # Y_s(Q)^DRbar
  3  3     7.14756133E-01   # Y_b(Q)^DRbar
Block Ye Q=  3.78544747E+03  # (SUSY scale)
  1  1     1.25775791E-04   # Y_e(Q)^DRbar
  2  2     2.60064444E-02   # Y_mu(Q)^DRbar
  3  3     4.37385613E-01   # Y_tau(Q)^DRbar
Block Au Q=  3.78544747E+03  # (SUSY scale)
  1  1     0.00000000E+00   # A_u(Q)^DRbar
  2  2     0.00000000E+00   # A_c(Q)^DRbar
  3  3    -6.72217884E+03   # A_t(Q)^DRbar
Block Ad Q=  3.78544747E+03  # (SUSY scale)
  1  1     0.00000000E+00   # A_d(Q)^DRbar
  2  2     0.00000000E+00   # A_s(Q)^DRbar
  3  3     1.25980125E+03   # A_b(Q)^DRbar
Block Ae Q=  3.78544747E+03  # (SUSY scale)
  1  1     0.00000000E+00   # A_e(Q)^DRbar
  2  2     0.00000000E+00   # A_mu(Q)^DRbar
  3  3     1.18606800E+03   # A_tau(Q)^DRbar
Block MSOFT Q=  3.78544747E+03  # soft SUSY breaking masses at Q
   1   -2.37345464E+02  # M_1
   2   -1.47602955E+03  # M_2
   3    2.11216357E+03  # M_3
  21    2.38051234E+07  # M^2_(H,d)
  22    2.35580313E+05  # M^2_(H,u)
  31    1.00000000E+04  # M_(L,11)
  32    1.00000000E+04  # M_(L,22)
  33    1.00000000E+04  # M_(L,33)
  34    1.00000000E+04  # M_(E,11)
  35    1.00000000E+04  # M_(E,22)
  36    1.00000000E+04  # M_(E,33)
  41    1.00000000E+04  # M_(Q,11)
  42    1.00000000E+04  # M_(Q,22)
  43    3.89367470E+03  # M_(Q,33)
  44    1.00000000E+04  # M_(U,11)
  45    1.00000000E+04  # M_(U,22)
  46    3.78072122E+03  # M_(U,33)
  47    1.00000000E+04  # M_(D,11)
  48    1.00000000E+04  # M_(D,22)
  49    2.28641737E+03  # M_(D,33)
Block MASS  # Mass spectrum
#   PDG code      mass          particle
         6     1.73200000E+02  # m_t(pole)
        23     9.11876000E+01  # m_Z(pole)
        24     8.04299946E+01  # W+
        15     1.77700000E+00  # m_tau(pole)
        25     1.27793255E+02  # h0
        35     4.87329407E+03  # H0
        36     4.87473999E+03  # A0
        37     4.87397134E+03  # H+
   1000001     1.01160667E+04  # ~d_L
   2000001     1.00919268E+04  # ~d_R
   1000002     1.01157081E+04  # ~u_L
   2000002     1.00947579E+04  # ~u_R
   1000003     1.01160701E+04  # ~s_L
   2000003     1.00919327E+04  # ~s_R
   1000004     1.01157115E+04  # ~c_L
   2000004     1.00947585E+04  # ~c_R
   1000005     2.36026476E+03  # ~b_1
   2000005     3.87286945E+03  # ~b_2
   1000006     3.64262516E+03  # ~t_1
   2000006     3.93386965E+03  # ~t_2
   1000011     1.00204083E+04  # ~e_L-
   2000011     1.00092674E+04  # ~e_R-
   1000012     1.00196468E+04  # ~nu_eL
   1000013     1.00204243E+04  # ~mu_L-
   2000013     1.00092979E+04  # ~mu_R-
   1000014     1.00196626E+04  # ~nu_muL
   1000015     1.00179847E+04  # ~tau_1-
   2000015     1.00251212E+04  # ~tau_2-
   1000016     1.00241937E+04  # ~nu_tauL
   1000021     2.53320373E+03  # ~g
   1000022     2.19080032E+02  # ~chi_10
   1000023     2.72446538E+02  # ~chi_20
   1000025     2.88168463E+02  # ~chi_30
   1000035     1.57974558E+03  # ~chi_40
   1000024     2.68318863E+02  # ~chi_1+
   1000037     1.57971080E+03  # ~chi_2+
# Higgs mixing
Block alpha # Effective Higgs mixing angle
          -2.29177721E-02   # alpha
Block Hmix Q=  3.78544747E+03  # Higgs mixing parameters
   1   -2.53544908E+02  # mu
   2    4.27675079E+01  # tan[beta](Q)
   3    2.42958797E+02  # v(Q)
   4    2.37630900E+07  # m^2_A(Q)
Block stopmix # stop mixing matrix
   1  1     4.65030610E-01   # Re[R_st(1,1)]
   1  2     8.85294602E-01   # Re[R_st(1,2)]
   2  1    -8.85294602E-01   # Re[R_st(2,1)]
   2  2     4.65030610E-01   # Re[R_st(2,2)]
Block sbotmix # sbottom mixing matrix
   1  1    -2.60497101E-03   # Re[R_sb(1,1)]
   1  2     9.99996607E-01   # Re[R_sb(1,2)]
   2  1    -9.99996607E-01   # Re[R_sb(2,1)]
   2  2    -2.60497101E-03   # Re[R_sb(2,2)]
Block staumix # stau mixing matrix
   1  1    -1.51161460E-01   # Re[R_sta(1,1)]
   1  2     9.88509086E-01   # Re[R_sta(1,2)]
   2  1    -9.88509086E-01   # Re[R_sta(2,1)]
   2  2    -1.51161460E-01   # Re[R_sta(2,2)]
Block Nmix # neutralino mixing matrix
   1  1     8.27767090E-01   # Re[N(1,1)]
   1  2    -2.14960234E-02   # Re[N(1,2)]
   1  3    -4.33010906E-01   # Re[N(1,3)]
   1  4     3.56147611E-01   # Re[N(1,4)]
   2  1    -6.03378421E-02   # Re[N(2,1)]
   2  2     3.02136743E-02   # Re[N(2,2)]
   2  3    -7.00879732E-01   # Re[N(2,3)]
   2  4    -7.10080333E-01   # Re[N(2,4)]
   3  1     5.57815116E-01   # Re[N(3,1)]
   3  2     3.84120207E-02   # Re[N(3,2)]
   3  3     5.66719377E-01   # Re[N(3,3)]
   3  4    -6.05141274E-01   # Re[N(3,4)]
   4  1     1.81266243E-03   # Re[N(4,1)]
   4  2    -9.98573769E-01   # Re[N(4,2)]
   4  3     9.91483787E-03   # Re[N(4,3)]
   4  4    -5.24293688E-02   # Re[N(4,4)]
Block Umix # chargino mixing matrix
   1  1    -1.40241652E-02   # Re[U(1,1)]
   1  2    -9.99901657E-01   # Re[U(1,2)]
   2  1    -9.99901657E-01   # Re[U(2,1)]
   2  2     1.40241652E-02   # Re[U(2,2)]
Block Vmix # chargino mixing matrix
   1  1     7.41598038E-02   # Re[V(1,1)]
   1  2     9.97246371E-01   # Re[V(1,2)]
   2  1     9.97246371E-01   # Re[V(2,1)]
   2  2    -7.41598038E-02   # Re[V(2,2)]
DECAY        23     2.49520000E+00   # Z
DECAY        24     2.08500000E+00   # W
DECAY   2000011     5.02336977E+01   # ~e^-_R
#    BR                NDA      ID1      ID2
     6.85348934E-01    2     1000022        11   # BR(~e^-_R -> chi^0_1 e^-)
     3.63957844E-03    2     1000023        11   # BR(~e^-_R -> chi^0_2 e^-)
     3.11008297E-01    2     1000025        11   # BR(~e^-_R -> chi^0_3 e^-)
DECAY   1000011     1.38402615E+02   # ~e^-_L
#    BR                NDA      ID1      ID2
     5.63512387E-02    2     1000022        11   # BR(~e^-_L -> chi^0_1 e^-)
     3.60047102E-02    2     1000025        11   # BR(~e^-_L -> chi^0_3 e^-)
     3.01578788E-01    2     1000035        11   # BR(~e^-_L -> chi^0_4 e^-)
     1.25171453E-04    2    -1000024        12   # BR(~e^-_L -> chi^-_1 nu_e)
     6.05938782E-01    2    -1000037        12   # BR(~e^-_L -> chi^-_2 nu_e)
#    BR                NDA      ID1      ID2       ID3
DECAY   2000013     5.05028107E+01   # ~mu^-_R
#    BR                NDA      ID1      ID2
     6.82198549E-01    2     1000022        13   # BR(~mu^-_R -> chi^0_1 mu^-)
     4.92820944E-03    2     1000023        13   # BR(~mu^-_R -> chi^0_2 mu^-)
     3.10207000E-01    2     1000025        13   # BR(~mu^-_R -> chi^0_3 mu^-)
     2.66238184E-03    2    -1000024        14   # BR(~mu^-_R -> chi^-_1 nu_mu)
DECAY   1000013     1.38537487E+02   # ~mu^-_L
#    BR                NDA      ID1      ID2
     5.64787642E-02    2     1000022        13   # BR(~mu^-_L -> chi^0_1 mu^-)
     4.78667711E-04    2     1000023        13   # BR(~mu^-_L -> chi^0_2 mu^-)
     3.62817656E-02    2     1000025        13   # BR(~mu^-_L -> chi^0_3 mu^-)
     3.01285810E-01    2     1000035        13   # BR(~mu^-_L -> chi^0_4 mu^-)
     1.25049795E-04    2    -1000024        14   # BR(~mu^-_L -> chi^-_1 nu_mu)
     6.05349943E-01    2    -1000037        14   # BR(~mu^-_L -> chi^-_2 nu_mu)
#    BR                NDA      ID1      ID2       ID3
DECAY   1000015     1.27584528E+02   # ~tau^-_1
#    BR                NDA      ID1      ID2
     3.40548757E-01    2     1000022        15   # BR(~tau^-_1 -> chi^0_1 tau^-)
     1.43787998E-01    2     1000023        15   # BR(~tau^-_1 -> chi^0_2 tau^-)
     2.02364511E-01    2     1000025        15   # BR(~tau^-_1 -> chi^0_3 tau^-)
     6.59739358E-03    2     1000035        15   # BR(~tau^-_1 -> chi^0_4 tau^-)
     2.93442278E-01    2    -1000024        16   # BR(~tau^-_1 -> chi^-_1 nu_tau)
     1.32590625E-02    2    -1000037        16   # BR(~tau^-_1 -> chi^-_2 nu_tau)
DECAY   2000015     1.75410691E+02   # ~tau^-_2
#    BR                NDA      ID1      ID2
     7.46801396E-02    2     1000022        15   # BR(~tau^-_2 -> chi^0_1 tau^-)
     1.09773194E-01    2     1000023        15   # BR(~tau^-_2 -> chi^0_2 tau^-)
     1.09823249E-01    2     1000025        15   # BR(~tau^-_2 -> chi^0_3 tau^-)
     2.33314075E-01    2     1000035        15   # BR(~tau^-_2 -> chi^0_4 tau^-)
     3.67432688E-03    2    -1000024        16   # BR(~tau^-_2 -> chi^-_1 nu_tau)
     4.68735015E-01    2    -1000037        16   # BR(~tau^-_2 -> chi^-_2 nu_tau)
#    BR                NDA      ID1      ID2       ID3
DECAY   1000012     1.38406523E+02   # ~nu_e
#    BR                NDA      ID1      ID2
     6.84494002E-02    2     1000022        12   # BR(~nu_e -> chi^0_1 nu_e)
     1.24075272E-03    2     1000023        12   # BR(~nu_e -> chi^0_2 nu_e)
     2.14356775E-02    2     1000025        12   # BR(~nu_e -> chi^0_3 nu_e)
     3.02716979E-01    2     1000035        12   # BR(~nu_e -> chi^0_4 nu_e)
     3.49982125E-03    2     1000024        11   # BR(~nu_e -> chi^+_1 e^-)
     6.02657369E-01    2     1000037        11   # BR(~nu_e -> chi^+_2 e^-)
#    BR                NDA      ID1      ID2       ID3
DECAY   1000014     1.38541381E+02   # ~nu_mu
#    BR                NDA      ID1      ID2
     6.83828788E-02    2     1000022        14   # BR(~nu_mu -> chi^0_1 nu_mu)
     1.23954692E-03    2     1000023        14   # BR(~nu_mu -> chi^0_2 nu_mu)
     2.14148456E-02    2     1000025        14   # BR(~nu_mu -> chi^0_3 nu_mu)
     3.02422836E-01    2     1000035        14   # BR(~nu_mu -> chi^0_4 nu_mu)
     4.46792730E-03    2     1000024        13   # BR(~nu_mu -> chi^+_1 mu^-)
     6.02071965E-01    2     1000037        13   # BR(~nu_mu -> chi^+_2 mu^-)
#    BR                NDA      ID1      ID2       ID3
DECAY   1000016     1.76571364E+02   # ~nu_tau
#    BR                NDA      ID1      ID2
     5.36788678E-02    2     1000022        16   # BR(~nu_tau -> chi^0_1 nu_tau)
     9.73014117E-04    2     1000023        16   # BR(~nu_tau -> chi^0_2 nu_tau)
     1.68101345E-02    2     1000025        16   # BR(~nu_tau -> chi^0_3 nu_tau)
     2.37405177E-01    2     1000035        16   # BR(~nu_tau -> chi^0_4 nu_tau)
     2.18459106E-01    2     1000024        15   # BR(~nu_tau -> chi^+_1 tau^-)
     4.72673700E-01    2     1000037        15   # BR(~nu_tau -> chi^+_2 tau^-)
#    BR                NDA      ID1      ID2       ID3
DECAY   2000001     7.04997596E+02   # ~d_R
#    BR                NDA      ID1      ID2
     5.47088429E-03    2     1000022         1   # BR(~d_R -> chi^0_1 d)
     2.48272604E-03    2     1000025         1   # BR(~d_R -> chi^0_3 d)
     9.92017091E-01    2     1000021         1   # BR(~d_R -> ~g d)
DECAY   1000001     8.30051027E+02   # ~d_L
#    BR                NDA      ID1      ID2
     1.52885305E-03    2     1000022         1   # BR(~d_L -> chi^0_1 d)
     1.98799067E-04    2     1000025         1   # BR(~d_L -> chi^0_3 d)
     5.09455921E-02    2     1000035         1   # BR(~d_L -> chi^0_4 d)
     1.02096560E-01    2    -1000037         2   # BR(~d_L -> chi^-_2 u)
     8.45119204E-01    2     1000021         1   # BR(~d_L -> ~g d)
DECAY   2000003     7.05073104E+02   # ~s_R
#    BR                NDA      ID1      ID2
     5.48027740E-03    2     1000022         3   # BR(~s_R -> chi^0_1 s)
     2.49953634E-03    2     1000025         3   # BR(~s_R -> chi^0_3 s)
     9.91911588E-01    2     1000021         3   # BR(~s_R -> ~g s)
DECAY   1000003     8.30092603E+02   # ~s_L
#    BR                NDA      ID1      ID2
     1.53727048E-03    2     1000022         3   # BR(~s_L -> chi^0_1 s)
     1.12156742E-04    2     1000023         3   # BR(~s_L -> chi^0_2 s)
     2.13327411E-04    2     1000025         3   # BR(~s_L -> chi^0_3 s)
     5.09430633E-02    2     1000035         3   # BR(~s_L -> chi^0_4 s)
     1.02091508E-01    2    -1000037         4   # BR(~s_L -> chi^-_2 c)
     8.45077234E-01    2     1000021         3   # BR(~s_L -> ~g s)
DECAY   1000005     4.77699913E+01   # ~b_1
#    BR                NDA      ID1      ID2
     1.11485029E-01    2     1000022         5   # BR(~b_1 -> chi^0_1 b)
     2.40171823E-01    2     1000023         5   # BR(~b_1 -> chi^0_2 b)
     1.64560034E-01    2     1000025         5   # BR(~b_1 -> chi^0_3 b)
     4.83753092E-01    2    -1000024         6   # BR(~b_1 -> chi^-_1 t)
DECAY   2000005     2.64020483E+02   # ~b_2
#    BR                NDA      ID1      ID2
     2.95048983E-02    2     1000022         5   # BR(~b_2 -> chi^0_1 b)
     7.26418033E-02    2     1000023         5   # BR(~b_2 -> chi^0_2 b)
     4.76638996E-02    2     1000025         5   # BR(~b_2 -> chi^0_3 b)
     4.47802825E-02    2     1000035         5   # BR(~b_2 -> chi^0_4 b)
     2.93861884E-01    2    -1000024         6   # BR(~b_2 -> chi^-_1 t)
     9.12316889E-02    2    -1000037         6   # BR(~b_2 -> chi^-_2 t)
     3.79056020E-01    2     1000021         5   # BR(~b_2 -> ~g b)
     4.08862194E-02    2     1000006       -24   # BR(~b_2 -> ~t_1 W^-)
     1.25426184E-04    2     1000005        23   # BR(~b_2 -> ~b_1 Z)
     2.47877946E-04    2     1000005        25   # BR(~b_2 -> ~b_1 h^0)
DECAY   2000002     7.22135847E+02   # ~u_R
#    BR                NDA      ID1      ID2
     2.13700775E-02    2     1000022         2   # BR(~u_R -> chi^0_1 u)
     1.13486880E-04    2     1000023         2   # BR(~u_R -> chi^0_2 u)
     9.69776022E-03    2     1000025         2   # BR(~u_R -> chi^0_3 u)
     9.68818578E-01    2     1000021         2   # BR(~u_R -> ~g u)
DECAY   1000002     8.30038862E+02   # ~u_L
#    BR                NDA      ID1      ID2
     8.49563882E-04    2     1000022         2   # BR(~u_L -> chi^0_1 u)
     1.01611325E-03    2     1000025         2   # BR(~u_L -> chi^0_3 u)
     5.08785241E-02    2     1000035         2   # BR(~u_L -> chi^0_4 u)
     5.89317720E-04    2     1000024         1   # BR(~u_L -> chi^+_1 d)
     1.01552564E-01    2     1000037         1   # BR(~u_L -> chi^+_2 d)
     8.45093614E-01    2     1000021         2   # BR(~u_L -> ~g u)
DECAY   2000004     7.22143148E+02   # ~c_R
#    BR                NDA      ID1      ID2
     2.13705030E-02    2     1000022         4   # BR(~c_R -> chi^0_1 c)
     1.16027484E-04    2     1000023         4   # BR(~c_R -> chi^0_2 c)
     9.69950574E-03    2     1000025         4   # BR(~c_R -> chi^0_3 c)
     9.68808814E-01    2     1000021         4   # BR(~c_R -> ~g c)
DECAY   1000004     8.30080403E+02   # ~c_L
#    BR                NDA      ID1      ID2
     8.50079008E-04    2     1000022         4   # BR(~c_L -> chi^0_1 c)
     1.01767221E-03    2     1000025         4   # BR(~c_L -> chi^0_3 c)
     5.08760040E-02    2     1000035         4   # BR(~c_L -> chi^0_4 c)
     6.34554754E-04    2     1000024         3   # BR(~c_L -> chi^+_1 s)
     1.01547528E-01    2     1000037         3   # BR(~c_L -> chi^+_2 s)
     8.45051644E-01    2     1000021         4   # BR(~c_L -> ~g c)
DECAY   1000006     2.40868102E+02   # ~t_1
#    BR                NDA      ID1      ID2
     3.76872068E-02    2     1000022         6   # BR(~t_1 -> chi^0_1 t)
     1.47376373E-01    2     1000023         6   # BR(~t_1 -> chi^0_2 t)
     1.36729988E-01    2     1000025         6   # BR(~t_1 -> chi^0_3 t)
     1.38627968E-02    2     1000035         6   # BR(~t_1 -> chi^0_4 t)
     2.58961935E-01    2     1000024         5   # BR(~t_1 -> chi^+_1 b)
     2.78965838E-02    2     1000037         5   # BR(~t_1 -> chi^+_2 b)
     2.95230226E-02    2     1000021         4   # BR(~t_1 -> ~g c)
     3.46043492E-01    2     1000021         6   # BR(~t_1 -> ~g t)
#    BR                NDA      ID1      ID2       ID3
     1.78023617E-03    3     1000022        24         5   # BR(~t_1 -> chi^0_1 W^+ b)
DECAY   2000006     2.70469063E+02   # ~t_2
#    BR                NDA      ID1      ID2
     6.15565009E-02    2     1000022         6   # BR(~t_2 -> chi^0_1 t)
     1.53541186E-01    2     1000023         6   # BR(~t_2 -> chi^0_2 t)
     9.32808438E-02    2     1000025         6   # BR(~t_2 -> chi^0_3 t)
     3.10748195E-02    2     1000035         6   # BR(~t_2 -> chi^0_4 t)
     1.90330407E-01    2     1000024         5   # BR(~t_2 -> chi^+_1 b)
     6.21185118E-02    2     1000037         5   # BR(~t_2 -> chi^+_2 b)
     3.57734421E-01    2     1000021         6   # BR(~t_2 -> ~g t)
     2.12645248E-04    2     1000005        24   # BR(~t_2 -> ~b_1 W^+)
     3.22233498E-02    2     1000006        23   # BR(~t_2 -> ~t_1 Z)
     1.79273153E-02    2     1000006        25   # BR(~t_2 -> ~t_1 h^0)
DECAY   1000024     4.42702385E-04   # chi^+_1
#    BR                NDA      ID1      ID2       ID3
     3.33820646E-01    3     1000022        -1         2   # BR(chi^+_1 -> chi^0_1 d_bar u)
     3.32932251E-01    3     1000022        -3         4   # BR(chi^+_1 -> chi^0_1 s_bar c)
     1.11273894E-01    3     1000022       -11        12   # BR(chi^+_1 -> chi^0_1 e^+ nu_e)
     1.11272414E-01    3     1000022       -13        14   # BR(chi^+_1 -> chi^0_1 mu^+ nu_mu)
     1.10700795E-01    3     1000022       -15        16   # BR(chi^+_1 -> chi^0_1 tau^+ nu_tau)
DECAY   1000037     1.42708398E+01   # chi^+_2
#    BR                NDA      ID1      ID2
     5.38446855E-02    2     1000022        24   # BR(chi^+_2 -> chi^0_1 W^+)
     2.45478177E-01    2     1000023        24   # BR(chi^+_2 -> chi^0_2 W^+)
     1.90110078E-01    2     1000025        24   # BR(chi^+_2 -> chi^0_3 W^+)
     2.43525251E-01    2     1000024        23   # BR(chi^+_2 -> chi^+_1 Z)
     2.42214709E-01    2     1000024        25   # BR(chi^+_2 -> chi^+_1 h^0)
#    BR                NDA      ID1      ID2       ID3
     9.69158563E-03    3     1000024         6        -6   # BR(chi^+_2 -> chi^+_1 t t_bar)
     1.67604989E-03    3     1000022        -5         6   # BR(chi^+_2 -> chi^0_1 b_bar t)
     7.71982158E-03    3     1000023        -5         6   # BR(chi^+_2 -> chi^0_2 b_bar t)
     5.71774668E-03    3     1000025        -5         6   # BR(chi^+_2 -> chi^0_3 b_bar t)
DECAY   1000022     0.00000000E+00   # chi^0_1
DECAY   1000023     5.00055453E-04   # chi^0_2
#    BR                NDA      ID1      ID2
     7.10635547E-03    2     1000022        22   # BR(chi^0_2 -> chi^0_1 photon)
#    BR                NDA      ID1      ID2       ID3
     1.18935607E-01    3     1000022         2        -2   # BR(chi^0_2 -> chi^0_1 u u_bar)
     1.18164109E-01    3     1000022         4        -4   # BR(chi^0_2 -> chi^0_1 c c_bar)
     1.52498748E-01    3     1000022         1        -1   # BR(chi^0_2 -> chi^0_1 d d_bar)
     1.52494059E-01    3     1000022         3        -3   # BR(chi^0_2 -> chi^0_1 s s_bar)
     1.44097780E-01    3     1000022         5        -5   # BR(chi^0_2 -> chi^0_1 b b_bar)
     3.44143614E-02    3     1000022        11       -11   # BR(chi^0_2 -> chi^0_1 e^- e^+)
     3.44126502E-02    3     1000022        13       -13   # BR(chi^0_2 -> chi^0_1 mu^- mu^+)
     3.39348990E-02    3     1000022        15       -15   # BR(chi^0_2 -> chi^0_1 tau^- tau^+)
     2.03936061E-01    3     1000022        12       -12   # BR(chi^0_2 -> chi^0_1 nu_e nu_bar_e)
DECAY   1000025     2.67779275E-05   # chi^0_3
#    BR                NDA      ID1      ID2
     4.81683057E-03    2     1000022        22   # BR(chi^0_3 -> chi^0_1 photon)
     1.81722043E-02    2     1000023        22   # BR(chi^0_3 -> chi^0_2 photon)
#    BR                NDA      ID1      ID2       ID3
     3.17045746E-02    3     1000022         2        -2   # BR(chi^0_3 -> chi^0_1 u u_bar)
     3.16248612E-02    3     1000022         4        -4   # BR(chi^0_3 -> chi^0_1 c c_bar)
     4.06329785E-02    3     1000022         1        -1   # BR(chi^0_3 -> chi^0_1 d d_bar)
     4.06325911E-02    3     1000022         3        -3   # BR(chi^0_3 -> chi^0_1 s s_bar)
     4.12533232E-02    3     1000022         5        -5   # BR(chi^0_3 -> chi^0_1 b b_bar)
     9.15412252E-03    3     1000022        11       -11   # BR(chi^0_3 -> chi^0_1 e^- e^+)
     9.15404967E-03    3     1000022        13       -13   # BR(chi^0_3 -> chi^0_1 mu^- mu^+)
     9.13274124E-03    3     1000022        15       -15   # BR(chi^0_3 -> chi^0_1 tau^- tau^+)
     5.43601816E-02    3     1000022        12       -12   # BR(chi^0_3 -> chi^0_1 nu_e nu_bar_e)
     9.57827756E-03    3     1000023         2        -2   # BR(chi^0_3 -> chi^0_2 u u_bar)
     8.78436053E-03    3     1000023         4        -4   # BR(chi^0_3 -> chi^0_2 c c_bar)
     1.22812888E-02    3     1000023         1        -1   # BR(chi^0_3 -> chi^0_2 d d_bar)
     1.22761283E-02    3     1000023         3        -3   # BR(chi^0_3 -> chi^0_2 s s_bar)
     5.17176314E-03    3     1000023         5        -5   # BR(chi^0_3 -> chi^0_2 b b_bar)
     2.77155119E-03    3     1000023        11       -11   # BR(chi^0_3 -> chi^0_2 e^- e^+)
     2.76971495E-03    3     1000023        13       -13   # BR(chi^0_3 -> chi^0_2 mu^- mu^+)
     2.30237529E-03    3     1000023        15       -15   # BR(chi^0_3 -> chi^0_2 tau^- tau^+)
     1.64235580E-02    3     1000023        12       -12   # BR(chi^0_3 -> chi^0_2 nu_e nu_bar_e)
     1.07312771E-01    3     1000024         1        -2   # BR(chi^0_3 -> chi^+_1 d u_bar)
     1.07312771E-01    3    -1000024        -1         2   # BR(chi^0_3 -> chi^-_1 d_bar u)
     1.05217772E-01    3     1000024         3        -4   # BR(chi^0_3 -> chi^+_1 s c_bar)
     1.05217772E-01    3    -1000024        -3         4   # BR(chi^0_3 -> chi^-_1 s_bar c)
     3.57708588E-02    3     1000024        11       -12   # BR(chi^0_3 -> chi^+_1 e^- nu_bar_e)
     3.57708588E-02    3    -1000024       -11        12   # BR(chi^0_3 -> chi^-_1 e^+ nu_e)
     3.57674936E-02    3     1000024        13       -14   # BR(chi^0_3 -> chi^+_1 mu^- nu_bar_mu)
     3.57674936E-02    3    -1000024       -13        14   # BR(chi^0_3 -> chi^-_1 mu^+ nu_mu)
     3.44323667E-02    3     1000024        15       -16   # BR(chi^0_3 -> chi^+_1 tau^- nu_bar_tau)
     3.44323667E-02    3    -1000024       -15        16   # BR(chi^0_3 -> chi^-_1 tau^+ nu_tau)
DECAY   1000035     1.54092238E+01   # chi^0_4
#    BR                NDA      ID1      ID2
     2.27284038E-01    2     1000024       -24   # BR(chi^0_4 -> chi^+_1 W^-)
     2.27284038E-01    2    -1000024        24   # BR(chi^0_4 -> chi^-_1 W^+)
     1.70265012E-02    2     1000022        23   # BR(chi^0_4 -> chi^0_1 Z)
     1.55725217E-01    2     1000023        23   # BR(chi^0_4 -> chi^0_2 Z)
     5.38084616E-02    2     1000025        23   # BR(chi^0_4 -> chi^0_3 Z)
     3.30409565E-02    2     1000022        25   # BR(chi^0_4 -> chi^0_1 h^0)
     1.41662562E-01    2     1000023        25   # BR(chi^0_4 -> chi^0_2 h^0)
     1.20107947E-01    2     1000025        25   # BR(chi^0_4 -> chi^0_3 h^0)
#    BR                NDA      ID1      ID2       ID3
     9.65881357E-04    3     1000022         6        -6   # BR(chi^0_4 -> chi^0_1 t t_bar)
     4.18647971E-03    3     1000023         6        -6   # BR(chi^0_4 -> chi^0_2 t t_bar)
     3.22839794E-03    3     1000025         6        -6   # BR(chi^0_4 -> chi^0_3 t t_bar)
     7.81129301E-03    3     1000024         5        -6   # BR(chi^0_4 -> chi^+_1 b t_bar)
     7.81129301E-03    3    -1000024        -5         6   # BR(chi^0_4 -> chi^-_1 b_bar t)
DECAY   1000021     1.38055687E+00   # ~g
#    BR                NDA      ID1      ID2
     4.72231458E-01    2     1000005        -5   # BR(~g -> ~b_1 b_bar)
     4.72231458E-01    2    -1000005         5   # BR(~g -> ~b^*_1 b)
     2.62775403E-04    2     1000023        21   # BR(~g -> chi^0_2 g)
     2.08218816E-04    2     1000025        21   # BR(~g -> chi^0_3 g)
#    BR                NDA      ID1      ID2       ID3
     4.01666000E-03    3     1000022         6        -6   # BR(~g -> chi^0_1 t t_bar)
     7.71823727E-04    3     1000022         5        -5   # BR(~g -> chi^0_1 b b_bar)
     1.13823718E-02    3     1000023         6        -6   # BR(~g -> chi^0_2 t t_bar)
     1.83899871E-03    3     1000023         5        -5   # BR(~g -> chi^0_2 b b_bar)
     8.13955204E-03    3     1000025         6        -6   # BR(~g -> chi^0_3 t t_bar)
     1.19779380E-03    3     1000025         5        -5   # BR(~g -> chi^0_3 b b_bar)
     1.71421173E-04    3     1000035         5        -5   # BR(~g -> chi^0_4 b b_bar)
     1.35810199E-02    3     1000024         5        -6   # BR(~g -> chi^+_1 b t_bar)
     1.35810199E-02    3    -1000024        -5         6   # BR(~g -> chi^-_1 b_bar t)
     1.06997005E-04    3     1000037         5        -6   # BR(~g -> chi^+_2 b t_bar)
     1.06997005E-04    3    -1000037        -5         6   # BR(~g -> chi^-_2 b_bar t)
DECAY        25     3.94551105E-03   # Gamma(h0)
     2.53402905E-03   2        22        22   # BR(h0 -> photon photon)
     1.87541655E-03   2        22        23   # BR(h0 -> photon Z)
     3.82289018E-02   2        23        23   # BR(h0 -> Z Z)
     2.99450203E-01   2       -24        24   # BR(h0 -> W W)
     7.60832823E-02   2        21        21   # BR(h0 -> gluon gluon)
     4.50188366E-09   2       -11        11   # BR(h0 -> Electron electron)
     2.00253184E-04   2       -13        13   # BR(h0 -> Muon muon)
     5.77433726E-02   2       -15        15   # BR(h0 -> Tau tau)
     1.27653454E-07   2        -2         2   # BR(h0 -> Up up)
     2.47762965E-02   2        -4         4   # BR(h0 -> Charm charm)
     5.19034904E-07   2        -1         1   # BR(h0 -> Down down)
     1.87722718E-04   2        -3         3   # BR(h0 -> Strange strange)
     4.98919871E-01   2        -5         5   # BR(h0 -> Bottom bottom)
DECAY        35     1.55813514E+02   # Gamma(HH)
     1.52052914E-09   2        22        22   # BR(HH -> photon photon)
     6.18022248E-09   2        22        23   # BR(HH -> photon Z)
     5.88979727E-08   2        23        23   # BR(HH -> Z Z)
     1.00047456E-08   2       -24        24   # BR(HH -> W W)
     3.28390660E-06   2        21        21   # BR(HH -> gluon gluon)
     8.03684069E-09   2       -11        11   # BR(HH -> Electron electron)
     3.57891115E-04   2       -13        13   # BR(HH -> Muon muon)
     1.03371159E-01   2       -15        15   # BR(HH -> Tau tau)
     3.61964897E-14   2        -2         2   # BR(HH -> Up up)
     7.02270731E-09   2        -4         4   # BR(HH -> Charm charm)
     5.56102329E-04   2        -6         6   # BR(HH -> Top top)
     5.62870144E-07   2        -1         1   # BR(HH -> Down down)
     2.03585186E-04   2        -3         3   # BR(HH -> Strange strange)
     5.44061416E-01   2        -5         5   # BR(HH -> Bottom bottom)
     1.57195635E-03   2  -1000024   1000024   # BR(HH -> Chargino1 chargino1)
     1.04271128E-01   2  -1000024   1000037   # BR(HH -> Chargino1 chargino2)
     1.04271128E-01   2  -1000037   1000024   # BR(HH -> Chargino2 chargino1)
     2.32852246E-05   2  -1000037   1000037   # BR(HH -> Chargino2 chargino2)
     1.11153133E-02   2   1000022   1000022   # BR(HH -> neutralino1 neutralino1)
     1.02229524E-02   2   1000022   1000023   # BR(HH -> neutralino1 neutralino2)
     7.74432892E-04   2   1000022   1000025   # BR(HH -> neutralino1 neutralino3)
     2.28331174E-02   2   1000022   1000035   # BR(HH -> neutralino1 neutralino4)
     5.38797102E-04   2   1000023   1000023   # BR(HH -> neutralino2 neutralino2)
     7.92038123E-03   2   1000023   1000025   # BR(HH -> neutralino2 neutralino3)
     5.56815755E-02   2   1000023   1000035   # BR(HH -> neutralino2 neutralino4)
     5.93608674E-03   2   1000025   1000025   # BR(HH -> neutralino3 neutralino3)
     2.62734636E-02   2   1000025   1000035   # BR(HH -> neutralino3 neutralino4)
     1.17106861E-05   2   1000035   1000035   # BR(HH -> neutralino4 neutralino4)
     5.07447230E-07   2        25        25   # BR(HH -> h0 h0)
     7.19751549E-08   2  -1000005   1000005   # BR(HH -> Sbottom1 sbottom1)
DECAY        36     1.48558776E+02   # Gamma(A0)
     2.47247747E-08   2        22        22   # BR(A0 -> photon photon)
     3.09216151E-08   2        22        23   # BR(A0 -> photon Z)
     6.26855087E-06   2        21        21   # BR(A0 -> gluon gluon)
     7.82261877E-09   2       -11        11   # BR(A0 -> Electron electron)
     3.48352370E-04   2       -13        13   # BR(A0 -> Muon muon)
     1.00616109E-01   2       -15        15   # BR(A0 -> Tau tau)
     3.39252850E-14   2        -2         2   # BR(A0 -> Up up)
     6.58196907E-09   2        -4         4   # BR(A0 -> Charm charm)
     5.24205508E-04   2        -6         6   # BR(A0 -> Top top)
     5.47846397E-07   2        -1         1   # BR(A0 -> Down down)
     1.98151944E-04   2        -3         3   # BR(A0 -> Strange strange)
     5.29549239E-01   2        -5         5   # BR(A0 -> Bottom bottom)
     1.69683512E-03   2  -1000024   1000024   # BR(A0 -> Chargino1 chargino1)
     1.09365945E-01   2  -1000024   1000037   # BR(A0 -> Chargino1 chargino2)
     1.09365945E-01   2  -1000037   1000024   # BR(A0 -> Chargino2 chargino1)
     6.24582377E-05   2  -1000037   1000037   # BR(A0 -> Chargino2 chargino2)
     1.27025263E-02   2   1000022   1000022   # BR(A0 -> neutralino1 neutralino1)
     9.49528202E-03   2   1000022   1000023   # BR(A0 -> neutralino1 neutralino2)
     9.43064352E-04   2   1000022   1000025   # BR(A0 -> neutralino1 neutralino3)
     2.73572459E-02   2   1000022   1000035   # BR(A0 -> neutralino1 neutralino4)
     5.20873002E-04   2   1000023   1000023   # BR(A0 -> neutralino2 neutralino2)
     7.68132080E-03   2   1000023   1000025   # BR(A0 -> neutralino2 neutralino3)
     4.96223241E-02   2   1000023   1000035   # BR(A0 -> neutralino2 neutralino4)
     6.96931533E-03   2   1000025   1000025   # BR(A0 -> neutralino3 neutralino3)
     3.29423951E-02   2   1000025   1000035   # BR(A0 -> neutralino3 neutralino4)
     3.13604220E-05   2   1000035   1000035   # BR(A0 -> neutralino4 neutralino4)
     1.65514523E-07   2        23        25   # BR(A0 -> Z h0)
     4.67458134E-14   2        23        35   # BR(A0 -> Z HH)
     5.38576018E-39   2        25        25   # BR(A0 -> h0 h0)
DECAY        37     1.71444204E+02   # Gamma(Hp)
     8.96788938E-09   2       -11        12   # BR(Hp -> Electron nu_e)
     3.83405281E-04   2       -13        14   # BR(Hp -> Muon nu_mu)
     1.08448863E-01   2       -15        16   # BR(Hp -> Tau nu_tau)
     5.47864603E-07   2        -1         2   # BR(Hp -> Down up)
     9.29657421E-06   2        -3         2   # BR(Hp -> Strange up)
     6.04711747E-06   2        -5         2   # BR(Hp -> Bottom up)
     2.60549278E-08   2        -1         4   # BR(Hp -> Down charm)
     1.97440151E-04   2        -3         4   # BR(Hp -> Strange charm)
     8.46812999E-04   2        -5         4   # BR(Hp -> Bottom charm)
     3.65999387E-08   2        -1         6   # BR(Hp -> Down top)
     1.09310635E-06   2        -3         6   # BR(Hp -> Strange top)
     5.70814261E-01   2        -5         6   # BR(Hp -> Bottom top)
     1.79912766E-02   2   1000022   1000024   # BR(Hp -> neutralino1 chargino1)
     4.46079342E-02   2   1000022   1000037   # BR(Hp -> neutralino1 chargino2)
     2.63822865E-05   2   1000023   1000024   # BR(Hp -> neutralino2 chargino1)
     9.35028306E-02   2   1000023   1000037   # BR(Hp -> neutralino2 chargino2)
     1.56215899E-02   2   1000024   1000025   # BR(Hp -> chargino1 neutralino3)
     5.26417023E-02   2   1000025   1000037   # BR(Hp -> neutralino3 chargino2)
     9.49003029E-02   2   1000024   1000035   # BR(Hp -> chargino1 neutralino4)
     1.04564978E-10   2   1000035   1000037   # BR(Hp -> neutralino4 chargino2)
     1.43386288E-07   2        24        25   # BR(Hp -> W h0)
DECAY         6     2.43000000E+00   # top
#    BR                NDA      ID1      ID2
     1.00000000E+00    2           5        24   # BR(t -> b W)
Block HiggsBoundsInputHiggsCouplingsFermions
# ScalarNormEffCoupSq PseudoSNormEffCoupSq NP IP1 IP2 IP2
    9.61023533E-01    0.00000000E+00        3  25   5   5  # h0-b-b eff. coupling^2, normalised to SM
    1.82909871E+03    0.00000000E+00        3  35   5   5  # H0-b-b eff. coupling^2, normalised to SM
    0.00000000E+00    1.82905973E+03        3  36   5   5  # A0-b-b eff. coupling^2, normalised to SM
#
    1.00002131E+00    0.00000000E+00        3  25   6   6  # h0-t-t eff. coupling^2, normalised to SM
    5.25419436E-04    0.00000000E+00        3  35   6   6  # H0-t-t eff. coupling^2, normalised to SM
    0.00000000E+00    5.46729001E-04        3  36   6   6  # A0-t-t eff. coupling^2, normalised to SM
#
    9.61023533E-01    0.00000000E+00        3  25  15  15  # h0-tau-tau eff. coupling^2, normalised to SM
    1.82909871E+03    0.00000000E+00        3  35  15  15  # H0-tau-tau eff. coupling^2, normalised to SM
    0.00000000E+00    1.82905973E+03        3  36  15  15  # A0-tau-tau eff. coupling^2, normalised to SM
#
Block HiggsBoundsInputHiggsCouplingsBosons
    9.99999788E-01        3  25  24  24  # h0-W-W eff. coupling^2, normalised to SM
    2.11788551E-07        3  35  24  24  # H0-W-W eff. coupling^2, normalised to SM
    0.00000000E+00        3  36  24  24  # A0-W-W eff. coupling^2, normalised to SM
#
    9.99999788E-01        3  25  23  23  # h0-Z-Z eff. coupling^2, normalised to SM
    2.11788551E-07        3  35  23  23  # H0-Z-Z eff. coupling^2, normalised to SM
    0.00000000E+00        3  36  23  23  # A0-Z-Z eff. coupling^2, normalised to SM
#
    1.26370699E+00        3  25  21  21  # h0-g-g eff. coupling^2, normalised to SM
    6.18097598E-03        3  35  21  21  # H0-g-g eff. coupling^2, normalised to SM
    1.17282933E-01        3  36  21  21  # A0-g-g eff. coupling^2, normalised to SM
#
    0.00000000E+00        3  25  25  23  # h0-h0-Z eff. coupling^2, normalised to SM
    0.00000000E+00        3  35  25  23  # H0-h0-Z eff. coupling^2, normalised to SM
    2.11788551E-07        3  36  25  23  # A0-h0-Z eff. coupling^2, normalised to SM
    0.00000000E+00        3  35  35  23  # H0-H0-Z eff. coupling^2, normalised to SM
    9.99999788E-01        3  36  35  23  # A0-H0-Z eff. coupling^2, normalised to SM
    0.00000000E+00        3  36  36  23  # A0-A0-Z eff. coupling^2, normalised to SM
#
    0.00000000E+00        4  25  21  21  23  # h0-g-g-Z eff. coupling^2, normalised to SM
    0.00000000E+00        4  35  21  21  23  # H0-g-g-Z eff. coupling^2, normalised to SM
    0.00000000E+00        4  36  21  21  23  # A0-g-g-Z eff. coupling^2, normalised to SM
Block SPhenoLowEnergy  # low energy observables
    1    3.41803499E-04   # BR(b -> s gamma)
    2    1.58834989E-06   # BR(b -> s mu+ mu-)
    3    3.52546796E-05   # BR(b -> s nu nu)
    4    1.20137611E-15   # BR(Bd -> e+ e-)
    5    5.13223525E-11   # BR(Bd -> mu+ mu-)
    6    1.07982729E-08   # BR(Bd -> tau+ tau-)
    7    4.17569973E-14   # BR(Bs -> e+ e-)
    8    1.78389085E-09   # BR(Bs -> mu+ mu-)
    9    3.80350133E-07   # BR(Bs -> tau+ tau-)
   10    9.63309253E-05   # BR(B_u -> tau nu)
   11    9.95061579E-01   # BR(B_u -> tau nu)/BR(B_u -> tau nu)_SM
   12    5.42020864E-01   # |Delta(M_Bd)| [ps^-1] 
   13    1.93559685E+01   # |Delta(M_Bs)| [ps^-1] 
   14    0.00000000E+00   # neutron EDM according to the chiral quark model
   15    0.00000000E+00   # neutron EDM according to the relativistic quark-parton model
   16    2.15769877E-03   # epsilon_K
   17    2.28166248E-15   # Delta(M_K)
   18    2.48062872E-11   # BR(K^0 -> pi^0 nu nu)
   19    8.29178343E-11   # BR(K^+ -> pi^+ nu nu)
   20    3.96503890E-16   # Delta(g-2)_electron/2
   21    1.69519168E-11   # Delta(g-2)_muon/2
   22    4.80552090E-09   # Delta(g-2)_tau/2
   23    0.00000000E+00   # electric dipole moment of the electron
   24    0.00000000E+00   # electric dipole moment of the muon
   25    0.00000000E+00   # electric dipole moment of the tau
   26    0.00000000E+00   # Br(mu -> e gamma)
   27    0.00000000E+00   # Br(tau -> e gamma)
   28    0.00000000E+00   # Br(tau -> mu gamma)
   29    0.00000000E+00   # Br(mu -> 3 e)
   30    0.00000000E+00   # Br(tau -> 3 e)
   31    0.00000000E+00   # Br(tau -> 3 mu)
   39    6.62098127E-05   # Delta(rho_parameter)
   40    0.00000000E+00   # BR(Z -> e mu)
   41    0.00000000E+00   # BR(Z -> e tau)
   42    0.00000000E+00   # BR(Z -> mu tau)
Block FWCOEF Q=  1.60000000E+02  # Wilson coefficients at scale Q
#    id        order  M        value         comment
     0305 4422   00   0    -1.88819110E-01   # C7
     0305 4422   00   2    -2.14498400E-01   # C7
     0305 4322   00   2    -1.93348247E-04   # C7'
     0305 6421   00   0    -9.52278348E-02   # C8
     0305 6421   00   2    -1.08451191E-01   # C8
     0305 6321   00   2    -9.18098818E-05   # C8'
 03051111 4133   00   0     1.62525991E+00   # C9 e+e-
 03051111 4133   00   2     1.62553048E+00   # C9 e+e-
 03051111 4233   00   2     5.40479220E-04   # C9' e+e-
 03051111 4137   00   0    -4.44795202E+00   # C10 e+e-
 03051111 4137   00   2    -4.44663780E+00   # C10 e+e-
 03051111 4237   00   2    -4.00646247E-03   # C10' e+e-
 03051313 4133   00   0     1.62525991E+00   # C9 mu+mu-
 03051313 4133   00   2     1.62553026E+00   # C9 mu+mu-
 03051313 4233   00   2     5.40478994E-04   # C9' mu+mu-
 03051313 4137   00   0    -4.44795202E+00   # C10 mu+mu-
 03051313 4137   00   2    -4.44663802E+00   # C10 mu+mu-
 03051313 4237   00   2    -4.00646285E-03   # C10' mu+mu-
 03051212 4137   00   0     1.50535012E+00   # C11 nu_1 nu_1
 03051212 4137   00   2     1.50506731E+00   # C11 nu_1 nu_1
 03051212 4237   00   2     8.66624959E-04   # C11' nu_1 nu_1
 03051414 4137   00   0     1.50535012E+00   # C11 nu_2 nu_2
 03051414 4137   00   2     1.50506731E+00   # C11 nu_2 nu_2
 03051414 4237   00   2     8.66624974E-04   # C11' nu_2 nu_2
 03051616 4137   00   0     1.50535012E+00   # C11 nu_3 nu_3
 03051616 4137   00   2     1.50506731E+00   # C11 nu_3 nu_3
 03051616 4237   00   2     8.66629365E-04   # C11' nu_3 nu_3
Block IMFWCOEF Q=  1.60000000E+02  # Im(Wilson coefficients) at scale Q
#    id        order  M        value         comment
     0305 4422   00   0     3.85802874E-07   # C7
     0305 4422   00   2    -2.72151824E-06   # C7
     0305 4322   00   2    -2.39629961E-06   # C7'
     0305 6421   00   0     3.30465676E-07   # C8
     0305 6421   00   2     5.55460571E-05   # C8
     0305 6321   00   2    -2.32833879E-07   # C8'
 03051111 4133   00   2    -2.42596376E-07   # C9 e+e-
 03051111 4233   00   2     1.00380558E-05   # C9' e+e-
 03051111 4137   00   2     4.84841505E-06   # C10 e+e-
 03051111 4237   00   2    -7.44127629E-05   # C10' e+e-
 03051313 4133   00   2    -2.42600091E-07   # C9 mu+mu-
 03051313 4233   00   2     1.00380530E-05   # C9' mu+mu-
 03051313 4137   00   2     4.84841988E-06   # C10 mu+mu-
 03051313 4237   00   2    -7.44127711E-05   # C10' mu+mu-
 03051212 4137   00   2    -1.02248110E-06   # C11 nu_1 nu_1
 03051212 4237   00   2     1.60959855E-05   # C11' nu_1 nu_1
 03051414 4137   00   2    -1.02248092E-06   # C11 nu_2 nu_2
 03051414 4237   00   2     1.60959855E-05   # C11' nu_2 nu_2
 03051616 4137   00   2    -1.02243332E-06   # C11 nu_3 nu_3
 03051616 4237   00   2     1.60959854E-05   # C11' nu_3 nu_3
