# SUSY Les Houches Accord 2 - MSSM spectrum + Decays
# SPheno v4.0.5be
# W. Porod, Comput. Phys. Commun. 153 (2003) 275-315, hep-ph/0301101;
# W. Porod, F.~Staub, Comput. Phys. Commun. 183 (2012) 2458
#                     arXiv:1104.1573 [hep-ph] 
# in case of problems send email to porod@physik.uni-wuerzburg.de
# Created: 22.11.2021,  13:40
Block SPINFO         # Program information
     1   SPheno      # spectrum calculator
     2   v4.0.5be    # version number
#
Block SPhenoINFO     # SPheno specific information
    1      2         # using 2-loop RGEs
    2      2         # using pole masses for boundary conditions at mZ
Block MODSEL  # Model selection
    1    0    # general MSSM
Block MINPAR  # Input parameters
    3    5.12213012E+01  # tanb at m_Z    
    4    1.00000000E+00  # Sign(mu)
Block EXTPAR  # non-universal input parameters
    0    3.03802699E+03  # scale for input parameters
    1   -1.39465217E+02  # M_1
    2   -2.60498665E+02  # M_2
    3    4.92829831E+03  # M_3
   11   -7.50409903E+03  # A_t
   12   -1.44104444E+03  # A_b
   13    7.00861162E+02  # A_tau
   23    5.88696535E+02  # mu
   25    5.07117186E+01  # tan(beta)
   26    4.55958723E+03  # m_A, pole mass
   31    1.21777616E+03  # M_L11
   32    1.21777616E+03  # M_L22
   33    1.11366635E+03  # M_L33
   34    2.18454428E+02  # M_E11
   35    2.18454428E+02  # M_E22
   36    6.56322281E+02  # M_E33
   41    1.00000000E+04  # M_Q11
   42    1.00000000E+04  # M_Q22
   43    3.69587587E+03  # M_Q33
   44    1.00000000E+04  # M_U11
   45    1.00000000E+04  # M_U22
   46    2.54465155E+03  # M_U33
   47    1.00000000E+04  # M_D11
   48    1.00000000E+04  # M_D22
   49    2.28238888E+03  # M_D33
Block SMINPUTS  # SM parameters
         1     1.27908970E+02  # alpha_em^-1(MZ)^MSbar
         2     1.16637870E-05  # G_mu [GeV^-2]
         3     1.18400000E-01  # alpha_s(MZ)^MSbar
         4     9.11876000E+01  # m_Z(pole)
         5     4.18000000E+00  # m_b(m_b), MSbar
         6     1.73200000E+02  # m_t(pole)
         7     1.77700000E+00  # m_tau(pole)
         8     0.00000000E+00  # m_nu_3
        11     5.10998930E-04  # m_e(pole)
        12     0.00000000E+00  # m_nu_1
        13     1.05658372E-01  # m_muon(pole)
        14     0.00000000E+00  # m_nu_2
        21     5.00000000E-03  # m_d(2 GeV), MSbar
        22     2.50000000E-03  # m_u(2 GeV), MSbar
        23     9.50000000E-02  # m_s(2 GeV), MSbar
        24     1.27000000E+00  # m_c(m_c), MSbar
Block gauge Q=  3.03802699E+03  # (SUSY scale)
   1    3.55362975E-01  # g'(Q)^DRbar
   2    6.65198874E-01  # g(Q)^DRbar
   3    1.21977796E+00  # g3(Q)^DRbar
Block Yu Q=  3.03802699E+03  # (SUSY scale)
  1  1     8.38600211E-06   # Y_u(Q)^DRbar
  2  2     4.26008907E-03   # Y_c(Q)^DRbar
  3  3     1.01309641E+00   # Y_t(Q)^DRbar
Block Yd Q=  3.03802699E+03  # (SUSY scale)
  1  1     8.54561935E-04   # Y_d(Q)^DRbar
  2  2     1.62366768E-02   # Y_s(Q)^DRbar
  3  3     8.47457658E-01   # Y_b(Q)^DRbar
Block Ye Q=  3.03802699E+03  # (SUSY scale)
  1  1     1.49127307E-04   # Y_e(Q)^DRbar
  2  2     3.08347973E-02   # Y_mu(Q)^DRbar
  3  3     5.18590565E-01   # Y_tau(Q)^DRbar
Block Au Q=  3.03802699E+03  # (SUSY scale)
  1  1     0.00000000E+00   # A_u(Q)^DRbar
  2  2     0.00000000E+00   # A_c(Q)^DRbar
  3  3    -7.50410091E+03   # A_t(Q)^DRbar
Block Ad Q=  3.03802699E+03  # (SUSY scale)
  1  1     0.00000000E+00   # A_d(Q)^DRbar
  2  2     0.00000000E+00   # A_s(Q)^DRbar
  3  3    -1.44104316E+03   # A_b(Q)^DRbar
Block Ae Q=  3.03802699E+03  # (SUSY scale)
  1  1     0.00000000E+00   # A_e(Q)^DRbar
  2  2     0.00000000E+00   # A_mu(Q)^DRbar
  3  3     7.00861141E+02   # A_tau(Q)^DRbar
Block MSOFT Q=  3.03802699E+03  # soft SUSY breaking masses at Q
   1   -1.39465217E+02  # M_1
   2   -2.60498665E+02  # M_2
   3    4.92829831E+03  # M_3
  21    2.07606136E+07  # M^2_(H,d)
  22   -1.91736584E+05  # M^2_(H,u)
  31    1.21777616E+03  # M_(L,11)
  32    1.21777616E+03  # M_(L,22)
  33    1.11366635E+03  # M_(L,33)
  34    2.18454428E+02  # M_(E,11)
  35    2.18454428E+02  # M_(E,22)
  36    6.56322281E+02  # M_(E,33)
  41    1.00000000E+04  # M_(Q,11)
  42    1.00000000E+04  # M_(Q,22)
  43    3.69587587E+03  # M_(Q,33)
  44    1.00000000E+04  # M_(U,11)
  45    1.00000000E+04  # M_(U,22)
  46    2.54465155E+03  # M_(U,33)
  47    1.00000000E+04  # M_(D,11)
  48    1.00000000E+04  # M_(D,22)
  49    2.28238888E+03  # M_(D,33)
Block MASS  # Mass spectrum
#   PDG code      mass          particle
         6     1.73200000E+02  # m_t(pole)
        23     9.11876000E+01  # m_Z(pole)
        24     8.04299946E+01  # W+
        15     1.77700000E+00  # m_tau(pole)
        25     1.28189513E+02  # h0
        35     4.55696868E+03  # H0
        36     4.55958723E+03  # A0
        37     4.55748369E+03  # H+
   1000001     1.00746235E+04  # ~d_L
   2000001     1.00509033E+04  # ~d_R
   1000002     1.00743758E+04  # ~u_L
   2000002     1.00535915E+04  # ~u_R
   1000003     1.00746350E+04  # ~s_L
   2000003     1.00509224E+04  # ~s_R
   1000004     1.00743871E+04  # ~c_L
   2000004     1.00535929E+04  # ~c_R
   1000005     2.34730707E+03  # ~b_1
   2000005     3.69582395E+03  # ~b_2
   1000006     2.48252661E+03  # ~t_1
   2000006     3.71782843E+03  # ~t_2
   1000011     1.21861323E+03  # ~e_L-
   2000011     2.50505080E+02  # ~e_R-
   1000012     1.21569825E+03  # ~nu_eL
   1000013     1.21859142E+03  # ~mu_L-
   2000013     2.50317668E+02  # ~mu_R-
   1000014     1.21567262E+03  # ~nu_muL
   1000015     6.42884176E+02  # ~tau_1-
   2000015     1.10760880E+03  # ~tau_2-
   1000016     1.10251986E+03  # ~nu_tauL
   1000021     5.32670804E+03  # ~g
   1000022     1.36929280E+02  # ~chi_10
   1000023     2.79286805E+02  # ~chi_20
   1000025     6.00212906E+02  # ~chi_30
   1000035     6.06969578E+02  # ~chi_40
   1000024     2.79466769E+02  # ~chi_1+
   1000037     6.08430743E+02  # ~chi_2+
# Higgs mixing
Block alpha # Effective Higgs mixing angle
          -1.95418061E-02   # alpha
Block Hmix Q=  3.03802699E+03  # Higgs mixing parameters
   1    5.88696535E+02  # mu
   2    5.07117186E+01  # tan[beta](Q)
   3    2.43186155E+02  # v(Q)
   4    2.07898357E+07  # m^2_A(Q)
Block stopmix # stop mixing matrix
   1  1     1.39057325E-01   # Re[R_st(1,1)]
   1  2     9.90284333E-01   # Re[R_st(1,2)]
   2  1    -9.90284333E-01   # Re[R_st(2,1)]
   2  2     1.39057325E-01   # Re[R_st(2,2)]
Block sbotmix # sbottom mixing matrix
   1  1     8.32443161E-03   # Re[R_sb(1,1)]
   1  2     9.99965351E-01   # Re[R_sb(1,2)]
   2  1    -9.99965351E-01   # Re[R_sb(2,1)]
   2  2     8.32443161E-03   # Re[R_sb(2,2)]
Block staumix # stau mixing matrix
   1  1     6.36892336E-02   # Re[R_sta(1,1)]
   1  2     9.97969780E-01   # Re[R_sta(1,2)]
   2  1    -9.97969780E-01   # Re[R_sta(2,1)]
   2  2     6.36892336E-02   # Re[R_sta(2,2)]
Block Nmix # neutralino mixing matrix
   1  1    -9.96661612E-01   # Re[N(1,1)]
   1  2     7.69856571E-03   # Re[N(1,2)]
   1  3    -7.95046344E-02   # Re[N(1,3)]
   1  4    -1.68931018E-02   # Re[N(1,4)]
   2  1    -2.19763241E-02   # Re[N(2,1)]
   2  2    -9.83363549E-01   # Re[N(2,2)]
   2  3     1.64655746E-01   # Re[N(2,3)]
   2  4     7.34959666E-02   # Re[N(2,4)]
   3  1     4.35043749E-02   # Re[N(3,1)]
   3  2    -6.56381901E-02   # Re[N(3,2)]
   3  3    -7.02096751E-01   # Re[N(3,3)]
   3  4     7.07714031E-01   # Re[N(3,4)]
   4  1    -6.54984140E-02   # Re[N(4,1)]
   4  2     1.69199559E-01   # Re[N(4,2)]
   4  3     6.88206111E-01   # Re[N(4,3)]
   4  4     7.02462680E-01   # Re[N(4,4)]
Block Umix # chargino mixing matrix
   1  1    -9.72374000E-01   # Re[U(1,1)]
   1  2     2.33428369E-01   # Re[U(1,2)]
   2  1    -2.33428369E-01   # Re[U(2,1)]
   2  2    -9.72374000E-01   # Re[U(2,2)]
Block Vmix # chargino mixing matrix
   1  1     9.94539612E-01   # Re[V(1,1)]
   1  2     1.04359762E-01   # Re[V(1,2)]
   2  1     1.04359762E-01   # Re[V(2,1)]
   2  2    -9.94539612E-01   # Re[V(2,2)]
DECAY        23     2.49520000E+00   # Z
DECAY        24     2.08500000E+00   # W
DECAY   2000011     6.14777865E-01   # ~e^-_R
#    BR                NDA      ID1      ID2
     1.00000000E+00    2     1000022        11   # BR(~e^-_R -> chi^0_1 e^-)
#    BR                NDA      ID1      ID2       ID3
DECAY   1000011     1.57016257E+01   # ~e^-_L
#    BR                NDA      ID1      ID2
     9.17009924E-02    2     1000022        11   # BR(~e^-_L -> chi^0_1 e^-)
     3.03666125E-01    2     1000023        11   # BR(~e^-_L -> chi^0_2 e^-)
     3.52265498E-04    2     1000025        11   # BR(~e^-_L -> chi^0_3 e^-)
     3.47876445E-03    2     1000035        11   # BR(~e^-_L -> chi^0_4 e^-)
     5.79821359E-01    2    -1000024        12   # BR(~e^-_L -> chi^-_1 nu_e)
     2.09804896E-02    2    -1000037        12   # BR(~e^-_L -> chi^-_2 nu_e)
#    BR                NDA      ID1      ID2       ID3
DECAY   2000013     6.13544265E-01   # ~mu^-_R
#    BR                NDA      ID1      ID2
     1.00000000E+00    2     1000022        13   # BR(~mu^-_R -> chi^0_1 mu^-)
DECAY   1000013     1.57172163E+01   # ~mu^-_L
#    BR                NDA      ID1      ID2
     9.16173784E-02    2     1000022        13   # BR(~mu^-_L -> chi^0_1 mu^-)
     3.03393683E-01    2     1000023        13   # BR(~mu^-_L -> chi^0_2 mu^-)
     7.66680999E-04    2     1000025        13   # BR(~mu^-_L -> chi^0_3 mu^-)
     3.86812598E-03    2     1000035        13   # BR(~mu^-_L -> chi^0_4 mu^-)
     5.79233540E-01    2    -1000024        14   # BR(~mu^-_L -> chi^-_1 nu_mu)
     2.09588048E-02    2    -1000037        14   # BR(~mu^-_L -> chi^-_2 nu_mu)
     1.61786682E-04    2     2000013        25   # BR(~mu^-_L -> ~mu^-_R h^0)
#    BR                NDA      ID1      ID2       ID3
DECAY   1000015     3.36280681E+00   # ~tau^-_1
#    BR                NDA      ID1      ID2
     8.77283405E-01    2     1000022        15   # BR(~tau^-_1 -> chi^0_1 tau^-)
     3.32065899E-02    2     1000023        15   # BR(~tau^-_1 -> chi^0_2 tau^-)
     8.20386633E-03    2     1000025        15   # BR(~tau^-_1 -> chi^0_3 tau^-)
     5.57626130E-03    2     1000035        15   # BR(~tau^-_1 -> chi^0_4 tau^-)
     6.56573160E-02    2    -1000024        16   # BR(~tau^-_1 -> chi^-_1 nu_tau)
     1.00725613E-02    2    -1000037        16   # BR(~tau^-_1 -> chi^-_2 nu_tau)
DECAY   2000015     1.77792797E+01   # ~tau^-_2
#    BR                NDA      ID1      ID2
     7.45828366E-02    2     1000022        15   # BR(~tau^-_2 -> chi^0_1 tau^-)
     2.39587784E-01    2     1000023        15   # BR(~tau^-_2 -> chi^0_2 tau^-)
     8.34641118E-02    2     1000025        15   # BR(~tau^-_2 -> chi^0_3 tau^-)
     8.24347753E-02    2     1000035        15   # BR(~tau^-_2 -> chi^0_4 tau^-)
     4.42012410E-01    2    -1000024        16   # BR(~tau^-_2 -> chi^-_1 nu_tau)
     2.11477518E-02    2    -1000037        16   # BR(~tau^-_2 -> chi^-_2 nu_tau)
     2.87575124E-02    2     1000015        23   # BR(~tau^-_2 -> ~tau^-_1 Z)
     2.80128181E-02    2     1000015        25   # BR(~tau^-_2 -> ~tau^-_1 h^0)
#    BR                NDA      ID1      ID2       ID3
DECAY   1000012     1.57656365E+01   # ~nu_e
#    BR                NDA      ID1      ID2
     9.65235992E-02    2     1000022        12   # BR(~nu_e -> chi^0_1 nu_e)
     2.87486387E-01    2     1000023        12   # BR(~nu_e -> chi^0_2 nu_e)
     1.53333994E-03    2     1000025        12   # BR(~nu_e -> chi^0_3 nu_e)
     7.97529003E-03    2     1000035        12   # BR(~nu_e -> chi^0_4 nu_e)
     6.02328178E-01    2     1000024        11   # BR(~nu_e -> chi^+_1 e^-)
     4.15320632E-03    2     1000037        11   # BR(~nu_e -> chi^+_2 e^-)
DECAY   1000014     1.57785700E+01   # ~nu_mu
#    BR                NDA      ID1      ID2
     9.64423422E-02    2     1000022        14   # BR(~nu_mu -> chi^0_1 nu_mu)
     2.87243332E-01    2     1000023        14   # BR(~nu_mu -> chi^0_2 nu_mu)
     1.53200913E-03    2     1000025        14   # BR(~nu_mu -> chi^0_3 nu_mu)
     7.96836165E-03    2     1000035        14   # BR(~nu_mu -> chi^0_4 nu_mu)
     6.01890715E-01    2     1000024        13   # BR(~nu_mu -> chi^+_1 mu^-)
     4.92323959E-03    2     1000037        13   # BR(~nu_mu -> chi^+_2 mu^-)
DECAY   1000016     1.79501888E+01   # ~nu_tau
#    BR                NDA      ID1      ID2
     7.64582283E-02    2     1000022        16   # BR(~nu_tau -> chi^0_1 nu_tau)
     2.23517186E-01    2     1000023        16   # BR(~nu_tau -> chi^0_2 nu_tau)
     1.05731840E-03    2     1000025        16   # BR(~nu_tau -> chi^0_3 nu_tau)
     5.47460526E-03    2     1000035        16   # BR(~nu_tau -> chi^0_4 nu_tau)
     4.84113242E-01    2     1000024        15   # BR(~nu_tau -> chi^+_1 tau^-)
     1.53021348E-01    2     1000037        15   # BR(~nu_tau -> chi^+_2 tau^-)
     5.63580713E-02    2     1000015        24   # BR(~nu_tau -> ~tau^-_1 W^+)
DECAY   2000001     4.15887661E+02   # ~d_R
#    BR                NDA      ID1      ID2
     1.33975489E-02    2     1000022         1   # BR(~d_R -> chi^0_1 d)
     9.86512433E-01    2     1000021         1   # BR(~d_R -> ~g d)
DECAY   1000001     5.46954014E+02   # ~d_L
#    BR                NDA      ID1      ID2
     2.77906077E-03    2     1000022         1   # BR(~d_L -> chi^0_1 d)
     7.76565543E-02    2     1000023         1   # BR(~d_L -> chi^0_2 d)
     4.33651189E-04    2     1000025         1   # BR(~d_L -> chi^0_3 d)
     2.63295451E-03    2     1000035         1   # BR(~d_L -> chi^0_4 d)
     1.53076744E-01    2    -1000024         2   # BR(~d_L -> chi^-_1 u)
     8.77091077E-03    2    -1000037         2   # BR(~d_L -> chi^-_2 u)
     7.54650125E-01    2     1000021         1   # BR(~d_L -> ~g d)
DECAY   2000003     4.15994070E+02   # ~s_R
#    BR                NDA      ID1      ID2
     1.33949457E-02    2     1000022         3   # BR(~s_R -> chi^0_1 s)
     1.17028405E-04    2     1000035         3   # BR(~s_R -> chi^0_4 s)
     1.18938132E-04    2    -1000037         4   # BR(~s_R -> chi^-_2 c)
     9.86264890E-01    2     1000021         3   # BR(~s_R -> ~g s)
DECAY   1000003     5.47011307E+02   # ~s_L
#    BR                NDA      ID1      ID2
     2.77938148E-03    2     1000022         3   # BR(~s_L -> chi^0_1 s)
     7.76511160E-02    2     1000023         3   # BR(~s_L -> chi^0_2 s)
     4.80754498E-04    2     1000025         3   # BR(~s_L -> chi^0_3 s)
     2.67797670E-03    2     1000035         3   # BR(~s_L -> chi^0_4 s)
     1.53060951E-01    2    -1000024         4   # BR(~s_L -> chi^-_1 c)
     8.77653940E-03    2    -1000037         4   # BR(~s_L -> chi^-_2 c)
     7.54573281E-01    2     1000021         3   # BR(~s_L -> ~g s)
DECAY   1000005     5.96672502E+01   # ~b_1
#    BR                NDA      ID1      ID2
     2.54137987E-02    2     1000022         5   # BR(~b_1 -> chi^0_1 b)
     1.56396952E-02    2     1000023         5   # BR(~b_1 -> chi^0_2 b)
     2.41778436E-01    2     1000025         5   # BR(~b_1 -> chi^0_3 b)
     2.31257116E-01    2     1000035         5   # BR(~b_1 -> chi^0_4 b)
     3.10496203E-02    2    -1000024         6   # BR(~b_1 -> chi^-_1 t)
     4.54861334E-01    2    -1000037         6   # BR(~b_1 -> chi^-_2 t)
DECAY   2000005     2.79740758E+02   # ~b_2
#    BR                NDA      ID1      ID2
     3.10388817E-03    2     1000022         5   # BR(~b_2 -> chi^0_1 b)
     5.99240867E-02    2     1000023         5   # BR(~b_2 -> chi^0_2 b)
     8.86105675E-02    2     1000025         5   # BR(~b_2 -> chi^0_3 b)
     8.66895768E-02    2     1000035         5   # BR(~b_2 -> chi^0_4 b)
     1.10309253E-01    2    -1000024         6   # BR(~b_2 -> chi^-_1 t)
     2.59167096E-01    2    -1000037         6   # BR(~b_2 -> chi^-_2 t)
     3.89740110E-01    2     1000006       -24   # BR(~b_2 -> ~t_1 W^-)
     8.96907920E-04    2     1000005        23   # BR(~b_2 -> ~b_1 Z)
     1.55851398E-03    2     1000005        25   # BR(~b_2 -> ~b_1 h^0)
DECAY   2000002     4.33001605E+02   # ~u_R
#    BR                NDA      ID1      ID2
     5.14858666E-02    2     1000022         2   # BR(~u_R -> chi^0_1 u)
     2.20822620E-04    2     1000035         2   # BR(~u_R -> chi^0_4 u)
     9.48170872E-01    2     1000021         2   # BR(~u_R -> ~g u)
DECAY   1000002     5.46949226E+02   # ~u_L
#    BR                NDA      ID1      ID2
     2.33608943E-03    2     1000022         2   # BR(~u_L -> chi^0_1 u)
     7.89013606E-02    2     1000023         2   # BR(~u_L -> chi^0_2 u)
     2.69780777E-04    2     1000025         2   # BR(~u_L -> chi^0_3 u)
     1.99744767E-03    2     1000035         2   # BR(~u_L -> chi^0_4 u)
     1.60132632E-01    2     1000024         1   # BR(~u_L -> chi^+_1 d)
     1.75331017E-03    2     1000037         1   # BR(~u_L -> chi^+_2 d)
     7.54609380E-01    2     1000021         2   # BR(~u_L -> ~g u)
DECAY   2000004     4.33008930E+02   # ~c_R
#    BR                NDA      ID1      ID2
     5.14850033E-02    2     1000022         4   # BR(~c_R -> chi^0_1 c)
     1.01603506E-04    2     1000025         4   # BR(~c_R -> chi^0_3 c)
     2.24924319E-04    2     1000035         4   # BR(~c_R -> chi^0_4 c)
     9.48155099E-01    2     1000021         4   # BR(~c_R -> ~g c)
DECAY   1000004     5.47006461E+02   # ~c_L
#    BR                NDA      ID1      ID2
     2.33584942E-03    2     1000022         4   # BR(~c_L -> chi^0_1 c)
     7.88932273E-02    2     1000023         4   # BR(~c_L -> chi^0_2 c)
     2.73060730E-04    2     1000025         4   # BR(~c_L -> chi^0_3 c)
     2.00049560E-03    2     1000035         4   # BR(~c_L -> chi^0_4 c)
     1.60121300E-01    2     1000024         3   # BR(~c_L -> chi^+_1 s)
     1.84354115E-03    2     1000037         3   # BR(~c_L -> chi^+_2 s)
     7.54532526E-01    2     1000021         4   # BR(~c_L -> ~g c)
DECAY   1000006     9.44629748E+01   # ~t_1
#    BR                NDA      ID1      ID2
     5.59383073E-02    2     1000022         6   # BR(~t_1 -> chi^0_1 t)
     1.12239269E-03    2     1000023         4   # BR(~t_1 -> chi^0_2 c)
     1.96835278E-04    2     1000023         6   # BR(~t_1 -> chi^0_2 t)
     2.29979102E-01    2     1000025         6   # BR(~t_1 -> chi^0_3 t)
     2.37496984E-01    2     1000035         6   # BR(~t_1 -> chi^0_4 t)
     4.67776169E-04    2     1000024         5   # BR(~t_1 -> chi^+_1 b)
     4.74762454E-01    2     1000037         5   # BR(~t_1 -> chi^+_2 b)
#    BR                NDA      ID1      ID2       ID3
DECAY   2000006     3.06488886E+02   # ~t_2
#    BR                NDA      ID1      ID2
     2.36441693E-03    2     1000022         6   # BR(~t_2 -> chi^0_1 t)
     5.38982887E-02    2     1000023         6   # BR(~t_2 -> chi^0_2 t)
     1.19820406E-01    2     1000025         6   # BR(~t_2 -> chi^0_3 t)
     1.12335060E-01    2     1000035         6   # BR(~t_2 -> chi^0_4 t)
     1.16227359E-01    2     1000024         5   # BR(~t_2 -> chi^+_1 b)
     1.53385549E-01    2     1000037         5   # BR(~t_2 -> chi^+_2 b)
     1.67698913E-03    2     1000005        24   # BR(~t_2 -> ~b_1 W^+)
     1.82486356E-01    2     1000006        23   # BR(~t_2 -> ~t_1 Z)
     2.57805574E-01    2     1000006        25   # BR(~t_2 -> ~t_1 h^0)
DECAY   1000024     3.89350190E-03   # chi^+_1
#    BR                NDA      ID1      ID2
     1.44613030E-03    2    -2000013        14   # BR(chi^+_1 -> ~mu^+_R nu_mu)
     9.98510331E-01    2     1000022        24   # BR(chi^+_1 -> chi^0_1 W^+)
#    BR                NDA      ID1      ID2       ID3
DECAY   1000037     3.73767875E+00   # chi^+_2
#    BR                NDA      ID1      ID2
     1.00458305E-03    2    -2000013        14   # BR(chi^+_2 -> ~mu^+_R nu_mu)
     1.03297801E-01    2     1000022        24   # BR(chi^+_2 -> chi^0_1 W^+)
     3.42182521E-01    2     1000023        24   # BR(chi^+_2 -> chi^0_2 W^+)
     2.89826961E-01    2     1000024        23   # BR(chi^+_2 -> chi^+_1 Z)
     2.61965811E-01    2     1000024        25   # BR(chi^+_2 -> chi^+_1 h^0)
#    BR                NDA      ID1      ID2       ID3
     6.08359076E-04    3     1000022        -5         6   # BR(chi^+_2 -> chi^0_1 b_bar t)
     1.26793747E-04    3     1000022       -15        16   # BR(chi^+_2 -> chi^0_1 tau^+ nu_tau)
     9.77333163E-04    3     1000023        -5         6   # BR(chi^+_2 -> chi^0_2 b_bar t)
DECAY   1000022     0.00000000E+00   # chi^0_1
DECAY   1000023     1.73511955E-03   # chi^0_2
#    BR                NDA      ID1      ID2
     7.46363337E-03    2     2000011       -11   # BR(chi^0_2 -> ~e^-_R e^+)
     7.46363337E-03    2    -2000011        11   # BR(chi^0_2 -> ~e^+_R e^-)
     9.12571049E-03    2     2000013       -13   # BR(chi^0_2 -> ~mu^-_R mu^+)
     9.12571049E-03    2    -2000013        13   # BR(chi^0_2 -> ~mu^+_R mu^-)
     3.41372226E-01    2     1000022        23   # BR(chi^0_2 -> chi^0_1 Z)
     6.25241924E-01    2     1000022        25   # BR(chi^0_2 -> chi^0_1 h^0)
#    BR                NDA      ID1      ID2       ID3
DECAY   1000025     4.84729456E+00   # chi^0_3
#    BR                NDA      ID1      ID2
     4.01528936E-04    2     2000011       -11   # BR(chi^0_3 -> ~e^-_R e^+)
     4.01528936E-04    2    -2000011        11   # BR(chi^0_3 -> ~e^+_R e^-)
     7.95361956E-04    2     2000013       -13   # BR(chi^0_3 -> ~mu^-_R mu^+)
     7.95361956E-04    2    -2000013        13   # BR(chi^0_3 -> ~mu^+_R mu^-)
     2.26147364E-01    2     1000024       -24   # BR(chi^0_3 -> chi^+_1 W^-)
     2.26147364E-01    2    -1000024        24   # BR(chi^0_3 -> chi^-_1 W^+)
     6.12978997E-02    2     1000022        23   # BR(chi^0_3 -> chi^0_1 Z)
     2.24685368E-01    2     1000023        23   # BR(chi^0_3 -> chi^0_2 Z)
     5.46546583E-02    2     1000022        25   # BR(chi^0_3 -> chi^0_1 h^0)
     2.03455334E-01    2     1000023        25   # BR(chi^0_3 -> chi^0_2 h^0)
#    BR                NDA      ID1      ID2       ID3
     5.36566463E-04    3     1000024         5        -6   # BR(chi^0_3 -> chi^+_1 b t_bar)
     5.36566463E-04    3    -1000024        -5         6   # BR(chi^0_3 -> chi^-_1 b_bar t)
DECAY   1000035     3.93834765E+00   # chi^0_4
#    BR                NDA      ID1      ID2
     1.14340639E-03    2     2000011       -11   # BR(chi^0_4 -> ~e^-_R e^+)
     1.14340639E-03    2    -2000011        11   # BR(chi^0_4 -> ~e^+_R e^-)
     1.61897426E-03    2     2000013       -13   # BR(chi^0_4 -> ~mu^-_R mu^+)
     1.61897426E-03    2    -2000013        13   # BR(chi^0_4 -> ~mu^+_R mu^-)
     3.21471442E-01    2     1000024       -24   # BR(chi^0_4 -> chi^+_1 W^-)
     3.21471442E-01    2    -1000024        24   # BR(chi^0_4 -> chi^-_1 W^+)
     3.12659506E-02    2     1000022        23   # BR(chi^0_4 -> chi^0_1 Z)
     3.93075824E-02    2     1000023        23   # BR(chi^0_4 -> chi^0_2 Z)
     6.05296019E-02    2     1000022        25   # BR(chi^0_4 -> chi^0_1 h^0)
     2.18027666E-01    2     1000023        25   # BR(chi^0_4 -> chi^0_2 h^0)
#    BR                NDA      ID1      ID2       ID3
     1.18923996E-04    3     1000022        15       -15   # BR(chi^0_4 -> chi^0_1 tau^- tau^+)
     1.10869575E-03    3     1000024         5        -6   # BR(chi^0_4 -> chi^+_1 b t_bar)
     1.10869575E-03    3    -1000024        -5         6   # BR(chi^0_4 -> chi^-_1 b_bar t)
DECAY   1000021     2.82894534E+02   # ~g
#    BR                NDA      ID1      ID2
     1.74376159E-03    2     1000006        -4   # BR(~g -> ~t_1 c_bar)
     1.74376159E-03    2    -1000006         4   # BR(~g -> ~t^*_1 c)
     1.66734793E-01    2     1000006        -6   # BR(~g -> ~t_1 t_bar)
     1.66734793E-01    2    -1000006         6   # BR(~g -> ~t^*_1 t)
     7.55512352E-02    2     2000006        -6   # BR(~g -> ~t_2 t_bar)
     7.55512352E-02    2    -2000006         6   # BR(~g -> ~t^*_2 t)
     1.80946191E-01    2     1000005        -5   # BR(~g -> ~b_1 b_bar)
     1.80946191E-01    2    -1000005         5   # BR(~g -> ~b^*_1 b)
     7.49522121E-02    2     2000005        -5   # BR(~g -> ~b_2 b_bar)
     7.49522121E-02    2    -2000005         5   # BR(~g -> ~b^*_2 b)
#    BR                NDA      ID1      ID2       ID3
DECAY        25     3.99392016E-03   # Gamma(h0)
     2.51411533E-03   2        22        22   # BR(h0 -> photon photon)
     1.91919208E-03   2        22        23   # BR(h0 -> photon Z)
     3.95811153E-02   2        23        23   # BR(h0 -> Z Z)
     3.07856572E-01   2       -24        24   # BR(h0 -> W W)
     7.56079099E-02   2        21        21   # BR(h0 -> gluon gluon)
     4.41692426E-09   2       -11        11   # BR(h0 -> Electron electron)
     1.96474992E-04   2       -13        13   # BR(h0 -> Muon muon)
     5.67470558E-02   2       -15        15   # BR(h0 -> Tau tau)
     1.25532331E-07   2        -2         2   # BR(h0 -> Up up)
     2.43649804E-02   2        -4         4   # BR(h0 -> Charm charm)
     5.10431447E-07   2        -1         1   # BR(h0 -> Down down)
     1.84611517E-04   2        -3         3   # BR(h0 -> Strange strange)
     4.91027332E-01   2        -5         5   # BR(h0 -> Bottom bottom)
DECAY        35     1.75876964E+02   # Gamma(HH)
     2.70138575E-08   2        22        22   # BR(HH -> photon photon)
     6.18239555E-08   2        22        23   # BR(HH -> photon Z)
     3.20822924E-08   2        23        23   # BR(HH -> Z Z)
     5.85301497E-09   2       -24        24   # BR(HH -> W W)
     5.05468461E-06   2        21        21   # BR(HH -> gluon gluon)
     8.14177407E-09   2       -11        11   # BR(HH -> Electron electron)
     3.62558937E-04   2       -13        13   # BR(HH -> Muon muon)
     1.05524893E-01   2       -15        15   # BR(HH -> Tau tau)
     2.56947242E-14   2        -2         2   # BR(HH -> Up up)
     4.98524649E-09   2        -4         4   # BR(HH -> Charm charm)
     3.14928946E-04   2        -6         6   # BR(HH -> Top top)
     6.11545749E-07   2        -1         1   # BR(HH -> Down down)
     2.21246131E-04   2        -3         3   # BR(HH -> Strange strange)
     5.55976805E-01   2        -5         5   # BR(HH -> Bottom bottom)
     1.10212251E-02   2  -1000024   1000024   # BR(HH -> Chargino1 chargino1)
     9.53549079E-02   2  -1000024   1000037   # BR(HH -> Chargino1 chargino2)
     9.53549079E-02   2  -1000037   1000024   # BR(HH -> Chargino2 chargino1)
     1.81256607E-03   2  -1000037   1000037   # BR(HH -> Chargino2 chargino2)
     3.85610740E-04   2   1000022   1000022   # BR(HH -> neutralino1 neutralino1)
     2.85849499E-03   2   1000022   1000023   # BR(HH -> neutralino1 neutralino2)
     1.38927408E-02   2   1000022   1000025   # BR(HH -> neutralino1 neutralino3)
     1.36404927E-02   2   1000022   1000035   # BR(HH -> neutralino1 neutralino4)
     5.23034511E-03   2   1000023   1000023   # BR(HH -> neutralino2 neutralino2)
     4.41035244E-02   2   1000023   1000025   # BR(HH -> neutralino2 neutralino3)
     4.23925513E-02   2   1000023   1000035   # BR(HH -> neutralino2 neutralino4)
     7.40236630E-04   2   1000025   1000025   # BR(HH -> neutralino3 neutralino3)
     4.08052839E-03   2   1000025   1000035   # BR(HH -> neutralino3 neutralino4)
     3.67978307E-03   2   1000035   1000035   # BR(HH -> neutralino4 neutralino4)
     5.15621147E-07   2        25        25   # BR(HH -> h0 h0)
     8.24010097E-09   2  -1000011   1000011   # BR(HH -> Selectron1 selectron1)
     3.30870653E-14   2  -2000011   1000011   # BR(HH -> Selectron2 selectron1)
     3.30870653E-14   2  -1000011   2000011   # BR(HH -> Selectron1 selectron2)
     1.08120380E-08   2  -2000011   2000011   # BR(HH -> Selectron2 selectron2)
     8.07926580E-09   2  -1000013   1000013   # BR(HH -> Smuon1 smuon1)
     1.41454760E-09   2  -2000013   1000013   # BR(HH -> Smuon2 smuon1)
     1.41454760E-09   2  -1000013   2000013   # BR(HH -> Smuon1 smuon2)
     1.07080516E-08   2  -2000013   2000013   # BR(HH -> Smuon2 smuon2)
     2.72711267E-05   2  -1000015   1000015   # BR(HH -> Stau1 stau1)
     1.49746910E-03   2  -2000015   1000015   # BR(HH -> Stau2 stau1)
     1.49746910E-03   2  -1000015   2000015   # BR(HH -> Stau1 stau2)
     2.29741243E-05   2  -2000015   2000015   # BR(HH -> Stau2 stau2)
DECAY        36     1.65003555E+02   # Gamma(A0)
     3.19681819E-10   2        22        22   # BR(A0 -> photon photon)
     1.66796981E-08   2        22        23   # BR(A0 -> photon Z)
     7.39523042E-06   2        21        21   # BR(A0 -> gluon gluon)
     7.86627546E-09   2       -11        11   # BR(A0 -> Electron electron)
     3.50286393E-04   2       -13        13   # BR(A0 -> Muon muon)
     1.01953182E-01   2       -15        15   # BR(A0 -> Tau tau)
     2.19186823E-14   2        -2         2   # BR(A0 -> Up up)
     4.25256844E-09   2        -4         4   # BR(A0 -> Charm charm)
     2.66773875E-04   2        -6         6   # BR(A0 -> Top top)
     5.90834879E-07   2        -1         1   # BR(A0 -> Down down)
     2.13751441E-04   2        -3         3   # BR(A0 -> Strange strange)
     5.37147043E-01   2        -5         5   # BR(A0 -> Bottom bottom)
     1.15302666E-02   2  -1000024   1000024   # BR(A0 -> Chargino1 chargino1)
     1.01923215E-01   2  -1000024   1000037   # BR(A0 -> Chargino1 chargino2)
     1.01923215E-01   2  -1000037   1000024   # BR(A0 -> Chargino2 chargino1)
     1.71570985E-03   2  -1000037   1000037   # BR(A0 -> Chargino2 chargino2)
     4.05843093E-04   2   1000022   1000022   # BR(A0 -> neutralino1 neutralino1)
     2.99268106E-03   2   1000022   1000023   # BR(A0 -> neutralino1 neutralino2)
     1.58041286E-02   2   1000022   1000025   # BR(A0 -> neutralino1 neutralino3)
     1.36182970E-02   2   1000022   1000035   # BR(A0 -> neutralino1 neutralino4)
     5.46780840E-03   2   1000023   1000023   # BR(A0 -> neutralino2 neutralino2)
     4.95242405E-02   2   1000023   1000025   # BR(A0 -> neutralino2 neutralino3)
     4.29249506E-02   2   1000023   1000035   # BR(A0 -> neutralino2 neutralino4)
     9.16531613E-04   2   1000025   1000025   # BR(A0 -> neutralino3 neutralino3)
     4.17574636E-03   2   1000025   1000035   # BR(A0 -> neutralino3 neutralino4)
     3.89400529E-03   2   1000035   1000035   # BR(A0 -> neutralino4 neutralino4)
     8.40963957E-08   2        23        25   # BR(A0 -> Z h0)
     8.19778284E-13   2        23        35   # BR(A0 -> Z HH)
     5.12761628E-40   2        25        25   # BR(A0 -> h0 h0)
     3.52625933E-14   2  -2000011   1000011   # BR(A0 -> Selectron2 selectron1)
     3.52625933E-14   2  -1000011   2000011   # BR(A0 -> Selectron1 selectron2)
     1.50758608E-09   2  -2000013   1000013   # BR(A0 -> Smuon2 smuon1)
     1.50758608E-09   2  -1000013   2000013   # BR(A0 -> Smuon1 smuon2)
     1.62211090E-03   2  -2000015   1000015   # BR(A0 -> Stau2 stau1)
     1.62211090E-03   2  -1000015   2000015   # BR(A0 -> Stau1 stau2)
DECAY        37     2.07499621E+02   # Gamma(Hp)
     9.52949077E-09   2       -11        12   # BR(Hp -> Electron nu_e)
     4.07415494E-04   2       -13        14   # BR(Hp -> Muon nu_mu)
     1.15240315E-01   2       -15        16   # BR(Hp -> Tau nu_tau)
     5.57477101E-07   2        -1         2   # BR(Hp -> Down up)
     9.45625570E-06   2        -3         2   # BR(Hp -> Strange up)
     6.32757539E-06   2        -5         2   # BR(Hp -> Bottom up)
     2.63431242E-08   2        -1         4   # BR(Hp -> Down charm)
     2.00970724E-04   2        -3         4   # BR(Hp -> Strange charm)
     8.86087129E-04   2        -5         4   # BR(Hp -> Bottom charm)
     2.07125177E-08   2        -1         6   # BR(Hp -> Down top)
     7.51668189E-07   2        -3         6   # BR(Hp -> Strange top)
     5.97226046E-01   2        -5         6   # BR(Hp -> Bottom top)
     4.62779811E-03   2   1000022   1000024   # BR(Hp -> neutralino1 chargino1)
     2.03023007E-02   2   1000022   1000037   # BR(Hp -> neutralino1 chargino2)
     3.03032663E-06   2   1000023   1000024   # BR(Hp -> neutralino2 chargino1)
     9.01654096E-02   2   1000023   1000037   # BR(Hp -> neutralino2 chargino2)
     8.22228249E-02   2   1000024   1000025   # BR(Hp -> chargino1 neutralino3)
     2.82322219E-03   2   1000025   1000037   # BR(Hp -> neutralino3 chargino2)
     8.24865503E-02   2   1000024   1000035   # BR(Hp -> chargino1 neutralino4)
     8.09111131E-04   2   1000035   1000037   # BR(Hp -> neutralino4 chargino2)
     6.67985910E-08   2        24        25   # BR(Hp -> W h0)
     5.51167960E-14   2  -1000011   1000012   # BR(Hp -> Selectron1 snu_e1)
     3.60108779E-08   2  -2000011   1000012   # BR(Hp -> Selectron2 snu_e1)
     2.35650180E-09   2  -1000013   1000014   # BR(Hp -> Smuon1 snu_mu1)
     3.58869201E-08   2  -2000013   1000014   # BR(Hp -> Smuon2 snu_mu1)
     2.57105493E-03   2  -1000015   1000016   # BR(Hp -> Stau1 snu_tau1)
     1.05729265E-05   2  -2000015   1000016   # BR(Hp -> Stau2 snu_tau1)
DECAY         6     2.43000000E+00   # top
#    BR                NDA      ID1      ID2
     1.00000000E+00    2           5        24   # BR(t -> b W)
Block HiggsBoundsInputHiggsCouplingsFermions
# ScalarNormEffCoupSq PseudoSNormEffCoupSq NP IP1 IP2 IP2
    9.82334997E-01    0.00000000E+00        3  25   5   5  # h0-b-b eff. coupling^2, normalised to SM
    2.57169607E+03    0.00000000E+00        3  35   5   5  # H0-b-b eff. coupling^2, normalised to SM
    0.00000000E+00    2.57167840E+03        3  36   5   5  # A0-b-b eff. coupling^2, normalised to SM
#
    1.00000687E+00    0.00000000E+00        3  25   6   6  # h0-t-t eff. coupling^2, normalised to SM
    3.81982053E-04    0.00000000E+00        3  35   6   6  # H0-t-t eff. coupling^2, normalised to SM
    0.00000000E+00    3.88851109E-04        3  36   6   6  # A0-t-t eff. coupling^2, normalised to SM
#
    9.82334997E-01    0.00000000E+00        3  25  15  15  # h0-tau-tau eff. coupling^2, normalised to SM
    2.57169607E+03    0.00000000E+00        3  35  15  15  # H0-tau-tau eff. coupling^2, normalised to SM
    0.00000000E+00    2.57167840E+03        3  36  15  15  # A0-tau-tau eff. coupling^2, normalised to SM
#
Block HiggsBoundsInputHiggsCouplingsBosons
    9.99999969E-01        3  25  24  24  # h0-W-W eff. coupling^2, normalised to SM
    3.06063027E-08        3  35  24  24  # H0-W-W eff. coupling^2, normalised to SM
    0.00000000E+00        3  36  24  24  # A0-W-W eff. coupling^2, normalised to SM
#
    9.99999969E-01        3  25  23  23  # h0-Z-Z eff. coupling^2, normalised to SM
    3.06063027E-08        3  35  23  23  # H0-Z-Z eff. coupling^2, normalised to SM
    0.00000000E+00        3  36  23  23  # A0-Z-Z eff. coupling^2, normalised to SM
#
    1.25257941E+00        3  25  21  21  # h0-g-g eff. coupling^2, normalised to SM
    1.21560250E-02        3  35  21  21  # H0-g-g eff. coupling^2, normalised to SM
    1.33234703E-01        3  36  21  21  # A0-g-g eff. coupling^2, normalised to SM
#
    0.00000000E+00        3  25  25  23  # h0-h0-Z eff. coupling^2, normalised to SM
    0.00000000E+00        3  35  25  23  # H0-h0-Z eff. coupling^2, normalised to SM
    3.06063027E-08        3  36  25  23  # A0-h0-Z eff. coupling^2, normalised to SM
    0.00000000E+00        3  35  35  23  # H0-H0-Z eff. coupling^2, normalised to SM
    9.99999969E-01        3  36  35  23  # A0-H0-Z eff. coupling^2, normalised to SM
    0.00000000E+00        3  36  36  23  # A0-A0-Z eff. coupling^2, normalised to SM
#
    0.00000000E+00        4  25  21  21  23  # h0-g-g-Z eff. coupling^2, normalised to SM
    0.00000000E+00        4  35  21  21  23  # H0-g-g-Z eff. coupling^2, normalised to SM
    0.00000000E+00        4  36  21  21  23  # A0-g-g-Z eff. coupling^2, normalised to SM
Block SPhenoLowEnergy  # low energy observables
    1    3.02955055E-04   # BR(b -> s gamma)
    2    1.59321197E-06   # BR(b -> s mu+ mu-)
    3    3.52571264E-05   # BR(b -> s nu nu)
    4    2.83496819E-15   # BR(Bd -> e+ e-)
    5    1.21104173E-10   # BR(Bd -> mu+ mu-)
    6    2.52116626E-08   # BR(Bd -> tau+ tau-)
    7    9.48569801E-14   # BR(Bs -> e+ e-)
    8    4.05220748E-09   # BR(Bs -> mu+ mu-)
    9    8.54884742E-07   # BR(Bs -> tau+ tau-)
   10    9.62863102E-05   # BR(B_u -> tau nu)
   11    9.94600721E-01   # BR(B_u -> tau nu)/BR(B_u -> tau nu)_SM
   12    5.41761507E-01   # |Delta(M_Bd)| [ps^-1] 
   13    1.93526007E+01   # |Delta(M_Bs)| [ps^-1] 
   14    0.00000000E+00   # neutron EDM according to the chiral quark model
   15    0.00000000E+00   # neutron EDM according to the relativistic quark-parton model
   16    2.15666061E-03   # epsilon_K
   17    2.28165215E-15   # Delta(M_K)
   18    2.48068294E-11   # BR(K^0 -> pi^0 nu nu)
   19    8.29193823E-11   # BR(K^+ -> pi^+ nu nu)
   20   -2.07176859E-14   # Delta(g-2)_electron/2
   21   -8.92541444E-10   # Delta(g-2)_muon/2
   22   -1.02555220E-06   # Delta(g-2)_tau/2
   23    0.00000000E+00   # electric dipole moment of the electron
   24    0.00000000E+00   # electric dipole moment of the muon
   25    0.00000000E+00   # electric dipole moment of the tau
   26    0.00000000E+00   # Br(mu -> e gamma)
   27    0.00000000E+00   # Br(tau -> e gamma)
   28    0.00000000E+00   # Br(tau -> mu gamma)
   29    0.00000000E+00   # Br(mu -> 3 e)
   30    0.00000000E+00   # Br(tau -> 3 e)
   31    0.00000000E+00   # Br(tau -> 3 mu)
   39    2.41740854E-04   # Delta(rho_parameter)
   40    0.00000000E+00   # BR(Z -> e mu)
   41    0.00000000E+00   # BR(Z -> e tau)
   42    0.00000000E+00   # BR(Z -> mu tau)
Block FWCOEF Q=  1.60000000E+02  # Wilson coefficients at scale Q
#    id        order  M        value         comment
     0305 4422   00   0    -1.88819110E-01   # C7
     0305 4422   00   2    -1.67521227E-01   # C7
     0305 4322   00   2     9.95112595E-05   # C7'
     0305 6421   00   0    -9.52278348E-02   # C8
     0305 6421   00   2    -8.61802942E-02   # C8
     0305 6321   00   2    -1.52297049E-05   # C8'
 03051111 4133   00   0     1.61785440E+00   # C9 e+e-
 03051111 4133   00   2     1.61805454E+00   # C9 e+e-
 03051111 4233   00   2     5.88853429E-04   # C9' e+e-
 03051111 4137   00   0    -4.44054651E+00   # C10 e+e-
 03051111 4137   00   2    -4.43941640E+00   # C10 e+e-
 03051111 4237   00   2    -4.41520647E-03   # C10' e+e-
 03051313 4133   00   0     1.61785440E+00   # C9 mu+mu-
 03051313 4133   00   2     1.61805154E+00   # C9 mu+mu-
 03051313 4233   00   2     5.88852113E-04   # C9' mu+mu-
 03051313 4137   00   0    -4.44054651E+00   # C10 mu+mu-
 03051313 4137   00   2    -4.43941938E+00   # C10 mu+mu-
 03051313 4237   00   2    -4.41520916E-03   # C10' mu+mu-
 03051212 4137   00   0     1.50535012E+00   # C11 nu_1 nu_1
 03051212 4137   00   2     1.50512150E+00   # C11 nu_1 nu_1
 03051212 4237   00   2     9.56619722E-04   # C11' nu_1 nu_1
 03051414 4137   00   0     1.50535012E+00   # C11 nu_2 nu_2
 03051414 4137   00   2     1.50512150E+00   # C11 nu_2 nu_2
 03051414 4237   00   2     9.56619759E-04   # C11' nu_2 nu_2
 03051616 4137   00   0     1.50535012E+00   # C11 nu_3 nu_3
 03051616 4137   00   2     1.50512624E+00   # C11 nu_3 nu_3
 03051616 4237   00   2     9.56630485E-04   # C11' nu_3 nu_3
Block IMFWCOEF Q=  1.60000000E+02  # Im(Wilson coefficients) at scale Q
#    id        order  M        value         comment
     0305 4422   00   0     3.85874031E-07   # C7
     0305 4422   00   2    -2.32597309E-06   # C7
     0305 4322   00   2     2.93897040E-06   # C7'
     0305 6421   00   0     3.30526627E-07   # C8
     0305 6421   00   2    -9.26149823E-06   # C8
     0305 6321   00   2     1.26973302E-06   # C8'
 03051111 4133   00   2    -9.70472133E-07   # C9 e+e-
 03051111 4233   00   2     1.11064793E-05   # C9' e+e-
 03051111 4137   00   2     7.91610495E-06   # C10 e+e-
 03051111 4237   00   2    -8.32773136E-05   # C10' e+e-
 03051313 4133   00   2    -9.70606616E-07   # C9 mu+mu-
 03051313 4233   00   2     1.11064589E-05   # C9' mu+mu-
 03051313 4137   00   2     7.91628728E-06   # C10 mu+mu-
 03051313 4237   00   2    -8.32773649E-05   # C10' mu+mu-
 03051212 4137   00   2    -1.42334819E-06   # C11 nu_1 nu_1
 03051212 4237   00   2     1.80432742E-05   # C11' nu_1 nu_1
 03051414 4137   00   2    -1.42334160E-06   # C11 nu_2 nu_2
 03051414 4237   00   2     1.80432742E-05   # C11' nu_2 nu_2
 03051616 4137   00   2    -1.41837520E-06   # C11 nu_3 nu_3
 03051616 4237   00   2     1.80432801E-05   # C11' nu_3 nu_3
