# SUSY Les Houches Accord 2 - MSSM spectrum + Decays
# SPheno v4.0.5be
# W. Porod, Comput. Phys. Commun. 153 (2003) 275-315, hep-ph/0301101;
# W. Porod, F.~Staub, Comput. Phys. Commun. 183 (2012) 2458
#                     arXiv:1104.1573 [hep-ph] 
# in case of problems send email to porod@physik.uni-wuerzburg.de
# Created: 15.05.2022,  17:33
Block SPINFO         # Program information
     1   SPheno      # spectrum calculator
     2   v4.0.5be    # version number
#
Block SPhenoINFO     # SPheno specific information
    1      2         # using 2-loop RGEs
    2      2         # using pole masses for boundary conditions at mZ
Block MODSEL  # Model selection
    1    0    # general MSSM
Block MINPAR  # Input parameters
    3    5.17499624E+01  # tanb at m_Z    
    4    1.00000000E+00  # Sign(mu)
Block EXTPAR  # non-universal input parameters
    0    2.87073197E+03  # scale for input parameters
    1   -7.08478616E+01  # M_1
    2    1.58741056E+03  # M_2
    3    4.30121723E+03  # M_3
   11    2.25902932E+03  # A_t
   12   -1.83665110E+03  # A_b
   13    6.26943116E+02  # A_tau
   23    1.05818816E+02  # mu
   25    5.11485428E+01  # tan(beta)
   26    5.27905355E+02  # m_A, pole mass
   31    1.12044902E+03  # M_L11
   32    1.12044902E+03  # M_L22
   33    2.77285014E+02  # M_L33
   34    7.23687253E+02  # M_E11
   35    7.23687253E+02  # M_E22
   36    9.50434103E+02  # M_E33
   41    1.00000000E+04  # M_Q11
   42    1.00000000E+04  # M_Q22
   43    2.40123142E+03  # M_Q33
   44    1.00000000E+04  # M_U11
   45    1.00000000E+04  # M_U22
   46    3.27789501E+03  # M_U33
   47    1.00000000E+04  # M_D11
   48    1.00000000E+04  # M_D22
   49    2.40348135E+03  # M_D33
Block SMINPUTS  # SM parameters
         1     1.27908970E+02  # alpha_em^-1(MZ)^MSbar
         2     1.16637870E-05  # G_mu [GeV^-2]
         3     1.18400000E-01  # alpha_s(MZ)^MSbar
         4     9.11876000E+01  # m_Z(pole)
         5     4.18000000E+00  # m_b(m_b), MSbar
         6     1.73200000E+02  # m_t(pole)
         7     1.77700000E+00  # m_tau(pole)
         8     0.00000000E+00  # m_nu_3
        11     5.10998930E-04  # m_e(pole)
        12     0.00000000E+00  # m_nu_1
        13     1.05658372E-01  # m_muon(pole)
        14     0.00000000E+00  # m_nu_2
        21     5.00000000E-03  # m_d(2 GeV), MSbar
        22     2.50000000E-03  # m_u(2 GeV), MSbar
        23     9.50000000E-02  # m_s(2 GeV), MSbar
        24     1.27000000E+00  # m_c(m_c), MSbar
Block gauge Q=  2.87073197E+03  # (SUSY scale)
   1    3.55362975E-01  # g'(Q)^DRbar
   2    6.65198874E-01  # g(Q)^DRbar
   3    1.21977796E+00  # g3(Q)^DRbar
Block Yu Q=  2.87073197E+03  # (SUSY scale)
  1  1     8.38597439E-06   # Y_u(Q)^DRbar
  2  2     4.26007499E-03   # Y_c(Q)^DRbar
  3  3     1.01309306E+00   # Y_t(Q)^DRbar
Block Yd Q=  2.87073197E+03  # (SUSY scale)
  1  1     8.61920172E-04   # Y_d(Q)^DRbar
  2  2     1.63764833E-02   # Y_s(Q)^DRbar
  3  3     8.54754724E-01   # Y_b(Q)^DRbar
Block Ye Q=  2.87073197E+03  # (SUSY scale)
  1  1     1.50411373E-04   # Y_e(Q)^DRbar
  2  2     3.11003015E-02   # Y_mu(Q)^DRbar
  3  3     5.23055908E-01   # Y_tau(Q)^DRbar
Block Au Q=  2.87073197E+03  # (SUSY scale)
  1  1     0.00000000E+00   # A_u(Q)^DRbar
  2  2     0.00000000E+00   # A_c(Q)^DRbar
  3  3     2.25902903E+03   # A_t(Q)^DRbar
Block Ad Q=  2.87073197E+03  # (SUSY scale)
  1  1     0.00000000E+00   # A_d(Q)^DRbar
  2  2     0.00000000E+00   # A_s(Q)^DRbar
  3  3    -1.83665127E+03   # A_b(Q)^DRbar
Block Ae Q=  2.87073197E+03  # (SUSY scale)
  1  1     0.00000000E+00   # A_e(Q)^DRbar
  2  2     0.00000000E+00   # A_mu(Q)^DRbar
  3  3     6.26942891E+02   # A_tau(Q)^DRbar
Block MSOFT Q=  2.87073197E+03  # soft SUSY breaking masses at Q
   1   -7.08478616E+01  # M_1
   2    1.58741056E+03  # M_2
   3    4.30121723E+03  # M_3
  21    3.74986077E+05  # M^2_(H,d)
  22    1.30130012E+05  # M^2_(H,u)
  31    1.12044902E+03  # M_(L,11)
  32    1.12044902E+03  # M_(L,22)
  33    2.77285014E+02  # M_(L,33)
  34    7.23687253E+02  # M_(E,11)
  35    7.23687253E+02  # M_(E,22)
  36    9.50434103E+02  # M_(E,33)
  41    1.00000000E+04  # M_(Q,11)
  42    1.00000000E+04  # M_(Q,22)
  43    2.40123142E+03  # M_(Q,33)
  44    1.00000000E+04  # M_(U,11)
  45    1.00000000E+04  # M_(U,22)
  46    3.27789501E+03  # M_(U,33)
  47    1.00000000E+04  # M_(D,11)
  48    1.00000000E+04  # M_(D,22)
  49    2.40348135E+03  # M_(D,33)
Block MASS  # Mass spectrum
#   PDG code      mass          particle
         6     1.73200000E+02  # m_t(pole)
        23     9.11876000E+01  # m_Z(pole)
        24     8.04299946E+01  # W+
        15     1.77700000E+00  # m_tau(pole)
        25     1.21669851E+02  # h0
        35     5.27824705E+02  # H0
        36     5.27905355E+02  # A0
        37     5.39002547E+02  # H+
   1000001     1.00768119E+04  # ~d_L
   2000001     1.00543320E+04  # ~d_R
   1000002     1.00765096E+04  # ~u_L
   2000002     1.00576129E+04  # ~u_R
   1000003     1.00768281E+04  # ~s_L
   2000003     1.00543574E+04  # ~s_R
   1000004     1.00765251E+04  # ~c_L
   2000004     1.00576147E+04  # ~c_R
   1000005     2.46863597E+03  # ~b_1
   2000005     2.47593204E+03  # ~b_2
   1000006     2.47333028E+03  # ~t_1
   2000006     3.33198608E+03  # ~t_2
   1000011     1.14584639E+03  # ~e_L-
   2000011     7.27388240E+02  # ~e_R-
   1000012     1.14261577E+03  # ~nu_eL
   1000013     1.14582088E+03  # ~mu_L-
   2000013     7.27319761E+02  # ~mu_R-
   1000014     1.14258912E+03  # ~nu_muL
   1000015     3.32926154E+02  # ~tau_1-
   2000015     9.38422919E+02  # ~tau_2-
   1000016     3.27226408E+02  # ~nu_tauL
   1000021     4.69157878E+03  # ~g
   1000022     6.01088461E+01  # ~chi_10
   1000023     1.21774424E+02  # ~chi_20
   1000025     1.35545854E+02  # ~chi_30
   1000035     1.64580500E+03  # ~chi_40
   1000024     1.18286717E+02  # ~chi_1+
   1000037     1.64581582E+03  # ~chi_2+
# Higgs mixing
Block alpha # Effective Higgs mixing angle
          -2.10526171E-02   # alpha
Block Hmix Q=  2.87073197E+03  # Higgs mixing parameters
   1    1.05818816E+02  # mu
   2    5.11485428E+01  # tan[beta](Q)
   3    2.43306680E+02  # v(Q)
   4    2.78684064E+05  # m^2_A(Q)
Block stopmix # stop mixing matrix
   1  1    -9.98029788E-01   # Re[R_st(1,1)]
   1  2     6.27418776E-02   # Re[R_st(1,2)]
   2  1    -6.27418776E-02   # Re[R_st(2,1)]
   2  2    -9.98029788E-01   # Re[R_st(2,2)]
Block sbotmix # sbottom mixing matrix
   1  1     4.87825726E-01   # Re[R_sb(1,1)]
   1  2     8.72941041E-01   # Re[R_sb(1,2)]
   2  1    -8.72941041E-01   # Re[R_sb(2,1)]
   2  2     4.87825726E-01   # Re[R_sb(2,2)]
Block staumix # stau mixing matrix
   1  1     9.99937170E-01   # Re[R_sta(1,1)]
   1  2     1.12096039E-02   # Re[R_sta(1,2)]
   2  1    -1.12096039E-02   # Re[R_sta(2,1)]
   2  2     9.99937170E-01   # Re[R_sta(2,2)]
Block Nmix # neutralino mixing matrix
   1  1    -8.79386719E-01   # Re[N(1,1)]
   1  2    -9.57859538E-03   # Re[N(1,2)]
   1  3    -4.27004605E-01   # Re[N(1,3)]
   1  4    -2.10367096E-01   # Re[N(1,4)]
   2  1    -1.64761775E-01   # Re[N(2,1)]
   2  2    -3.76391133E-02   # Re[N(2,2)]
   2  3     6.87903038E-01   # Re[N(2,3)]
   2  4    -7.05851447E-01   # Re[N(2,4)]
   3  1     4.46688847E-01   # Re[N(3,1)]
   3  2    -2.98866580E-02   # Re[N(3,2)]
   3  3    -5.86888635E-01   # Re[N(3,3)]
   3  4    -6.74638860E-01   # Re[N(3,4)]
   4  1     1.27627337E-03   # Re[N(4,1)]
   4  2    -9.98798446E-01   # Re[N(4,2)]
   4  3    -4.26694304E-03   # Re[N(4,3)]
   4  4     4.88039854E-02   # Re[N(4,4)]
Block Umix # chargino mixing matrix
   1  1    -6.03813623E-03   # Re[U(1,1)]
   1  2     9.99981770E-01   # Re[U(1,2)]
   2  1     9.99981770E-01   # Re[U(2,1)]
   2  2     6.03813623E-03   # Re[U(2,2)]
Block Vmix # chargino mixing matrix
   1  1    -6.90441513E-02   # Re[V(1,1)]
   1  2     9.97613605E-01   # Re[V(1,2)]
   2  1     9.97613605E-01   # Re[V(2,1)]
   2  2     6.90441513E-02   # Re[V(2,2)]
DECAY        23     2.49520000E+00   # Z
DECAY        24     2.08500000E+00   # W
DECAY   2000011     3.56113421E+00   # ~e^-_R
#    BR                NDA      ID1      ID2
     7.82871494E-01    2     1000022        11   # BR(~e^-_R -> chi^0_1 e^-)
     2.63211136E-02    2     1000023        11   # BR(~e^-_R -> chi^0_2 e^-)
     1.90807305E-01    2     1000025        11   # BR(~e^-_R -> chi^0_3 e^-)
DECAY   1000011     1.44443906E+00   # ~e^-_L
#    BR                NDA      ID1      ID2
     7.97939114E-01    2     1000022        11   # BR(~e^-_L -> chi^0_1 e^-)
     5.38949160E-02    2     1000023        11   # BR(~e^-_L -> chi^0_2 e^-)
     1.47916762E-01    2     1000025        11   # BR(~e^-_L -> chi^0_3 e^-)
     2.49207013E-04    2    -1000024        12   # BR(~e^-_L -> chi^-_1 nu_e)
#    BR                NDA      ID1      ID2       ID3
DECAY   2000013     3.58731490E+00   # ~mu^-_R
#    BR                NDA      ID1      ID2
     7.77783302E-01    2     1000022        13   # BR(~mu^-_R -> chi^0_1 mu^-)
     2.78710160E-02    2     1000023        13   # BR(~mu^-_R -> chi^0_2 mu^-)
     1.90648114E-01    2     1000025        13   # BR(~mu^-_R -> chi^0_3 mu^-)
     3.69756792E-03    2    -1000024        14   # BR(~mu^-_R -> chi^-_1 nu_mu)
DECAY   1000013     1.46603819E+00   # ~mu^-_L
#    BR                NDA      ID1      ID2
     7.88893315E-01    2     1000022        13   # BR(~mu^-_L -> chi^0_1 mu^-)
     6.00556705E-02    2     1000023        13   # BR(~mu^-_L -> chi^0_2 mu^-)
     1.50768939E-01    2     1000025        13   # BR(~mu^-_L -> chi^0_3 mu^-)
     2.45529746E-04    2    -1000024        14   # BR(~mu^-_L -> chi^-_1 nu_mu)
#    BR                NDA      ID1      ID2       ID3
DECAY   1000015     1.76494285E+00   # ~tau^-_1
#    BR                NDA      ID1      ID2
     3.58309761E-01    2     1000022        15   # BR(~tau^-_1 -> chi^0_1 tau^-)
     3.73237500E-01    2     1000023        15   # BR(~tau^-_1 -> chi^0_2 tau^-)
     2.68173091E-01    2     1000025        15   # BR(~tau^-_1 -> chi^0_3 tau^-)
     2.79642672E-04    2    -1000024        16   # BR(~tau^-_1 -> chi^-_1 nu_tau)
#    BR                NDA      ID1      ID2       ID3
DECAY   2000015     1.63767178E+01   # ~tau^-_2
#    BR                NDA      ID1      ID2
     2.75932629E-01    2     1000022        15   # BR(~tau^-_2 -> chi^0_1 tau^-)
     1.50458361E-01    2     1000023        15   # BR(~tau^-_2 -> chi^0_2 tau^-)
     1.59096019E-01    2     1000025        15   # BR(~tau^-_2 -> chi^0_3 tau^-)
     3.01954704E-01    2    -1000024        16   # BR(~tau^-_2 -> chi^-_1 nu_tau)
     2.83133801E-03    2     1000016       -24   # BR(~tau^-_2 -> ~nu_tau W^-)
     5.24822804E-02    2     1000016       -37   # BR(~tau^-_2 -> ~nu_tau H^-)
     1.38122777E-03    2     1000015        23   # BR(~tau^-_2 -> ~tau^-_1 Z)
     2.72768613E-02    2     1000015        36   # BR(~tau^-_2 -> ~tau^-_1 A^0)
     1.29680794E-03    2     1000015        25   # BR(~tau^-_2 -> ~tau^-_1 h^0)
     2.72897724E-02    2     1000015        35   # BR(~tau^-_2 -> ~tau^-_1 H^0)
DECAY   1000012     1.47115161E+00   # ~nu_e
#    BR                NDA      ID1      ID2
     7.20024185E-01    2     1000022        12   # BR(~nu_e -> chi^0_1 nu_e)
     8.48087494E-03    2     1000023        12   # BR(~nu_e -> chi^0_2 nu_e)
     2.39596054E-01    2     1000025        12   # BR(~nu_e -> chi^0_3 nu_e)
     3.18988859E-02    2     1000024        11   # BR(~nu_e -> chi^+_1 e^-)
DECAY   1000014     1.49263139E+00   # ~nu_mu
#    BR                NDA      ID1      ID2
     7.09645909E-01    2     1000022        14   # BR(~nu_mu -> chi^0_1 nu_mu)
     8.35862661E-03    2     1000023        14   # BR(~nu_mu -> chi^0_2 nu_mu)
     2.36142313E-01    2     1000025        14   # BR(~nu_mu -> chi^0_3 nu_mu)
     4.58531509E-02    2     1000024        13   # BR(~nu_mu -> chi^+_1 mu^-)
DECAY   1000016     1.71393727E+00   # ~nu_tau
#    BR                NDA      ID1      ID2
     1.66169140E-01    2     1000022        16   # BR(~nu_tau -> chi^0_1 nu_tau)
     1.58305135E-03    2     1000023        16   # BR(~nu_tau -> chi^0_2 nu_tau)
     4.15812685E-02    2     1000025        16   # BR(~nu_tau -> chi^0_3 nu_tau)
     7.90666540E-01    2     1000024        15   # BR(~nu_tau -> chi^+_1 tau^-)
DECAY   2000001     4.91258560E+02   # ~d_R
#    BR                NDA      ID1      ID2
     8.83561016E-03    2     1000022         1   # BR(~d_R -> chi^0_1 d)
     3.10235113E-04    2     1000023         1   # BR(~d_R -> chi^0_2 d)
     2.27917286E-03    2     1000025         1   # BR(~d_R -> chi^0_3 d)
     9.88574662E-01    2     1000021         1   # BR(~d_R -> ~g d)
DECAY   1000001     6.15406761E+02   # ~d_L
#    BR                NDA      ID1      ID2
     1.55768659E-03    2     1000022         1   # BR(~d_L -> chi^0_1 d)
     8.62824814E-04    2     1000025         1   # BR(~d_L -> chi^0_3 d)
     6.81448141E-02    2     1000035         1   # BR(~d_L -> chi^0_4 d)
     1.36550509E-01    2    -1000037         2   # BR(~d_L -> chi^-_2 u)
     7.92873834E-01    2     1000021         1   # BR(~d_L -> ~g d)
DECAY   2000003     4.91368129E+02   # ~s_R
#    BR                NDA      ID1      ID2
     8.85351146E-03    2     1000022         3   # BR(~s_R -> chi^0_1 s)
     3.61670873E-04    2     1000023         3   # BR(~s_R -> chi^0_2 s)
     2.31615662E-03    2     1000025         3   # BR(~s_R -> chi^0_3 s)
     1.09139684E-04    2    -1000024         4   # BR(~s_R -> chi^-_1 c)
     9.88359498E-01    2     1000021         3   # BR(~s_R -> ~g s)
DECAY   1000003     6.15465877E+02   # ~s_L
#    BR                NDA      ID1      ID2
     1.57342196E-03    2     1000022         3   # BR(~s_L -> chi^0_1 s)
     8.92737966E-04    2     1000025         3   # BR(~s_L -> chi^0_3 s)
     6.81383918E-02    2     1000035         3   # BR(~s_L -> chi^0_4 s)
     1.36537663E-01    2    -1000037         4   # BR(~s_L -> chi^-_2 c)
     7.92800362E-01    2     1000021         3   # BR(~s_L -> ~g s)
DECAY   1000005     7.78939528E+01   # ~b_1
#    BR                NDA      ID1      ID2
     1.37384993E-01    2     1000022         5   # BR(~b_1 -> chi^0_1 b)
     2.09812637E-01    2     1000023         5   # BR(~b_1 -> chi^0_2 b)
     1.26941237E-01    2     1000025         5   # BR(~b_1 -> chi^0_3 b)
     9.94361557E-03    2     1000035         5   # BR(~b_1 -> chi^0_4 b)
     4.95712578E-01    2    -1000024         6   # BR(~b_1 -> chi^-_1 t)
     2.02049394E-02    2    -1000037         6   # BR(~b_1 -> chi^-_2 t)
DECAY   2000005     9.05700163E+01   # ~b_2
#    BR                NDA      ID1      ID2
     4.05984807E-02    2     1000022         5   # BR(~b_2 -> chi^0_1 b)
     1.93672968E-01    2     1000023         5   # BR(~b_2 -> chi^0_2 b)
     1.67052576E-01    2     1000025         5   # BR(~b_2 -> chi^0_3 b)
     2.87595848E-02    2     1000035         5   # BR(~b_2 -> chi^0_4 b)
     5.11531508E-01    2    -1000024         6   # BR(~b_2 -> chi^-_1 t)
     5.83848828E-02    2    -1000037         6   # BR(~b_2 -> chi^-_2 t)
DECAY   2000002     5.08437987E+02   # ~u_R
#    BR                NDA      ID1      ID2
     3.41591993E-02    2     1000022         2   # BR(~u_R -> chi^0_1 u)
     1.19884901E-03    2     1000023         2   # BR(~u_R -> chi^0_2 u)
     8.81112468E-03    2     1000025         2   # BR(~u_R -> chi^0_3 u)
     9.55830759E-01    2     1000021         2   # BR(~u_R -> ~g u)
DECAY   1000002     6.15395851E+02   # ~u_L
#    BR                NDA      ID1      ID2
     1.99000669E-03    2     1000022         2   # BR(~u_L -> chi^0_1 u)
     3.23226494E-04    2     1000023         2   # BR(~u_L -> chi^0_2 u)
     1.77647544E-04    2     1000025         2   # BR(~u_L -> chi^0_3 u)
     6.80817591E-02    2     1000035         2   # BR(~u_L -> chi^0_4 u)
     6.87188245E-04    2     1000024         1   # BR(~u_L -> chi^+_1 d)
     1.35902400E-01    2     1000037         1   # BR(~u_L -> chi^+_2 d)
     7.92837772E-01    2     1000021         2   # BR(~u_L -> ~g u)
DECAY   2000004     5.08445402E+02   # ~c_R
#    BR                NDA      ID1      ID2
     3.41590223E-02    2     1000022         4   # BR(~c_R -> chi^0_1 c)
     1.20238938E-03    2     1000023         4   # BR(~c_R -> chi^0_2 c)
     8.81424550E-03    2     1000025         4   # BR(~c_R -> chi^0_3 c)
     9.55817120E-01    2     1000021         4   # BR(~c_R -> ~g c)
DECAY   1000004     6.15454854E+02   # ~c_L
#    BR                NDA      ID1      ID2
     1.99008039E-03    2     1000022         4   # BR(~c_L -> chi^0_1 c)
     3.26140051E-04    2     1000023         4   # BR(~c_L -> chi^0_2 c)
     1.80320392E-04    2     1000025         4   # BR(~c_L -> chi^0_3 c)
     6.80753618E-02    2     1000035         4   # BR(~c_L -> chi^0_4 c)
     7.74208650E-04    2     1000024         3   # BR(~c_L -> chi^+_1 s)
     1.35889606E-01    2     1000037         3   # BR(~c_L -> chi^+_2 s)
     7.92764282E-01    2     1000021         4   # BR(~c_L -> ~g c)
DECAY   1000006     9.73050809E+01   # ~t_1
#    BR                NDA      ID1      ID2
     9.19315349E-04    2     1000022         4   # BR(~t_1 -> chi^0_1 c)
     2.87689402E-02    2     1000022         6   # BR(~t_1 -> chi^0_1 t)
     1.48805142E-04    2     1000023         4   # BR(~t_1 -> chi^0_2 c)
     2.56420883E-01    2     1000023         6   # BR(~t_1 -> chi^0_2 t)
     2.27766256E-01    2     1000025         6   # BR(~t_1 -> chi^0_3 t)
     3.54199292E-02    2     1000035         6   # BR(~t_1 -> chi^0_4 t)
     3.66460036E-01    2     1000024         5   # BR(~t_1 -> chi^+_1 b)
     6.97927966E-02    2     1000037         5   # BR(~t_1 -> chi^+_2 b)
#    BR                NDA      ID1      ID2       ID3
     1.43030386E-02    3     1000022        24         5   # BR(~t_1 -> chi^0_1 W^+ b)
DECAY   2000006     1.62837065E+02   # ~t_2
#    BR                NDA      ID1      ID2
     5.11278759E-02    2     1000022         6   # BR(~t_2 -> chi^0_1 t)
     2.06875753E-01    2     1000023         6   # BR(~t_2 -> chi^0_2 t)
     2.01421295E-01    2     1000025         6   # BR(~t_2 -> chi^0_3 t)
     4.16664194E-01    2     1000024         5   # BR(~t_2 -> chi^+_1 b)
     1.84707157E-04    2     1000037         5   # BR(~t_2 -> chi^+_2 b)
     1.31138302E-02    2     1000005        24   # BR(~t_2 -> ~b_1 W^+)
     4.10821442E-02    2     2000005        24   # BR(~t_2 -> ~b_2 W^+)
     1.76803174E-04    2     1000005        37   # BR(~t_2 -> ~b_1 H^+)
     1.49507373E-04    2     2000005        37   # BR(~t_2 -> ~b_2 H^+)
     2.69563967E-02    2     1000006        23   # BR(~t_2 -> ~t_1 Z)
     1.49213278E-04    2     1000006        36   # BR(~t_2 -> ~t_1 A^0)
     4.18537421E-02    2     1000006        25   # BR(~t_2 -> ~t_1 h^0)
     1.53510873E-04    2     1000006        35   # BR(~t_2 -> ~t_1 H^0)
DECAY   1000024     4.57687886E-04   # chi^+_1
#    BR                NDA      ID1      ID2       ID3
     3.33707201E-01    3     1000022        -1         2   # BR(chi^+_1 -> chi^0_1 d_bar u)
     3.33103711E-01    3     1000022        -3         4   # BR(chi^+_1 -> chi^0_1 s_bar c)
     1.11209285E-01    3     1000022       -11        12   # BR(chi^+_1 -> chi^0_1 e^+ nu_e)
     1.11211244E-01    3     1000022       -13        14   # BR(chi^+_1 -> chi^0_1 mu^+ nu_mu)
     1.10768560E-01    3     1000022       -15        16   # BR(chi^+_1 -> chi^0_1 tau^+ nu_tau)
DECAY   1000037     4.72748663E+01   # chi^+_2
#    BR                NDA      ID1      ID2
     4.06842163E-02    2    -1000011        12   # BR(chi^+_2 -> ~e^+_L nu_e)
     4.06876245E-02    2    -1000013        14   # BR(chi^+_2 -> ~mu^+_L nu_mu)
     1.40911781E-01    2    -1000015        16   # BR(chi^+_2 -> ~tau^+_1 nu_tau)
     4.09218462E-02    2     1000012       -11   # BR(chi^+_2 -> ~nu_e e^+)
     4.09253955E-02    2     1000014       -13   # BR(chi^+_2 -> ~nu_mu mu^+)
     1.40684518E-01    2     1000016       -15   # BR(chi^+_2 -> ~nu_tau tau^+)
     8.34054342E-03    2     1000022        24   # BR(chi^+_2 -> chi^0_1 W^+)
     7.65875183E-02    2     1000023        24   # BR(chi^+_2 -> chi^0_2 W^+)
     6.65873908E-02    2     1000025        24   # BR(chi^+_2 -> chi^0_3 W^+)
     2.20786193E-02    2          37   1000022   # BR(chi^+_2 -> H^+ chi^0_1)
     5.74083212E-02    2          37   1000023   # BR(chi^+_2 -> H^+ chi^0_2)
     4.24547833E-02    2          37   1000025   # BR(chi^+_2 -> H^+ chi^0_3)
     7.54853763E-02    2     1000024        23   # BR(chi^+_2 -> chi^+_1 Z)
     6.09067719E-02    2     1000024        36   # BR(chi^+_2 -> chi^+_1 A^0)
     7.58559734E-02    2     1000024        25   # BR(chi^+_2 -> chi^+_1 h^0)
     6.08695744E-02    2     1000024        35   # BR(chi^+_2 -> chi^+_1 H^0)
#    BR                NDA      ID1      ID2       ID3
     3.35432785E-03    3     1000024         6        -6   # BR(chi^+_2 -> chi^+_1 t t_bar)
     2.85083108E-04    3     1000022        -5         6   # BR(chi^+_2 -> chi^0_1 b_bar t)
     2.63662586E-03    3     1000023        -5         6   # BR(chi^+_2 -> chi^0_2 b_bar t)
     2.26447670E-03    3     1000025        -5         6   # BR(chi^+_2 -> chi^0_3 b_bar t)
DECAY   1000022     0.00000000E+00   # chi^0_1
DECAY   1000023     4.01849437E-04   # chi^0_2
#    BR                NDA      ID1      ID2
     2.01488699E-03    2     1000022        22   # BR(chi^0_2 -> chi^0_1 photon)
#    BR                NDA      ID1      ID2       ID3
     1.18899798E-01    3     1000022         2        -2   # BR(chi^0_2 -> chi^0_1 u u_bar)
     1.18340186E-01    3     1000022         4        -4   # BR(chi^0_2 -> chi^0_1 c c_bar)
     1.52451623E-01    3     1000022         1        -1   # BR(chi^0_2 -> chi^0_1 d d_bar)
     1.52448381E-01    3     1000022         3        -3   # BR(chi^0_2 -> chi^0_1 s s_bar)
     1.46959700E-01    3     1000022         5        -5   # BR(chi^0_2 -> chi^0_1 b b_bar)
     3.41563359E-02    3     1000022        11       -11   # BR(chi^0_2 -> chi^0_1 e^- e^+)
     3.41578813E-02    3     1000022        13       -13   # BR(chi^0_2 -> chi^0_1 mu^- mu^+)
     3.62926524E-02    3     1000022        15       -15   # BR(chi^0_2 -> chi^0_1 tau^- tau^+)
     2.04275968E-01    3     1000022        12       -12   # BR(chi^0_2 -> chi^0_1 nu_e nu_bar_e)
DECAY   1000025     1.03160283E-04   # chi^0_3
#    BR                NDA      ID1      ID2
     4.42516775E-03    2     1000022        22   # BR(chi^0_3 -> chi^0_1 photon)
     1.76123804E-03    2     1000023        22   # BR(chi^0_3 -> chi^0_2 photon)
#    BR                NDA      ID1      ID2       ID3
     1.05910508E-01    3     1000022         2        -2   # BR(chi^0_3 -> chi^0_1 u u_bar)
     1.05669640E-01    3     1000022         4        -4   # BR(chi^0_3 -> chi^0_1 c c_bar)
     1.35785599E-01    3     1000022         1        -1   # BR(chi^0_3 -> chi^0_1 d d_bar)
     1.35784413E-01    3     1000022         3        -3   # BR(chi^0_3 -> chi^0_1 s s_bar)
     1.34827488E-01    3     1000022         5        -5   # BR(chi^0_3 -> chi^0_1 b b_bar)
     2.89224232E-02    3     1000022        11       -11   # BR(chi^0_3 -> chi^0_1 e^- e^+)
     2.89285227E-02    3     1000022        13       -13   # BR(chi^0_3 -> chi^0_1 mu^- mu^+)
     3.54036702E-02    3     1000022        15       -15   # BR(chi^0_3 -> chi^0_1 tau^- tau^+)
     1.87821689E-01    3     1000022        12       -12   # BR(chi^0_3 -> chi^0_1 nu_e nu_bar_e)
     1.33789398E-03    3     1000023         2        -2   # BR(chi^0_3 -> chi^0_2 u u_bar)
     1.19484921E-03    3     1000023         4        -4   # BR(chi^0_3 -> chi^0_2 c c_bar)
     1.71545412E-03    3     1000023         1        -1   # BR(chi^0_3 -> chi^0_2 d d_bar)
     1.71451081E-03    3     1000023         3        -3   # BR(chi^0_3 -> chi^0_2 s s_bar)
     5.27211300E-04    3     1000023         5        -5   # BR(chi^0_3 -> chi^0_2 b b_bar)
     3.88064918E-04    3     1000023        11       -11   # BR(chi^0_3 -> chi^0_2 e^- e^+)
     3.87755840E-04    3     1000023        13       -13   # BR(chi^0_3 -> chi^0_2 mu^- mu^+)
     3.28946043E-04    3     1000023        15       -15   # BR(chi^0_3 -> chi^0_2 tau^- tau^+)
     2.29215955E-03    3     1000023        12       -12   # BR(chi^0_3 -> chi^0_2 nu_e nu_bar_e)
     1.43459930E-02    3     1000024         1        -2   # BR(chi^0_3 -> chi^+_1 d u_bar)
     1.43459930E-02    3    -1000024        -1         2   # BR(chi^0_3 -> chi^-_1 d_bar u)
     1.39741488E-02    3     1000024         3        -4   # BR(chi^0_3 -> chi^+_1 s c_bar)
     1.39741488E-02    3    -1000024        -3         4   # BR(chi^0_3 -> chi^-_1 s_bar c)
     4.78252892E-03    3     1000024        11       -12   # BR(chi^0_3 -> chi^+_1 e^- nu_bar_e)
     4.78252892E-03    3    -1000024       -11        12   # BR(chi^0_3 -> chi^-_1 e^+ nu_e)
     4.78201737E-03    3     1000024        13       -14   # BR(chi^0_3 -> chi^+_1 mu^- nu_bar_mu)
     4.78201737E-03    3    -1000024       -13        14   # BR(chi^0_3 -> chi^-_1 mu^+ nu_mu)
     4.55170991E-03    3     1000024        15       -16   # BR(chi^0_3 -> chi^+_1 tau^- nu_bar_tau)
     4.55170991E-03    3    -1000024       -15        16   # BR(chi^0_3 -> chi^-_1 tau^+ nu_tau)
DECAY   1000035     4.77591142E+01   # chi^0_4
#    BR                NDA      ID1      ID2
     2.00601801E-02    2     1000011       -11   # BR(chi^0_4 -> ~e^-_L e^+)
     2.00601801E-02    2    -1000011        11   # BR(chi^0_4 -> ~e^+_L e^-)
     2.00618591E-02    2     1000013       -13   # BR(chi^0_4 -> ~mu^-_L mu^+)
     2.00618591E-02    2    -1000013        13   # BR(chi^0_4 -> ~mu^+_L mu^-)
     6.94811207E-02    2     1000015       -15   # BR(chi^0_4 -> ~tau^-_1 tau^+)
     6.94811207E-02    2    -1000015        15   # BR(chi^0_4 -> ~tau^+_1 tau^-)
     2.03286951E-02    2     1000012       -12   # BR(chi^0_4 -> ~nu_e nu_bar_e)
     2.03286951E-02    2    -1000012        12   # BR(chi^0_4 -> ~nu^*_e nu_e)
     2.03304598E-02    2     1000014       -14   # BR(chi^0_4 -> ~nu_mu nu_bar_mu)
     2.03304598E-02    2    -1000014        14   # BR(chi^0_4 -> ~nu^*_mu nu_mu)
     6.98892287E-02    2     1000016       -16   # BR(chi^0_4 -> ~nu_tau nu_bar_tau)
     6.98892287E-02    2    -1000016        16   # BR(chi^0_4 -> ~nu^*_tau nu_tau)
     7.51275831E-02    2     1000024       -24   # BR(chi^0_4 -> chi^+_1 W^-)
     7.51275831E-02    2    -1000024        24   # BR(chi^0_4 -> chi^-_1 W^+)
     5.97542552E-02    2          37  -1000024   # BR(chi^0_4 -> H^+ chi^-_1)
     5.97542552E-02    2         -37   1000024   # BR(chi^0_4 -> H^- chi^+_1)
     4.62508597E-03    2     1000022        23   # BR(chi^0_4 -> chi^0_1 Z)
     3.10620410E-02    2     1000023        23   # BR(chi^0_4 -> chi^0_2 Z)
     3.91134352E-02    2     1000025        23   # BR(chi^0_4 -> chi^0_3 Z)
     9.89699577E-03    2     1000022        36   # BR(chi^0_4 -> chi^0_1 A^0)
     2.50728822E-02    2     1000023        36   # BR(chi^0_4 -> chi^0_2 A^0)
     1.64551861E-02    2     1000025        36   # BR(chi^0_4 -> chi^0_3 A^0)
     4.02986873E-03    2     1000022        25   # BR(chi^0_4 -> chi^0_1 h^0)
     4.49182132E-02    2     1000023        25   # BR(chi^0_4 -> chi^0_2 h^0)
     3.67503944E-02    2     1000025        25   # BR(chi^0_4 -> chi^0_3 h^0)
     1.21785029E-02    2     1000022        35   # BR(chi^0_4 -> chi^0_1 H^0)
     3.21049151E-02    2     1000023        35   # BR(chi^0_4 -> chi^0_2 H^0)
     2.60631539E-02    2     1000025        35   # BR(chi^0_4 -> chi^0_3 H^0)
#    BR                NDA      ID1      ID2       ID3
     1.57013050E-04    3     1000022         6        -6   # BR(chi^0_4 -> chi^0_1 t t_bar)
     1.46187626E-03    3     1000023         6        -6   # BR(chi^0_4 -> chi^0_2 t t_bar)
     1.25887537E-03    3     1000025         6        -6   # BR(chi^0_4 -> chi^0_3 t t_bar)
     2.35708469E-03    3     1000024         5        -6   # BR(chi^0_4 -> chi^+_1 b t_bar)
     2.35708469E-03    3    -1000024        -5         6   # BR(chi^0_4 -> chi^-_1 b_bar t)
DECAY   1000021     2.73011985E+02   # ~g
#    BR                NDA      ID1      ID2
     3.95062822E-02    2     1000006        -4   # BR(~g -> ~t_1 c_bar)
     3.95062822E-02    2    -1000006         4   # BR(~g -> ~t^*_1 c)
     1.34104915E-01    2     1000006        -6   # BR(~g -> ~t_1 t_bar)
     1.34104915E-01    2    -1000006         6   # BR(~g -> ~t^*_1 t)
     6.09617151E-02    2     2000006        -6   # BR(~g -> ~t_2 t_bar)
     6.09617151E-02    2    -2000006         6   # BR(~g -> ~t^*_2 t)
     1.32714649E-01    2     1000005        -5   # BR(~g -> ~b_1 b_bar)
     1.32714649E-01    2    -1000005         5   # BR(~g -> ~b^*_1 b)
     1.32670055E-01    2     2000005        -5   # BR(~g -> ~b_2 b_bar)
     1.32670055E-01    2    -2000005         5   # BR(~g -> ~b^*_2 b)
#    BR                NDA      ID1      ID2       ID3
DECAY        25     3.66559788E-03   # Gamma(h0)
     2.21295448E-03   2        22        22   # BR(h0 -> photon photon)
     1.15972599E-03   2        22        23   # BR(h0 -> photon Z)
     1.90506808E-02   2        23        23   # BR(h0 -> Z Z)
     1.68302567E-01   2       -24        24   # BR(h0 -> W W)
     7.04865568E-02   2        21        21   # BR(h0 -> gluon gluon)
     5.16168461E-09   2       -11        11   # BR(h0 -> Electron electron)
     2.29599058E-04   2       -13        13   # BR(h0 -> Muon muon)
     6.65862577E-02   2       -15        15   # BR(h0 -> Tau tau)
     1.23790230E-07   2        -2         2   # BR(h0 -> Up up)
     2.40245768E-02   2        -4         4   # BR(h0 -> Charm charm)
     5.97835110E-07   2        -1         1   # BR(h0 -> Down down)
     2.16223622E-04   2        -3         3   # BR(h0 -> Strange strange)
     5.74715541E-01   2        -5         5   # BR(h0 -> Bottom bottom)
     7.30145905E-02   2   1000022   1000022   # BR(h0 -> neutralino1 neutralino1)
DECAY        35     1.88596722E+01   # Gamma(HH)
     1.04021107E-07   2        22        22   # BR(HH -> photon photon)
     4.53224686E-08   2        22        23   # BR(HH -> photon Z)
     3.39553226E-06   2        23        23   # BR(HH -> Z Z)
     7.11488221E-06   2       -24        24   # BR(HH -> W W)
     1.70789443E-04   2        21        21   # BR(HH -> gluon gluon)
     1.01930658E-08   2       -11        11   # BR(HH -> Electron electron)
     4.53602303E-04   2       -13        13   # BR(HH -> Muon muon)
     1.40350680E-01   2       -15        15   # BR(HH -> Tau tau)
     3.20565882E-14   2        -2         2   # BR(HH -> Up up)
     6.21548097E-09   2        -4         4   # BR(HH -> Charm charm)
     2.26323554E-04   2        -6         6   # BR(HH -> Top top)
     8.99284702E-07   2        -1         1   # BR(HH -> Down down)
     3.25267606E-04   2        -3         3   # BR(HH -> Strange strange)
     8.28911732E-01   2        -5         5   # BR(HH -> Bottom bottom)
     9.06901959E-04   2  -1000024   1000024   # BR(HH -> Chargino1 chargino1)
     9.42390174E-03   2   1000022   1000022   # BR(HH -> neutralino1 neutralino1)
     7.77758937E-03   2   1000022   1000023   # BR(HH -> neutralino1 neutralino2)
     9.91172620E-04   2   1000022   1000025   # BR(HH -> neutralino1 neutralino3)
     2.19846411E-04   2   1000023   1000023   # BR(HH -> neutralino2 neutralino2)
     5.59988112E-03   2   1000023   1000025   # BR(HH -> neutralino2 neutralino3)
     4.59310454E-03   2   1000025   1000025   # BR(HH -> neutralino3 neutralino3)
     3.76318673E-05   2        25        25   # BR(HH -> h0 h0)
DECAY        36     1.84449375E+01   # Gamma(A0)
     2.04758456E-07   2        22        22   # BR(A0 -> photon photon)
     8.13286037E-08   2        22        23   # BR(A0 -> photon Z)
     1.97875335E-04   2        21        21   # BR(A0 -> gluon gluon)
     1.01819023E-08   2       -11        11   # BR(A0 -> Electron electron)
     4.53105522E-04   2       -13        13   # BR(A0 -> Muon muon)
     1.40202180E-01   2       -15        15   # BR(A0 -> Tau tau)
     2.67838190E-14   2        -2         2   # BR(A0 -> Up up)
     5.19389788E-09   2        -4         4   # BR(A0 -> Charm charm)
     3.38802017E-04   2        -6         6   # BR(A0 -> Top top)
     8.98279590E-07   2        -1         1   # BR(A0 -> Down down)
     3.24904103E-04   2        -3         3   # BR(A0 -> Strange strange)
     8.28069023E-01   2        -5         5   # BR(A0 -> Bottom bottom)
     1.11114248E-03   2  -1000024   1000024   # BR(A0 -> Chargino1 chargino1)
     9.70241084E-03   2   1000022   1000022   # BR(A0 -> neutralino1 neutralino1)
     7.93975505E-03   2   1000022   1000023   # BR(A0 -> neutralino1 neutralino2)
     9.53864138E-04   2   1000022   1000025   # BR(A0 -> neutralino1 neutralino3)
     2.94529156E-04   2   1000023   1000023   # BR(A0 -> neutralino2 neutralino2)
     4.89075698E-03   2   1000023   1000025   # BR(A0 -> neutralino2 neutralino3)
     5.51446928E-03   2   1000025   1000025   # BR(A0 -> neutralino3 neutralino3)
     5.98243439E-06   2        23        25   # BR(A0 -> Z h0)
     2.75568205E-37   2        25        25   # BR(A0 -> h0 h0)
DECAY        37     1.86402974E+01   # Gamma(Hp)
     1.28061541E-08   2       -11        12   # BR(Hp -> Electron nu_e)
     5.47503042E-04   2       -13        14   # BR(Hp -> Muon nu_mu)
     1.54861747E-01   2       -15        16   # BR(Hp -> Tau nu_tau)
     1.02326155E-06   2        -1         2   # BR(Hp -> Down up)
     1.68802148E-05   2        -3         2   # BR(Hp -> Strange up)
     1.03856903E-05   2        -5         2   # BR(Hp -> Bottom up)
     4.70134425E-08   2        -1         4   # BR(Hp -> Down charm)
     3.68771968E-04   2        -3         4   # BR(Hp -> Strange charm)
     1.45435259E-03   2        -5         4   # BR(Hp -> Bottom charm)
     2.76372640E-08   2        -1         6   # BR(Hp -> Down top)
     1.03444207E-06   2        -3         6   # BR(Hp -> Strange top)
     8.12418987E-01   2        -5         6   # BR(Hp -> Bottom top)
     2.32784786E-02   2   1000022   1000024   # BR(Hp -> neutralino1 chargino1)
     1.57157346E-03   2   1000023   1000024   # BR(Hp -> neutralino2 chargino1)
     5.46262361E-03   2   1000024   1000025   # BR(Hp -> chargino1 neutralino3)
     6.52653475E-06   2        24        25   # BR(Hp -> W h0)
     1.24953924E-08   2        24        35   # BR(Hp -> W HH)
     1.20519037E-08   2        24        36   # BR(Hp -> W A0)
DECAY         6     2.43000000E+00   # top
#    BR                NDA      ID1      ID2
     1.00000000E+00    2           5        24   # BR(t -> b W)
Block HiggsBoundsInputHiggsCouplingsFermions
# ScalarNormEffCoupSq PseudoSNormEffCoupSq NP IP1 IP2 IP2
    1.15979311E+00    0.00000000E+00        3  25   5   5  # h0-b-b eff. coupling^2, normalised to SM
    2.61601364E+03    0.00000000E+00        3  35   5   5  # H0-b-b eff. coupling^2, normalised to SM
    0.00000000E+00    2.61617343E+03        3  36   5   5  # A0-b-b eff. coupling^2, normalised to SM
#
    9.99938921E-01    0.00000000E+00        3  25   6   6  # h0-t-t eff. coupling^2, normalised to SM
    4.43316599E-04    0.00000000E+00        3  35   6   6  # H0-t-t eff. coupling^2, normalised to SM
    0.00000000E+00    3.82237656E-04        3  36   6   6  # A0-t-t eff. coupling^2, normalised to SM
#
    1.15979311E+00    0.00000000E+00        3  25  15  15  # h0-tau-tau eff. coupling^2, normalised to SM
    2.61601364E+03    0.00000000E+00        3  35  15  15  # H0-tau-tau eff. coupling^2, normalised to SM
    0.00000000E+00    2.61617343E+03        3  36  15  15  # A0-tau-tau eff. coupling^2, normalised to SM
#
Block HiggsBoundsInputHiggsCouplingsBosons
    9.99997737E-01        3  25  24  24  # h0-W-W eff. coupling^2, normalised to SM
    2.26264135E-06        3  35  24  24  # H0-W-W eff. coupling^2, normalised to SM
    0.00000000E+00        3  36  24  24  # A0-W-W eff. coupling^2, normalised to SM
#
    9.99997737E-01        3  25  23  23  # h0-Z-Z eff. coupling^2, normalised to SM
    2.26264135E-06        3  35  23  23  # H0-Z-Z eff. coupling^2, normalised to SM
    0.00000000E+00        3  36  23  23  # A0-Z-Z eff. coupling^2, normalised to SM
#
    1.25281094E+00        3  25  21  21  # h0-g-g eff. coupling^2, normalised to SM
    8.82583702E-02        3  35  21  21  # H0-g-g eff. coupling^2, normalised to SM
    2.28839759E-01        3  36  21  21  # A0-g-g eff. coupling^2, normalised to SM
#
    0.00000000E+00        3  25  25  23  # h0-h0-Z eff. coupling^2, normalised to SM
    0.00000000E+00        3  35  25  23  # H0-h0-Z eff. coupling^2, normalised to SM
    2.26264135E-06        3  36  25  23  # A0-h0-Z eff. coupling^2, normalised to SM
    0.00000000E+00        3  35  35  23  # H0-H0-Z eff. coupling^2, normalised to SM
    9.99997737E-01        3  36  35  23  # A0-H0-Z eff. coupling^2, normalised to SM
    0.00000000E+00        3  36  36  23  # A0-A0-Z eff. coupling^2, normalised to SM
#
    0.00000000E+00        4  25  21  21  23  # h0-g-g-Z eff. coupling^2, normalised to SM
    0.00000000E+00        4  35  21  21  23  # H0-g-g-Z eff. coupling^2, normalised to SM
    0.00000000E+00        4  36  21  21  23  # A0-g-g-Z eff. coupling^2, normalised to SM
Block SPhenoLowEnergy  # low energy observables
    1    4.00247640E-04   # BR(b -> s gamma)
    2    1.58792735E-06   # BR(b -> s mu+ mu-)
    3    3.52455054E-05   # BR(b -> s nu nu)
    4    1.89567689E-15   # BR(Bd -> e+ e-)
    5    8.09786436E-11   # BR(Bd -> mu+ mu-)
    6    1.68115777E-08   # BR(Bd -> tau+ tau-)
    7    5.99771917E-14   # BR(Bs -> e+ e-)
    8    2.56209018E-09   # BR(Bs -> mu+ mu-)
    9    5.35823183E-07   # BR(Bs -> tau+ tau-)
   10    5.32959463E-05   # BR(B_u -> tau nu)
   11    5.50526721E-01   # BR(B_u -> tau nu)/BR(B_u -> tau nu)_SM
   12    5.41728209E-01   # |Delta(M_Bd)| [ps^-1] 
   13    1.91673723E+01   # |Delta(M_Bs)| [ps^-1] 
   14    0.00000000E+00   # neutron EDM according to the chiral quark model
   15    0.00000000E+00   # neutron EDM according to the relativistic quark-parton model
   16    2.15766012E-03   # epsilon_K
   17    2.28172310E-15   # Delta(M_K)
   18    2.47937562E-11   # BR(K^0 -> pi^0 nu nu)
   19    8.28901996E-11   # BR(K^+ -> pi^+ nu nu)
   20    5.28755743E-15   # Delta(g-2)_electron/2
   21    2.26027085E-10   # Delta(g-2)_muon/2
   22   -4.61189840E-08   # Delta(g-2)_tau/2
   23    0.00000000E+00   # electric dipole moment of the electron
   24    0.00000000E+00   # electric dipole moment of the muon
   25    0.00000000E+00   # electric dipole moment of the tau
   26    0.00000000E+00   # Br(mu -> e gamma)
   27    0.00000000E+00   # Br(tau -> e gamma)
   28    0.00000000E+00   # Br(tau -> mu gamma)
   29    0.00000000E+00   # Br(mu -> 3 e)
   30    0.00000000E+00   # Br(tau -> 3 e)
   31    0.00000000E+00   # Br(tau -> 3 mu)
   39    1.15304337E-04   # Delta(rho_parameter)
   40    0.00000000E+00   # BR(Z -> e mu)
   41    0.00000000E+00   # BR(Z -> e tau)
   42    0.00000000E+00   # BR(Z -> mu tau)
Block FWCOEF Q=  1.60000000E+02  # Wilson coefficients at scale Q
#    id        order  M        value         comment
     0305 4422   00   0    -1.88819110E-01   # C7
     0305 4422   00   2    -2.67372644E-01   # C7
     0305 4322   00   2    -1.51797371E-03   # C7'
     0305 6421   00   0    -9.52278348E-02   # C8
     0305 6421   00   2    -1.79311580E-01   # C8
     0305 6321   00   2    -1.64728846E-03   # C8'
 03051111 4133   00   0     1.61586558E+00   # C9 e+e-
 03051111 4133   00   2     1.61632890E+00   # C9 e+e-
 03051111 4233   00   2    -1.46270833E-04   # C9' e+e-
 03051111 4137   00   0    -4.43855768E+00   # C10 e+e-
 03051111 4137   00   2    -4.43612157E+00   # C10 e+e-
 03051111 4237   00   2     1.10416027E-03   # C10' e+e-
 03051313 4133   00   0     1.61586558E+00   # C9 mu+mu-
 03051313 4133   00   2     1.61632654E+00   # C9 mu+mu-
 03051313 4233   00   2    -1.46555041E-04   # C9' mu+mu-
 03051313 4137   00   0    -4.43855768E+00   # C10 mu+mu-
 03051313 4137   00   2    -4.43612393E+00   # C10 mu+mu-
 03051313 4237   00   2     1.10443636E-03   # C10' mu+mu-
 03051212 4137   00   0     1.50535012E+00   # C11 nu_1 nu_1
 03051212 4137   00   2     1.50482779E+00   # C11 nu_1 nu_1
 03051212 4237   00   2    -2.39355640E-04   # C11' nu_1 nu_1
 03051414 4137   00   0     1.50535012E+00   # C11 nu_2 nu_2
 03051414 4137   00   2     1.50482779E+00   # C11 nu_2 nu_2
 03051414 4237   00   2    -2.39294465E-04   # C11' nu_2 nu_2
 03051616 4137   00   0     1.50535012E+00   # C11 nu_3 nu_3
 03051616 4137   00   2     1.50482751E+00   # C11 nu_3 nu_3
 03051616 4237   00   2    -2.22056588E-04   # C11' nu_3 nu_3
Block IMFWCOEF Q=  1.60000000E+02  # Im(Wilson coefficients) at scale Q
#    id        order  M        value         comment
     0305 4422   00   0     3.85813130E-07   # C7
     0305 4422   00   2     1.63625361E-05   # C7
     0305 4322   00   2     1.31245548E-07   # C7'
     0305 6421   00   0     3.30474461E-07   # C8
     0305 6421   00   2    -1.64530467E-06   # C8
     0305 6321   00   2    -1.05776281E-07   # C8'
 03051111 4133   00   2    -6.02656577E-08   # C9 e+e-
 03051111 4233   00   2     1.08703685E-05   # C9' e+e-
 03051111 4137   00   2     3.52576662E-07   # C10 e+e-
 03051111 4237   00   2    -8.16990367E-05   # C10' e+e-
 03051313 4133   00   2    -6.02642591E-08   # C9 mu+mu-
 03051313 4233   00   2     1.08703293E-05   # C9' mu+mu-
 03051313 4137   00   2     3.52578358E-07   # C10 mu+mu-
 03051313 4237   00   2    -8.16991462E-05   # C10' mu+mu-
 03051212 4137   00   2     2.45945350E-08   # C11 nu_1 nu_1
 03051212 4237   00   2     1.77092655E-05   # C11' nu_1 nu_1
 03051414 4137   00   2     2.45944868E-08   # C11 nu_2 nu_2
 03051414 4237   00   2     1.77092655E-05   # C11' nu_2 nu_2
 03051616 4137   00   2     1.88254291E-08   # C11 nu_3 nu_3
 03051616 4237   00   2     1.77092387E-05   # C11' nu_3 nu_3
