# SUSY Les Houches Accord 2 - MSSM spectrum + Decays
# SPheno v4.0.5be
# W. Porod, Comput. Phys. Commun. 153 (2003) 275-315, hep-ph/0301101;
# W. Porod, F.~Staub, Comput. Phys. Commun. 183 (2012) 2458
#                     arXiv:1104.1573 [hep-ph] 
# in case of problems send email to porod@physik.uni-wuerzburg.de
# Created: 12.05.2022,  13:41
Block SPINFO         # Program information
     1   SPheno      # spectrum calculator
     2   v4.0.5be    # version number
#
Block SPhenoINFO     # SPheno specific information
    1      2         # using 2-loop RGEs
    2      2         # using pole masses for boundary conditions at mZ
Block MODSEL  # Model selection
    1    0    # general MSSM
Block MINPAR  # Input parameters
    3    2.34269477E+01  # tanb at m_Z    
    4    1.00000000E+00  # Sign(mu)
Block EXTPAR  # non-universal input parameters
    0    4.69369189E+03  # scale for input parameters
    1    1.05627091E+02  # M_1
    2    2.75443369E+02  # M_2
    3    1.99916060E+03  # M_3
   11    7.33628098E+03  # A_t
   12   -1.04858862E+03  # A_b
   13   -1.99022829E+03  # A_tau
   23    4.16598676E+02  # mu
   25    2.23603283E+01  # tan(beta)
   26    4.40682083E+03  # m_A, pole mass
   31    1.00000000E+04  # M_L11
   32    1.00000000E+04  # M_L22
   33    1.00000000E+04  # M_L33
   34    1.00000000E+04  # M_E11
   35    1.00000000E+04  # M_E22
   36    1.00000000E+04  # M_E33
   41    1.00000000E+04  # M_Q11
   42    1.00000000E+04  # M_Q22
   43    4.89151855E+03  # M_Q33
   44    1.00000000E+04  # M_U11
   45    1.00000000E+04  # M_U22
   46    4.61380335E+03  # M_U33
   47    1.00000000E+04  # M_D11
   48    1.00000000E+04  # M_D22
   49    4.79263515E+03  # M_D33
Block SMINPUTS  # SM parameters
         1     1.27908970E+02  # alpha_em^-1(MZ)^MSbar
         2     1.16637870E-05  # G_mu [GeV^-2]
         3     1.18400000E-01  # alpha_s(MZ)^MSbar
         4     9.11876000E+01  # m_Z(pole)
         5     4.18000000E+00  # m_b(m_b), MSbar
         6     1.73200000E+02  # m_t(pole)
         7     1.77700000E+00  # m_tau(pole)
         8     0.00000000E+00  # m_nu_3
        11     5.10998930E-04  # m_e(pole)
        12     0.00000000E+00  # m_nu_1
        13     1.05658372E-01  # m_muon(pole)
        14     0.00000000E+00  # m_nu_2
        21     5.00000000E-03  # m_d(2 GeV), MSbar
        22     2.50000000E-03  # m_u(2 GeV), MSbar
        23     9.50000000E-02  # m_s(2 GeV), MSbar
        24     1.27000000E+00  # m_c(m_c), MSbar
Block gauge Q=  4.69369189E+03  # (SUSY scale)
   1    3.55362975E-01  # g'(Q)^DRbar
   2    6.65198874E-01  # g(Q)^DRbar
   3    1.21977796E+00  # g3(Q)^DRbar
Block Yu Q=  4.69369189E+03  # (SUSY scale)
  1  1     8.39275258E-06   # Y_u(Q)^DRbar
  2  2     4.26351831E-03   # Y_c(Q)^DRbar
  3  3     1.01391192E+00   # Y_t(Q)^DRbar
Block Yd Q=  4.69369189E+03  # (SUSY scale)
  1  1     3.77105480E-04   # Y_d(Q)^DRbar
  2  2     7.16500412E-03   # Y_s(Q)^DRbar
  3  3     3.73970468E-01   # Y_b(Q)^DRbar
Block Ye Q=  4.69369189E+03  # (SUSY scale)
  1  1     6.58076639E-05   # Y_e(Q)^DRbar
  2  2     1.36069377E-02   # Y_mu(Q)^DRbar
  3  3     2.28846308E-01   # Y_tau(Q)^DRbar
Block Au Q=  4.69369189E+03  # (SUSY scale)
  1  1     0.00000000E+00   # A_u(Q)^DRbar
  2  2     0.00000000E+00   # A_c(Q)^DRbar
  3  3     7.33628101E+03   # A_t(Q)^DRbar
Block Ad Q=  4.69369189E+03  # (SUSY scale)
  1  1     0.00000000E+00   # A_d(Q)^DRbar
  2  2     0.00000000E+00   # A_s(Q)^DRbar
  3  3    -1.04858863E+03   # A_b(Q)^DRbar
Block Ae Q=  4.69369189E+03  # (SUSY scale)
  1  1     0.00000000E+00   # A_e(Q)^DRbar
  2  2     0.00000000E+00   # A_mu(Q)^DRbar
  3  3    -1.99022828E+03   # A_tau(Q)^DRbar
Block MSOFT Q=  4.69369189E+03  # soft SUSY breaking masses at Q
   1    1.05627091E+02  # M_1
   2    2.75443369E+02  # M_2
   3    1.99916060E+03  # M_3
  21    1.92733897E+07  # M^2_(H,d)
  22    3.51786081E+05  # M^2_(H,u)
  31    1.00000000E+04  # M_(L,11)
  32    1.00000000E+04  # M_(L,22)
  33    1.00000000E+04  # M_(L,33)
  34    1.00000000E+04  # M_(E,11)
  35    1.00000000E+04  # M_(E,22)
  36    1.00000000E+04  # M_(E,33)
  41    1.00000000E+04  # M_(Q,11)
  42    1.00000000E+04  # M_(Q,22)
  43    4.89151855E+03  # M_(Q,33)
  44    1.00000000E+04  # M_(U,11)
  45    1.00000000E+04  # M_(U,22)
  46    4.61380335E+03  # M_(U,33)
  47    1.00000000E+04  # M_(D,11)
  48    1.00000000E+04  # M_(D,22)
  49    4.79263515E+03  # M_(D,33)
Block MASS  # Mass spectrum
#   PDG code      mass          particle
         6     1.73200000E+02  # m_t(pole)
        23     9.11876000E+01  # m_Z(pole)
        24     8.04299946E+01  # W+
        15     1.77700000E+00  # m_tau(pole)
        25     1.29067322E+02  # h0
        35     4.40609564E+03  # H0
        36     4.40682083E+03  # A0
        37     4.40641230E+03  # H+
   1000001     1.01200224E+04  # ~d_L
   2000001     1.00948260E+04  # ~d_R
   1000002     1.01196621E+04  # ~u_L
   2000002     1.00973809E+04  # ~u_R
   1000003     1.01200221E+04  # ~s_L
   2000003     1.00948255E+04  # ~s_R
   1000004     1.01196618E+04  # ~c_L
   2000004     1.00973809E+04  # ~c_R
   1000005     4.84865915E+03  # ~b_1
   2000005     4.86919332E+03  # ~b_2
   1000006     4.49859569E+03  # ~t_1
   2000006     4.89724906E+03  # ~t_2
   1000011     1.00212184E+04  # ~e_L-
   2000011     1.00095719E+04  # ~e_R-
   1000012     1.00204495E+04  # ~nu_eL
   1000013     1.00212170E+04  # ~mu_L-
   2000013     1.00095687E+04  # ~mu_R-
   1000014     1.00204480E+04  # ~nu_muL
   1000015     1.00086977E+04  # ~tau_1-
   2000015     1.00208985E+04  # ~tau_2-
   1000016     1.00200480E+04  # ~nu_tauL
   1000021     2.44434800E+03  # ~g
   1000022     1.04172771E+02  # ~chi_10
   1000023     2.86048997E+02  # ~chi_20
   1000025     4.37948459E+02  # ~chi_30
   1000035     4.58566486E+02  # ~chi_40
   1000024     2.86152882E+02  # ~chi_1+
   1000037     4.59462055E+02  # ~chi_2+
# Higgs mixing
Block alpha # Effective Higgs mixing angle
          -4.27167774E-02   # alpha
Block Hmix Q=  4.69369189E+03  # Higgs mixing parameters
   1    4.16598676E+02  # mu
   2    2.23603283E+01  # tan[beta](Q)
   3    2.42743436E+02  # v(Q)
   4    1.94200698E+07  # m^2_A(Q)
Block stopmix # stop mixing matrix
   1  1    -2.68149006E-01   # Re[R_st(1,1)]
   1  2     9.63377450E-01   # Re[R_st(1,2)]
   2  1    -9.63377450E-01   # Re[R_st(2,1)]
   2  2    -2.68149006E-01   # Re[R_st(2,2)]
Block sbotmix # sbottom mixing matrix
   1  1     1.01252100E-01   # Re[R_sb(1,1)]
   1  2     9.94860800E-01   # Re[R_sb(1,2)]
   2  1    -9.94860800E-01   # Re[R_sb(2,1)]
   2  2     1.01252100E-01   # Re[R_sb(2,2)]
Block staumix # stau mixing matrix
   1  1     8.32731681E-02   # Re[R_sta(1,1)]
   1  2     9.96526758E-01   # Re[R_sta(1,2)]
   2  1    -9.96526758E-01   # Re[R_sta(2,1)]
   2  2     8.32731681E-02   # Re[R_sta(2,2)]
Block Nmix # neutralino mixing matrix
   1  1    -9.93097277E-01   # Re[N(1,1)]
   1  2     1.42599502E-02   # Re[N(1,2)]
   1  3    -1.12045230E-01   # Re[N(1,3)]
   1  4     3.16278182E-02   # Re[N(1,4)]
   2  1    -5.36837808E-02   # Re[N(2,1)]
   2  2    -9.30434195E-01   # Re[N(2,2)]
   2  3     2.99932693E-01   # Re[N(2,3)]
   2  4    -2.03594301E-01   # Re[N(2,4)]
   3  1    -5.52545456E-02   # Re[N(3,1)]
   3  2     7.34503284E-02   # Re[N(3,2)]
   3  3     6.99216892E-01   # Re[N(3,3)]
   3  4     7.08976531E-01   # Re[N(3,4)]
   4  1    -8.84465123E-02   # Re[N(4,1)]
   4  2     3.58739336E-01   # Re[N(4,2)]
   4  3     6.39204180E-01   # Re[N(4,3)]
   4  4    -6.74463727E-01   # Re[N(4,4)]
Block Umix # chargino mixing matrix
   1  1    -9.03445604E-01   # Re[U(1,1)]
   1  2     4.28702743E-01   # Re[U(1,2)]
   2  1     4.28702743E-01   # Re[U(2,1)]
   2  2     9.03445604E-01   # Re[U(2,2)]
Block Vmix # chargino mixing matrix
   1  1    -9.56226414E-01   # Re[V(1,1)]
   1  2     2.92627826E-01   # Re[V(1,2)]
   2  1     2.92627826E-01   # Re[V(2,1)]
   2  2     9.56226414E-01   # Re[V(2,2)]
DECAY        23     2.49520000E+00   # Z
DECAY        24     2.08500000E+00   # W
DECAY   2000011     5.02812259E+01   # ~e^-_R
#    BR                NDA      ID1      ID2
     9.86287750E-01    2     1000022        11   # BR(~e^-_R -> chi^0_1 e^-)
     2.87800084E-03    2     1000023        11   # BR(~e^-_R -> chi^0_2 e^-)
     3.04219469E-03    2     1000025        11   # BR(~e^-_R -> chi^0_3 e^-)
     7.79203748E-03    2     1000035        11   # BR(~e^-_R -> chi^0_4 e^-)
DECAY   1000011     1.44641840E+02   # ~e^-_L
#    BR                NDA      ID1      ID2
     8.12633865E-02    2     1000022        11   # BR(~e^-_L -> chi^0_1 e^-)
     2.80066698E-01    2     1000023        11   # BR(~e^-_L -> chi^0_2 e^-)
     5.86323774E-04    2     1000025        11   # BR(~e^-_L -> chi^0_3 e^-)
     2.94642644E-02    2     1000035        11   # BR(~e^-_L -> chi^0_4 e^-)
     4.96998699E-01    2    -1000024        12   # BR(~e^-_L -> chi^-_1 nu_e)
     1.11620629E-01    2    -1000037        12   # BR(~e^-_L -> chi^-_2 nu_e)
#    BR                NDA      ID1      ID2       ID3
DECAY   2000013     5.03546718E+01   # ~mu^-_R
#    BR                NDA      ID1      ID2
     9.84858053E-01    2     1000022        13   # BR(~mu^-_R -> chi^0_1 mu^-)
     2.93956154E-03    2     1000023        13   # BR(~mu^-_R -> chi^0_2 mu^-)
     3.39435387E-03    2     1000025        13   # BR(~mu^-_R -> chi^0_3 mu^-)
     8.07857279E-03    2     1000035        13   # BR(~mu^-_R -> chi^0_4 mu^-)
     1.34347286E-04    2    -1000024        14   # BR(~mu^-_R -> chi^-_1 nu_mu)
     5.95111700E-04    2    -1000037        14   # BR(~mu^-_R -> chi^-_2 nu_mu)
DECAY   1000013     1.44678594E+02   # ~mu^-_L
#    BR                NDA      ID1      ID2
     8.12459336E-02    2     1000022        13   # BR(~mu^-_L -> chi^0_1 mu^-)
     2.80018422E-01    2     1000023        13   # BR(~mu^-_L -> chi^0_2 mu^-)
     7.10432082E-04    2     1000025        13   # BR(~mu^-_L -> chi^0_3 mu^-)
     2.95605829E-02    2     1000035        13   # BR(~mu^-_L -> chi^0_4 mu^-)
     4.96872372E-01    2    -1000024        14   # BR(~mu^-_L -> chi^-_1 nu_mu)
     1.11592257E-01    2    -1000037        14   # BR(~mu^-_L -> chi^-_2 nu_mu)
#    BR                NDA      ID1      ID2       ID3
DECAY   1000015     7.16440300E+01   # ~tau^-_1
#    BR                NDA      ID1      ID2
     6.93329772E-01    2     1000022        15   # BR(~tau^-_1 -> chi^0_1 tau^-)
     3.24012057E-02    2     1000023        15   # BR(~tau^-_1 -> chi^0_2 tau^-)
     6.94556935E-02    2     1000025        15   # BR(~tau^-_1 -> chi^0_3 tau^-)
     5.22316964E-02    2     1000035        15   # BR(~tau^-_1 -> chi^0_4 tau^-)
     6.06221348E-02    2    -1000024        16   # BR(~tau^-_1 -> chi^-_1 nu_tau)
     9.19594972E-02    2    -1000037        16   # BR(~tau^-_1 -> chi^-_2 nu_tau)
DECAY   2000015     1.54448926E+02   # ~tau^-_2
#    BR                NDA      ID1      ID2
     7.72434368E-02    2     1000022        15   # BR(~tau^-_2 -> chi^0_1 tau^-)
     2.60306295E-01    2     1000023        15   # BR(~tau^-_2 -> chi^0_2 tau^-)
     3.51295389E-02    2     1000025        15   # BR(~tau^-_2 -> chi^0_3 tau^-)
     6.08831012E-02    2     1000035        15   # BR(~tau^-_2 -> chi^0_4 tau^-)
     4.49674107E-01    2    -1000024        16   # BR(~tau^-_2 -> chi^-_1 nu_tau)
     1.16763521E-01    2    -1000037        16   # BR(~tau^-_2 -> chi^-_2 nu_tau)
#    BR                NDA      ID1      ID2       ID3
DECAY   1000012     1.44646362E+02   # ~nu_e
#    BR                NDA      ID1      ID2
     9.04798857E-02    2     1000022        12   # BR(~nu_e -> chi^0_1 nu_e)
     2.47543806E-01    2     1000023        12   # BR(~nu_e -> chi^0_2 nu_e)
     3.22055293E-03    2     1000025        12   # BR(~nu_e -> chi^0_3 nu_e)
     5.00484975E-02    2     1000035        12   # BR(~nu_e -> chi^0_4 nu_e)
     5.56705737E-01    2     1000024        11   # BR(~nu_e -> chi^+_1 e^-)
     5.20015205E-02    2     1000037        11   # BR(~nu_e -> chi^+_2 e^-)
#    BR                NDA      ID1      ID2       ID3
DECAY   1000014     1.44683111E+02   # ~nu_mu
#    BR                NDA      ID1      ID2
     9.04568904E-02    2     1000022        14   # BR(~nu_mu -> chi^0_1 nu_mu)
     2.47480893E-01    2     1000023        14   # BR(~nu_mu -> chi^0_2 nu_mu)
     3.21973443E-03    2     1000025        14   # BR(~nu_mu -> chi^0_3 nu_mu)
     5.00357777E-02    2     1000035        14   # BR(~nu_mu -> chi^0_4 nu_mu)
     5.56611052E-01    2     1000024        13   # BR(~nu_mu -> chi^+_1 mu^-)
     5.21956520E-02    2     1000037        13   # BR(~nu_mu -> chi^+_2 mu^-)
#    BR                NDA      ID1      ID2       ID3
DECAY   1000016     1.55041318E+02   # ~nu_tau
#    BR                NDA      ID1      ID2
     8.44101551E-02    2     1000022        16   # BR(~nu_tau -> chi^0_1 nu_tau)
     2.30937612E-01    2     1000023        16   # BR(~nu_tau -> chi^0_2 nu_tau)
     3.00450528E-03    2     1000025        16   # BR(~nu_tau -> chi^0_3 nu_tau)
     4.66910414E-02    2     1000035        16   # BR(~nu_tau -> chi^0_4 nu_tau)
     5.31713148E-01    2     1000024        15   # BR(~nu_tau -> chi^+_1 tau^-)
     1.03243539E-01    2     1000037        15   # BR(~nu_tau -> chi^+_2 tau^-)
#    BR                NDA      ID1      ID2       ID3
DECAY   2000001     7.11755146E+02   # ~d_R
#    BR                NDA      ID1      ID2
     7.80766760E-03    2     1000022         1   # BR(~d_R -> chi^0_1 d)
     9.92083698E-01    2     1000021         1   # BR(~d_R -> ~g d)
DECAY   1000001     8.43093726E+02   # ~d_L
#    BR                NDA      ID1      ID2
     1.92911352E-03    2     1000022         1   # BR(~d_L -> chi^0_1 d)
     4.47317097E-02    2     1000023         1   # BR(~d_L -> chi^0_2 d)
     3.65159733E-04    2     1000025         1   # BR(~d_L -> chi^0_3 d)
     7.37909671E-03    2     1000035         1   # BR(~d_L -> chi^0_4 d)
     8.61089021E-02    2    -1000024         2   # BR(~d_L -> chi^-_1 u)
     1.93401148E-02    2    -1000037         2   # BR(~d_L -> chi^-_2 u)
     8.40145903E-01    2     1000021         1   # BR(~d_L -> ~g d)
DECAY   2000003     7.11775590E+02   # ~s_R
#    BR                NDA      ID1      ID2
     7.80762423E-03    2     1000022         3   # BR(~s_R -> chi^0_1 s)
     9.92055142E-01    2     1000021         3   # BR(~s_R -> ~g s)
DECAY   1000003     8.43107610E+02   # ~s_L
#    BR                NDA      ID1      ID2
     1.92923512E-03    2     1000022         3   # BR(~s_L -> chi^0_1 s)
     4.47320691E-02    2     1000023         3   # BR(~s_L -> chi^0_2 s)
     3.71108488E-04    2     1000025         3   # BR(~s_L -> chi^0_3 s)
     7.38395026E-03    2     1000035         3   # BR(~s_L -> chi^0_4 s)
     8.61078464E-02    2    -1000024         4   # BR(~s_L -> chi^-_1 c)
     1.93437546E-02    2    -1000037         4   # BR(~s_L -> chi^-_2 c)
     8.40132036E-01    2     1000021         3   # BR(~s_L -> ~g s)
DECAY   1000005     2.43801256E+02   # ~b_1
#    BR                NDA      ID1      ID2
     1.24097421E-02    2     1000022         5   # BR(~b_1 -> chi^0_1 b)
     9.49626861E-03    2     1000023         5   # BR(~b_1 -> chi^0_2 b)
     2.56587596E-02    2     1000025         5   # BR(~b_1 -> chi^0_3 b)
     1.88396532E-02    2     1000035         5   # BR(~b_1 -> chi^0_4 b)
     1.93592854E-02    2    -1000024         6   # BR(~b_1 -> chi^-_1 t)
     4.01627606E-02    2    -1000037         6   # BR(~b_1 -> chi^-_2 t)
     8.73490701E-01    2     1000021         5   # BR(~b_1 -> ~g b)
     5.82829026E-04    2     1000006       -24   # BR(~b_1 -> ~t_1 W^-)
DECAY   2000005     4.05333121E+02   # ~b_2
#    BR                NDA      ID1      ID2
     1.87990565E-03    2     1000022         5   # BR(~b_2 -> chi^0_1 b)
     4.47817704E-02    2     1000023         5   # BR(~b_2 -> chi^0_2 b)
     1.70360931E-02    2     1000025         5   # BR(~b_2 -> chi^0_3 b)
     2.27879526E-02    2     1000035         5   # BR(~b_2 -> chi^0_4 b)
     1.00375359E-01    2    -1000024         6   # BR(~b_2 -> chi^-_1 t)
     2.42476919E-01    2    -1000037         6   # BR(~b_2 -> chi^-_2 t)
     5.30390074E-01    2     1000021         5   # BR(~b_2 -> ~g b)
     4.02719264E-02    2     1000006       -24   # BR(~b_2 -> ~t_1 W^-)
DECAY   2000002     7.28887262E+02   # ~u_R
#    BR                NDA      ID1      ID2
     3.05043295E-02    2     1000022         2   # BR(~u_R -> chi^0_1 u)
     2.41011913E-04    2     1000035         2   # BR(~u_R -> chi^0_4 u)
     9.69071548E-01    2     1000021         2   # BR(~u_R -> ~g u)
DECAY   1000002     8.43081651E+02   # ~u_L
#    BR                NDA      ID1      ID2
     1.39625671E-03    2     1000022         2   # BR(~u_L -> chi^0_1 u)
     4.66074434E-02    2     1000023         2   # BR(~u_L -> chi^0_2 u)
     2.12978166E-04    2     1000025         2   # BR(~u_L -> chi^0_3 u)
     6.18978292E-03    2     1000035         2   # BR(~u_L -> chi^0_4 u)
     9.64619955E-02    2     1000024         1   # BR(~u_L -> chi^+_1 d)
     9.01093227E-03    2     1000037         1   # BR(~u_L -> chi^+_2 d)
     8.40120611E-01    2     1000021         2   # BR(~u_L -> ~g u)
DECAY   2000004     7.28894505E+02   # ~c_R
#    BR                NDA      ID1      ID2
     3.05040301E-02    2     1000022         4   # BR(~c_R -> chi^0_1 c)
     2.43279616E-04    2     1000035         4   # BR(~c_R -> chi^0_4 c)
     9.69061876E-01    2     1000021         4   # BR(~c_R -> ~g c)
DECAY   1000004     8.43095504E+02   # ~c_L
#    BR                NDA      ID1      ID2
     1.39623802E-03    2     1000022         4   # BR(~c_L -> chi^0_1 c)
     4.66068526E-02    2     1000023         4   # BR(~c_L -> chi^0_2 c)
     2.15147781E-04    2     1000025         4   # BR(~c_L -> chi^0_3 c)
     6.19165005E-03    2     1000035         4   # BR(~c_L -> chi^0_4 c)
     9.64626496E-02    2     1000024         3   # BR(~c_L -> chi^+_1 s)
     9.02072226E-03    2     1000037         3   # BR(~c_L -> chi^+_2 s)
     8.40106740E-01    2     1000021         4   # BR(~c_L -> ~g c)
DECAY   1000006     3.59034732E+02   # ~t_1
#    BR                NDA      ID1      ID2
     2.47997129E-02    2     1000022         6   # BR(~t_1 -> chi^0_1 t)
     1.94309493E-04    2     1000023         4   # BR(~t_1 -> chi^0_2 c)
     2.90626169E-03    2     1000023         6   # BR(~t_1 -> chi^0_2 t)
     1.22143744E-01    2     1000025         6   # BR(~t_1 -> chi^0_3 t)
     1.31464875E-01    2     1000035         6   # BR(~t_1 -> chi^0_4 t)
     3.74253245E-03    2     1000024         5   # BR(~t_1 -> chi^+_1 b)
     2.39427467E-01    2     1000037         5   # BR(~t_1 -> chi^+_2 b)
     1.97471873E-03    2     1000021         4   # BR(~t_1 -> ~g c)
     4.73274929E-01    2     1000021         6   # BR(~t_1 -> ~g t)
#    BR                NDA      ID1      ID2       ID3
DECAY   2000006     4.22333371E+02   # ~t_2
#    BR                NDA      ID1      ID2
     4.29587003E-03    2     1000022         6   # BR(~t_2 -> chi^0_1 t)
     6.13696342E-02    2     1000023         6   # BR(~t_2 -> chi^0_2 t)
     1.20826154E-01    2     1000025         6   # BR(~t_2 -> chi^0_3 t)
     9.58938286E-02    2     1000035         6   # BR(~t_2 -> chi^0_4 t)
     1.15285493E-01    2     1000024         5   # BR(~t_2 -> chi^+_1 b)
     2.51993761E-02    2     1000037         5   # BR(~t_2 -> chi^+_2 b)
     5.26266531E-01    2     1000021         6   # BR(~t_2 -> ~g t)
     2.21867864E-02    2     1000006        23   # BR(~t_2 -> ~t_1 Z)
     2.86763257E-02    2     1000006        25   # BR(~t_2 -> ~t_1 h^0)
DECAY   1000024     2.22403852E-02   # chi^+_1
#    BR                NDA      ID1      ID2
     9.99999645E-01    2     1000022        24   # BR(chi^+_1 -> chi^0_1 W^+)
#    BR                NDA      ID1      ID2       ID3
DECAY   1000037     1.80525817E+00   # chi^+_2
#    BR                NDA      ID1      ID2
     1.39346723E-01    2     1000022        24   # BR(chi^+_2 -> chi^0_1 W^+)
     3.74710230E-01    2     1000023        24   # BR(chi^+_2 -> chi^0_2 W^+)
     3.08864066E-01    2     1000024        23   # BR(chi^+_2 -> chi^+_1 Z)
     1.76754906E-01    2     1000024        25   # BR(chi^+_2 -> chi^+_1 h^0)
#    BR                NDA      ID1      ID2       ID3
     3.14671931E-04    3     1000022        -5         6   # BR(chi^+_2 -> chi^0_1 b_bar t)
DECAY   1000022     0.00000000E+00   # chi^0_1
DECAY   1000023     1.82316523E-02   # chi^0_2
#    BR                NDA      ID1      ID2
     2.51400166E-01    2     1000022        23   # BR(chi^0_2 -> chi^0_1 Z)
     7.48592177E-01    2     1000022        25   # BR(chi^0_2 -> chi^0_1 h^0)
#    BR                NDA      ID1      ID2       ID3
DECAY   1000025     3.50668424E+00   # chi^0_3
#    BR                NDA      ID1      ID2
     2.66875100E-01    2     1000024       -24   # BR(chi^0_3 -> chi^+_1 W^-)
     2.66875100E-01    2    -1000024        24   # BR(chi^0_3 -> chi^-_1 W^+)
     7.35778956E-02    2     1000022        23   # BR(chi^0_3 -> chi^0_1 Z)
     2.58745625E-01    2     1000023        23   # BR(chi^0_3 -> chi^0_2 Z)
     4.68008253E-02    2     1000022        25   # BR(chi^0_3 -> chi^0_1 h^0)
     8.69892291E-02    2     1000023        25   # BR(chi^0_3 -> chi^0_2 h^0)
     1.32151494E-04    2     1000023        22   # BR(chi^0_3 -> chi^0_2 photon)
#    BR                NDA      ID1      ID2       ID3
DECAY   1000035     1.84692444E+00   # chi^0_4
#    BR                NDA      ID1      ID2
     3.44210740E-01    2     1000024       -24   # BR(chi^0_4 -> chi^+_1 W^-)
     3.44210740E-01    2    -1000024        24   # BR(chi^0_4 -> chi^-_1 W^+)
     4.02888624E-02    2     1000022        23   # BR(chi^0_4 -> chi^0_1 Z)
     1.55018963E-02    2     1000023        23   # BR(chi^0_4 -> chi^0_2 Z)
     9.03744885E-02    2     1000022        25   # BR(chi^0_4 -> chi^0_1 h^0)
     1.65388050E-01    2     1000023        25   # BR(chi^0_4 -> chi^0_2 h^0)
#    BR                NDA      ID1      ID2       ID3
DECAY   1000021     2.45667709E-02   # ~g
#    BR                NDA      ID1      ID2
     3.96113728E-04    2     1000023        21   # BR(~g -> chi^0_2 g)
     5.28883092E-03    2     1000025        21   # BR(~g -> chi^0_3 g)
     4.48474067E-03    2     1000035        21   # BR(~g -> chi^0_4 g)
#    BR                NDA      ID1      ID2       ID3
     6.94942921E-04    3     1000022         2        -2   # BR(~g -> chi^0_1 u u_bar)
     6.94943225E-04    3     1000022         4        -4   # BR(~g -> chi^0_1 c c_bar)
     1.86249487E-02    3     1000022         6        -6   # BR(~g -> chi^0_1 t t_bar)
     2.13021623E-04    3     1000022         1        -1   # BR(~g -> chi^0_1 d d_bar)
     2.13032263E-04    3     1000022         3        -3   # BR(~g -> chi^0_1 s s_bar)
     5.36769702E-03    3     1000022         5        -5   # BR(~g -> chi^0_1 b b_bar)
     1.17156586E-03    3     1000023         2        -2   # BR(~g -> chi^0_2 u u_bar)
     1.17157737E-03    3     1000023         4        -4   # BR(~g -> chi^0_2 c c_bar)
     2.81120007E-02    3     1000023         6        -6   # BR(~g -> chi^0_2 t t_bar)
     1.12284249E-03    3     1000023         1        -1   # BR(~g -> chi^0_2 d d_bar)
     1.12291209E-03    3     1000023         3        -3   # BR(~g -> chi^0_2 s s_bar)
     2.90183332E-02    3     1000023         5        -5   # BR(~g -> chi^0_2 b b_bar)
     1.70505429E-01    3     1000025         6        -6   # BR(~g -> chi^0_3 t t_bar)
     2.06101666E-02    3     1000025         5        -5   # BR(~g -> chi^0_3 b b_bar)
     1.47149216E-04    3     1000035         2        -2   # BR(~g -> chi^0_4 u u_bar)
     1.47255934E-04    3     1000035         4        -4   # BR(~g -> chi^0_4 c c_bar)
     1.77152713E-01    3     1000035         6        -6   # BR(~g -> chi^0_4 t t_bar)
     1.70831591E-04    3     1000035         1        -1   # BR(~g -> chi^0_4 d d_bar)
     1.71101646E-04    3     1000035         3        -3   # BR(~g -> chi^0_4 s s_bar)
     2.05975941E-02    3     1000035         5        -5   # BR(~g -> chi^0_4 b b_bar)
     2.28996286E-03    3     1000024         1        -2   # BR(~g -> chi^+_1 d u_bar)
     2.28996286E-03    3    -1000024        -1         2   # BR(~g -> chi^-_1 d_bar u)
     2.29004583E-03    3     1000024         3        -4   # BR(~g -> chi^+_1 s c_bar)
     2.29004583E-03    3    -1000024        -3         4   # BR(~g -> chi^-_1 s_bar c)
     5.65655518E-02    3     1000024         5        -6   # BR(~g -> chi^+_1 b t_bar)
     5.65655518E-02    3    -1000024        -5         6   # BR(~g -> chi^-_1 b_bar t)
     3.20783991E-04    3     1000037         1        -2   # BR(~g -> chi^+_2 d u_bar)
     3.20783991E-04    3    -1000037        -1         2   # BR(~g -> chi^-_2 d_bar u)
     3.21160629E-04    3     1000037         3        -4   # BR(~g -> chi^+_2 s c_bar)
     3.21160629E-04    3    -1000037        -3         4   # BR(~g -> chi^-_2 s_bar c)
     1.94595959E-01    3     1000037         5        -6   # BR(~g -> chi^+_2 b t_bar)
     1.94595959E-01    3    -1000037        -5         6   # BR(~g -> chi^-_2 b_bar t)
DECAY        25     4.26099672E-03   # Gamma(h0)
     2.45828858E-03   2        22        22   # BR(h0 -> photon photon)
     1.93783386E-03   2        22        23   # BR(h0 -> photon Z)
     4.11197405E-02   2        23        23   # BR(h0 -> Z Z)
     3.15021473E-01   2       -24        24   # BR(h0 -> W W)
     7.25579118E-02   2        21        21   # BR(h0 -> gluon gluon)
     4.39146870E-09   2       -11        11   # BR(h0 -> Electron electron)
     1.95342281E-04   2       -13        13   # BR(h0 -> Muon muon)
     5.63286564E-02   2       -15        15   # BR(h0 -> Tau tau)
     1.24241997E-07   2        -2         2   # BR(h0 -> Up up)
     2.41139917E-02   2        -4         4   # BR(h0 -> Charm charm)
     5.05417393E-07   2        -1         1   # BR(h0 -> Down down)
     1.82797848E-04   2        -3         3   # BR(h0 -> Strange strange)
     4.86083330E-01   2        -5         5   # BR(h0 -> Bottom bottom)
DECAY        35     8.47636859E+01   # Gamma(HH)
     3.14977025E-08   2        22        22   # BR(HH -> photon photon)
     8.81544311E-08   2        22        23   # BR(HH -> photon Z)
     4.51683167E-07   2        23        23   # BR(HH -> Z Z)
     8.54974649E-08   2       -24        24   # BR(HH -> W W)
     7.33562540E-07   2        21        21   # BR(HH -> gluon gluon)
     4.13684058E-09   2       -11        11   # BR(HH -> Electron electron)
     1.84215509E-04   2       -13        13   # BR(HH -> Muon muon)
     5.32068985E-02   2       -15        15   # BR(HH -> Tau tau)
     2.16167332E-13   2        -2         2   # BR(HH -> Up up)
     4.19383554E-08   2        -4         4   # BR(HH -> Charm charm)
     3.06696483E-03   2        -6         6   # BR(HH -> Top top)
     2.89105012E-07   2        -1         1   # BR(HH -> Down down)
     1.04568096E-04   2        -3         3   # BR(HH -> Strange strange)
     2.61315574E-01   2        -5         5   # BR(HH -> Bottom bottom)
     6.27980946E-02   2  -1000024   1000024   # BR(HH -> Chargino1 chargino1)
     1.65829002E-01   2  -1000024   1000037   # BR(HH -> Chargino1 chargino2)
     1.65829002E-01   2  -1000037   1000024   # BR(HH -> Chargino2 chargino1)
     2.05197954E-02   2  -1000037   1000037   # BR(HH -> Chargino2 chargino2)
     1.62427666E-03   2   1000022   1000022   # BR(HH -> neutralino1 neutralino1)
     1.39538446E-02   2   1000022   1000023   # BR(HH -> neutralino1 neutralino2)
     3.15296315E-02   2   1000022   1000025   # BR(HH -> neutralino1 neutralino3)
     1.78457658E-02   2   1000022   1000035   # BR(HH -> neutralino1 neutralino4)
     2.73797828E-02   2   1000023   1000023   # BR(HH -> neutralino2 neutralino2)
     8.30334449E-02   2   1000023   1000025   # BR(HH -> neutralino2 neutralino3)
     4.06885941E-02   2   1000023   1000035   # BR(HH -> neutralino2 neutralino4)
     2.47843316E-03   2   1000025   1000025   # BR(HH -> neutralino3 neutralino3)
     2.56147038E-02   2   1000025   1000035   # BR(HH -> neutralino3 neutralino4)
     2.29921345E-02   2   1000035   1000035   # BR(HH -> neutralino4 neutralino4)
     3.54752307E-06   2        25        25   # BR(HH -> h0 h0)
DECAY        36     8.33237690E+01   # Gamma(A0)
     6.19708228E-08   2        22        22   # BR(A0 -> photon photon)
     1.14150135E-07   2        22        23   # BR(A0 -> photon Z)
     5.60906444E-06   2        21        21   # BR(A0 -> gluon gluon)
     3.98341730E-09   2       -11        11   # BR(A0 -> Electron electron)
     1.77383733E-04   2       -13        13   # BR(A0 -> Muon muon)
     5.12337181E-02   2       -15        15   # BR(A0 -> Tau tau)
     1.98729836E-13   2        -2         2   # BR(A0 -> Up up)
     3.85538184E-08   2        -4         4   # BR(A0 -> Charm charm)
     2.83570500E-03   2        -6         6   # BR(A0 -> Top top)
     2.78378220E-07   2        -1         1   # BR(A0 -> Down down)
     1.00687854E-04   2        -3         3   # BR(A0 -> Strange strange)
     2.51619114E-01   2        -5         5   # BR(A0 -> Bottom bottom)
     7.19138866E-02   2  -1000024   1000024   # BR(A0 -> Chargino1 chargino1)
     1.60760232E-01   2  -1000024   1000037   # BR(A0 -> Chargino1 chargino2)
     1.60760232E-01   2  -1000037   1000024   # BR(A0 -> Chargino2 chargino1)
     2.87885421E-02   2  -1000037   1000037   # BR(A0 -> Chargino2 chargino2)
     1.74022213E-03   2   1000022   1000022   # BR(A0 -> neutralino1 neutralino1)
     1.55648765E-02   2   1000022   1000023   # BR(A0 -> neutralino1 neutralino2)
     2.65254340E-02   2   1000022   1000025   # BR(A0 -> neutralino1 neutralino3)
     2.23715976E-02   2   1000022   1000035   # BR(A0 -> neutralino1 neutralino4)
     3.15403645E-02   2   1000023   1000023   # BR(A0 -> neutralino2 neutralino2)
     6.83986624E-02   2   1000023   1000025   # BR(A0 -> neutralino2 neutralino3)
     5.16390918E-02   2   1000023   1000035   # BR(A0 -> neutralino2 neutralino4)
     2.20078243E-03   2   1000025   1000025   # BR(A0 -> neutralino3 neutralino3)
     2.26363075E-02   2   1000025   1000035   # BR(A0 -> neutralino3 neutralino4)
     2.91859720E-02   2   1000035   1000035   # BR(A0 -> neutralino4 neutralino4)
     1.08281368E-06   2        23        25   # BR(A0 -> Z h0)
     7.28616962E-37   2        25        25   # BR(A0 -> h0 h0)
DECAY        37     8.68572303E+01   # Gamma(Hp)
     4.60438082E-09   2       -11        12   # BR(Hp -> Electron nu_e)
     1.96851661E-04   2       -13        14   # BR(Hp -> Muon nu_mu)
     5.56808645E-02   2       -15        16   # BR(Hp -> Tau nu_tau)
     2.79818300E-07   2        -1         2   # BR(Hp -> Down up)
     4.74317067E-06   2        -3         2   # BR(Hp -> Strange up)
     2.91216710E-06   2        -5         2   # BR(Hp -> Bottom up)
     1.52094396E-08   2        -1         4   # BR(Hp -> Down charm)
     1.00883655E-04   2        -3         4   # BR(Hp -> Strange charm)
     4.07807734E-04   2        -5         4   # BR(Hp -> Bottom charm)
     2.29062310E-07   2        -1         6   # BR(Hp -> Down top)
     5.14479539E-06   2        -3         6   # BR(Hp -> Strange top)
     2.78262658E-01   2        -5         6   # BR(Hp -> Bottom top)
     2.66259565E-02   2   1000022   1000024   # BR(Hp -> neutralino1 chargino1)
     3.27115368E-02   2   1000022   1000037   # BR(Hp -> neutralino1 chargino2)
     1.31895055E-04   2   1000023   1000024   # BR(Hp -> neutralino2 chargino1)
     2.23048186E-01   2   1000023   1000037   # BR(Hp -> neutralino2 chargino2)
     1.71198792E-01   2   1000024   1000025   # BR(Hp -> chargino1 neutralino3)
     2.66014153E-02   2   1000025   1000037   # BR(Hp -> neutralino3 chargino2)
     1.82618469E-01   2   1000024   1000035   # BR(Hp -> chargino1 neutralino4)
     2.40031608E-03   2   1000035   1000037   # BR(Hp -> neutralino4 chargino2)
     1.03877216E-06   2        24        25   # BR(Hp -> W h0)
DECAY         6     2.43000000E+00   # top
#    BR                NDA      ID1      ID2
     1.00000000E+00    2           5        24   # BR(t -> b W)
Block HiggsBoundsInputHiggsCouplingsFermions
# ScalarNormEffCoupSq PseudoSNormEffCoupSq NP IP1 IP2 IP2
    9.13601684E-01    0.00000000E+00        3  25   5   5  # h0-b-b eff. coupling^2, normalised to SM
    5.00070680E+02    0.00000000E+00        3  35   5   5  # H0-b-b eff. coupling^2, normalised to SM
    0.00000000E+00    4.99984282E+02        3  36   5   5  # A0-b-b eff. coupling^2, normalised to SM
#
    1.00017280E+00    0.00000000E+00        3  25   6   6  # h0-t-t eff. coupling^2, normalised to SM
    1.82726081E-03    0.00000000E+00        3  35   6   6  # H0-t-t eff. coupling^2, normalised to SM
    0.00000000E+00    2.00006288E-03        3  36   6   6  # A0-t-t eff. coupling^2, normalised to SM
#
    9.13601684E-01    0.00000000E+00        3  25  15  15  # h0-tau-tau eff. coupling^2, normalised to SM
    5.00070680E+02    0.00000000E+00        3  35  15  15  # H0-tau-tau eff. coupling^2, normalised to SM
    0.00000000E+00    4.99984282E+02        3  36  15  15  # A0-tau-tau eff. coupling^2, normalised to SM
#
Block HiggsBoundsInputHiggsCouplingsBosons
    9.99996097E-01        3  25  24  24  # h0-W-W eff. coupling^2, normalised to SM
    3.90261570E-06        3  35  24  24  # H0-W-W eff. coupling^2, normalised to SM
    0.00000000E+00        3  36  24  24  # A0-W-W eff. coupling^2, normalised to SM
#
    9.99996097E-01        3  25  23  23  # h0-Z-Z eff. coupling^2, normalised to SM
    3.90261570E-06        3  35  23  23  # H0-Z-Z eff. coupling^2, normalised to SM
    0.00000000E+00        3  36  23  23  # A0-Z-Z eff. coupling^2, normalised to SM
#
    1.27130101E+00        3  25  21  21  # h0-g-g eff. coupling^2, normalised to SM
    6.76409501E-04        3  35  21  21  # H0-g-g eff. coupling^2, normalised to SM
    9.33367797E-02        3  36  21  21  # A0-g-g eff. coupling^2, normalised to SM
#
    0.00000000E+00        3  25  25  23  # h0-h0-Z eff. coupling^2, normalised to SM
    0.00000000E+00        3  35  25  23  # H0-h0-Z eff. coupling^2, normalised to SM
    3.90261570E-06        3  36  25  23  # A0-h0-Z eff. coupling^2, normalised to SM
    0.00000000E+00        3  35  35  23  # H0-H0-Z eff. coupling^2, normalised to SM
    9.99996097E-01        3  36  35  23  # A0-H0-Z eff. coupling^2, normalised to SM
    0.00000000E+00        3  36  36  23  # A0-A0-Z eff. coupling^2, normalised to SM
#
    0.00000000E+00        4  25  21  21  23  # h0-g-g-Z eff. coupling^2, normalised to SM
    0.00000000E+00        4  35  21  21  23  # H0-g-g-Z eff. coupling^2, normalised to SM
    0.00000000E+00        4  36  21  21  23  # A0-g-g-Z eff. coupling^2, normalised to SM
Block SPhenoLowEnergy  # low energy observables
    1    3.28471698E-04   # BR(b -> s gamma)
    2    1.58934600E-06   # BR(b -> s mu+ mu-)
    3    3.52539997E-05   # BR(b -> s nu nu)
    4    2.38379547E-15   # BR(Bd -> e+ e-)
    5    1.01833172E-10   # BR(Bd -> mu+ mu-)
    6    2.13257336E-08   # BR(Bd -> tau+ tau-)
    7    7.99518954E-14   # BR(Bs -> e+ e-)
    8    3.41554717E-09   # BR(Bs -> mu+ mu-)
    9    7.24749718E-07   # BR(Bs -> tau+ tau-)
   10    9.66302589E-05   # BR(B_u -> tau nu)
   11    9.98153580E-01   # BR(B_u -> tau nu)/BR(B_u -> tau nu)_SM
   12    5.41971597E-01   # |Delta(M_Bd)| [ps^-1] 
   13    1.93642571E+01   # |Delta(M_Bs)| [ps^-1] 
   14    0.00000000E+00   # neutron EDM according to the chiral quark model
   15    0.00000000E+00   # neutron EDM according to the relativistic quark-parton model
   16    2.15719105E-03   # epsilon_K
   17    2.28165699E-15   # Delta(M_K)
   18    2.48011545E-11   # BR(K^0 -> pi^0 nu nu)
   19    8.29072274E-11   # BR(K^+ -> pi^+ nu nu)
   20    9.73494439E-17   # Delta(g-2)_electron/2
   21    4.16200858E-12   # Delta(g-2)_muon/2
   22    1.17864282E-09   # Delta(g-2)_tau/2
   23    0.00000000E+00   # electric dipole moment of the electron
   24    0.00000000E+00   # electric dipole moment of the muon
   25    0.00000000E+00   # electric dipole moment of the tau
   26    0.00000000E+00   # Br(mu -> e gamma)
   27    0.00000000E+00   # Br(tau -> e gamma)
   28    0.00000000E+00   # Br(tau -> mu gamma)
   29    0.00000000E+00   # Br(mu -> 3 e)
   30    0.00000000E+00   # Br(tau -> 3 e)
   31    0.00000000E+00   # Br(tau -> 3 mu)
   39    4.93782318E-05   # Delta(rho_parameter)
   40    0.00000000E+00   # BR(Z -> e mu)
   41    0.00000000E+00   # BR(Z -> e tau)
   42    0.00000000E+00   # BR(Z -> mu tau)
Block FWCOEF Q=  1.60000000E+02  # Wilson coefficients at scale Q
#    id        order  M        value         comment
     0305 4422   00   0    -1.88819110E-01   # C7
     0305 4422   00   2    -1.97905831E-01   # C7
     0305 4322   00   2    -1.13336676E-04   # C7'
     0305 6421   00   0    -9.52278348E-02   # C8
     0305 6421   00   2    -1.03682519E-01   # C8
     0305 6321   00   2    -1.27882291E-04   # C8'
 03051111 4133   00   0     1.63202762E+00   # C9 e+e-
 03051111 4133   00   2     1.63221318E+00   # C9 e+e-
 03051111 4233   00   2     1.53577923E-04   # C9' e+e-
 03051111 4137   00   0    -4.45471973E+00   # C10 e+e-
 03051111 4137   00   2    -4.45321975E+00   # C10 e+e-
 03051111 4237   00   2    -1.12768975E-03   # C10' e+e-
 03051313 4133   00   0     1.63202762E+00   # C9 mu+mu-
 03051313 4133   00   2     1.63221312E+00   # C9 mu+mu-
 03051313 4233   00   2     1.53577902E-04   # C9' mu+mu-
 03051313 4137   00   0    -4.45471973E+00   # C10 mu+mu-
 03051313 4137   00   2    -4.45321980E+00   # C10 mu+mu-
 03051313 4237   00   2    -1.12768977E-03   # C10' mu+mu-
 03051212 4137   00   0     1.50535012E+00   # C11 nu_1 nu_1
 03051212 4137   00   2     1.50502810E+00   # C11 nu_1 nu_1
 03051212 4237   00   2     2.43556079E-04   # C11' nu_1 nu_1
 03051414 4137   00   0     1.50535012E+00   # C11 nu_2 nu_2
 03051414 4137   00   2     1.50502810E+00   # C11 nu_2 nu_2
 03051414 4237   00   2     2.43556081E-04   # C11' nu_2 nu_2
 03051616 4137   00   0     1.50535012E+00   # C11 nu_3 nu_3
 03051616 4137   00   2     1.50502810E+00   # C11 nu_3 nu_3
 03051616 4237   00   2     2.43556624E-04   # C11' nu_3 nu_3
Block IMFWCOEF Q=  1.60000000E+02  # Im(Wilson coefficients) at scale Q
#    id        order  M        value         comment
     0305 4422   00   0     3.85811964E-07   # C7
     0305 4422   00   2     5.69127953E-06   # C7
     0305 4322   00   2    -7.40790858E-07   # C7'
     0305 6421   00   0     3.30473462E-07   # C8
     0305 6421   00   2    -1.20246656E-05   # C8
     0305 6321   00   2    -5.86115943E-07   # C8'
 03051111 4133   00   2     7.05239415E-07   # C9 e+e-
 03051111 4233   00   2     2.87823458E-06   # C9' e+e-
 03051111 4137   00   2     2.25229950E-06   # C10 e+e-
 03051111 4237   00   2    -2.11349903E-05   # C10' e+e-
 03051313 4133   00   2     7.05237748E-07   # C9 mu+mu-
 03051313 4233   00   2     2.87823437E-06   # C9' mu+mu-
 03051313 4137   00   2     2.25230126E-06   # C10 mu+mu-
 03051313 4237   00   2    -2.11349909E-05   # C10' mu+mu-
 03051212 4137   00   2    -4.51619203E-07   # C11 nu_1 nu_1
 03051212 4237   00   2     4.56469171E-06   # C11' nu_1 nu_1
 03051414 4137   00   2    -4.51619114E-07   # C11 nu_2 nu_2
 03051414 4237   00   2     4.56469171E-06   # C11' nu_2 nu_2
 03051616 4137   00   2    -4.51593614E-07   # C11 nu_3 nu_3
 03051616 4237   00   2     4.56469171E-06   # C11' nu_3 nu_3
