# SUSY Les Houches Accord 2 - MSSM spectrum + Decays
# SPheno v4.0.5be
# W. Porod, Comput. Phys. Commun. 153 (2003) 275-315, hep-ph/0301101;
# W. Porod, F.~Staub, Comput. Phys. Commun. 183 (2012) 2458
#                     arXiv:1104.1573 [hep-ph] 
# in case of problems send email to porod@physik.uni-wuerzburg.de
# Created: 07.09.2021,  20:43
Block SPINFO         # Program information
     1   SPheno      # spectrum calculator
     2   v4.0.5be    # version number
#
Block SPhenoINFO     # SPheno specific information
    1      2         # using 2-loop RGEs
    2      2         # using pole masses for boundary conditions at mZ
Block MODSEL  # Model selection
    1    0    # general MSSM
Block MINPAR  # Input parameters
    3    1.93011499E+01  # tanb at m_Z    
    4   -1.00000000E+00  # Sign(mu)
Block EXTPAR  # non-universal input parameters
    0    4.66897052E+03  # scale for input parameters
    1   -1.90687715E+02  # M_1
    2   -1.40737053E+03  # M_2
    3    2.92100586E+03  # M_3
   11   -7.16982399E+03  # A_t
   12   -4.51451807E+02  # A_b
   13   -1.77600163E+03  # A_tau
   23   -1.91138641E+02  # mu
   25    1.84122370E+01  # tan(beta)
   26    1.18483889E+02  # m_A, pole mass
   31    1.00000000E+04  # M_L11
   32    1.00000000E+04  # M_L22
   33    1.00000000E+04  # M_L33
   34    1.00000000E+04  # M_E11
   35    1.00000000E+04  # M_E22
   36    1.00000000E+04  # M_E33
   41    1.00000000E+04  # M_Q11
   42    1.00000000E+04  # M_Q22
   43    4.78970330E+03  # M_Q33
   44    1.00000000E+04  # M_U11
   45    1.00000000E+04  # M_U22
   46    4.59081719E+03  # M_U33
   47    1.00000000E+04  # M_D11
   48    1.00000000E+04  # M_D22
   49    4.64900955E+03  # M_D33
Block SMINPUTS  # SM parameters
         1     1.27908970E+02  # alpha_em^-1(MZ)^MSbar
         2     1.16637870E-05  # G_mu [GeV^-2]
         3     1.18400000E-01  # alpha_s(MZ)^MSbar
         4     9.11876000E+01  # m_Z(pole)
         5     4.18000000E+00  # m_b(m_b), MSbar
         6     1.73200000E+02  # m_t(pole)
         7     1.77700000E+00  # m_tau(pole)
         8     0.00000000E+00  # m_nu_3
        11     5.10998930E-04  # m_e(pole)
        12     0.00000000E+00  # m_nu_1
        13     1.05658372E-01  # m_muon(pole)
        14     0.00000000E+00  # m_nu_2
        21     5.00000000E-03  # m_d(2 GeV), MSbar
        22     2.50000000E-03  # m_u(2 GeV), MSbar
        23     9.50000000E-02  # m_s(2 GeV), MSbar
        24     1.27000000E+00  # m_c(m_c), MSbar
Block gauge Q=  4.66897052E+03  # (SUSY scale)
   1    3.55362975E-01  # g'(Q)^DRbar
   2    6.65198874E-01  # g(Q)^DRbar
   3    1.21977796E+00  # g3(Q)^DRbar
Block Yu Q=  4.66897052E+03  # (SUSY scale)
  1  1     8.39672898E-06   # Y_u(Q)^DRbar
  2  2     4.26553832E-03   # Y_c(Q)^DRbar
  3  3     1.01439230E+00   # Y_t(Q)^DRbar
Block Yd Q=  4.66897052E+03  # (SUSY scale)
  1  1     3.10668299E-04   # Y_d(Q)^DRbar
  2  2     5.90269768E-03   # Y_s(Q)^DRbar
  3  3     3.08085603E-01   # Y_b(Q)^DRbar
Block Ye Q=  4.66897052E+03  # (SUSY scale)
  1  1     5.42138900E-05   # Y_e(Q)^DRbar
  2  2     1.12097130E-02   # Y_mu(Q)^DRbar
  3  3     1.88528932E-01   # Y_tau(Q)^DRbar
Block Au Q=  4.66897052E+03  # (SUSY scale)
  1  1     0.00000000E+00   # A_u(Q)^DRbar
  2  2     0.00000000E+00   # A_c(Q)^DRbar
  3  3    -7.16982358E+03   # A_t(Q)^DRbar
Block Ad Q=  4.66897052E+03  # (SUSY scale)
  1  1     0.00000000E+00   # A_d(Q)^DRbar
  2  2     0.00000000E+00   # A_s(Q)^DRbar
  3  3    -4.51451666E+02   # A_b(Q)^DRbar
Block Ae Q=  4.66897052E+03  # (SUSY scale)
  1  1     0.00000000E+00   # A_e(Q)^DRbar
  2  2     0.00000000E+00   # A_mu(Q)^DRbar
  3  3    -1.77600137E+03   # A_tau(Q)^DRbar
Block MSOFT Q=  4.66897052E+03  # soft SUSY breaking masses at Q
   1   -1.90687715E+02  # M_1
   2   -1.40737053E+03  # M_2
   3    2.92100586E+03  # M_3
  21   -5.57646132E+04  # M^2_(H,d)
  22    4.27232916E+05  # M^2_(H,u)
  31    1.00000000E+04  # M_(L,11)
  32    1.00000000E+04  # M_(L,22)
  33    1.00000000E+04  # M_(L,33)
  34    1.00000000E+04  # M_(E,11)
  35    1.00000000E+04  # M_(E,22)
  36    1.00000000E+04  # M_(E,33)
  41    1.00000000E+04  # M_(Q,11)
  42    1.00000000E+04  # M_(Q,22)
  43    4.78970330E+03  # M_(Q,33)
  44    1.00000000E+04  # M_(U,11)
  45    1.00000000E+04  # M_(U,22)
  46    4.59081719E+03  # M_(U,33)
  47    1.00000000E+04  # M_(D,11)
  48    1.00000000E+04  # M_(D,22)
  49    4.64900955E+03  # M_(D,33)
Block MASS  # Mass spectrum
#   PDG code      mass          particle
         6     1.73200000E+02  # m_t(pole)
        23     9.11876000E+01  # m_Z(pole)
        24     8.04299946E+01  # W+
        15     1.77700000E+00  # m_tau(pole)
        25     1.16318832E+02  # h0
        35     1.29657947E+02  # H0
        36     1.18483889E+02  # A0
        37     1.48661831E+02  # H+
   1000001     1.01155800E+04  # ~d_L
   2000001     1.00909542E+04  # ~d_R
   1000002     1.01152228E+04  # ~u_L
   2000002     1.00943182E+04  # ~u_R
   1000003     1.01155800E+04  # ~s_L
   2000003     1.00909541E+04  # ~s_R
   1000004     1.01152228E+04  # ~c_L
   2000004     1.00943182E+04  # ~c_R
   1000005     4.73525955E+03  # ~b_1
   2000005     4.80531675E+03  # ~b_2
   1000006     4.50268146E+03  # ~t_1
   2000006     4.84140083E+03  # ~t_2
   1000011     1.00211184E+04  # ~e_L-
   2000011     1.00088279E+04  # ~e_R-
   1000012     1.00203547E+04  # ~nu_eL
   1000013     1.00211183E+04  # ~mu_L-
   2000013     1.00088276E+04  # ~mu_R-
   1000014     1.00203546E+04  # ~nu_muL
   1000015     1.00087500E+04  # ~tau_1-
   2000015     1.00210826E+04  # ~tau_2-
   1000016     1.00203185E+04  # ~nu_tauL
   1000021     3.43518650E+03  # ~g
   1000022     1.68462063E+02  # ~chi_10
   1000023     2.18241880E+02  # ~chi_20
   1000025     2.36683797E+02  # ~chi_30
   1000035     1.50340797E+03  # ~chi_40
   1000024     2.13568753E+02  # ~chi_1+
   1000037     1.50337082E+03  # ~chi_2+
# Higgs mixing
Block alpha # Effective Higgs mixing angle
          -1.14245687E+00   # alpha
Block Hmix Q=  4.66897052E+03  # Higgs mixing parameters
   1   -1.91138641E+02  # mu
   2    1.84122370E+01  # tan[beta](Q)
   3    2.42792057E+02  # v(Q)
   4    1.40384320E+04  # m^2_A(Q)
Block stopmix # stop mixing matrix
   1  1     3.32090881E-01   # Re[R_st(1,1)]
   1  2     9.43247394E-01   # Re[R_st(1,2)]
   2  1    -9.43247394E-01   # Re[R_st(2,1)]
   2  2     3.32090881E-01   # Re[R_st(2,2)]
Block sbotmix # sbottom mixing matrix
   1  1    -4.23579493E-03   # Re[R_sb(1,1)]
   1  2     9.99991029E-01   # Re[R_sb(1,2)]
   2  1    -9.99991029E-01   # Re[R_sb(2,1)]
   2  2    -4.23579493E-03   # Re[R_sb(2,2)]
Block staumix # stau mixing matrix
   1  1    -1.15875833E-02   # Re[R_sta(1,1)]
   1  2     9.99932862E-01   # Re[R_sta(1,2)]
   2  1    -9.99932862E-01   # Re[R_sta(2,1)]
   2  2    -1.15875833E-02   # Re[R_sta(2,2)]
Block Nmix # neutralino mixing matrix
   1  1     7.95240247E-01   # Re[N(1,1)]
   1  2    -2.41266862E-02   # Re[N(1,2)]
   1  3    -4.71781556E-01   # Re[N(1,3)]
   1  4     3.80043438E-01   # Re[N(1,4)]
   2  1    -7.30778385E-02   # Re[N(2,1)]
   2  2     3.14989538E-02   # Re[N(2,2)]
   2  3    -6.98039693E-01   # Re[N(2,3)]
   2  4    -7.11623519E-01   # Re[N(2,4)]
   3  1     6.01871166E-01   # Re[N(3,1)]
   3  2     3.88841350E-02   # Re[N(3,2)]
   3  3     5.38568075E-01   # Re[N(3,3)]
   3  4    -5.88373650E-01   # Re[N(3,4)]
   4  1     1.91781402E-03   # Re[N(4,1)]
   4  2    -9.98455679E-01   # Re[N(4,2)]
   4  3     1.03527473E-02   # Re[N(4,3)]
   4  4    -5.45472240E-02   # Re[N(4,4)]
Block Umix # chargino mixing matrix
   1  1    -1.46368038E-02   # Re[U(1,1)]
   1  2    -9.99892876E-01   # Re[U(1,2)]
   2  1    -9.99892876E-01   # Re[U(2,1)]
   2  2     1.46368038E-02   # Re[U(2,2)]
Block Vmix # chargino mixing matrix
   1  1     7.71567160E-02   # Re[V(1,1)]
   1  2     9.97018977E-01   # Re[V(1,2)]
   2  1     9.97018977E-01   # Re[V(2,1)]
   2  2    -7.71567160E-02   # Re[V(2,2)]
DECAY        23     2.49520000E+00   # Z
DECAY        24     2.08500000E+00   # W
DECAY   2000011     5.02520552E+01   # ~e^-_R
#    BR                NDA      ID1      ID2
     6.32534899E-01    2     1000022        11   # BR(~e^-_R -> chi^0_1 e^-)
     5.33940253E-03    2     1000023        11   # BR(~e^-_R -> chi^0_2 e^-)
     3.62122170E-01    2     1000025        11   # BR(~e^-_R -> chi^0_3 e^-)
DECAY   1000011     1.39023936E+02   # ~e^-_L
#    BR                NDA      ID1      ID2
     5.09141275E-02    2     1000022        11   # BR(~e^-_L -> chi^0_1 e^-)
     4.11674140E-02    2     1000025        11   # BR(~e^-_L -> chi^0_3 e^-)
     3.01594045E-01    2     1000035        11   # BR(~e^-_L -> chi^0_4 e^-)
     1.35818107E-04    2    -1000024        12   # BR(~e^-_L -> chi^-_1 nu_e)
     6.06170569E-01    2    -1000037        12   # BR(~e^-_L -> chi^-_2 nu_e)
#    BR                NDA      ID1      ID2       ID3
DECAY   2000013     5.03020481E+01   # ~mu^-_R
#    BR                NDA      ID1      ID2
     6.32016886E-01    2     1000022        13   # BR(~mu^-_R -> chi^0_1 mu^-)
     5.57622756E-03    2     1000023        13   # BR(~mu^-_R -> chi^0_2 mu^-)
     3.61906367E-01    2     1000025        13   # BR(~mu^-_R -> chi^0_3 mu^-)
     4.96853155E-04    2    -1000024        14   # BR(~mu^-_R -> chi^-_1 nu_mu)
DECAY   1000013     1.39048963E+02   # ~mu^-_L
#    BR                NDA      ID1      ID2
     5.09450391E-02    2     1000022        13   # BR(~mu^-_L -> chi^0_1 mu^-)
     1.05723808E-04    2     1000023        13   # BR(~mu^-_L -> chi^0_2 mu^-)
     4.12122035E-02    2     1000025        13   # BR(~mu^-_L -> chi^0_3 mu^-)
     3.01539778E-01    2     1000035        13   # BR(~mu^-_L -> chi^0_4 mu^-)
     1.35793660E-04    2    -1000024        14   # BR(~mu^-_L -> chi^-_1 nu_mu)
     6.06061462E-01    2    -1000037        14   # BR(~mu^-_L -> chi^-_2 nu_mu)
#    BR                NDA      ID1      ID2       ID3
DECAY   1000015     6.44047051E+01   # ~tau^-_1
#    BR                NDA      ID1      ID2
     5.19273634E-01    2     1000022        15   # BR(~tau^-_1 -> chi^0_1 tau^-)
     5.73455722E-02    2     1000023        15   # BR(~tau^-_1 -> chi^0_2 tau^-)
     3.13389353E-01    2     1000025        15   # BR(~tau^-_1 -> chi^0_3 tau^-)
     1.09880641E-01    2    -1000024        16   # BR(~tau^-_1 -> chi^-_1 nu_tau)
DECAY   2000015     1.46091340E+02   # ~tau^-_2
#    BR                NDA      ID1      ID2
     5.86695134E-02    2     1000022        15   # BR(~tau^-_2 -> chi^0_1 tau^-)
     2.37669014E-02    2     1000023        15   # BR(~tau^-_2 -> chi^0_2 tau^-)
     5.36671553E-02    2     1000025        15   # BR(~tau^-_2 -> chi^0_3 tau^-)
     2.86996836E-01    2     1000035        15   # BR(~tau^-_2 -> chi^0_4 tau^-)
     5.76821848E-01    2    -1000037        16   # BR(~tau^-_2 -> chi^-_2 nu_tau)
#    BR                NDA      ID1      ID2       ID3
DECAY   1000012     1.39027727E+02   # ~nu_e
#    BR                NDA      ID1      ID2
     6.39080349E-02    2     1000022        12   # BR(~nu_e -> chi^0_1 nu_e)
     1.57698269E-03    2     1000023        12   # BR(~nu_e -> chi^0_2 nu_e)
     2.53157928E-02    2     1000025        12   # BR(~nu_e -> chi^0_3 nu_e)
     3.02801017E-01    2     1000035        12   # BR(~nu_e -> chi^0_4 nu_e)
     3.77370653E-03    2     1000024        11   # BR(~nu_e -> chi^+_1 e^-)
     6.02624466E-01    2     1000037        11   # BR(~nu_e -> chi^+_2 e^-)
#    BR                NDA      ID1      ID2       ID3
DECAY   1000014     1.39052751E+02   # ~nu_mu
#    BR                NDA      ID1      ID2
     6.38965331E-02    2     1000022        14   # BR(~nu_mu -> chi^0_1 nu_mu)
     1.57669887E-03    2     1000023        14   # BR(~nu_mu -> chi^0_2 nu_mu)
     2.53112366E-02    2     1000025        14   # BR(~nu_mu -> chi^0_3 nu_mu)
     3.02746520E-01    2     1000035        14   # BR(~nu_mu -> chi^0_4 nu_mu)
     3.95296539E-03    2     1000024        13   # BR(~nu_mu -> chi^+_1 mu^-)
     6.02516046E-01    2     1000037        13   # BR(~nu_mu -> chi^+_2 mu^-)
#    BR                NDA      ID1      ID2       ID3
DECAY   1000016     1.46106137E+02   # ~nu_tau
#    BR                NDA      ID1      ID2
     6.08116598E-02    2     1000022        16   # BR(~nu_tau -> chi^0_1 nu_tau)
     1.50057711E-03    2     1000023        16   # BR(~nu_tau -> chi^0_2 nu_tau)
     2.40892303E-02    2     1000025        16   # BR(~nu_tau -> chi^0_3 nu_tau)
     2.88130067E-01    2     1000035        16   # BR(~nu_tau -> chi^0_4 nu_tau)
     5.20314849E-02    2     1000024        15   # BR(~nu_tau -> chi^+_1 tau^-)
     5.73436981E-01    2     1000037        15   # BR(~nu_tau -> chi^+_2 tau^-)
#    BR                NDA      ID1      ID2       ID3
DECAY   2000001     6.28227672E+02   # ~d_R
#    BR                NDA      ID1      ID2
     5.66803178E-03    2     1000022         1   # BR(~d_R -> chi^0_1 d)
     3.24494584E-03    2     1000025         1   # BR(~d_R -> chi^0_3 d)
     9.91039099E-01    2     1000021         1   # BR(~d_R -> ~g d)
DECAY   1000001     7.54066268E+02   # ~d_L
#    BR                NDA      ID1      ID2
     1.62102201E-03    2     1000022         1   # BR(~d_L -> chi^0_1 d)
     1.16891902E-04    2     1000023         1   # BR(~d_L -> chi^0_2 d)
     2.75090436E-04    2     1000025         1   # BR(~d_L -> chi^0_3 d)
     5.63297599E-02    2     1000035         1   # BR(~d_L -> chi^0_4 d)
     1.12907083E-01    2    -1000037         2   # BR(~d_L -> chi^-_2 u)
     8.28724876E-01    2     1000021         1   # BR(~d_L -> ~g d)
DECAY   2000003     6.28241599E+02   # ~s_R
#    BR                NDA      ID1      ID2
     5.67037610E-03    2     1000022         3   # BR(~s_R -> chi^0_1 s)
     3.24809054E-03    2     1000025         3   # BR(~s_R -> chi^0_3 s)
     9.91017113E-01    2     1000021         3   # BR(~s_R -> ~g s)
DECAY   1000003     7.54076911E+02   # ~s_L
#    BR                NDA      ID1      ID2
     1.62306195E-03    2     1000022         3   # BR(~s_L -> chi^0_1 s)
     1.21404166E-04    2     1000023         3   # BR(~s_L -> chi^0_2 s)
     2.77773122E-04    2     1000025         3   # BR(~s_L -> chi^0_3 s)
     5.63289657E-02    2     1000035         3   # BR(~s_L -> chi^0_4 s)
     1.12905518E-01    2    -1000037         4   # BR(~s_L -> chi^-_2 c)
     8.28713179E-01    2     1000021         3   # BR(~s_L -> ~g s)
DECAY   1000005     1.04299855E+02   # ~b_1
#    BR                NDA      ID1      ID2
     3.52585431E-02    2     1000022         5   # BR(~b_1 -> chi^0_1 b)
     4.16754811E-02    2     1000023         5   # BR(~b_1 -> chi^0_2 b)
     3.37075104E-02    2     1000025         5   # BR(~b_1 -> chi^0_3 b)
     8.51636565E-02    2    -1000024         6   # BR(~b_1 -> chi^-_1 t)
     8.04190459E-01    2     1000021         5   # BR(~b_1 -> ~g b)
DECAY   2000005     2.63419534E+02   # ~b_2
#    BR                NDA      ID1      ID2
     9.75481564E-03    2     1000022         5   # BR(~b_2 -> chi^0_1 b)
     1.68952550E-02    2     1000023         5   # BR(~b_2 -> chi^0_2 b)
     1.03828749E-02    2     1000025         5   # BR(~b_2 -> chi^0_3 b)
     6.51913120E-02    2     1000035         5   # BR(~b_2 -> chi^0_4 b)
     3.68781524E-01    2    -1000024         6   # BR(~b_2 -> chi^-_1 t)
     1.32819433E-01    2    -1000037         6   # BR(~b_2 -> chi^-_2 t)
     3.44258221E-01    2     1000021         5   # BR(~b_2 -> ~g b)
     5.14067541E-02    2     1000006       -24   # BR(~b_2 -> ~t_1 W^-)
     5.09810273E-04    2     1000006       -37   # BR(~b_2 -> ~t_1 H^-)
DECAY   2000002     6.45439856E+02   # ~u_R
#    BR                NDA      ID1      ID2
     2.20748592E-02    2     1000022         2   # BR(~u_R -> chi^0_1 u)
     1.86341032E-04    2     1000023         2   # BR(~u_R -> chi^0_2 u)
     1.26378328E-02    2     1000025         2   # BR(~u_R -> chi^0_3 u)
     9.65100844E-01    2     1000021         2   # BR(~u_R -> ~g u)
DECAY   1000002     7.54051845E+02   # ~u_L
#    BR                NDA      ID1      ID2
     8.14513158E-04    2     1000022         2   # BR(~u_L -> chi^0_1 u)
     1.25826773E-03    2     1000025         2   # BR(~u_L -> chi^0_3 u)
     5.62516545E-02    2     1000035         2   # BR(~u_L -> chi^0_4 u)
     7.02398357E-04    2     1000024         1   # BR(~u_L -> chi^+_1 d)
     1.12256805E-01    2     1000037         1   # BR(~u_L -> chi^+_2 d)
     8.28696204E-01    2     1000021         2   # BR(~u_L -> ~g u)
DECAY   2000004     6.45447123E+02   # ~c_R
#    BR                NDA      ID1      ID2
     2.20754282E-02    2     1000022         4   # BR(~c_R -> chi^0_1 c)
     1.89203297E-04    2     1000023         4   # BR(~c_R -> chi^0_2 c)
     1.26396456E-02    2     1000025         4   # BR(~c_R -> chi^0_3 c)
     9.65089930E-01    2     1000021         4   # BR(~c_R -> ~g c)
DECAY   1000004     7.54062454E+02   # ~c_L
#    BR                NDA      ID1      ID2
     8.15202367E-04    2     1000022         4   # BR(~c_L -> chi^0_1 c)
     1.25992967E-03    2     1000025         4   # BR(~c_L -> chi^0_3 c)
     5.62508723E-02    2     1000035         4   # BR(~c_L -> chi^0_4 c)
     7.11650524E-04    2     1000024         3   # BR(~c_L -> chi^+_1 s)
     1.12255227E-01    2     1000037         3   # BR(~c_L -> chi^+_2 s)
     8.28684504E-01    2     1000021         4   # BR(~c_L -> ~g c)
DECAY   1000006     2.53396398E+02   # ~t_1
#    BR                NDA      ID1      ID2
     5.67228282E-02    2     1000022         6   # BR(~t_1 -> chi^0_1 t)
     1.77340200E-01    2     1000023         6   # BR(~t_1 -> chi^0_2 t)
     1.54549177E-01    2     1000025         6   # BR(~t_1 -> chi^0_3 t)
     1.20772095E-02    2     1000035         6   # BR(~t_1 -> chi^0_4 t)
     3.12615274E-01    2     1000024         5   # BR(~t_1 -> chi^+_1 b)
     2.41357987E-02    2     1000037         5   # BR(~t_1 -> chi^+_2 b)
     2.62126140E-01    2     1000021         6   # BR(~t_1 -> ~g t)
#    BR                NDA      ID1      ID2       ID3
     4.33194384E-04    3     1000022        24         5   # BR(~t_1 -> chi^0_1 W^+ b)
DECAY   2000006     2.70530837E+02   # ~t_2
#    BR                NDA      ID1      ID2
     7.45141495E-02    2     1000022         6   # BR(~t_2 -> chi^0_1 t)
     1.90039368E-01    2     1000023         6   # BR(~t_2 -> chi^0_2 t)
     1.11718245E-01    2     1000025         6   # BR(~t_2 -> chi^0_3 t)
     5.26733291E-02    2     1000035         6   # BR(~t_2 -> chi^0_4 t)
     8.23066100E-02    2     1000024         5   # BR(~t_2 -> chi^+_1 b)
     1.04505418E-01    2     1000037         5   # BR(~t_2 -> chi^+_2 b)
     3.22510446E-01    2     1000021         6   # BR(~t_2 -> ~g t)
     3.07913257E-02    2     1000006        23   # BR(~t_2 -> ~t_1 Z)
     3.32179840E-04    2     1000006        36   # BR(~t_2 -> ~t_1 A^0)
     4.74392382E-03    2     1000006        25   # BR(~t_2 -> ~t_1 h^0)
     2.58649017E-02    2     1000006        35   # BR(~t_2 -> ~t_1 H^0)
DECAY   1000024     2.91544497E-04   # chi^+_1
#    BR                NDA      ID1      ID2       ID3
     3.33887323E-01    3     1000022        -1         2   # BR(chi^+_1 -> chi^0_1 d_bar u)
     3.32781607E-01    3     1000022        -3         4   # BR(chi^+_1 -> chi^0_1 s_bar c)
     1.11296105E-01    3     1000022       -11        12   # BR(chi^+_1 -> chi^0_1 e^+ nu_e)
     1.11294851E-01    3     1000022       -13        14   # BR(chi^+_1 -> chi^0_1 mu^+ nu_mu)
     1.10740113E-01    3     1000022       -15        16   # BR(chi^+_1 -> chi^0_1 tau^+ nu_tau)
DECAY   1000037     2.64517310E+01   # chi^+_2
#    BR                NDA      ID1      ID2
     3.21021412E-02    2     1000022        24   # BR(chi^+_2 -> chi^0_1 W^+)
     1.27311660E-01    2     1000023        24   # BR(chi^+_2 -> chi^0_2 W^+)
     9.36228053E-02    2     1000025        24   # BR(chi^+_2 -> chi^0_3 W^+)
     5.45315781E-02    2          37   1000022   # BR(chi^+_2 -> H^+ chi^0_1)
     1.15653894E-01    2          37   1000023   # BR(chi^+_2 -> H^+ chi^0_2)
     7.47978911E-02    2          37   1000025   # BR(chi^+_2 -> H^+ chi^0_3)
     1.25876966E-01    2     1000024        23   # BR(chi^+_2 -> chi^+_1 Z)
     1.19010194E-01    2     1000024        36   # BR(chi^+_2 -> chi^+_1 A^0)
     1.48438409E-01    2     1000024        25   # BR(chi^+_2 -> chi^+_1 h^0)
     9.65642466E-02    2     1000024        35   # BR(chi^+_2 -> chi^+_1 H^0)
#    BR                NDA      ID1      ID2       ID3
     4.43617558E-03    3     1000024         6        -6   # BR(chi^+_2 -> chi^+_1 t t_bar)
     1.01631236E-03    3     1000022        -5         6   # BR(chi^+_2 -> chi^0_1 b_bar t)
     3.96208223E-03    3     1000023        -5         6   # BR(chi^+_2 -> chi^0_2 b_bar t)
     2.67521298E-03    3     1000025        -5         6   # BR(chi^+_2 -> chi^0_3 b_bar t)
DECAY   1000022     0.00000000E+00   # chi^0_1
DECAY   1000023     3.64785742E-04   # chi^0_2
#    BR                NDA      ID1      ID2
     7.54321843E-03    2     1000022        22   # BR(chi^0_2 -> chi^0_1 photon)
#    BR                NDA      ID1      ID2       ID3
     1.18917888E-01    3     1000022         2        -2   # BR(chi^0_2 -> chi^0_1 u u_bar)
     1.18008493E-01    3     1000022         4        -4   # BR(chi^0_2 -> chi^0_1 c c_bar)
     1.52475967E-01    3     1000022         1        -1   # BR(chi^0_2 -> chi^0_1 d d_bar)
     1.52471076E-01    3     1000022         3        -3   # BR(chi^0_2 -> chi^0_1 s s_bar)
     1.43799444E-01    3     1000022         5        -5   # BR(chi^0_2 -> chi^0_1 b b_bar)
     3.44091700E-02    3     1000022        11       -11   # BR(chi^0_2 -> chi^0_1 e^- e^+)
     3.44078796E-02    3     1000022        13       -13   # BR(chi^0_2 -> chi^0_1 mu^- mu^+)
     3.40471191E-02    3     1000022        15       -15   # BR(chi^0_2 -> chi^0_1 tau^- tau^+)
     2.03905658E-01    3     1000022        12       -12   # BR(chi^0_2 -> chi^0_1 nu_e nu_bar_e)
DECAY   1000025     4.55741617E-05   # chi^0_3
#    BR                NDA      ID1      ID2
     3.32272288E-03    2     1000022        22   # BR(chi^0_3 -> chi^0_1 photon)
     1.39265575E-02    2     1000023        22   # BR(chi^0_3 -> chi^0_2 photon)
#    BR                NDA      ID1      ID2       ID3
     1.61209557E-02    3     1000022         2        -2   # BR(chi^0_3 -> chi^0_1 u u_bar)
     1.60759073E-02    3     1000022         4        -4   # BR(chi^0_3 -> chi^0_1 c c_bar)
     2.06605511E-02    3     1000022         1        -1   # BR(chi^0_3 -> chi^0_1 d d_bar)
     2.06732511E-02    3     1000022         3        -3   # BR(chi^0_3 -> chi^0_1 s s_bar)
     5.13450842E-02    3     1000022         5        -5   # BR(chi^0_3 -> chi^0_1 b b_bar)
     4.65434483E-03    3     1000022        11       -11   # BR(chi^0_3 -> chi^0_1 e^- e^+)
     4.66385013E-03    3     1000022        13       -13   # BR(chi^0_3 -> chi^0_1 mu^- mu^+)
     7.30234124E-03    3     1000022        15       -15   # BR(chi^0_3 -> chi^0_1 tau^- tau^+)
     2.76409433E-02    3     1000022        12       -12   # BR(chi^0_3 -> chi^0_1 nu_e nu_bar_e)
     1.12473780E-02    3     1000023         2        -2   # BR(chi^0_3 -> chi^0_2 u u_bar)
     1.05643848E-02    3     1000023         4        -4   # BR(chi^0_3 -> chi^0_2 c c_bar)
     1.44214218E-02    3     1000023         1        -1   # BR(chi^0_3 -> chi^0_2 d d_bar)
     1.44170991E-02    3     1000023         3        -3   # BR(chi^0_3 -> chi^0_2 s s_bar)
     7.91041929E-03    3     1000023         5        -5   # BR(chi^0_3 -> chi^0_2 b b_bar)
     3.25452730E-03    3     1000023        11       -11   # BR(chi^0_3 -> chi^0_2 e^- e^+)
     3.25301791E-03    3     1000023        13       -13   # BR(chi^0_3 -> chi^0_2 mu^- mu^+)
     2.85821564E-03    3     1000023        15       -15   # BR(chi^0_3 -> chi^0_2 tau^- tau^+)
     1.92855050E-02    3     1000023        12       -12   # BR(chi^0_3 -> chi^0_2 nu_e nu_bar_e)
     1.22018063E-01    3     1000024         1        -2   # BR(chi^0_3 -> chi^+_1 d u_bar)
     1.22018063E-01    3    -1000024        -1         2   # BR(chi^0_3 -> chi^-_1 d_bar u)
     1.20275608E-01    3     1000024         3        -4   # BR(chi^0_3 -> chi^+_1 s c_bar)
     1.20275608E-01    3    -1000024        -3         4   # BR(chi^0_3 -> chi^-_1 s_bar c)
     4.06726021E-02    3     1000024        11       -12   # BR(chi^0_3 -> chi^+_1 e^- nu_bar_e)
     4.06726021E-02    3    -1000024       -11        12   # BR(chi^0_3 -> chi^-_1 e^+ nu_e)
     4.06698548E-02    3     1000024        13       -14   # BR(chi^0_3 -> chi^+_1 mu^- nu_bar_mu)
     4.06698548E-02    3    -1000024       -13        14   # BR(chi^0_3 -> chi^-_1 mu^+ nu_mu)
     3.95646328E-02    3     1000024        15       -16   # BR(chi^0_3 -> chi^+_1 tau^- nu_bar_tau)
     3.95646328E-02    3    -1000024       -15        16   # BR(chi^0_3 -> chi^-_1 tau^+ nu_tau)
DECAY   1000035     2.77453919E+01   # chi^0_4
#    BR                NDA      ID1      ID2
     1.20963492E-01    2     1000024       -24   # BR(chi^0_4 -> chi^+_1 W^-)
     1.20963492E-01    2    -1000024        24   # BR(chi^0_4 -> chi^-_1 W^+)
     1.19810194E-01    2          37  -1000024   # BR(chi^0_4 -> H^+ chi^-_1)
     1.19810194E-01    2         -37   1000024   # BR(chi^0_4 -> H^- chi^+_1)
     1.00980030E-02    2     1000022        23   # BR(chi^0_4 -> chi^0_1 Z)
     8.31368630E-02    2     1000023        23   # BR(chi^0_4 -> chi^0_2 Z)
     2.72730823E-02    2     1000025        23   # BR(chi^0_4 -> chi^0_3 Z)
     2.15689886E-02    2     1000022        36   # BR(chi^0_4 -> chi^0_1 A^0)
     3.64900102E-02    2     1000023        36   # BR(chi^0_4 -> chi^0_2 A^0)
     2.67034228E-02    2     1000025        36   # BR(chi^0_4 -> chi^0_3 A^0)
     4.71702924E-02    2     1000022        25   # BR(chi^0_4 -> chi^0_1 h^0)
     1.76569047E-02    2     1000023        25   # BR(chi^0_4 -> chi^0_2 h^0)
     8.50652874E-02    2     1000025        25   # BR(chi^0_4 -> chi^0_3 h^0)
     2.40215432E-03    2     1000022        35   # BR(chi^0_4 -> chi^0_1 H^0)
     1.31622098E-01    2     1000023        35   # BR(chi^0_4 -> chi^0_2 H^0)
     1.61498909E-02    2     1000025        35   # BR(chi^0_4 -> chi^0_3 H^0)
#    BR                NDA      ID1      ID2       ID3
     5.49292871E-04    3     1000022         6        -6   # BR(chi^0_4 -> chi^0_1 t t_bar)
     1.97919630E-03    3     1000023         6        -6   # BR(chi^0_4 -> chi^0_2 t t_bar)
     1.49863952E-03    3     1000025         6        -6   # BR(chi^0_4 -> chi^0_3 t t_bar)
     4.53361334E-03    3     1000024         5        -6   # BR(chi^0_4 -> chi^+_1 b t_bar)
     4.53361334E-03    3    -1000024        -5         6   # BR(chi^0_4 -> chi^-_1 b_bar t)
DECAY   1000021     1.82360471E-01   # ~g
#    BR                NDA      ID1      ID2
     6.93068917E-04    2     1000022        21   # BR(~g -> chi^0_1 g)
     2.50421057E-03    2     1000023        21   # BR(~g -> chi^0_2 g)
     1.55285083E-03    2     1000025        21   # BR(~g -> chi^0_3 g)
#    BR                NDA      ID1      ID2       ID3
     3.44391651E-04    3     1000022         2        -2   # BR(~g -> chi^0_1 u u_bar)
     3.44425141E-04    3     1000022         4        -4   # BR(~g -> chi^0_1 c c_bar)
     7.83955687E-02    3     1000022         6        -6   # BR(~g -> chi^0_1 t t_bar)
     1.10721370E-04    3     1000022         1        -1   # BR(~g -> chi^0_1 d d_bar)
     1.10819992E-04    3     1000022         3        -3   # BR(~g -> chi^0_1 s s_bar)
     1.17386526E-02    3     1000022         5        -5   # BR(~g -> chi^0_1 b b_bar)
     2.13633164E-01    3     1000023         6        -6   # BR(~g -> chi^0_2 t t_bar)
     1.79030537E-02    3     1000023         5        -5   # BR(~g -> chi^0_2 b b_bar)
     2.13535008E-04    3     1000025         2        -2   # BR(~g -> chi^0_3 u u_bar)
     2.13613880E-04    3     1000025         4        -4   # BR(~g -> chi^0_3 c c_bar)
     1.47306396E-01    3     1000025         6        -6   # BR(~g -> chi^0_3 t t_bar)
     1.21670246E-02    3     1000025         5        -5   # BR(~g -> chi^0_3 b b_bar)
     3.51681103E-04    3     1000035         2        -2   # BR(~g -> chi^0_4 u u_bar)
     3.51681285E-04    3     1000035         4        -4   # BR(~g -> chi^0_4 c c_bar)
     1.01266868E-02    3     1000035         6        -6   # BR(~g -> chi^0_4 t t_bar)
     3.52109009E-04    3     1000035         1        -1   # BR(~g -> chi^0_4 d d_bar)
     3.52109022E-04    3     1000035         3        -3   # BR(~g -> chi^0_4 s s_bar)
     1.19414040E-02    3     1000035         5        -5   # BR(~g -> chi^0_4 b b_bar)
     2.34054479E-01    3     1000024         5        -6   # BR(~g -> chi^+_1 b t_bar)
     2.34054479E-01    3    -1000024        -5         6   # BR(~g -> chi^-_1 b_bar t)
     2.82506902E-04    3     1000037         1        -2   # BR(~g -> chi^+_2 d u_bar)
     2.82506902E-04    3    -1000037        -1         2   # BR(~g -> chi^-_2 d_bar u)
     2.82507096E-04    3     1000037         3        -4   # BR(~g -> chi^+_2 s c_bar)
     2.82507096E-04    3    -1000037        -3         4   # BR(~g -> chi^-_2 s_bar c)
     9.94970479E-03    3     1000037         5        -6   # BR(~g -> chi^+_2 b t_bar)
     9.94970479E-03    3    -1000037        -5         6   # BR(~g -> chi^-_2 b_bar t)
DECAY        25     7.46866390E-01   # Gamma(h0)
     3.73325659E-06   2        22        22   # BR(h0 -> photon photon)
     2.80498485E-07   2        22        23   # BR(h0 -> photon Z)
     9.42448505E-06   2        23        23   # BR(h0 -> Z Z)
     9.21418530E-05   2       -24        24   # BR(h0 -> W W)
     7.71049800E-04   2        21        21   # BR(h0 -> gluon gluon)
     7.81259874E-09   2       -11        11   # BR(h0 -> Electron electron)
     3.47510798E-04   2       -13        13   # BR(h0 -> Muon muon)
     1.00181037E-01   2       -15        15   # BR(h0 -> Tau tau)
     1.00271278E-10   2        -2         2   # BR(h0 -> Up up)
     1.94591267E-05   2        -4         4   # BR(h0 -> Charm charm)
     9.20246685E-07   2        -1         1   # BR(h0 -> Down down)
     3.32834170E-04   2        -3         3   # BR(h0 -> Strange strange)
     8.98241601E-01   2        -5         5   # BR(h0 -> Bottom bottom)
DECAY        35     1.49746464E-01   # Gamma(HH)
     4.71768057E-05   2        22        22   # BR(HH -> photon photon)
     5.09275706E-05   2        22        23   # BR(HH -> photon Z)
     9.85551853E-04   2        23        23   # BR(HH -> Z Z)
     7.47740363E-03   2       -24        24   # BR(HH -> W W)
     4.60188149E-03   2        21        21   # BR(HH -> gluon gluon)
     7.84159935E-09   2       -11        11   # BR(HH -> Electron electron)
     3.48812278E-04   2       -13        13   # BR(HH -> Muon muon)
     1.00586633E-01   2       -15        15   # BR(HH -> Tau tau)
     2.99990218E-09   2        -2         2   # BR(HH -> Up up)
     5.82237940E-04   2        -4         4   # BR(HH -> Charm charm)
     9.06448104E-07   2        -1         1   # BR(HH -> Down down)
     3.27844680E-04   2        -3         3   # BR(HH -> Strange strange)
     8.84990373E-01   2        -5         5   # BR(HH -> Bottom bottom)
     2.40865863E-07   2        23        36   # BR(HH -> Z A0)
DECAY        36     8.99915526E-01   # Gamma(A0)
     3.81348694E-07   2        22        22   # BR(A0 -> photon photon)
     2.05993581E-09   2        22        23   # BR(A0 -> photon Z)
     1.05372852E-03   2        21        21   # BR(A0 -> gluon gluon)
     7.81724312E-09   2       -11        11   # BR(A0 -> Electron electron)
     3.47720449E-04   2       -13        13   # BR(A0 -> Muon muon)
     1.00337313E-01   2       -15        15   # BR(A0 -> Tau tau)
     1.24395163E-12   2        -2         2   # BR(A0 -> Up up)
     2.40554880E-07   2        -4         4   # BR(A0 -> Charm charm)
     9.17830530E-07   2        -1         1   # BR(A0 -> Down down)
     3.31960787E-04   2        -3         3   # BR(A0 -> Strange strange)
     8.97927728E-01   2        -5         5   # BR(A0 -> Bottom bottom)
     4.44798782E-11   2        23        25   # BR(A0 -> Z h0)
DECAY        37     1.12834692E-01   # Gamma(Hp)
     8.11678163E-08   2       -11        12   # BR(Hp -> Electron nu_e)
     3.47017416E-03   2       -13        14   # BR(Hp -> Muon nu_mu)
     9.81283783E-01   2       -15        16   # BR(Hp -> Tau nu_tau)
     8.03905092E-06   2        -1         2   # BR(Hp -> Down up)
     1.29444763E-04   2        -3         2   # BR(Hp -> Strange up)
     8.28440378E-05   2        -5         2   # BR(Hp -> Bottom up)
     4.80493281E-07   2        -1         4   # BR(Hp -> Down charm)
     2.89945363E-03   2        -3         4   # BR(Hp -> Strange charm)
     1.15994350E-02   2        -5         4   # BR(Hp -> Bottom charm)
     2.27842842E-05   2        -5         6   # BR(Hp -> Bottom top)
     2.60812965E-04   2        24        25   # BR(Hp -> W h0)
     5.39782814E-06   2        24        35   # BR(Hp -> W HH)
     2.37269183E-04   2        24        36   # BR(Hp -> W A0)
DECAY         6     2.43000000E+00   # top
#    BR                NDA      ID1      ID2
     1.00000000E+00    2           5        24   # BR(t -> b W)
Block HiggsBoundsInputHiggsCouplingsFermions
# ScalarNormEffCoupSq PseudoSNormEffCoupSq NP IP1 IP2 IP2
    2.81350288E+02    0.00000000E+00        3  25   5   5  # h0-b-b eff. coupling^2, normalised to SM
    5.86601831E+01    0.00000000E+00        3  35   5   5  # H0-b-b eff. coupling^2, normalised to SM
    0.00000000E+00    3.39010471E+02        3  36   5   5  # A0-b-b eff. coupling^2, normalised to SM
#
    1.73033543E-01    0.00000000E+00        3  25   6   6  # h0-t-t eff. coupling^2, normalised to SM
    8.29916218E-01    0.00000000E+00        3  35   6   6  # H0-t-t eff. coupling^2, normalised to SM
    0.00000000E+00    2.94976139E-03        3  36   6   6  # A0-t-t eff. coupling^2, normalised to SM
#
    2.81350288E+02    0.00000000E+00        3  25  15  15  # h0-tau-tau eff. coupling^2, normalised to SM
    5.86601831E+01    0.00000000E+00        3  35  15  15  # H0-tau-tau eff. coupling^2, normalised to SM
    0.00000000E+00    3.39010471E+02        3  36  15  15  # A0-tau-tau eff. coupling^2, normalised to SM
#
Block HiggsBoundsInputHiggsCouplingsBosons
    2.15372009E-01        3  25  24  24  # h0-W-W eff. coupling^2, normalised to SM
    7.84627991E-01        3  35  24  24  # H0-W-W eff. coupling^2, normalised to SM
    0.00000000E+00        3  36  24  24  # A0-W-W eff. coupling^2, normalised to SM
#
    2.15372009E-01        3  25  23  23  # h0-Z-Z eff. coupling^2, normalised to SM
    7.84627991E-01        3  35  23  23  # H0-Z-Z eff. coupling^2, normalised to SM
    0.00000000E+00        3  36  23  23  # A0-Z-Z eff. coupling^2, normalised to SM
#
    2.95300007E+00        3  25  21  21  # h0-g-g eff. coupling^2, normalised to SM
    2.12810351E+00        3  35  21  21  # H0-g-g eff. coupling^2, normalised to SM
    1.22854069E+00        3  36  21  21  # A0-g-g eff. coupling^2, normalised to SM
#
    0.00000000E+00        3  25  25  23  # h0-h0-Z eff. coupling^2, normalised to SM
    0.00000000E+00        3  35  25  23  # H0-h0-Z eff. coupling^2, normalised to SM
    7.84627991E-01        3  36  25  23  # A0-h0-Z eff. coupling^2, normalised to SM
    0.00000000E+00        3  35  35  23  # H0-H0-Z eff. coupling^2, normalised to SM
    2.15372009E-01        3  36  35  23  # A0-H0-Z eff. coupling^2, normalised to SM
    0.00000000E+00        3  36  36  23  # A0-A0-Z eff. coupling^2, normalised to SM
#
    0.00000000E+00        4  25  21  21  23  # h0-g-g-Z eff. coupling^2, normalised to SM
    0.00000000E+00        4  35  21  21  23  # H0-g-g-Z eff. coupling^2, normalised to SM
    0.00000000E+00        4  36  21  21  23  # A0-g-g-Z eff. coupling^2, normalised to SM
Block SPhenoLowEnergy  # low energy observables
    1    6.41483978E-04   # BR(b -> s gamma)
    2    1.65407545E-06   # BR(b -> s mu+ mu-)
    3    3.52921637E-05   # BR(b -> s nu nu)
    4    2.16318863E-15   # BR(Bd -> e+ e-)
    5    9.24090844E-11   # BR(Bd -> mu+ mu-)
    6    1.93520966E-08   # BR(Bd -> tau+ tau-)
    7    7.32720346E-14   # BR(Bs -> e+ e-)
    8    3.13018337E-09   # BR(Bs -> mu+ mu-)
    9    6.64200331E-07   # BR(Bs -> tau+ tau-)
   10    1.99333148E-05   # BR(B_u -> tau nu)
   11    2.05903511E-01   # BR(B_u -> tau nu)/BR(B_u -> tau nu)_SM
   12    5.42647884E-01   # |Delta(M_Bd)| [ps^-1] 
   13    1.92538835E+01   # |Delta(M_Bs)| [ps^-1] 
   14    0.00000000E+00   # neutron EDM according to the chiral quark model
   15    0.00000000E+00   # neutron EDM according to the relativistic quark-parton model
   16    2.16226212E-03   # epsilon_K
   17    2.28183204E-15   # Delta(M_K)
   18    2.48288116E-11   # BR(K^0 -> pi^0 nu nu)
   19    8.29720343E-11   # BR(K^+ -> pi^+ nu nu)
   20    1.56174892E-16   # Delta(g-2)_electron/2
   21    6.67696378E-12   # Delta(g-2)_muon/2
   22    1.88857402E-09   # Delta(g-2)_tau/2
   23    0.00000000E+00   # electric dipole moment of the electron
   24    0.00000000E+00   # electric dipole moment of the muon
   25    0.00000000E+00   # electric dipole moment of the tau
   26    0.00000000E+00   # Br(mu -> e gamma)
   27    0.00000000E+00   # Br(tau -> e gamma)
   28    0.00000000E+00   # Br(tau -> mu gamma)
   29    0.00000000E+00   # Br(mu -> 3 e)
   30    0.00000000E+00   # Br(tau -> 3 e)
   31    0.00000000E+00   # Br(tau -> 3 mu)
   39    4.17067367E-05   # Delta(rho_parameter)
   40    0.00000000E+00   # BR(Z -> e mu)
   41    0.00000000E+00   # BR(Z -> e tau)
   42    0.00000000E+00   # BR(Z -> mu tau)
Block FWCOEF Q=  1.60000000E+02  # Wilson coefficients at scale Q
#    id        order  M        value         comment
     0305 4422   00   0    -1.88819110E-01   # C7
     0305 4422   00   2    -4.77252710E-01   # C7
     0305 4322   00   2    -5.39141041E-03   # C7'
     0305 6421   00   0    -9.52278348E-02   # C8
     0305 6421   00   2    -3.34806041E-01   # C8
     0305 6321   00   2    -4.45878034E-03   # C8'
 03051111 4133   00   0     1.63174366E+00   # C9 e+e-
 03051111 4133   00   2     1.63224662E+00   # C9 e+e-
 03051111 4233   00   2    -2.47959667E-04   # C9' e+e-
 03051111 4137   00   0    -4.45443576E+00   # C10 e+e-
 03051111 4137   00   2    -4.45659158E+00   # C10 e+e-
 03051111 4237   00   2     1.82345521E-03   # C10' e+e-
 03051313 4133   00   0     1.63174366E+00   # C9 mu+mu-
 03051313 4133   00   2     1.63224658E+00   # C9 mu+mu-
 03051313 4233   00   2    -2.48208398E-04   # C9' mu+mu-
 03051313 4137   00   0    -4.45443576E+00   # C10 mu+mu-
 03051313 4137   00   2    -4.45659162E+00   # C10 mu+mu-
 03051313 4237   00   2     1.82370506E-03   # C10' mu+mu-
 03051212 4137   00   0     1.50535012E+00   # C11 nu_1 nu_1
 03051212 4137   00   2     1.50581718E+00   # C11 nu_1 nu_1
 03051212 4237   00   2    -3.93852862E-04   # C11' nu_1 nu_1
 03051414 4137   00   0     1.50535012E+00   # C11 nu_2 nu_2
 03051414 4137   00   2     1.50581718E+00   # C11 nu_2 nu_2
 03051414 4237   00   2    -3.93798892E-04   # C11' nu_2 nu_2
 03051616 4137   00   0     1.50535012E+00   # C11 nu_3 nu_3
 03051616 4137   00   2     1.50581719E+00   # C11 nu_3 nu_3
 03051616 4237   00   2    -3.78589810E-04   # C11' nu_3 nu_3
Block IMFWCOEF Q=  1.60000000E+02  # Im(Wilson coefficients) at scale Q
#    id        order  M        value         comment
     0305 4422   00   0     3.85818235E-07   # C7
     0305 4422   00   2     4.02426647E-06   # C7
     0305 4322   00   2    -7.53863441E-07   # C7'
     0305 6421   00   0     3.30478834E-07   # C8
     0305 6421   00   2     1.13453172E-05   # C8
     0305 6321   00   2    -1.84048670E-07   # C8'
 03051111 4133   00   2    -2.42022881E-07   # C9 e+e-
 03051111 4233   00   2     1.99694040E-06   # C9' e+e-
 03051111 4137   00   2     4.10074722E-06   # C10 e+e-
 03051111 4237   00   2    -1.46686685E-05   # C10' e+e-
 03051313 4133   00   2    -2.42023550E-07   # C9 mu+mu-
 03051313 4233   00   2     1.99694031E-06   # C9' mu+mu-
 03051313 4137   00   2     4.10074803E-06   # C10 mu+mu-
 03051313 4237   00   2    -1.46686688E-05   # C10' mu+mu-
 03051212 4137   00   2    -8.60213542E-07   # C11 nu_1 nu_1
 03051212 4237   00   2     3.16830768E-06   # C11' nu_1 nu_1
 03051414 4137   00   2    -8.60213510E-07   # C11 nu_2 nu_2
 03051414 4237   00   2     3.16830768E-06   # C11' nu_2 nu_2
 03051616 4137   00   2    -8.60204470E-07   # C11 nu_3 nu_3
 03051616 4237   00   2     3.16830768E-06   # C11' nu_3 nu_3
