AMPT                 AMPT
BCVEGPY              BCV
BeamHaloGenerator    BeamHaloGenerator
BlackMax             BlackMax
CalcHep              CalcHep
Charybdis            Charybdis
Charybdis2           Charybdis2
CompHep              CompHep
CosmicGenerator      CosmicGenerator
Dire4Pythia8         Dire4Pythia8
Epos                 Epos
EvtGen               EG
FPMC                 FPMC
Geneva               Geneva
HepMCAscii           HepMC
Herwig7              H7
Hijing               Hijing
HvyN                 HvyN
Hydjet               Hydjet
JHU                  JHU
MCFM                 MCFM
MEtop                MEtop
MadGraph             MG
Matchig              Matchig
McAtNlo              McAtNlo
ParticleDecayer      PD
ParticleGenerator    ParticleGenerator
ParticleGun          PG
Phantom              Pm
PowHel               PH
Powheg               Ph
ProtosLHEF           ProtosLHEF
Pyquen               Pyquen
Pythia8B             P8B
Pythia8              Py8
ReadMcAscii          ReadMcAscii
QBH                  QBH
QGSJet               QGSJet
Reldis               Reldis
STRINGS              STRINGS
Sherpa               Sh
Starlight            Starlight
SuperChic            SuperChic
VBFNLO               VBFNLO
Whizard              Whizard
aMcAtNlo             aMC
gg2vv                gg2vv
gg2ww                gg2ww
gg2zz                gg2zz
