# SUSY Les Houches Accord 2 - MSSM spectrum + Decays
# SPheno v4.0.5be
# W. Porod, Comput. Phys. Commun. 153 (2003) 275-315, hep-ph/0301101;
# W. Porod, F.~Staub, Comput. Phys. Commun. 183 (2012) 2458
#                     arXiv:1104.1573 [hep-ph] 
# in case of problems send email to porod@physik.uni-wuerzburg.de
# Created: 12.05.2022,  20:01
Block SPINFO         # Program information
     1   SPheno      # spectrum calculator
     2   v4.0.5be    # version number
#
Block SPhenoINFO     # SPheno specific information
    1      2         # using 2-loop RGEs
    2      2         # using pole masses for boundary conditions at mZ
Block MODSEL  # Model selection
    1    0    # general MSSM
Block MINPAR  # Input parameters
    3    5.97335737E+01  # tanb at m_Z    
    4   -1.00000000E+00  # Sign(mu)
Block EXTPAR  # non-universal input parameters
    0    3.17816698E+03  # scale for input parameters
    1   -8.00103713E+02  # M_1
    2    7.04543382E+02  # M_2
    3    2.02529039E+03  # M_3
   11   -7.99042198E+03  # A_t
   12   -9.88046240E+02  # A_b
   13    1.10821194E+03  # A_tau
   23   -2.37240330E+02  # mu
   25    5.99449537E+01  # tan(beta)
   26    2.86746550E+03  # m_A, pole mass
   31    1.00000000E+04  # M_L11
   32    1.00000000E+04  # M_L22
   33    1.00000000E+04  # M_L33
   34    1.00000000E+04  # M_E11
   35    1.00000000E+04  # M_E22
   36    1.00000000E+04  # M_E33
   41    1.00000000E+04  # M_Q11
   42    1.00000000E+04  # M_Q22
   43    2.24270053E+03  # M_Q33
   44    1.00000000E+04  # M_U11
   45    1.00000000E+04  # M_U22
   46    4.57081877E+03  # M_U33
   47    1.00000000E+04  # M_D11
   48    1.00000000E+04  # M_D22
   49    2.99601623E+03  # M_D33
Block SMINPUTS  # SM parameters
         1     1.27908970E+02  # alpha_em^-1(MZ)^MSbar
         2     1.16637870E-05  # G_mu [GeV^-2]
         3     1.18400000E-01  # alpha_s(MZ)^MSbar
         4     9.11876000E+01  # m_Z(pole)
         5     4.18000000E+00  # m_b(m_b), MSbar
         6     1.73200000E+02  # m_t(pole)
         7     1.77700000E+00  # m_tau(pole)
         8     0.00000000E+00  # m_nu_3
        11     5.10998930E-04  # m_e(pole)
        12     0.00000000E+00  # m_nu_1
        13     1.05658372E-01  # m_muon(pole)
        14     0.00000000E+00  # m_nu_2
        21     5.00000000E-03  # m_d(2 GeV), MSbar
        22     2.50000000E-03  # m_u(2 GeV), MSbar
        23     9.50000000E-02  # m_s(2 GeV), MSbar
        24     1.27000000E+00  # m_c(m_c), MSbar
Block gauge Q=  3.17816698E+03  # (SUSY scale)
   1    3.55362975E-01  # g'(Q)^DRbar
   2    6.65198874E-01  # g(Q)^DRbar
   3    1.21977796E+00  # g3(Q)^DRbar
Block Yu Q=  3.17816698E+03  # (SUSY scale)
  1  1     8.38553869E-06   # Y_u(Q)^DRbar
  2  2     4.25985365E-03   # Y_c(Q)^DRbar
  3  3     1.01304043E+00   # Y_t(Q)^DRbar
Block Yd Q=  3.17816698E+03  # (SUSY scale)
  1  1     1.01009877E-03   # Y_d(Q)^DRbar
  2  2     1.91918767E-02   # Y_s(Q)^DRbar
  3  3     1.00170146E+00   # Y_b(Q)^DRbar
Block Ye Q=  3.17816698E+03  # (SUSY scale)
  1  1     1.76269622E-04   # Y_e(Q)^DRbar
  2  2     3.64469674E-02   # Y_mu(Q)^DRbar
  3  3     6.12978033E-01   # Y_tau(Q)^DRbar
Block Au Q=  3.17816698E+03  # (SUSY scale)
  1  1     0.00000000E+00   # A_u(Q)^DRbar
  2  2     0.00000000E+00   # A_c(Q)^DRbar
  3  3    -7.99042265E+03   # A_t(Q)^DRbar
Block Ad Q=  3.17816698E+03  # (SUSY scale)
  1  1     0.00000000E+00   # A_d(Q)^DRbar
  2  2     0.00000000E+00   # A_s(Q)^DRbar
  3  3    -9.88046404E+02   # A_b(Q)^DRbar
Block Ae Q=  3.17816698E+03  # (SUSY scale)
  1  1     0.00000000E+00   # A_e(Q)^DRbar
  2  2     0.00000000E+00   # A_mu(Q)^DRbar
  3  3     1.10821193E+03   # A_tau(Q)^DRbar
Block MSOFT Q=  3.17816698E+03  # soft SUSY breaking masses at Q
   1   -8.00103713E+02  # M_1
   2    7.04543382E+02  # M_2
   3    2.02529039E+03  # M_3
  21    8.00470319E+06  # M^2_(H,d)
  22   -6.29682598E+04  # M^2_(H,u)
  31    1.00000000E+04  # M_(L,11)
  32    1.00000000E+04  # M_(L,22)
  33    1.00000000E+04  # M_(L,33)
  34    1.00000000E+04  # M_(E,11)
  35    1.00000000E+04  # M_(E,22)
  36    1.00000000E+04  # M_(E,33)
  41    1.00000000E+04  # M_(Q,11)
  42    1.00000000E+04  # M_(Q,22)
  43    2.24270053E+03  # M_(Q,33)
  44    1.00000000E+04  # M_(U,11)
  45    1.00000000E+04  # M_(U,22)
  46    4.57081877E+03  # M_(U,33)
  47    1.00000000E+04  # M_(D,11)
  48    1.00000000E+04  # M_(D,22)
  49    2.99601623E+03  # M_(D,33)
Block MASS  # Mass spectrum
#   PDG code      mass          particle
         6     1.73200000E+02  # m_t(pole)
        23     9.11876000E+01  # m_Z(pole)
        24     8.04299946E+01  # W+
        15     1.77700000E+00  # m_tau(pole)
        25     1.29326066E+02  # h0
        35     2.86542559E+03  # H0
        36     2.86746550E+03  # A0
        37     2.86737966E+03  # H+
   1000001     1.01153948E+04  # ~d_L
   2000001     1.00904069E+04  # ~d_R
   1000002     1.01150397E+04  # ~u_L
   2000002     1.00937852E+04  # ~u_R
   1000003     1.01154076E+04  # ~s_L
   2000003     1.00904308E+04  # ~s_R
   1000004     1.01150525E+04  # ~c_L
   2000004     1.00937865E+04  # ~c_R
   1000005     2.27055508E+03  # ~b_1
   2000005     3.01437005E+03  # ~b_2
   1000006     2.25542593E+03  # ~t_1
   2000006     4.47842034E+03  # ~t_2
   1000011     1.00212609E+04  # ~e_L-
   2000011     1.00085611E+04  # ~e_R-
   1000012     1.00205011E+04  # ~nu_eL
   1000013     1.00213237E+04  # ~mu_L-
   2000013     1.00086823E+04  # ~mu_R-
   1000014     1.00205634E+04  # ~nu_muL
   1000015     1.00387276E+04  # ~tau_1-
   2000015     1.00437616E+04  # ~tau_2-
   1000016     1.00383793E+04  # ~nu_tauL
   1000021     2.41719594E+03  # ~g
   1000022     2.39210676E+02  # ~chi_10
   1000023     2.46254429E+02  # ~chi_20
   1000025     7.71038266E+02  # ~chi_30
   1000035     8.10339246E+02  # ~chi_40
   1000024     2.42121771E+02  # ~chi_1+
   1000037     7.71062619E+02  # ~chi_2+
# Higgs mixing
Block alpha # Effective Higgs mixing angle
          -1.67823729E-02   # alpha
Block Hmix Q=  3.17816698E+03  # Higgs mixing parameters
   1   -2.37240330E+02  # mu
   2    5.99449537E+01  # tan[beta](Q)
   3    2.43141753E+02  # v(Q)
   4    8.22235839E+06  # m^2_A(Q)
Block stopmix # stop mixing matrix
   1  1     9.97148919E-01   # Re[R_st(1,1)]
   1  2     7.54588242E-02   # Re[R_st(1,2)]
   2  1    -7.54588242E-02   # Re[R_st(2,1)]
   2  2     9.97148919E-01   # Re[R_st(2,2)]
Block sbotmix # sbottom mixing matrix
   1  1    -9.99976643E-01   # Re[R_sb(1,1)]
   1  2     6.83468259E-03   # Re[R_sb(1,2)]
   2  1    -6.83468259E-03   # Re[R_sb(2,1)]
   2  2    -9.99976643E-01   # Re[R_sb(2,2)]
Block staumix # stau mixing matrix
   1  1    -9.60883551E-01   # Re[R_sta(1,1)]
   1  2     2.76952706E-01   # Re[R_sta(1,2)]
   2  1    -2.76952706E-01   # Re[R_sta(2,1)]
   2  2    -9.60883551E-01   # Re[R_sta(2,2)]
Block Nmix # neutralino mixing matrix
   1  1    -2.84400171E-02   # Re[N(1,1)]
   1  2    -1.06671658E-01   # Re[N(1,2)]
   1  3    -7.10662332E-01   # Re[N(1,3)]
   1  4    -6.94817510E-01   # Re[N(1,4)]
   2  1     5.57281986E-02   # Re[N(2,1)]
   2  2     5.83999730E-02   # Re[N(2,2)]
   2  3    -7.02409623E-01   # Re[N(2,3)]
   2  4     7.07180693E-01   # Re[N(2,4)]
   3  1     3.21504702E-03   # Re[N(3,1)]
   3  2    -9.92572904E-01   # Re[N(3,2)]
   3  3     3.49881690E-02   # Re[N(3,3)]
   3  4     1.16466823E-01   # Re[N(3,4)]
   4  1    -9.98035669E-01   # Re[N(4,1)]
   4  2     3.10319622E-03   # Re[N(4,2)]
   4  3    -1.88573276E-02   # Re[N(4,3)]
   4  4     5.96621705E-02   # Re[N(4,4)]
Block Umix # chargino mixing matrix
   1  1    -4.97914060E-02   # Re[U(1,1)]
   1  2    -9.98759639E-01   # Re[U(1,2)]
   2  1     9.98759639E-01   # Re[U(2,1)]
   2  2    -4.97914060E-02   # Re[U(2,2)]
Block Vmix # chargino mixing matrix
   1  1    -1.65531270E-01   # Re[V(1,1)]
   1  2     9.86204542E-01   # Re[V(1,2)]
   2  1     9.86204542E-01   # Re[V(2,1)]
   2  2     1.65531270E-01   # Re[V(2,2)]
DECAY        23     2.49520000E+00   # Z
DECAY        24     2.08500000E+00   # W
DECAY   2000011     4.96345540E+01   # ~e^-_R
#    BR                NDA      ID1      ID2
     8.18632095E-04    2     1000022        11   # BR(~e^-_R -> chi^0_1 e^-)
     3.14285635E-03    2     1000023        11   # BR(~e^-_R -> chi^0_2 e^-)
     9.96028038E-01    2     1000035        11   # BR(~e^-_R -> chi^0_4 e^-)
DECAY   1000011     1.43201770E+02   # ~e^-_L
#    BR                NDA      ID1      ID2
     4.56921351E-03    2     1000022        11   # BR(~e^-_L -> chi^0_1 e^-)
     2.39171350E-03    2     1000023        11   # BR(~e^-_L -> chi^0_2 e^-)
     2.98841231E-01    2     1000025        11   # BR(~e^-_L -> chi^0_3 e^-)
     8.54166174E-02    2     1000035        11   # BR(~e^-_L -> chi^0_4 e^-)
     1.52548780E-03    2    -1000024        12   # BR(~e^-_L -> chi^-_1 nu_e)
     6.07255737E-01    2    -1000037        12   # BR(~e^-_L -> chi^-_2 nu_e)
#    BR                NDA      ID1      ID2       ID3
DECAY   2000013     5.01635314E+01   # ~mu^-_R
#    BR                NDA      ID1      ID2
     3.46988689E-03    2     1000022        13   # BR(~mu^-_R -> chi^0_1 mu^-)
     5.70803886E-03    2     1000023        13   # BR(~mu^-_R -> chi^0_2 mu^-)
     9.85538960E-01    2     1000035        13   # BR(~mu^-_R -> chi^0_4 mu^-)
     5.25357881E-03    2    -1000024        14   # BR(~mu^-_R -> chi^-_1 nu_mu)
DECAY   1000013     1.43467204E+02   # ~mu^-_L
#    BR                NDA      ID1      ID2
     5.49199875E-03    2     1000022        13   # BR(~mu^-_L -> chi^0_1 mu^-)
     3.29694606E-03    2     1000023        13   # BR(~mu^-_L -> chi^0_2 mu^-)
     2.98292478E-01    2     1000025        13   # BR(~mu^-_L -> chi^0_3 mu^-)
     8.52597821E-02    2     1000035        13   # BR(~mu^-_L -> chi^0_4 mu^-)
     1.52267500E-03    2    -1000024        14   # BR(~mu^-_L -> chi^-_1 nu_mu)
     6.06136120E-01    2    -1000037        14   # BR(~mu^-_L -> chi^-_2 nu_mu)
#    BR                NDA      ID1      ID2       ID3
DECAY   1000015     2.17011433E+02   # ~tau^-_1
#    BR                NDA      ID1      ID2
     1.86416230E-01    2     1000022        15   # BR(~tau^-_1 -> chi^0_1 tau^-)
     1.69080805E-01    2     1000023        15   # BR(~tau^-_1 -> chi^0_2 tau^-)
     1.77961681E-01    2     1000025        15   # BR(~tau^-_1 -> chi^0_3 tau^-)
     6.83724236E-02    2     1000035        15   # BR(~tau^-_1 -> chi^0_4 tau^-)
     3.72784276E-02    2    -1000024        16   # BR(~tau^-_1 -> chi^-_1 nu_tau)
     3.60890433E-01    2    -1000037        16   # BR(~tau^-_1 -> chi^-_2 nu_tau)
#    BR                NDA      ID1      ID2       ID3
DECAY   2000015     2.01191378E+02   # ~tau^-_2
#    BR                NDA      ID1      ID2
     1.78791926E-01    2     1000022        15   # BR(~tau^-_2 -> chi^0_1 tau^-)
     1.87802834E-01    2     1000023        15   # BR(~tau^-_2 -> chi^0_2 tau^-)
     2.20460906E-02    2     1000025        15   # BR(~tau^-_2 -> chi^0_3 tau^-)
     2.34022411E-01    2     1000035        15   # BR(~tau^-_2 -> chi^0_4 tau^-)
     3.32670884E-01    2    -1000024        16   # BR(~tau^-_2 -> chi^-_1 nu_tau)
     4.46658541E-02    2    -1000037        16   # BR(~tau^-_2 -> chi^-_2 nu_tau)
#    BR                NDA      ID1      ID2       ID3
DECAY   1000012     1.43207383E+02   # ~nu_e
#    BR                NDA      ID1      ID2
     2.57436018E-03    2     1000022        12   # BR(~nu_e -> chi^0_1 nu_e)
     2.52121170E-04    2     1000023        12   # BR(~nu_e -> chi^0_2 nu_e)
     3.00881710E-01    2     1000025        12   # BR(~nu_e -> chi^0_3 nu_e)
     8.74183276E-02    2     1000035        12   # BR(~nu_e -> chi^0_4 nu_e)
     1.68581973E-02    2     1000024        11   # BR(~nu_e -> chi^+_1 e^-)
     5.92015284E-01    2     1000037        11   # BR(~nu_e -> chi^+_2 e^-)
#    BR                NDA      ID1      ID2       ID3
DECAY   1000014     1.43472789E+02   # ~nu_mu
#    BR                NDA      ID1      ID2
     2.56961397E-03    2     1000022        14   # BR(~nu_mu -> chi^0_1 nu_mu)
     2.51656347E-04    2     1000023        14   # BR(~nu_mu -> chi^0_2 nu_mu)
     3.00327030E-01    2     1000025        14   # BR(~nu_mu -> chi^0_3 nu_mu)
     8.72571720E-02    2     1000035        14   # BR(~nu_mu -> chi^0_4 nu_mu)
     1.86661155E-02    2     1000024        13   # BR(~nu_mu -> chi^+_1 mu^-)
     5.90928412E-01    2     1000037        13   # BR(~nu_mu -> chi^+_2 mu^-)
#    BR                NDA      ID1      ID2       ID3
DECAY   1000016     2.18418061E+02   # ~nu_tau
#    BR                NDA      ID1      ID2
     1.69091624E-03    2     1000022        16   # BR(~nu_tau -> chi^0_1 nu_tau)
     1.65600714E-04    2     1000023        16   # BR(~nu_tau -> chi^0_2 nu_tau)
     1.97635620E-01    2     1000025        16   # BR(~nu_tau -> chi^0_3 nu_tau)
     5.74214115E-02    2     1000035        16   # BR(~nu_tau -> chi^0_4 nu_tau)
     3.53377621E-01    2     1000024        15   # BR(~nu_tau -> chi^+_1 tau^-)
     3.89708830E-01    2     1000037        15   # BR(~nu_tau -> chi^+_2 tau^-)
DECAY   2000001     7.13241514E+02   # ~d_R
#    BR                NDA      ID1      ID2
     7.76615762E-03    2     1000035         1   # BR(~d_R -> chi^0_4 d)
     9.92202307E-01    2     1000021         1   # BR(~d_R -> ~g d)
DECAY   1000001     8.43282627E+02   # ~d_L
#    BR                NDA      ID1      ID2
     5.44595780E-04    2     1000022         1   # BR(~d_L -> chi^0_1 d)
     1.24044157E-04    2     1000023         1   # BR(~d_L -> chi^0_2 d)
     5.14727294E-02    2     1000025         1   # BR(~d_L -> chi^0_3 d)
     1.70430384E-03    2     1000035         1   # BR(~d_L -> chi^0_4 d)
     2.61489264E-04    2    -1000024         2   # BR(~d_L -> chi^-_1 u)
     1.04112566E-01    2    -1000037         2   # BR(~d_L -> chi^-_2 u)
     8.41780272E-01    2     1000021         1   # BR(~d_L -> ~g d)
DECAY   2000003     7.13390907E+02   # ~s_R
#    BR                NDA      ID1      ID2
     7.76458632E-03    2     1000035         3   # BR(~s_R -> chi^0_4 s)
     1.03268739E-04    2    -1000024         4   # BR(~s_R -> chi^-_1 c)
     9.91997449E-01    2     1000021         3   # BR(~s_R -> ~g s)
DECAY   1000003     8.43361392E+02   # ~s_L
#    BR                NDA      ID1      ID2
     5.88761049E-04    2     1000022         3   # BR(~s_L -> chi^0_1 s)
     1.67223839E-04    2     1000023         3   # BR(~s_L -> chi^0_2 s)
     5.14680943E-02    2     1000025         3   # BR(~s_L -> chi^0_3 s)
     1.70417760E-03    2     1000035         3   # BR(~s_L -> chi^0_4 s)
     2.65671249E-04    2    -1000024         4   # BR(~s_L -> chi^-_1 c)
     1.04103095E-01    2    -1000037         4   # BR(~s_L -> chi^-_2 c)
     8.41702977E-01    2     1000021         3   # BR(~s_L -> ~g s)
DECAY   1000005     1.12716112E+02   # ~b_1
#    BR                NDA      ID1      ID2
     1.99672154E-01    2     1000022         5   # BR(~b_1 -> chi^0_1 b)
     1.93903704E-01    2     1000023         5   # BR(~b_1 -> chi^0_2 b)
     6.87427481E-02    2     1000025         5   # BR(~b_1 -> chi^0_3 b)
     2.29552738E-03    2     1000035         5   # BR(~b_1 -> chi^0_4 b)
     3.86397178E-01    2    -1000024         6   # BR(~b_1 -> chi^-_1 t)
     1.48988688E-01    2    -1000037         6   # BR(~b_1 -> chi^-_2 t)
DECAY   2000005     1.50319311E+02   # ~b_2
#    BR                NDA      ID1      ID2
     1.99472948E-01    2     1000022         5   # BR(~b_2 -> chi^0_1 b)
     1.94958767E-01    2     1000023         5   # BR(~b_2 -> chi^0_2 b)
     5.09717915E-04    2     1000025         5   # BR(~b_2 -> chi^0_3 b)
     9.74066684E-03    2     1000035         5   # BR(~b_2 -> chi^0_4 b)
     3.91410605E-01    2    -1000024         6   # BR(~b_2 -> chi^-_1 t)
     1.02578835E-03    2    -1000037         6   # BR(~b_2 -> chi^-_2 t)
     2.01712240E-01    2     1000021         5   # BR(~b_2 -> ~g b)
     4.82637087E-04    2     1000006       -24   # BR(~b_2 -> ~t_1 W^-)
     2.29087407E-04    2     1000005        23   # BR(~b_2 -> ~b_1 Z)
     4.57541913E-04    2     1000005        25   # BR(~b_2 -> ~b_1 h^0)
DECAY   2000002     7.30227056E+02   # ~u_R
#    BR                NDA      ID1      ID2
     3.03524696E-02    2     1000035         2   # BR(~u_R -> chi^0_4 u)
     9.69526523E-01    2     1000021         2   # BR(~u_R -> ~g u)
DECAY   1000002     8.43272250E+02   # ~u_L
#    BR                NDA      ID1      ID2
     6.58421248E-04    2     1000022         2   # BR(~u_L -> chi^0_1 u)
     2.46167455E-04    2     1000023         2   # BR(~u_L -> chi^0_2 u)
     5.13528953E-02    2     1000025         2   # BR(~u_L -> chi^0_3 u)
     1.58928262E-03    2     1000035         2   # BR(~u_L -> chi^0_4 u)
     2.89022514E-03    2     1000024         1   # BR(~u_L -> chi^+_1 d)
     1.01509087E-01    2     1000037         1   # BR(~u_L -> chi^+_2 d)
     8.41753921E-01    2     1000021         2   # BR(~u_L -> ~g u)
DECAY   2000004     7.30234418E+02   # ~c_R
#    BR                NDA      ID1      ID2
     3.03521829E-02    2     1000035         4   # BR(~c_R -> chi^0_4 c)
     9.69516861E-01    2     1000021         4   # BR(~c_R -> ~g c)
DECAY   1000004     8.43350982E+02   # ~c_L
#    BR                NDA      ID1      ID2
     6.60448114E-04    2     1000022         4   # BR(~c_L -> chi^0_1 c)
     2.48307299E-04    2     1000023         4   # BR(~c_L -> chi^0_2 c)
     5.13482261E-02    2     1000025         4   # BR(~c_L -> chi^0_3 c)
     1.58915169E-03    2     1000035         4   # BR(~c_L -> chi^0_4 c)
     2.97728620E-03    2     1000024         3   # BR(~c_L -> chi^+_1 s)
     1.01499956E-01    2     1000037         3   # BR(~c_L -> chi^+_2 s)
     8.41676624E-01    2     1000021         4   # BR(~c_L -> ~g c)
DECAY   1000006     1.15332228E+02   # ~t_1
#    BR                NDA      ID1      ID2
     4.71713435E-04    2     1000022         4   # BR(~t_1 -> chi^0_1 c)
     1.87994054E-01    2     1000022         6   # BR(~t_1 -> chi^0_1 t)
     1.76134067E-04    2     1000023         4   # BR(~t_1 -> chi^0_2 c)
     1.92733944E-01    2     1000023         6   # BR(~t_1 -> chi^0_2 t)
     6.82939572E-02    2     1000025         6   # BR(~t_1 -> chi^0_3 t)
     4.10670388E-03    2     1000035         6   # BR(~t_1 -> chi^0_4 t)
     3.91411313E-01    2     1000024         5   # BR(~t_1 -> chi^+_1 b)
     1.25586272E-01    2     1000037         5   # BR(~t_1 -> chi^+_2 b)
#    BR                NDA      ID1      ID2       ID3
     2.92259079E-02    3     1000022        24         5   # BR(~t_1 -> chi^0_1 W^+ b)
DECAY   2000006     6.85621492E+02   # ~t_2
#    BR                NDA      ID1      ID2
     6.32958497E-02    2     1000022         6   # BR(~t_2 -> chi^0_1 t)
     6.60067643E-02    2     1000023         6   # BR(~t_2 -> chi^0_2 t)
     2.86717110E-03    2     1000025         6   # BR(~t_2 -> chi^0_3 t)
     1.35656121E-02    2     1000035         6   # BR(~t_2 -> chi^0_4 t)
     1.26818288E-01    2     1000024         5   # BR(~t_2 -> chi^+_1 b)
     5.74822574E-03    2     1000037         5   # BR(~t_2 -> chi^+_2 b)
     2.55106808E-01    2     1000021         6   # BR(~t_2 -> ~g t)
     2.07673705E-01    2     1000005        24   # BR(~t_2 -> ~b_1 W^+)
     1.04617991E-01    2     1000006        23   # BR(~t_2 -> ~t_1 Z)
     1.54295723E-01    2     1000006        25   # BR(~t_2 -> ~t_1 h^0)
DECAY   1000024     2.08096293E-10   # chi^+_1
#    BR                NDA      ID1      ID2       ID3
     4.74438808E-01    3     1000022        -1         2   # BR(chi^+_1 -> chi^0_1 d_bar u)
     1.87288755E-01    3     1000022        -3         4   # BR(chi^+_1 -> chi^0_1 s_bar c)
     1.58146295E-01    3     1000022       -11        12   # BR(chi^+_1 -> chi^0_1 e^+ nu_e)
     1.57112458E-01    3     1000022       -13        14   # BR(chi^+_1 -> chi^0_1 mu^+ nu_mu)
     2.30136837E-02    3     1000022       -15        16   # BR(chi^+_1 -> chi^0_1 tau^+ nu_tau)
DECAY   1000037     6.51626656E+00   # chi^+_2
#    BR                NDA      ID1      ID2
     2.51441799E-01    2     1000022        24   # BR(chi^+_2 -> chi^0_1 W^+)
     2.64655832E-01    2     1000023        24   # BR(chi^+_2 -> chi^0_2 W^+)
     2.50491761E-01    2     1000024        23   # BR(chi^+_2 -> chi^+_1 Z)
     2.27684506E-01    2     1000024        25   # BR(chi^+_2 -> chi^+_1 h^0)
#    BR                NDA      ID1      ID2       ID3
     1.01558632E-03    3     1000024         6        -6   # BR(chi^+_2 -> chi^+_1 t t_bar)
     2.23443709E-03    3     1000022        -5         6   # BR(chi^+_2 -> chi^0_1 b_bar t)
     2.46379388E-03    3     1000023        -5         6   # BR(chi^+_2 -> chi^0_2 b_bar t)
DECAY   1000022     0.00000000E+00   # chi^0_1
DECAY   1000023     1.03326363E-07   # chi^0_2
#    BR                NDA      ID1      ID2
     4.89956437E-01    2     1000022        22   # BR(chi^0_2 -> chi^0_1 photon)
#    BR                NDA      ID1      ID2       ID3
     6.54090816E-02    3     1000022         2        -2   # BR(chi^0_2 -> chi^0_1 u u_bar)
     4.20979791E-02    3     1000022         4        -4   # BR(chi^0_2 -> chi^0_1 c c_bar)
     8.38673906E-02    3     1000022         1        -1   # BR(chi^0_2 -> chi^0_1 d d_bar)
     8.36899765E-02    3     1000022         3        -3   # BR(chi^0_2 -> chi^0_1 s s_bar)
     1.89264686E-02    3     1000022        11       -11   # BR(chi^0_2 -> chi^0_1 e^- e^+)
     1.88634840E-02    3     1000022        13       -13   # BR(chi^0_2 -> chi^0_1 mu^- mu^+)
     7.03151696E-03    3     1000022        15       -15   # BR(chi^0_2 -> chi^0_1 tau^- tau^+)
     1.12154892E-01    3     1000022        12       -12   # BR(chi^0_2 -> chi^0_1 nu_e nu_bar_e)
     1.60026993E-02    3     1000024         1        -2   # BR(chi^0_2 -> chi^+_1 d u_bar)
     1.60026993E-02    3    -1000024        -1         2   # BR(chi^0_2 -> chi^-_1 d_bar u)
     1.01609415E-02    3     1000024         3        -4   # BR(chi^0_2 -> chi^+_1 s c_bar)
     1.01609415E-02    3    -1000024        -3         4   # BR(chi^0_2 -> chi^-_1 s_bar c)
     5.33425624E-03    3     1000024        11       -12   # BR(chi^0_2 -> chi^+_1 e^- nu_bar_e)
     5.33425624E-03    3    -1000024       -11        12   # BR(chi^0_2 -> chi^-_1 e^+ nu_e)
     5.31691860E-03    3     1000024        13       -14   # BR(chi^0_2 -> chi^+_1 mu^- nu_bar_mu)
     5.31691860E-03    3    -1000024       -13        14   # BR(chi^0_2 -> chi^-_1 mu^+ nu_mu)
     2.18657156E-03    3     1000024        15       -16   # BR(chi^0_2 -> chi^+_1 tau^- nu_bar_tau)
     2.18657156E-03    3    -1000024       -15        16   # BR(chi^0_2 -> chi^-_1 tau^+ nu_tau)
DECAY   1000025     7.50493561E+00   # chi^0_3
#    BR                NDA      ID1      ID2
     2.25451799E-01    2     1000024       -24   # BR(chi^0_3 -> chi^+_1 W^-)
     2.25451799E-01    2    -1000024        24   # BR(chi^0_3 -> chi^-_1 W^+)
     4.96644769E-02    2     1000022        23   # BR(chi^0_3 -> chi^0_1 Z)
     1.77527666E-01    2     1000023        23   # BR(chi^0_3 -> chi^0_2 Z)
     1.48249263E-01    2     1000022        25   # BR(chi^0_3 -> chi^0_1 h^0)
     1.69193123E-01    2     1000023        25   # BR(chi^0_3 -> chi^0_2 h^0)
#    BR                NDA      ID1      ID2       ID3
     2.84068039E-04    3     1000022         6        -6   # BR(chi^0_3 -> chi^0_1 t t_bar)
     2.87343138E-04    3     1000023         6        -6   # BR(chi^0_3 -> chi^0_2 t t_bar)
     1.93310300E-03    3     1000024         5        -6   # BR(chi^0_3 -> chi^+_1 b t_bar)
     1.93310300E-03    3    -1000024        -5         6   # BR(chi^0_3 -> chi^-_1 b_bar t)
DECAY   1000035     2.38592932E+00   # chi^0_4
#    BR                NDA      ID1      ID2
     2.25780768E-01    2     1000024       -24   # BR(chi^0_4 -> chi^+_1 W^-)
     2.25780768E-01    2    -1000024        24   # BR(chi^0_4 -> chi^-_1 W^+)
     1.78148884E-01    2     1000022        23   # BR(chi^0_4 -> chi^0_1 Z)
     4.88122823E-02    2     1000023        23   # BR(chi^0_4 -> chi^0_2 Z)
     1.50498281E-01    2     1000022        25   # BR(chi^0_4 -> chi^0_1 h^0)
     1.64572797E-01    2     1000023        25   # BR(chi^0_4 -> chi^0_2 h^0)
#    BR                NDA      ID1      ID2       ID3
     4.67556706E-04    3     1000022         6        -6   # BR(chi^0_4 -> chi^0_1 t t_bar)
     4.54392759E-04    3     1000023         6        -6   # BR(chi^0_4 -> chi^0_2 t t_bar)
     2.73373076E-03    3     1000024         5        -6   # BR(chi^0_4 -> chi^+_1 b t_bar)
     2.73373076E-03    3    -1000024        -5         6   # BR(chi^0_4 -> chi^-_1 b_bar t)
DECAY   1000021     3.16688039E+00   # ~g
#    BR                NDA      ID1      ID2
     8.48859777E-02    2     1000006        -4   # BR(~g -> ~t_1 c_bar)
     8.48859777E-02    2    -1000006         4   # BR(~g -> ~t^*_1 c)
     1.56366020E-01    2     1000005        -5   # BR(~g -> ~b_1 b_bar)
     1.56366020E-01    2    -1000005         5   # BR(~g -> ~b^*_1 b)
     6.19356431E-04    2     1000022        21   # BR(~g -> chi^0_1 g)
     4.43925424E-04    2     1000023        21   # BR(~g -> chi^0_2 g)
#    BR                NDA      ID1      ID2       ID3
     9.42444644E-02    3     1000022         6        -6   # BR(~g -> chi^0_1 t t_bar)
     4.73556819E-03    3     1000022         5        -5   # BR(~g -> chi^0_1 b b_bar)
     9.70033213E-02    3     1000023         6        -6   # BR(~g -> chi^0_2 t t_bar)
     4.61590969E-03    3     1000023         5        -5   # BR(~g -> chi^0_2 b b_bar)
     3.40304716E-02    3     1000025         6        -6   # BR(~g -> chi^0_3 t t_bar)
     1.92092649E-03    3     1000035         6        -6   # BR(~g -> chi^0_4 t t_bar)
     1.93190450E-04    3     1000035         5        -5   # BR(~g -> chi^0_4 b b_bar)
     1.11548859E-01    3     1000024         5        -6   # BR(~g -> chi^+_1 b t_bar)
     1.11548859E-01    3    -1000024        -5         6   # BR(~g -> chi^-_1 b_bar t)
     2.82110688E-02    3     1000037         5        -6   # BR(~g -> chi^+_2 b t_bar)
     2.82110688E-02    3    -1000037        -5         6   # BR(~g -> chi^-_2 b_bar t)
DECAY        25     4.03530186E-03   # Gamma(h0)
     2.60760950E-03   2        22        22   # BR(h0 -> photon photon)
     2.07918480E-03   2        22        23   # BR(h0 -> photon Z)
     4.47429466E-02   2        23        23   # BR(h0 -> Z Z)
     3.41306911E-01   2       -24        24   # BR(h0 -> W W)
     7.68273151E-02   2        21        21   # BR(h0 -> gluon gluon)
     4.13157334E-09   2       -11        11   # BR(h0 -> Electron electron)
     1.83781667E-04   2       -13        13   # BR(h0 -> Muon muon)
     5.29951614E-02   2       -15        15   # BR(h0 -> Tau tau)
     1.16559331E-07   2        -2         2   # BR(h0 -> Up up)
     2.26254426E-02   2        -4         4   # BR(h0 -> Charm charm)
     4.75315945E-07   2        -1         1   # BR(h0 -> Down down)
     1.71910409E-04   2        -3         3   # BR(h0 -> Strange strange)
     4.56459141E-01   2        -5         5   # BR(h0 -> Bottom bottom)
DECAY        35     1.35845731E+02   # Gamma(HH)
     4.24913078E-08   2        22        22   # BR(HH -> photon photon)
     7.41561190E-08   2        22        23   # BR(HH -> photon Z)
     6.59295157E-08   2        23        23   # BR(HH -> Z Z)
     2.11562868E-08   2       -24        24   # BR(HH -> W W)
     1.04299119E-05   2        21        21   # BR(HH -> gluon gluon)
     9.36884910E-09   2       -11        11   # BR(HH -> Electron electron)
     4.17139299E-04   2       -13        13   # BR(HH -> Muon muon)
     1.20473956E-01   2       -15        15   # BR(HH -> Tau tau)
     1.17894694E-14   2        -2         2   # BR(HH -> Up up)
     2.28688102E-09   2        -4         4   # BR(HH -> Charm charm)
     1.74999485E-04   2        -6         6   # BR(HH -> Top top)
     6.99979929E-07   2        -1         1   # BR(HH -> Down down)
     2.53140297E-04   2        -3         3   # BR(HH -> Strange strange)
     6.33383487E-01   2        -5         5   # BR(HH -> Bottom bottom)
     5.25852385E-03   2  -1000024   1000024   # BR(HH -> Chargino1 chargino1)
     7.20977708E-02   2  -1000024   1000037   # BR(HH -> Chargino1 chargino2)
     7.20977708E-02   2  -1000037   1000024   # BR(HH -> Chargino2 chargino1)
     3.82937349E-04   2  -1000037   1000037   # BR(HH -> Chargino2 chargino2)
     8.75374105E-04   2   1000022   1000022   # BR(HH -> neutralino1 neutralino1)
     1.84105266E-04   2   1000022   1000023   # BR(HH -> neutralino1 neutralino2)
     3.64024953E-02   2   1000022   1000025   # BR(HH -> neutralino1 neutralino3)
     1.13241895E-02   2   1000022   1000035   # BR(HH -> neutralino1 neutralino4)
     7.91909753E-05   2   1000023   1000023   # BR(HH -> neutralino2 neutralino2)
     3.68173687E-02   2   1000023   1000025   # BR(HH -> neutralino2 neutralino3)
     9.44930273E-03   2   1000023   1000035   # BR(HH -> neutralino2 neutralino4)
     1.92556419E-04   2   1000025   1000025   # BR(HH -> neutralino3 neutralino3)
     1.15337948E-04   2   1000025   1000035   # BR(HH -> neutralino3 neutralino4)
     8.61563738E-06   2   1000035   1000035   # BR(HH -> neutralino4 neutralino4)
     3.92684338E-07   2        25        25   # BR(HH -> h0 h0)
DECAY        36     1.26808493E+02   # Gamma(A0)
     8.12704577E-10   2        22        22   # BR(A0 -> photon photon)
     1.40357557E-08   2        22        23   # BR(A0 -> photon Z)
     1.56414064E-05   2        21        21   # BR(A0 -> gluon gluon)
     9.14918442E-09   2       -11        11   # BR(A0 -> Electron electron)
     4.07358513E-04   2       -13        13   # BR(A0 -> Muon muon)
     1.17649383E-01   2       -15        15   # BR(A0 -> Tau tau)
     1.14226349E-14   2        -2         2   # BR(A0 -> Up up)
     2.21561350E-09   2        -4         4   # BR(A0 -> Charm charm)
     1.72388793E-04   2        -6         6   # BR(A0 -> Top top)
     6.83505366E-07   2        -1         1   # BR(A0 -> Down down)
     2.47183384E-04   2        -3         3   # BR(A0 -> Strange strange)
     6.18495773E-01   2        -5         5   # BR(A0 -> Bottom bottom)
     5.67200069E-03   2  -1000024   1000024   # BR(A0 -> Chargino1 chargino1)
     7.72756718E-02   2  -1000024   1000037   # BR(A0 -> Chargino1 chargino2)
     7.72756718E-02   2  -1000037   1000024   # BR(A0 -> Chargino2 chargino1)
     4.41037338E-04   2  -1000037   1000037   # BR(A0 -> Chargino2 chargino2)
     9.02617257E-04   2   1000022   1000022   # BR(A0 -> neutralino1 neutralino1)
     2.18699563E-04   2   1000022   1000023   # BR(A0 -> neutralino1 neutralino2)
     3.99007622E-02   2   1000022   1000025   # BR(A0 -> neutralino1 neutralino3)
     1.02884699E-02   2   1000022   1000035   # BR(A0 -> neutralino1 neutralino4)
     9.34324570E-05   2   1000023   1000023   # BR(A0 -> neutralino2 neutralino2)
     3.86054517E-02   2   1000023   1000025   # BR(A0 -> neutralino2 neutralino3)
     1.20106097E-02   2   1000023   1000035   # BR(A0 -> neutralino2 neutralino4)
     2.22415745E-04   2   1000025   1000025   # BR(A0 -> neutralino3 neutralino3)
     8.78989832E-05   2   1000025   1000035   # BR(A0 -> neutralino3 neutralino4)
     1.67122115E-05   2   1000035   1000035   # BR(A0 -> neutralino4 neutralino4)
     1.11435565E-07   2        23        25   # BR(A0 -> Z h0)
     3.05933904E-13   2        23        35   # BR(A0 -> Z HH)
     1.54348444E-39   2        25        25   # BR(A0 -> h0 h0)
DECAY        37     1.58975595E+02   # Gamma(Hp)
     1.06427143E-08   2       -11        12   # BR(Hp -> Electron nu_e)
     4.55009276E-04   2       -13        14   # BR(Hp -> Muon nu_mu)
     1.28702489E-01   2       -15        16   # BR(Hp -> Tau nu_tau)
     6.87144943E-07   2        -1         2   # BR(Hp -> Down up)
     1.15907712E-05   2        -3         2   # BR(Hp -> Strange up)
     6.99076361E-06   2        -5         2   # BR(Hp -> Bottom up)
     3.21932762E-08   2        -1         4   # BR(Hp -> Down charm)
     2.47596524E-04   2        -3         4   # BR(Hp -> Strange charm)
     9.78956992E-04   2        -5         4   # BR(Hp -> Bottom charm)
     1.31062419E-08   2        -1         6   # BR(Hp -> Down top)
     6.51935074E-07   2        -3         6   # BR(Hp -> Strange top)
     6.60131069E-01   2        -5         6   # BR(Hp -> Bottom top)
     3.95878105E-04   2   1000022   1000024   # BR(Hp -> neutralino1 chargino1)
     6.52836480E-02   2   1000022   1000037   # BR(Hp -> neutralino1 chargino2)
     1.54146411E-03   2   1000023   1000024   # BR(Hp -> neutralino2 chargino1)
     6.20561465E-02   2   1000023   1000037   # BR(Hp -> neutralino2 chargino2)
     6.27163990E-02   2   1000024   1000025   # BR(Hp -> chargino1 neutralino3)
     1.95557112E-09   2   1000025   1000037   # BR(Hp -> neutralino3 chargino2)
     1.73028213E-02   2   1000024   1000035   # BR(Hp -> chargino1 neutralino4)
     1.68454689E-04   2   1000035   1000037   # BR(Hp -> neutralino4 chargino2)
     8.89402272E-08   2        24        25   # BR(Hp -> W h0)
     2.43928329E-13   2        24        35   # BR(Hp -> W HH)
DECAY         6     2.43000000E+00   # top
#    BR                NDA      ID1      ID2
     1.00000000E+00    2           5        24   # BR(t -> b W)
Block HiggsBoundsInputHiggsCouplingsFermions
# ScalarNormEffCoupSq PseudoSNormEffCoupSq NP IP1 IP2 IP2
    1.01225997E+00    0.00000000E+00        3  25   5   5  # h0-b-b eff. coupling^2, normalised to SM
    3.59338521E+03    0.00000000E+00        3  35   5   5  # H0-b-b eff. coupling^2, normalised to SM
    0.00000000E+00    3.59339747E+03        3  36   5   5  # A0-b-b eff. coupling^2, normalised to SM
#
    9.99996588E-01    0.00000000E+00        3  25   6   6  # h0-t-t eff. coupling^2, normalised to SM
    2.81699971E-04    0.00000000E+00        3  35   6   6  # H0-t-t eff. coupling^2, normalised to SM
    0.00000000E+00    2.78288168E-04        3  36   6   6  # A0-t-t eff. coupling^2, normalised to SM
#
    1.01225997E+00    0.00000000E+00        3  25  15  15  # h0-tau-tau eff. coupling^2, normalised to SM
    3.59338521E+03    0.00000000E+00        3  35  15  15  # H0-tau-tau eff. coupling^2, normalised to SM
    0.00000000E+00    3.59339747E+03        3  36  15  15  # A0-tau-tau eff. coupling^2, normalised to SM
#
Block HiggsBoundsInputHiggsCouplingsBosons
    9.99999990E-01        3  25  24  24  # h0-W-W eff. coupling^2, normalised to SM
    1.03935496E-08        3  35  24  24  # H0-W-W eff. coupling^2, normalised to SM
    0.00000000E+00        3  36  24  24  # A0-W-W eff. coupling^2, normalised to SM
#
    9.99999990E-01        3  25  23  23  # h0-Z-Z eff. coupling^2, normalised to SM
    1.03935496E-08        3  35  23  23  # H0-Z-Z eff. coupling^2, normalised to SM
    0.00000000E+00        3  36  23  23  # A0-Z-Z eff. coupling^2, normalised to SM
#
    1.25381898E+00        3  25  21  21  # h0-g-g eff. coupling^2, normalised to SM
    2.09588227E-02        3  35  21  21  # H0-g-g eff. coupling^2, normalised to SM
    1.66820342E-01        3  36  21  21  # A0-g-g eff. coupling^2, normalised to SM
#
    0.00000000E+00        3  25  25  23  # h0-h0-Z eff. coupling^2, normalised to SM
    0.00000000E+00        3  35  25  23  # H0-h0-Z eff. coupling^2, normalised to SM
    1.03935496E-08        3  36  25  23  # A0-h0-Z eff. coupling^2, normalised to SM
    0.00000000E+00        3  35  35  23  # H0-H0-Z eff. coupling^2, normalised to SM
    9.99999990E-01        3  36  35  23  # A0-H0-Z eff. coupling^2, normalised to SM
    0.00000000E+00        3  36  36  23  # A0-A0-Z eff. coupling^2, normalised to SM
#
    0.00000000E+00        4  25  21  21  23  # h0-g-g-Z eff. coupling^2, normalised to SM
    0.00000000E+00        4  35  21  21  23  # H0-g-g-Z eff. coupling^2, normalised to SM
    0.00000000E+00        4  36  21  21  23  # A0-g-g-Z eff. coupling^2, normalised to SM
Block SPhenoLowEnergy  # low energy observables
    1    3.74648448E-04   # BR(b -> s gamma)
    2    1.58974689E-06   # BR(b -> s mu+ mu-)
    3    3.52944093E-05   # BR(b -> s nu nu)
    4    2.10119130E-15   # BR(Bd -> e+ e-)
    5    8.96262922E-11   # BR(Bd -> mu+ mu-)
    6    1.11675497E-08   # BR(Bd -> tau+ tau-)
    7    6.48753300E-14   # BR(Bs -> e+ e-)
    8    2.76733848E-09   # BR(Bs -> mu+ mu-)
    9    3.50002999E-07   # BR(Bs -> tau+ tau-)
   10    9.42890267E-05   # BR(B_u -> tau nu)
   11    9.73969547E-01   # BR(B_u -> tau nu)/BR(B_u -> tau nu)_SM
   12    5.41390327E-01   # |Delta(M_Bd)| [ps^-1] 
   13    1.91738047E+01   # |Delta(M_Bs)| [ps^-1] 
   14    0.00000000E+00   # neutron EDM according to the chiral quark model
   15    0.00000000E+00   # neutron EDM according to the relativistic quark-parton model
   16    2.15728657E-03   # epsilon_K
   17    2.28166065E-15   # Delta(M_K)
   18    2.48242973E-11   # BR(K^0 -> pi^0 nu nu)
   19    8.29634162E-11   # BR(K^+ -> pi^+ nu nu)
   20   -4.67887699E-16   # Delta(g-2)_electron/2
   21   -2.00040241E-11   # Delta(g-2)_muon/2
   22   -5.68568275E-09   # Delta(g-2)_tau/2
   23    0.00000000E+00   # electric dipole moment of the electron
   24    0.00000000E+00   # electric dipole moment of the muon
   25    0.00000000E+00   # electric dipole moment of the tau
   26    0.00000000E+00   # Br(mu -> e gamma)
   27    0.00000000E+00   # Br(tau -> e gamma)
   28    0.00000000E+00   # Br(tau -> mu gamma)
   29    0.00000000E+00   # Br(mu -> 3 e)
   30    0.00000000E+00   # Br(tau -> 3 e)
   31    0.00000000E+00   # Br(tau -> 3 mu)
   39    9.68653569E-05   # Delta(rho_parameter)
   40    0.00000000E+00   # BR(Z -> e mu)
   41    0.00000000E+00   # BR(Z -> e tau)
   42    0.00000000E+00   # BR(Z -> mu tau)
Block FWCOEF Q=  1.60000000E+02  # Wilson coefficients at scale Q
#    id        order  M        value         comment
     0305 4422   00   0    -1.88819110E-01   # C7
     0305 4422   00   2    -2.50425727E-01   # C7
     0305 4322   00   2    -4.21507523E-04   # C7'
     0305 6421   00   0    -9.52278348E-02   # C8
     0305 6421   00   2    -1.30903711E-01   # C8
     0305 6321   00   2    -2.05813448E-04   # C8'
 03051111 4133   00   0     1.61992102E+00   # C9 e+e-
 03051111 4133   00   2     1.62078775E+00   # C9 e+e-
 03051111 4233   00   2     1.36021485E-03   # C9' e+e-
 03051111 4137   00   0    -4.44261312E+00   # C10 e+e-
 03051111 4137   00   2    -4.44544632E+00   # C10 e+e-
 03051111 4237   00   2    -1.01670357E-02   # C10' e+e-
 03051313 4133   00   0     1.61992102E+00   # C9 mu+mu-
 03051313 4133   00   2     1.62078742E+00   # C9 mu+mu-
 03051313 4233   00   2     1.36021252E-03   # C9' mu+mu-
 03051313 4137   00   0    -4.44261312E+00   # C10 mu+mu-
 03051313 4137   00   2    -4.44544665E+00   # C10 mu+mu-
 03051313 4237   00   2    -1.01670361E-02   # C10' mu+mu-
 03051212 4137   00   0     1.50535012E+00   # C11 nu_1 nu_1
 03051212 4137   00   2     1.50596715E+00   # C11 nu_1 nu_1
 03051212 4237   00   2     2.20184442E-03   # C11' nu_1 nu_1
 03051414 4137   00   0     1.50535012E+00   # C11 nu_2 nu_2
 03051414 4137   00   2     1.50596715E+00   # C11 nu_2 nu_2
 03051414 4237   00   2     2.20184477E-03   # C11' nu_2 nu_2
 03051616 4137   00   0     1.50535012E+00   # C11 nu_3 nu_3
 03051616 4137   00   2     1.50596717E+00   # C11 nu_3 nu_3
 03051616 4237   00   2     2.20194584E-03   # C11' nu_3 nu_3
Block IMFWCOEF Q=  1.60000000E+02  # Im(Wilson coefficients) at scale Q
#    id        order  M        value         comment
     0305 4422   00   0     3.85781251E-07   # C7
     0305 4422   00   2    -9.00677545E-05   # C7
     0305 4322   00   2    -5.02825617E-06   # C7'
     0305 6421   00   0     3.30447155E-07   # C8
     0305 6421   00   2     1.07026643E-04   # C8
     0305 6321   00   2    -4.56895063E-07   # C8'
 03051111 4133   00   2     2.76896677E-06   # C9 e+e-
 03051111 4233   00   2     2.59627809E-05   # C9' e+e-
 03051111 4137   00   2    -9.92388157E-07   # C10 e+e-
 03051111 4237   00   2    -1.94065972E-04   # C10' e+e-
 03051313 4133   00   2     2.76894777E-06   # C9 mu+mu-
 03051313 4233   00   2     2.59627689E-05   # C9' mu+mu-
 03051313 4137   00   2    -9.92369835E-07   # C10 mu+mu-
 03051313 4237   00   2    -1.94066009E-04   # C10' mu+mu-
 03051212 4137   00   2     2.76500786E-07   # C11 nu_1 nu_1
 03051212 4237   00   2     4.20282861E-05   # C11' nu_1 nu_1
 03051414 4137   00   2     2.76501645E-07   # C11 nu_2 nu_2
 03051414 4237   00   2     4.20282861E-05   # C11' nu_2 nu_2
 03051616 4137   00   2     2.76739102E-07   # C11 nu_3 nu_3
 03051616 4237   00   2     4.20282860E-05   # C11' nu_3 nu_3
