# SUSY Les Houches Accord 2 - MSSM spectrum + Decays
# SPheno v4.0.5be
# W. Porod, Comput. Phys. Commun. 153 (2003) 275-315, hep-ph/0301101;
# W. Porod, F.~Staub, Comput. Phys. Commun. 183 (2012) 2458
#                     arXiv:1104.1573 [hep-ph] 
# in case of problems send email to porod@physik.uni-wuerzburg.de
# Created: 15.03.2021,  18:35
Block SPINFO         # Program information
     1   SPheno      # spectrum calculator
     2   v4.0.5be    # version number
#
Block SPhenoINFO     # SPheno specific information
    1      2         # using 2-loop RGEs
    2      2         # using pole masses for boundary conditions at mZ
Block MODSEL  # Model selection
    1    0    # general MSSM
Block MINPAR  # Input parameters
    3    5.45202772E+01  # tanb at m_Z    
    4    1.00000000E+00  # Sign(mu)
Block EXTPAR  # non-universal input parameters
    0    4.47833172E+03  # scale for input parameters
    1   -8.97466637E+02  # M_1
    2   -7.48288696E+02  # M_2
    3    4.21208630E+03  # M_3
   11    5.13854387E+03  # A_t
   12    2.77408230E+02  # A_b
   13    1.50737240E+03  # A_tau
   23    3.06544851E+02  # mu
   25    5.39147928E+01  # tan(beta)
   26    4.62627107E+03  # m_A, pole mass
   31    1.00000000E+04  # M_L11
   32    1.00000000E+04  # M_L22
   33    1.00000000E+04  # M_L33
   34    1.00000000E+04  # M_E11
   35    1.00000000E+04  # M_E22
   36    1.00000000E+04  # M_E33
   41    1.00000000E+04  # M_Q11
   42    1.00000000E+04  # M_Q22
   43    4.48631023E+03  # M_Q33
   44    1.00000000E+04  # M_U11
   45    1.00000000E+04  # M_U22
   46    4.35130117E+03  # M_U33
   47    1.00000000E+04  # M_D11
   48    1.00000000E+04  # M_D22
   49    4.41931039E+03  # M_D33
Block SMINPUTS  # SM parameters
         1     1.27908970E+02  # alpha_em^-1(MZ)^MSbar
         2     1.16637870E-05  # G_mu [GeV^-2]
         3     1.18400000E-01  # alpha_s(MZ)^MSbar
         4     9.11876000E+01  # m_Z(pole)
         5     4.18000000E+00  # m_b(m_b), MSbar
         6     1.73200000E+02  # m_t(pole)
         7     1.77700000E+00  # m_tau(pole)
         8     0.00000000E+00  # m_nu_3
        11     5.10998930E-04  # m_e(pole)
        12     0.00000000E+00  # m_nu_1
        13     1.05658372E-01  # m_muon(pole)
        14     0.00000000E+00  # m_nu_2
        21     5.00000000E-03  # m_d(2 GeV), MSbar
        22     2.50000000E-03  # m_u(2 GeV), MSbar
        23     9.50000000E-02  # m_s(2 GeV), MSbar
        24     1.27000000E+00  # m_c(m_c), MSbar
Block gauge Q=  4.47833172E+03  # (SUSY scale)
   1    3.55362975E-01  # g'(Q)^DRbar
   2    6.65198874E-01  # g(Q)^DRbar
   3    1.21977796E+00  # g3(Q)^DRbar
Block Yu Q=  4.47833172E+03  # (SUSY scale)
  1  1     8.38581421E-06   # Y_u(Q)^DRbar
  2  2     4.25999362E-03   # Y_c(Q)^DRbar
  3  3     1.01307371E+00   # Y_t(Q)^DRbar
Block Yd Q=  4.47833172E+03  # (SUSY scale)
  1  1     9.08517766E-04   # Y_d(Q)^DRbar
  2  2     1.72618375E-02   # Y_s(Q)^DRbar
  3  3     9.00964935E-01   # Y_b(Q)^DRbar
Block Ye Q=  4.47833172E+03  # (SUSY scale)
  1  1     1.58542994E-04   # Y_e(Q)^DRbar
  2  2     3.27816628E-02   # Y_mu(Q)^DRbar
  3  3     5.51333639E-01   # Y_tau(Q)^DRbar
Block Au Q=  4.47833172E+03  # (SUSY scale)
  1  1     0.00000000E+00   # A_u(Q)^DRbar
  2  2     0.00000000E+00   # A_c(Q)^DRbar
  3  3     5.13854387E+03   # A_t(Q)^DRbar
Block Ad Q=  4.47833172E+03  # (SUSY scale)
  1  1     0.00000000E+00   # A_d(Q)^DRbar
  2  2     0.00000000E+00   # A_s(Q)^DRbar
  3  3     2.77408231E+02   # A_b(Q)^DRbar
Block Ae Q=  4.47833172E+03  # (SUSY scale)
  1  1     0.00000000E+00   # A_e(Q)^DRbar
  2  2     0.00000000E+00   # A_mu(Q)^DRbar
  3  3     1.50737240E+03   # A_tau(Q)^DRbar
Block MSOFT Q=  4.47833172E+03  # soft SUSY breaking masses at Q
   1   -8.97466637E+02  # M_1
   2   -7.48288696E+02  # M_2
   3    4.21208630E+03  # M_3
  21    2.17488633E+07  # M^2_(H,d)
  22    3.49603471E+05  # M^2_(H,u)
  31    1.00000000E+04  # M_(L,11)
  32    1.00000000E+04  # M_(L,22)
  33    1.00000000E+04  # M_(L,33)
  34    1.00000000E+04  # M_(E,11)
  35    1.00000000E+04  # M_(E,22)
  36    1.00000000E+04  # M_(E,33)
  41    1.00000000E+04  # M_(Q,11)
  42    1.00000000E+04  # M_(Q,22)
  43    4.48631023E+03  # M_(Q,33)
  44    1.00000000E+04  # M_(U,11)
  45    1.00000000E+04  # M_(U,22)
  46    4.35130117E+03  # M_(U,33)
  47    1.00000000E+04  # M_(D,11)
  48    1.00000000E+04  # M_(D,22)
  49    4.41931039E+03  # M_(D,33)
Block MASS  # Mass spectrum
#   PDG code      mass          particle
         6     1.73200000E+02  # m_t(pole)
        23     9.11876000E+01  # m_Z(pole)
        24     8.04299946E+01  # W+
        15     1.77700000E+00  # m_tau(pole)
        25     1.26356767E+02  # h0
        35     4.62383943E+03  # H0
        36     4.62627107E+03  # A0
        37     4.62354112E+03  # H+
   1000001     1.01088254E+04  # ~d_L
   2000001     1.00842226E+04  # ~d_R
   1000002     1.01084626E+04  # ~u_L
   2000002     1.00868206E+04  # ~u_R
   1000003     1.01088260E+04  # ~s_L
   2000003     1.00842235E+04  # ~s_R
   1000004     1.01084632E+04  # ~c_L
   2000004     1.00868208E+04  # ~c_R
   1000005     4.51728773E+03  # ~b_1
   2000005     4.56063871E+03  # ~b_2
   1000006     4.37083796E+03  # ~t_1
   2000006     4.58846911E+03  # ~t_2
   1000011     1.00210221E+04  # ~e_L-
   2000011     1.00093476E+04  # ~e_R-
   1000012     1.00202541E+04  # ~nu_eL
   1000013     1.00210251E+04  # ~mu_L-
   2000013     1.00093516E+04  # ~mu_R-
   1000014     1.00202565E+04  # ~nu_muL
   1000015     1.00107967E+04  # ~tau_1-
   2000015     1.00220122E+04  # ~tau_2-
   1000016     1.00210864E+04  # ~nu_tauL
   1000021     4.73326923E+03  # ~g
   1000022     3.18175466E+02  # ~chi_10
   1000023     3.29782805E+02  # ~chi_20
   1000025     8.19302534E+02  # ~chi_30
   1000035     9.03971352E+02  # ~chi_40
   1000024     3.22829176E+02  # ~chi_1+
   1000037     8.19742335E+02  # ~chi_2+
# Higgs mixing
Block alpha # Effective Higgs mixing angle
          -1.83571985E-02   # alpha
Block Hmix Q=  4.47833172E+03  # Higgs mixing parameters
   1    3.06544851E+02  # mu
   2    5.39147928E+01  # tan[beta](Q)
   3    2.42822349E+02  # v(Q)
   4    2.14023840E+07  # m^2_A(Q)
Block stopmix # stop mixing matrix
   1  1    -3.53090002E-01   # Re[R_st(1,1)]
   1  2     9.35589360E-01   # Re[R_st(1,2)]
   2  1    -9.35589360E-01   # Re[R_st(2,1)]
   2  2    -3.53090002E-01   # Re[R_st(2,2)]
Block sbotmix # sbottom mixing matrix
   1  1     7.75281327E-02   # Re[R_sb(1,1)]
   1  2     9.96990165E-01   # Re[R_sb(1,2)]
   2  1    -9.96990165E-01   # Re[R_sb(2,1)]
   2  2     7.75281327E-02   # Re[R_sb(2,2)]
Block staumix # stau mixing matrix
   1  1     1.18802577E-01   # Re[R_sta(1,1)]
   1  2     9.92917896E-01   # Re[R_sta(1,2)]
   2  1    -9.92917896E-01   # Re[R_sta(2,1)]
   2  2     1.18802577E-01   # Re[R_sta(2,2)]
Block Nmix # neutralino mixing matrix
   1  1    -5.18827828E-02   # Re[N(1,1)]
   1  2     1.10500215E-01   # Re[N(1,2)]
   1  3    -7.10597425E-01   # Re[N(1,3)]
   1  4    -6.92927975E-01   # Re[N(1,4)]
   2  1     2.60818761E-02   # Re[N(2,1)]
   2  2    -5.11089081E-02   # Re[N(2,2)]
   2  3    -7.02031790E-01   # Re[N(2,3)]
   2  4     7.09830248E-01   # Re[N(2,4)]
   3  1     5.41978700E-02   # Re[N(3,1)]
   3  2     9.91456394E-01   # Re[N(3,2)]
   3  3     4.20215914E-02   # Re[N(3,3)]
   3  4     1.10954929E-01   # Re[N(3,4)]
   4  1    -9.96840260E-01   # Re[N(4,1)]
   4  2     4.68166784E-02   # Re[N(4,2)]
   4  3     2.09009881E-02   # Re[N(4,3)]
   4  4     6.06699583E-02   # Re[N(4,4)]
Block Umix # chargino mixing matrix
   1  1    -6.17876133E-02   # Re[U(1,1)]
   1  2     9.98089320E-01   # Re[U(1,2)]
   2  1    -9.98089320E-01   # Re[U(2,1)]
   2  2    -6.17876133E-02   # Re[U(2,2)]
Block Vmix # chargino mixing matrix
   1  1     1.62942559E-01   # Re[V(1,1)]
   1  2     9.86635557E-01   # Re[V(1,2)]
   2  1     9.86635557E-01   # Re[V(2,1)]
   2  2    -1.62942559E-01   # Re[V(2,2)]
DECAY        23     2.49520000E+00   # Z
DECAY        24     2.08500000E+00   # W
DECAY   2000011     4.94790826E+01   # ~e^-_R
#    BR                NDA      ID1      ID2
     2.73064433E-03    2     1000022        11   # BR(~e^-_R -> chi^0_1 e^-)
     6.90008116E-04    2     1000023        11   # BR(~e^-_R -> chi^0_2 e^-)
     2.94587241E-03    2     1000025        11   # BR(~e^-_R -> chi^0_3 e^-)
     9.93633374E-01    2     1000035        11   # BR(~e^-_R -> chi^0_4 e^-)
DECAY   1000011     1.42957127E+02   # ~e^-_L
#    BR                NDA      ID1      ID2
     2.11019717E-03    2     1000022        11   # BR(~e^-_L -> chi^0_1 e^-)
     4.25498267E-04    2     1000023        11   # BR(~e^-_L -> chi^0_2 e^-)
     3.16981033E-01    2     1000025        11   # BR(~e^-_L -> chi^0_3 e^-)
     7.16105775E-02    2     1000035        11   # BR(~e^-_L -> chi^0_4 e^-)
     2.35093324E-03    2    -1000024        12   # BR(~e^-_L -> chi^-_1 nu_e)
     6.06521761E-01    2    -1000037        12   # BR(~e^-_L -> chi^-_2 nu_e)
#    BR                NDA      ID1      ID2       ID3
DECAY   2000013     4.99061698E+01   # ~mu^-_R
#    BR                NDA      ID1      ID2
     4.86801520E-03    2     1000022        13   # BR(~mu^-_R -> chi^0_1 mu^-)
     2.79275175E-03    2     1000023        13   # BR(~mu^-_R -> chi^0_2 mu^-)
     2.92813322E-03    2     1000025        13   # BR(~mu^-_R -> chi^0_3 mu^-)
     9.85132309E-01    2     1000035        13   # BR(~mu^-_R -> chi^0_4 mu^-)
     4.26263957E-03    2    -1000024        14   # BR(~mu^-_R -> chi^-_1 nu_mu)
DECAY   1000013     1.43170955E+02   # ~mu^-_L
#    BR                NDA      ID1      ID2
     2.86111222E-03    2     1000022        13   # BR(~mu^-_L -> chi^0_1 mu^-)
     1.16075136E-03    2     1000023        13   # BR(~mu^-_L -> chi^0_2 mu^-)
     3.16510325E-01    2     1000025        13   # BR(~mu^-_L -> chi^0_3 mu^-)
     7.15042905E-02    2     1000035        13   # BR(~mu^-_L -> chi^0_4 mu^-)
     2.34742280E-03    2    -1000024        14   # BR(~mu^-_L -> chi^-_1 nu_mu)
     6.05616098E-01    2    -1000037        14   # BR(~mu^-_L -> chi^-_2 nu_mu)
#    BR                NDA      ID1      ID2       ID3
DECAY   1000015     1.70789959E+02   # ~tau^-_1
#    BR                NDA      ID1      ID2
     1.86419122E-01    2     1000022        15   # BR(~tau^-_1 -> chi^0_1 tau^-)
     1.71266582E-01    2     1000023        15   # BR(~tau^-_1 -> chi^0_2 tau^-)
     2.35297326E-03    2     1000025        15   # BR(~tau^-_1 -> chi^0_3 tau^-)
     2.83991257E-01    2     1000035        15   # BR(~tau^-_1 -> chi^0_4 tau^-)
     3.53634882E-01    2    -1000024        16   # BR(~tau^-_1 -> chi^-_1 nu_tau)
     2.33518375E-03    2    -1000037        16   # BR(~tau^-_1 -> chi^-_2 nu_tau)
DECAY   2000015     2.02964473E+02   # ~tau^-_2
#    BR                NDA      ID1      ID2
     1.46059210E-01    2     1000022        15   # BR(~tau^-_2 -> chi^0_1 tau^-)
     1.49884322E-01    2     1000023        15   # BR(~tau^-_2 -> chi^0_2 tau^-)
     2.23064757E-01    2     1000025        15   # BR(~tau^-_2 -> chi^0_3 tau^-)
     5.39983922E-02    2     1000035        15   # BR(~tau^-_2 -> chi^0_4 tau^-)
     5.91544781E-04    2    -1000024        16   # BR(~tau^-_2 -> chi^-_1 nu_tau)
     4.26401773E-01    2    -1000037        16   # BR(~tau^-_2 -> chi^-_2 nu_tau)
#    BR                NDA      ID1      ID2       ID3
DECAY   1000012     1.42963288E+02   # ~nu_e
#    BR                NDA      ID1      ID2
     5.88172228E-03    2     1000022        12   # BR(~nu_e -> chi^0_1 nu_e)
     1.30229370E-03    2     1000023        12   # BR(~nu_e -> chi^0_2 nu_e)
     2.81990796E-01    2     1000025        12   # BR(~nu_e -> chi^0_3 nu_e)
     1.01868598E-01    2     1000035        12   # BR(~nu_e -> chi^0_4 nu_e)
     1.63476492E-02    2     1000024        11   # BR(~nu_e -> chi^+_1 e^-)
     5.92608940E-01    2     1000037        11   # BR(~nu_e -> chi^+_2 e^-)
#    BR                NDA      ID1      ID2       ID3
DECAY   1000014     1.43177090E+02   # ~nu_mu
#    BR                NDA      ID1      ID2
     5.87294070E-03    2     1000022        14   # BR(~nu_mu -> chi^0_1 nu_mu)
     1.30034934E-03    2     1000023        14   # BR(~nu_mu -> chi^0_2 nu_mu)
     2.81569778E-01    2     1000025        14   # BR(~nu_mu -> chi^0_3 nu_mu)
     1.01716506E-01    2     1000035        14   # BR(~nu_mu -> chi^0_4 nu_mu)
     1.78106356E-02    2     1000024        13   # BR(~nu_mu -> chi^+_1 mu^-)
     5.91729791E-01    2     1000037        13   # BR(~nu_mu -> chi^+_2 mu^-)
#    BR                NDA      ID1      ID2       ID3
DECAY   1000016     2.03447343E+02   # ~nu_tau
#    BR                NDA      ID1      ID2
     4.13345521E-03    2     1000022        16   # BR(~nu_tau -> chi^0_1 nu_tau)
     9.15203498E-04    2     1000023        16   # BR(~nu_tau -> chi^0_2 nu_tau)
     1.98172999E-01    2     1000025        16   # BR(~nu_tau -> chi^0_3 nu_tau)
     7.15896254E-02    2     1000035        16   # BR(~nu_tau -> chi^0_4 nu_tau)
     3.07603736E-01    2     1000024        15   # BR(~nu_tau -> chi^+_1 tau^-)
     4.17584981E-01    2     1000037        15   # BR(~nu_tau -> chi^+_2 tau^-)
#    BR                NDA      ID1      ID2       ID3
DECAY   2000001     4.89428524E+02   # ~d_R
#    BR                NDA      ID1      ID2
     1.12475608E-02    2     1000035         1   # BR(~d_R -> chi^0_4 d)
     9.88679708E-01    2     1000021         1   # BR(~d_R -> ~g d)
DECAY   1000001     6.19534466E+02   # ~d_L
#    BR                NDA      ID1      ID2
     1.02779613E-03    2     1000022         1   # BR(~d_L -> chi^0_1 d)
     2.22901518E-04    2     1000023         1   # BR(~d_L -> chi^0_2 d)
     6.83226348E-02    2     1000025         1   # BR(~d_L -> chi^0_3 d)
     3.55655846E-03    2     1000035         1   # BR(~d_L -> chi^0_4 d)
     5.47248951E-04    2    -1000024         2   # BR(~d_L -> chi^-_1 u)
     1.41213626E-01    2    -1000037         2   # BR(~d_L -> chi^-_2 u)
     7.85109234E-01    2     1000021         1   # BR(~d_L -> ~g d)
DECAY   2000003     4.89547593E+02   # ~s_R
#    BR                NDA      ID1      ID2
     1.12448787E-02    2     1000035         3   # BR(~s_R -> chi^0_4 s)
     1.21394751E-04    2    -1000024         4   # BR(~s_R -> chi^-_1 c)
     9.88439426E-01    2     1000021         3   # BR(~s_R -> ~g s)
DECAY   1000003     6.19597811E+02   # ~s_L
#    BR                NDA      ID1      ID2
     1.07629500E-03    2     1000022         3   # BR(~s_L -> chi^0_1 s)
     2.70311870E-04    2     1000023         3   # BR(~s_L -> chi^0_2 s)
     6.83158228E-02    2     1000025         3   # BR(~s_L -> chi^0_3 s)
     3.55623663E-03    2     1000035         3   # BR(~s_L -> chi^0_4 s)
     5.52914234E-04    2    -1000024         4   # BR(~s_L -> chi^-_1 c)
     1.41199353E-01    2    -1000037         4   # BR(~s_L -> chi^-_2 c)
     7.85029067E-01    2     1000021         3   # BR(~s_L -> ~g s)
DECAY   1000005     1.46914597E+02   # ~b_1
#    BR                NDA      ID1      ID2
     2.52195636E-01    2     1000022         5   # BR(~b_1 -> chi^0_1 b)
     2.40318321E-01    2     1000023         5   # BR(~b_1 -> chi^0_2 b)
     1.54157976E-02    2     1000035         5   # BR(~b_1 -> chi^0_4 b)
     4.91835625E-01    2    -1000024         6   # BR(~b_1 -> chi^-_1 t)
     1.01806639E-04    2    -1000037         6   # BR(~b_1 -> chi^-_2 t)
DECAY   2000005     2.24595653E+02   # ~b_2
#    BR                NDA      ID1      ID2
     1.62662438E-01    2     1000022         5   # BR(~b_2 -> chi^0_1 b)
     1.61404196E-01    2     1000023         5   # BR(~b_2 -> chi^0_2 b)
     8.17477223E-02    2     1000025         5   # BR(~b_2 -> chi^0_3 b)
     4.61777539E-03    2     1000035         5   # BR(~b_2 -> chi^0_4 b)
     3.96457761E-01    2    -1000024         6   # BR(~b_2 -> chi^-_1 t)
     1.78784527E-01    2    -1000037         6   # BR(~b_2 -> chi^-_2 t)
     1.43255810E-02    2     1000006       -24   # BR(~b_2 -> ~t_1 W^-)
DECAY   2000002     5.06320076E+02   # ~u_R
#    BR                NDA      ID1      ID2
     1.19517918E-04    2     1000022         2   # BR(~u_R -> chi^0_1 u)
     1.28963275E-04    2     1000025         2   # BR(~u_R -> chi^0_3 u)
     4.35008719E-02    2     1000035         2   # BR(~u_R -> chi^0_4 u)
     9.56220447E-01    2     1000021         2   # BR(~u_R -> ~g u)
DECAY   1000002     6.19516602E+02   # ~u_L
#    BR                NDA      ID1      ID2
     7.34955480E-04    2     1000022         2   # BR(~u_L -> chi^0_1 u)
     1.54721739E-04    2     1000023         2   # BR(~u_L -> chi^0_2 u)
     7.10349371E-02    2     1000025         2   # BR(~u_L -> chi^0_3 u)
     1.20718481E-03    2     1000035         2   # BR(~u_L -> chi^0_4 u)
     3.80608445E-03    2     1000024         1   # BR(~u_L -> chi^+_1 d)
     1.37990071E-01    2     1000037         1   # BR(~u_L -> chi^+_2 d)
     7.85072045E-01    2     1000021         2   # BR(~u_L -> ~g u)
DECAY   2000004     5.06327331E+02   # ~c_R
#    BR                NDA      ID1      ID2
     1.22963081E-04    2     1000022         4   # BR(~c_R -> chi^0_1 c)
     1.29048958E-04    2     1000025         4   # BR(~c_R -> chi^0_3 c)
     4.35002721E-02    2     1000035         4   # BR(~c_R -> chi^0_4 c)
     9.56206725E-01    2     1000021         4   # BR(~c_R -> ~g c)
DECAY   1000004     6.19579911E+02   # ~c_L
#    BR                NDA      ID1      ID2
     7.37703797E-04    2     1000022         4   # BR(~c_L -> chi^0_1 c)
     1.57667866E-04    2     1000023         4   # BR(~c_L -> chi^0_2 c)
     7.10277486E-02    2     1000025         4   # BR(~c_L -> chi^0_3 c)
     1.20708308E-03    2     1000035         4   # BR(~c_L -> chi^0_4 c)
     3.90158009E-03    2     1000024         3   # BR(~c_L -> chi^+_1 s)
     1.37976341E-01    2     1000037         3   # BR(~c_L -> chi^+_2 s)
     7.84991875E-01    2     1000021         4   # BR(~c_L -> ~g c)
DECAY   1000006     1.91223996E+02   # ~t_1
#    BR                NDA      ID1      ID2
     2.35707631E-01    2     1000022         6   # BR(~t_1 -> chi^0_1 t)
     2.39274595E-01    2     1000023         6   # BR(~t_1 -> chi^0_2 t)
     2.88530929E-03    2     1000025         6   # BR(~t_1 -> chi^0_3 t)
     3.73827422E-02    2     1000035         6   # BR(~t_1 -> chi^0_4 t)
     4.71577400E-01    2     1000024         5   # BR(~t_1 -> chi^+_1 b)
     2.69211744E-03    2     1000037         5   # BR(~t_1 -> chi^+_2 b)
#    BR                NDA      ID1      ID2       ID3
     1.04068082E-02    3     1000022        24         5   # BR(~t_1 -> chi^0_1 W^+ b)
DECAY   2000006     2.23242861E+02   # ~t_2
#    BR                NDA      ID1      ID2
     1.87071578E-01    2     1000022         6   # BR(~t_2 -> chi^0_1 t)
     2.02287229E-01    2     1000023         6   # BR(~t_2 -> chi^0_2 t)
     9.13418344E-02    2     1000025         6   # BR(~t_2 -> chi^0_3 t)
     1.21468278E-02    2     1000035         6   # BR(~t_2 -> chi^0_4 t)
     3.12161890E-01    2     1000024         5   # BR(~t_2 -> chi^+_1 b)
     1.74250378E-01    2     1000037         5   # BR(~t_2 -> chi^+_2 b)
     9.55110782E-03    2     1000006        23   # BR(~t_2 -> ~t_1 Z)
     1.11891554E-02    2     1000006        25   # BR(~t_2 -> ~t_1 h^0)
DECAY   1000024     7.82086744E-09   # chi^+_1
#    BR                NDA      ID1      ID2       ID3
     3.95176162E-01    3     1000022        -1         2   # BR(chi^+_1 -> chi^0_1 d_bar u)
     2.76170441E-01    3     1000022        -3         4   # BR(chi^+_1 -> chi^0_1 s_bar c)
     1.31725929E-01    3     1000022       -11        12   # BR(chi^+_1 -> chi^0_1 e^+ nu_e)
     1.31388160E-01    3     1000022       -13        14   # BR(chi^+_1 -> chi^0_1 mu^+ nu_mu)
     6.55393094E-02    3     1000022       -15        16   # BR(chi^+_1 -> chi^0_1 tau^+ nu_tau)
DECAY   1000037     6.53037739E+00   # chi^+_2
#    BR                NDA      ID1      ID2
     2.55613446E-01    2     1000022        24   # BR(chi^+_2 -> chi^0_1 W^+)
     2.52924095E-01    2     1000023        24   # BR(chi^+_2 -> chi^0_2 W^+)
     2.49462096E-01    2     1000024        23   # BR(chi^+_2 -> chi^+_1 Z)
     2.36552817E-01    2     1000024        25   # BR(chi^+_2 -> chi^+_1 h^0)
#    BR                NDA      ID1      ID2       ID3
     8.57629867E-04    3     1000024         6        -6   # BR(chi^+_2 -> chi^+_1 t t_bar)
     2.44895628E-03    3     1000022        -5         6   # BR(chi^+_2 -> chi^0_1 b_bar t)
     2.14017668E-03    3     1000023        -5         6   # BR(chi^+_2 -> chi^0_2 b_bar t)
DECAY   1000022     0.00000000E+00   # chi^0_1
DECAY   1000023     8.79617460E-07   # chi^0_2
#    BR                NDA      ID1      ID2
     2.88686987E-01    2     1000022        22   # BR(chi^0_2 -> chi^0_1 photon)
#    BR                NDA      ID1      ID2       ID3
     9.33766897E-02    3     1000022         2        -2   # BR(chi^0_2 -> chi^0_1 u u_bar)
     7.96057591E-02    3     1000022         4        -4   # BR(chi^0_2 -> chi^0_1 c c_bar)
     1.19727426E-01    3     1000022         1        -1   # BR(chi^0_2 -> chi^0_1 d d_bar)
     1.19634528E-01    3     1000022         3        -3   # BR(chi^0_2 -> chi^0_1 s s_bar)
     1.92539411E-02    3     1000022         5        -5   # BR(chi^0_2 -> chi^0_1 b b_bar)
     2.70190889E-02    3     1000022        11       -11   # BR(chi^0_2 -> chi^0_1 e^- e^+)
     2.69860654E-02    3     1000022        13       -13   # BR(chi^0_2 -> chi^0_1 mu^- mu^+)
     1.91518038E-02    3     1000022        15       -15   # BR(chi^0_2 -> chi^0_1 tau^- tau^+)
     1.60110274E-01    3     1000022        12       -12   # BR(chi^0_2 -> chi^0_1 nu_e nu_bar_e)
     8.41250951E-03    3     1000024         1        -2   # BR(chi^0_2 -> chi^+_1 d u_bar)
     8.41250951E-03    3    -1000024        -1         2   # BR(chi^0_2 -> chi^-_1 d_bar u)
     7.15520840E-03    3     1000024         3        -4   # BR(chi^0_2 -> chi^+_1 s c_bar)
     7.15520840E-03    3    -1000024        -3         4   # BR(chi^0_2 -> chi^-_1 s_bar c)
     2.80417062E-03    3     1000024        11       -12   # BR(chi^0_2 -> chi^+_1 e^- nu_bar_e)
     2.80417062E-03    3    -1000024       -11        12   # BR(chi^0_2 -> chi^-_1 e^+ nu_e)
     2.80093865E-03    3     1000024        13       -14   # BR(chi^0_2 -> chi^+_1 mu^- nu_bar_mu)
     2.80093865E-03    3    -1000024       -13        14   # BR(chi^0_2 -> chi^-_1 mu^+ nu_mu)
     2.05089185E-03    3     1000024        15       -16   # BR(chi^0_2 -> chi^+_1 tau^- nu_bar_tau)
     2.05089185E-03    3    -1000024       -15        16   # BR(chi^0_2 -> chi^-_1 tau^+ nu_tau)
DECAY   1000025     7.84951800E+00   # chi^0_3
#    BR                NDA      ID1      ID2
     2.36821120E-01    2     1000024       -24   # BR(chi^0_3 -> chi^+_1 W^-)
     2.36821120E-01    2    -1000024        24   # BR(chi^0_3 -> chi^-_1 W^+)
     3.35117219E-02    2     1000022        23   # BR(chi^0_3 -> chi^0_1 Z)
     1.71087370E-01    2     1000023        23   # BR(chi^0_3 -> chi^0_2 Z)
     1.45845456E-01    2     1000022        25   # BR(chi^0_3 -> chi^0_1 h^0)
     1.70187695E-01    2     1000023        25   # BR(chi^0_3 -> chi^0_2 h^0)
#    BR                NDA      ID1      ID2       ID3
     2.08485900E-04    3     1000022         6        -6   # BR(chi^0_3 -> chi^0_1 t t_bar)
     2.06210914E-04    3     1000023         6        -6   # BR(chi^0_3 -> chi^0_2 t t_bar)
     2.62982994E-03    3     1000024         5        -6   # BR(chi^0_3 -> chi^+_1 b t_bar)
     2.62982994E-03    3    -1000024        -5         6   # BR(chi^0_3 -> chi^-_1 b_bar t)
DECAY   1000035     2.62415932E+00   # chi^0_4
#    BR                NDA      ID1      ID2
     1.73279652E-01    2     1000024       -24   # BR(chi^0_4 -> chi^+_1 W^-)
     1.73279652E-01    2    -1000024        24   # BR(chi^0_4 -> chi^-_1 W^+)
     4.56321587E-03    2     1000037       -24   # BR(chi^0_4 -> chi^+_2 W^-)
     4.56321587E-03    2    -1000037        24   # BR(chi^0_4 -> chi^-_2 W^+)
     4.88908262E-02    2     1000022        23   # BR(chi^0_4 -> chi^0_1 Z)
     2.13954051E-01    2     1000023        23   # BR(chi^0_4 -> chi^0_2 Z)
     1.73347870E-01    2     1000022        25   # BR(chi^0_4 -> chi^0_1 h^0)
     2.02167951E-01    2     1000023        25   # BR(chi^0_4 -> chi^0_2 h^0)
#    BR                NDA      ID1      ID2       ID3
     5.98744744E-04    3     1000022         6        -6   # BR(chi^0_4 -> chi^0_1 t t_bar)
     6.31251790E-04    3     1000023         6        -6   # BR(chi^0_4 -> chi^0_2 t t_bar)
     2.35628293E-03    3     1000024         5        -6   # BR(chi^0_4 -> chi^+_1 b t_bar)
     2.35628293E-03    3    -1000024        -5         6   # BR(chi^0_4 -> chi^-_1 b_bar t)
DECAY   1000021     6.90066909E+00   # ~g
#    BR                NDA      ID1      ID2
     1.30818318E-02    2     1000006        -4   # BR(~g -> ~t_1 c_bar)
     1.30818318E-02    2    -1000006         4   # BR(~g -> ~t^*_1 c)
     2.58641413E-01    2     1000006        -6   # BR(~g -> ~t_1 t_bar)
     2.58641413E-01    2    -1000006         6   # BR(~g -> ~t^*_1 t)
     8.04723073E-02    2     1000005        -5   # BR(~g -> ~b_1 b_bar)
     8.04723073E-02    2    -1000005         5   # BR(~g -> ~b^*_1 b)
     5.22454867E-02    2     2000005        -5   # BR(~g -> ~b_2 b_bar)
     5.22454867E-02    2    -2000005         5   # BR(~g -> ~b^*_2 b)
     1.19514596E-03    2     1000022        21   # BR(~g -> chi^0_1 g)
     1.02882096E-03    2     1000023        21   # BR(~g -> chi^0_2 g)
#    BR                NDA      ID1      ID2       ID3
     3.66118278E-02    3     1000022         6        -6   # BR(~g -> chi^0_1 t t_bar)
     3.97012857E-02    3     1000023         6        -6   # BR(~g -> chi^0_2 t t_bar)
     1.40248048E-04    3     1000025         2        -2   # BR(~g -> chi^0_3 u u_bar)
     1.40248350E-04    3     1000025         4        -4   # BR(~g -> chi^0_3 c c_bar)
     1.81991515E-02    3     1000025         6        -6   # BR(~g -> chi^0_3 t t_bar)
     1.34720979E-04    3     1000025         1        -1   # BR(~g -> chi^0_3 d d_bar)
     1.34721741E-04    3     1000025         3        -3   # BR(~g -> chi^0_3 s s_bar)
     2.16275030E-03    3     1000035         6        -6   # BR(~g -> chi^0_4 t t_bar)
     2.95586803E-02    3     1000024         5        -6   # BR(~g -> chi^+_1 b t_bar)
     2.95586803E-02    3    -1000024        -5         6   # BR(~g -> chi^-_1 b_bar t)
     1.64519567E-04    3     1000037         1        -2   # BR(~g -> chi^+_2 d u_bar)
     1.64519567E-04    3    -1000037        -1         2   # BR(~g -> chi^-_2 d_bar u)
     1.64520751E-04    3     1000037         3        -4   # BR(~g -> chi^+_2 s c_bar)
     1.64520751E-04    3    -1000037        -3         4   # BR(~g -> chi^-_2 s_bar c)
     1.58174168E-02    3     1000037         5        -6   # BR(~g -> chi^+_2 b t_bar)
     1.58174168E-02    3    -1000037        -5         6   # BR(~g -> chi^-_2 b_bar t)
DECAY        25     3.78840760E-03   # Gamma(h0)
     2.51025320E-03   2        22        22   # BR(h0 -> photon photon)
     1.72651965E-03   2        22        23   # BR(h0 -> photon Z)
     3.34889429E-02   2        23        23   # BR(h0 -> Z Z)
     2.69425375E-01   2       -24        24   # BR(h0 -> W W)
     7.67132242E-02   2        21        21   # BR(h0 -> gluon gluon)
     4.75931322E-09   2       -11        11   # BR(h0 -> Electron electron)
     2.11703463E-04   2       -13        13   # BR(h0 -> Muon muon)
     6.10434085E-02   2       -15        15   # BR(h0 -> Tau tau)
     1.35239154E-07   2        -2         2   # BR(h0 -> Up up)
     2.62471605E-02   2        -4         4   # BR(h0 -> Charm charm)
     5.49814976E-07   2        -1         1   # BR(h0 -> Down down)
     1.98855078E-04   2        -3         3   # BR(h0 -> Strange strange)
     5.28433868E-01   2        -5         5   # BR(h0 -> Bottom bottom)
DECAY        35     1.91248700E+02   # Gamma(HH)
     2.15215493E-08   2        22        22   # BR(HH -> photon photon)
     4.24931686E-08   2        22        23   # BR(HH -> photon Z)
     2.05983500E-08   2        23        23   # BR(HH -> Z Z)
     3.69925527E-09   2       -24        24   # BR(HH -> W W)
     4.06161034E-06   2        21        21   # BR(HH -> gluon gluon)
     9.83866734E-09   2       -11        11   # BR(HH -> Electron electron)
     4.38122127E-04   2       -13        13   # BR(HH -> Muon muon)
     1.26543609E-01   2       -15        15   # BR(HH -> Tau tau)
     1.77139182E-14   2        -2         2   # BR(HH -> Up up)
     3.43665219E-09   2        -4         4   # BR(HH -> Charm charm)
     2.39449679E-04   2        -6         6   # BR(HH -> Top top)
     6.73948526E-07   2        -1         1   # BR(HH -> Down down)
     2.43757821E-04   2        -3         3   # BR(HH -> Strange strange)
     5.67966117E-01   2        -5         5   # BR(HH -> Bottom bottom)
     6.12288876E-03   2  -1000024   1000024   # BR(HH -> Chargino1 chargino1)
     8.94007072E-02   2  -1000024   1000037   # BR(HH -> Chargino1 chargino2)
     8.94007072E-02   2  -1000037   1000024   # BR(HH -> Chargino2 chargino1)
     8.44388607E-04   2  -1000037   1000037   # BR(HH -> Chargino2 chargino2)
     2.18771453E-03   2   1000022   1000022   # BR(HH -> neutralino1 neutralino1)
     2.61093990E-04   2   1000022   1000023   # BR(HH -> neutralino1 neutralino2)
     4.38715964E-02   2   1000022   1000025   # BR(HH -> neutralino1 neutralino3)
     1.45241407E-02   2   1000022   1000035   # BR(HH -> neutralino1 neutralino4)
     4.30259205E-04   2   1000023   1000023   # BR(HH -> neutralino2 neutralino2)
     4.27893237E-02   2   1000023   1000025   # BR(HH -> neutralino2 neutralino3)
     1.41470942E-02   2   1000023   1000035   # BR(HH -> neutralino2 neutralino4)
     3.88492596E-04   2   1000025   1000025   # BR(HH -> neutralino3 neutralino3)
     1.76888348E-04   2   1000025   1000035   # BR(HH -> neutralino3 neutralino4)
     1.85508120E-05   2   1000035   1000035   # BR(HH -> neutralino4 neutralino4)
     2.60973983E-07   2        25        25   # BR(HH -> h0 h0)
DECAY        36     1.79272351E+02   # Gamma(A0)
     2.60452515E-10   2        22        22   # BR(A0 -> photon photon)
     8.88684251E-09   2        22        23   # BR(A0 -> photon Z)
     6.64831315E-06   2        21        21   # BR(A0 -> gluon gluon)
     9.54889875E-09   2       -11        11   # BR(A0 -> Electron electron)
     4.25220360E-04   2       -13        13   # BR(A0 -> Muon muon)
     1.22817261E-01   2       -15        15   # BR(A0 -> Tau tau)
     1.60694852E-14   2        -2         2   # BR(A0 -> Up up)
     3.11754202E-09   2        -4         4   # BR(A0 -> Charm charm)
     2.17872011E-04   2        -6         6   # BR(A0 -> Top top)
     6.54063855E-07   2        -1         1   # BR(A0 -> Down down)
     2.36562205E-04   2        -3         3   # BR(A0 -> Strange strange)
     5.51190913E-01   2        -5         5   # BR(A0 -> Bottom bottom)
     6.46480723E-03   2  -1000024   1000024   # BR(A0 -> Chargino1 chargino1)
     9.54991964E-02   2  -1000024   1000037   # BR(A0 -> Chargino1 chargino2)
     9.54991964E-02   2  -1000037   1000024   # BR(A0 -> Chargino2 chargino1)
     8.34036536E-04   2  -1000037   1000037   # BR(A0 -> Chargino2 chargino2)
     2.21110457E-03   2   1000022   1000022   # BR(A0 -> neutralino1 neutralino1)
     3.36263181E-04   2   1000022   1000023   # BR(A0 -> neutralino1 neutralino2)
     4.56052453E-02   2   1000022   1000025   # BR(A0 -> neutralino1 neutralino3)
     1.52290274E-02   2   1000022   1000035   # BR(A0 -> neutralino1 neutralino4)
     5.03774202E-04   2   1000023   1000023   # BR(A0 -> neutralino2 neutralino2)
     4.69542186E-02   2   1000023   1000025   # BR(A0 -> neutralino2 neutralino3)
     1.53880946E-02   2   1000023   1000035   # BR(A0 -> neutralino2 neutralino4)
     3.84680016E-04   2   1000025   1000025   # BR(A0 -> neutralino3 neutralino3)
     1.76540216E-04   2   1000025   1000035   # BR(A0 -> neutralino3 neutralino4)
     1.86070930E-05   2   1000035   1000035   # BR(A0 -> neutralino4 neutralino4)
     5.50349099E-08   2        23        25   # BR(A0 -> Z h0)
     5.21046988E-13   2        23        35   # BR(A0 -> Z HH)
     3.20855063E-37   2        25        25   # BR(A0 -> h0 h0)
DECAY        37     2.11120682E+02   # Gamma(Hp)
     1.07651657E-08   2       -11        12   # BR(Hp -> Electron nu_e)
     4.60244458E-04   2       -13        14   # BR(Hp -> Muon nu_mu)
     1.30183357E-01   2       -15        16   # BR(Hp -> Tau nu_tau)
     6.38773732E-07   2        -1         2   # BR(Hp -> Down up)
     1.08330505E-05   2        -3         2   # BR(Hp -> Strange up)
     6.27838927E-06   2        -5         2   # BR(Hp -> Bottom up)
     3.01390269E-08   2        -1         4   # BR(Hp -> Down charm)
     2.30195085E-04   2        -3         4   # BR(Hp -> Strange charm)
     8.79199314E-04   2        -5         4   # BR(Hp -> Bottom charm)
     1.82129575E-08   2        -1         6   # BR(Hp -> Down top)
     7.40886123E-07   2        -3         6   # BR(Hp -> Strange top)
     5.92506081E-01   2        -5         6   # BR(Hp -> Bottom top)
     5.70517386E-05   2   1000022   1000024   # BR(Hp -> neutralino1 chargino1)
     8.56723984E-02   2   1000022   1000037   # BR(Hp -> neutralino1 chargino2)
     1.05423672E-03   2   1000023   1000024   # BR(Hp -> neutralino2 chargino1)
     8.17734256E-02   2   1000023   1000037   # BR(Hp -> neutralino2 chargino2)
     8.62233600E-02   2   1000024   1000025   # BR(Hp -> chargino1 neutralino3)
     6.05109210E-07   2   1000025   1000037   # BR(Hp -> neutralino3 chargino2)
     2.06541222E-02   2   1000024   1000035   # BR(Hp -> chargino1 neutralino4)
     2.87126615E-04   2   1000035   1000037   # BR(Hp -> neutralino4 chargino2)
     4.66619886E-08   2        24        25   # BR(Hp -> W h0)
DECAY         6     2.43000000E+00   # top
#    BR                NDA      ID1      ID2
     1.00000000E+00    2           5        24   # BR(t -> b W)
Block HiggsBoundsInputHiggsCouplingsFermions
# ScalarNormEffCoupSq PseudoSNormEffCoupSq NP IP1 IP2 IP2
    9.79781613E-01    0.00000000E+00        3  25   5   5  # h0-b-b eff. coupling^2, normalised to SM
    2.90682510E+03    0.00000000E+00        3  35   5   5  # H0-b-b eff. coupling^2, normalised to SM
    0.00000000E+00    2.90680488E+03        3  36   5   5  # A0-b-b eff. coupling^2, normalised to SM
#
    1.00000696E+00    0.00000000E+00        3  25   6   6  # h0-t-t eff. coupling^2, normalised to SM
    3.37064802E-04    0.00000000E+00        3  35   6   6  # H0-t-t eff. coupling^2, normalised to SM
    0.00000000E+00    3.44020339E-04        3  36   6   6  # A0-t-t eff. coupling^2, normalised to SM
#
    9.79781613E-01    0.00000000E+00        3  25  15  15  # h0-tau-tau eff. coupling^2, normalised to SM
    2.90682510E+03    0.00000000E+00        3  35  15  15  # H0-tau-tau eff. coupling^2, normalised to SM
    0.00000000E+00    2.90680488E+03        3  36  15  15  # A0-tau-tau eff. coupling^2, normalised to SM
#
Block HiggsBoundsInputHiggsCouplingsBosons
    9.99999964E-01        3  25  24  24  # h0-W-W eff. coupling^2, normalised to SM
    3.55172750E-08        3  35  24  24  # H0-W-W eff. coupling^2, normalised to SM
    0.00000000E+00        3  36  24  24  # A0-W-W eff. coupling^2, normalised to SM
#
    9.99999964E-01        3  25  23  23  # h0-Z-Z eff. coupling^2, normalised to SM
    3.55172750E-08        3  35  23  23  # H0-Z-Z eff. coupling^2, normalised to SM
    0.00000000E+00        3  36  23  23  # A0-Z-Z eff. coupling^2, normalised to SM
#
    1.26773066E+00        3  25  21  21  # h0-g-g eff. coupling^2, normalised to SM
    1.22112117E-02        3  35  21  21  # H0-g-g eff. coupling^2, normalised to SM
    1.39039826E-01        3  36  21  21  # A0-g-g eff. coupling^2, normalised to SM
#
    0.00000000E+00        3  25  25  23  # h0-h0-Z eff. coupling^2, normalised to SM
    0.00000000E+00        3  35  25  23  # H0-h0-Z eff. coupling^2, normalised to SM
    3.55172750E-08        3  36  25  23  # A0-h0-Z eff. coupling^2, normalised to SM
    0.00000000E+00        3  35  35  23  # H0-H0-Z eff. coupling^2, normalised to SM
    9.99999964E-01        3  36  35  23  # A0-H0-Z eff. coupling^2, normalised to SM
    0.00000000E+00        3  36  36  23  # A0-A0-Z eff. coupling^2, normalised to SM
#
    0.00000000E+00        4  25  21  21  23  # h0-g-g-Z eff. coupling^2, normalised to SM
    0.00000000E+00        4  35  21  21  23  # H0-g-g-Z eff. coupling^2, normalised to SM
    0.00000000E+00        4  36  21  21  23  # A0-g-g-Z eff. coupling^2, normalised to SM
Block SPhenoLowEnergy  # low energy observables
    1    3.28328750E-04   # BR(b -> s gamma)
    2    1.58933858E-06   # BR(b -> s mu+ mu-)
    3    3.52518678E-05   # BR(b -> s nu nu)
    4    2.49123918E-15   # BR(Bd -> e+ e-)
    5    1.06423411E-10   # BR(Bd -> mu+ mu-)
    6    2.23074772E-08   # BR(Bd -> tau+ tau-)
    7    8.32609727E-14   # BR(Bs -> e+ e-)
    8    3.55692430E-09   # BR(Bs -> mu+ mu-)
    9    7.55512547E-07   # BR(Bs -> tau+ tau-)
   10    9.60397343E-05   # BR(B_u -> tau nu)
   11    9.92053686E-01   # BR(B_u -> tau nu)/BR(B_u -> tau nu)_SM
   12    5.41882833E-01   # |Delta(M_Bd)| [ps^-1] 
   13    1.93580065E+01   # |Delta(M_Bs)| [ps^-1] 
   14    0.00000000E+00   # neutron EDM according to the chiral quark model
   15    0.00000000E+00   # neutron EDM according to the relativistic quark-parton model
   16    2.15701636E-03   # epsilon_K
   17    2.28165595E-15   # Delta(M_K)
   18    2.47990797E-11   # BR(K^0 -> pi^0 nu nu)
   19    8.29031965E-11   # BR(K^+ -> pi^+ nu nu)
   20   -4.71011316E-16   # Delta(g-2)_electron/2
   21   -2.01375618E-11   # Delta(g-2)_muon/2
   22   -5.72357906E-09   # Delta(g-2)_tau/2
   23    0.00000000E+00   # electric dipole moment of the electron
   24    0.00000000E+00   # electric dipole moment of the muon
   25    0.00000000E+00   # electric dipole moment of the tau
   26    0.00000000E+00   # Br(mu -> e gamma)
   27    0.00000000E+00   # Br(tau -> e gamma)
   28    0.00000000E+00   # Br(tau -> mu gamma)
   29    0.00000000E+00   # Br(mu -> 3 e)
   30    0.00000000E+00   # Br(tau -> 3 e)
   31    0.00000000E+00   # Br(tau -> 3 mu)
   39    7.07102634E-05   # Delta(rho_parameter)
   40    0.00000000E+00   # BR(Z -> e mu)
   41    0.00000000E+00   # BR(Z -> e tau)
   42    0.00000000E+00   # BR(Z -> mu tau)
Block FWCOEF Q=  1.60000000E+02  # Wilson coefficients at scale Q
#    id        order  M        value         comment
     0305 4422   00   0    -1.88819110E-01   # C7
     0305 4422   00   2    -1.98087186E-01   # C7
     0305 4322   00   2    -1.19489521E-04   # C7'
     0305 6421   00   0    -9.52278348E-02   # C8
     0305 6421   00   2    -1.02460838E-01   # C8
     0305 6321   00   2    -1.14192555E-04   # C8'
 03051111 4133   00   0     1.63174086E+00   # C9 e+e-
 03051111 4133   00   2     1.63193538E+00   # C9 e+e-
 03051111 4233   00   2     6.42053298E-04   # C9' e+e-
 03051111 4137   00   0    -4.45443296E+00   # C10 e+e-
 03051111 4137   00   2    -4.45286715E+00   # C10 e+e-
 03051111 4237   00   2    -4.71779545E-03   # C10' e+e-
 03051313 4133   00   0     1.63174086E+00   # C9 mu+mu-
 03051313 4133   00   2     1.63193516E+00   # C9 mu+mu-
 03051313 4233   00   2     6.42052806E-04   # C9' mu+mu-
 03051313 4137   00   0    -4.45443296E+00   # C10 mu+mu-
 03051313 4137   00   2    -4.45286737E+00   # C10 mu+mu-
 03051313 4237   00   2    -4.71779611E-03   # C10' mu+mu-
 03051212 4137   00   0     1.50535012E+00   # C11 nu_1 nu_1
 03051212 4137   00   2     1.50501329E+00   # C11 nu_1 nu_1
 03051212 4237   00   2     1.01900753E-03   # C11' nu_1 nu_1
 03051414 4137   00   0     1.50535012E+00   # C11 nu_2 nu_2
 03051414 4137   00   2     1.50501329E+00   # C11 nu_2 nu_2
 03051414 4237   00   2     1.01900757E-03   # C11' nu_2 nu_2
 03051616 4137   00   0     1.50535012E+00   # C11 nu_3 nu_3
 03051616 4137   00   2     1.50501329E+00   # C11 nu_3 nu_3
 03051616 4237   00   2     1.01901992E-03   # C11' nu_3 nu_3
Block IMFWCOEF Q=  1.60000000E+02  # Im(Wilson coefficients) at scale Q
#    id        order  M        value         comment
     0305 4422   00   0     3.85803112E-07   # C7
     0305 4422   00   2    -5.86513473E-06   # C7
     0305 4322   00   2    -9.62521729E-07   # C7'
     0305 6421   00   0     3.30465880E-07   # C8
     0305 6421   00   2    -8.30300228E-06   # C8
     0305 6321   00   2    -4.87317706E-07   # C8'
 03051111 4133   00   2     4.11185865E-07   # C9 e+e-
 03051111 4233   00   2     1.21185137E-05   # C9' e+e-
 03051111 4137   00   2    -1.88750290E-07   # C10 e+e-
 03051111 4237   00   2    -8.90486338E-05   # C10' e+e-
 03051313 4133   00   2     4.11179617E-07   # C9 mu+mu-
 03051313 4233   00   2     1.21185086E-05   # C9' mu+mu-
 03051313 4137   00   2    -1.88743936E-07   # C10 mu+mu-
 03051313 4237   00   2    -8.90486491E-05   # C10' mu+mu-
 03051212 4137   00   2     6.52487754E-08   # C11 nu_1 nu_1
 03051212 4237   00   2     1.92338204E-05   # C11' nu_1 nu_1
 03051414 4137   00   2     6.52490681E-08   # C11 nu_2 nu_2
 03051414 4237   00   2     1.92338204E-05   # C11' nu_2 nu_2
 03051616 4137   00   2     6.53304846E-08   # C11 nu_3 nu_3
 03051616 4237   00   2     1.92338203E-05   # C11' nu_3 nu_3
