# SUSY Les Houches Accord 2 - MSSM spectrum + Decays
# SPheno v4.0.5be
# W. Porod, Comput. Phys. Commun. 153 (2003) 275-315, hep-ph/0301101;
# W. Porod, F.~Staub, Comput. Phys. Commun. 183 (2012) 2458
#                     arXiv:1104.1573 [hep-ph] 
# in case of problems send email to porod@physik.uni-wuerzburg.de
# Created: 12.05.2022,  16:14
Block SPINFO         # Program information
     1   SPheno      # spectrum calculator
     2   v4.0.5be    # version number
#
Block SPhenoINFO     # SPheno specific information
    1      2         # using 2-loop RGEs
    2      2         # using pole masses for boundary conditions at mZ
Block MODSEL  # Model selection
    1    0    # general MSSM
Block MINPAR  # Input parameters
    3    5.52160321E+01  # tanb at m_Z    
    4    1.00000000E+00  # Sign(mu)
Block EXTPAR  # non-universal input parameters
    0    1.89570432E+03  # scale for input parameters
    1   -1.66015264E+03  # M_1
    2   -7.96918803E+02  # M_2
    3    4.94135417E+03  # M_3
   11   -4.95626121E+03  # A_t
   12   -1.41475355E+03  # A_b
   13   -1.88041939E+03  # A_tau
   23    1.66297348E+02  # mu
   25    5.50834966E+01  # tan(beta)
   26    3.39370154E+03  # m_A, pole mass
   31    1.00000000E+04  # M_L11
   32    1.00000000E+04  # M_L22
   33    1.00000000E+04  # M_L33
   34    1.00000000E+04  # M_E11
   35    1.00000000E+04  # M_E22
   36    1.00000000E+04  # M_E33
   41    1.00000000E+04  # M_Q11
   42    1.00000000E+04  # M_Q22
   43    2.01816448E+03  # M_Q33
   44    1.00000000E+04  # M_U11
   45    1.00000000E+04  # M_U22
   46    2.15401735E+03  # M_U33
   47    1.00000000E+04  # M_D11
   48    1.00000000E+04  # M_D22
   49    3.74516867E+03  # M_D33
Block SMINPUTS  # SM parameters
         1     1.27908970E+02  # alpha_em^-1(MZ)^MSbar
         2     1.16637870E-05  # G_mu [GeV^-2]
         3     1.18400000E-01  # alpha_s(MZ)^MSbar
         4     9.11876000E+01  # m_Z(pole)
         5     4.18000000E+00  # m_b(m_b), MSbar
         6     1.73200000E+02  # m_t(pole)
         7     1.77700000E+00  # m_tau(pole)
         8     0.00000000E+00  # m_nu_3
        11     5.10998930E-04  # m_e(pole)
        12     0.00000000E+00  # m_nu_1
        13     1.05658372E-01  # m_muon(pole)
        14     0.00000000E+00  # m_nu_2
        21     5.00000000E-03  # m_d(2 GeV), MSbar
        22     2.50000000E-03  # m_u(2 GeV), MSbar
        23     9.50000000E-02  # m_s(2 GeV), MSbar
        24     1.27000000E+00  # m_c(m_c), MSbar
Block gauge Q=  1.89570432E+03  # (SUSY scale)
   1    3.55362975E-01  # g'(Q)^DRbar
   2    6.65198874E-01  # g(Q)^DRbar
   3    1.21977796E+00  # g3(Q)^DRbar
Block Yu Q=  1.89570432E+03  # (SUSY scale)
  1  1     8.38575367E-06   # Y_u(Q)^DRbar
  2  2     4.25996286E-03   # Y_c(Q)^DRbar
  3  3     1.01306640E+00   # Y_t(Q)^DRbar
Block Yd Q=  1.89570432E+03  # (SUSY scale)
  1  1     9.28204884E-04   # Y_d(Q)^DRbar
  2  2     1.76358928E-02   # Y_s(Q)^DRbar
  3  3     9.20488387E-01   # Y_b(Q)^DRbar
Block Ye Q=  1.89570432E+03  # (SUSY scale)
  1  1     1.61978540E-04   # Y_e(Q)^DRbar
  2  2     3.34920247E-02   # Y_mu(Q)^DRbar
  3  3     5.63280759E-01   # Y_tau(Q)^DRbar
Block Au Q=  1.89570432E+03  # (SUSY scale)
  1  1     0.00000000E+00   # A_u(Q)^DRbar
  2  2     0.00000000E+00   # A_c(Q)^DRbar
  3  3    -4.95626116E+03   # A_t(Q)^DRbar
Block Ad Q=  1.89570432E+03  # (SUSY scale)
  1  1     0.00000000E+00   # A_d(Q)^DRbar
  2  2     0.00000000E+00   # A_s(Q)^DRbar
  3  3    -1.41475357E+03   # A_b(Q)^DRbar
Block Ae Q=  1.89570432E+03  # (SUSY scale)
  1  1     0.00000000E+00   # A_e(Q)^DRbar
  2  2     0.00000000E+00   # A_mu(Q)^DRbar
  3  3    -1.88041939E+03   # A_tau(Q)^DRbar
Block MSOFT Q=  1.89570432E+03  # soft SUSY breaking masses at Q
   1   -1.66015264E+03  # M_1
   2   -7.96918803E+02  # M_2
   3    4.94135417E+03  # M_3
  21    1.07000132E+07  # M^2_(H,d)
  22    3.94173847E+04  # M^2_(H,u)
  31    1.00000000E+04  # M_(L,11)
  32    1.00000000E+04  # M_(L,22)
  33    1.00000000E+04  # M_(L,33)
  34    1.00000000E+04  # M_(E,11)
  35    1.00000000E+04  # M_(E,22)
  36    1.00000000E+04  # M_(E,33)
  41    1.00000000E+04  # M_(Q,11)
  42    1.00000000E+04  # M_(Q,22)
  43    2.01816448E+03  # M_(Q,33)
  44    1.00000000E+04  # M_(U,11)
  45    1.00000000E+04  # M_(U,22)
  46    2.15401735E+03  # M_(U,33)
  47    1.00000000E+04  # M_(D,11)
  48    1.00000000E+04  # M_(D,22)
  49    3.74516867E+03  # M_(D,33)
Block MASS  # Mass spectrum
#   PDG code      mass          particle
         6     1.73200000E+02  # m_t(pole)
        23     9.11876000E+01  # m_Z(pole)
        24     8.04299946E+01  # W+
        15     1.77700000E+00  # m_tau(pole)
        25     1.25929897E+02  # h0
        35     3.39080800E+03  # H0
        36     3.39370154E+03  # A0
        37     3.39779276E+03  # H+
   1000001     1.00365067E+04  # ~d_L
   2000001     1.00147263E+04  # ~d_R
   1000002     1.00363653E+04  # ~u_L
   2000002     1.00172906E+04  # ~u_R
   1000003     1.00365330E+04  # ~s_L
   2000003     1.00147753E+04  # ~s_R
   1000004     1.00363915E+04  # ~c_L
   2000004     1.00172935E+04  # ~c_R
   1000005     1.87109371E+03  # ~b_1
   2000005     3.73982667E+03  # ~b_2
   1000006     1.72818541E+03  # ~t_1
   2000006     2.07946142E+03  # ~t_2
   1000011     1.00206158E+04  # ~e_L-
   2000011     1.00078560E+04  # ~e_R-
   1000012     1.00198572E+04  # ~nu_eL
   1000013     1.00207328E+04  # ~mu_L-
   2000013     1.00080838E+04  # ~mu_R-
   1000014     1.00199738E+04  # ~nu_muL
   1000015     1.00543441E+04  # ~tau_1-
   2000015     1.00736394E+04  # ~tau_2-
   1000016     1.00536981E+04  # ~nu_tauL
   1000021     5.26402988E+03  # ~g
   1000022     1.68673577E+02  # ~chi_10
   1000023     1.77000279E+02  # ~chi_20
   1000025     8.68385872E+02  # ~chi_30
   1000035     1.68819541E+03  # ~chi_40
   1000024     1.72447617E+02  # ~chi_1+
   1000037     8.68298177E+02  # ~chi_2+
# Higgs mixing
Block alpha # Effective Higgs mixing angle
          -1.81458232E-02   # alpha
Block Hmix Q=  1.89570432E+03  # Higgs mixing parameters
   1    1.66297348E+02  # mu
   2    5.50834966E+01  # tan[beta](Q)
   3    2.43627607E+02  # v(Q)
   4    1.15172101E+07  # m^2_A(Q)
Block stopmix # stop mixing matrix
   1  1     7.90502119E-01   # Re[R_st(1,1)]
   1  2     6.12459305E-01   # Re[R_st(1,2)]
   2  1    -6.12459305E-01   # Re[R_st(2,1)]
   2  2     7.90502119E-01   # Re[R_st(2,2)]
Block sbotmix # sbottom mixing matrix
   1  1     9.99997580E-01   # Re[R_sb(1,1)]
   1  2     2.20010210E-03   # Re[R_sb(1,2)]
   2  1    -2.20010210E-03   # Re[R_sb(2,1)]
   2  2     9.99997580E-01   # Re[R_sb(2,2)]
Block staumix # stau mixing matrix
   1  1     9.98742359E-01   # Re[R_sta(1,1)]
   1  2     5.01368137E-02   # Re[R_sta(1,2)]
   2  1    -5.01368137E-02   # Re[R_sta(2,1)]
   2  2     9.98742359E-01   # Re[R_sta(2,2)]
Block Nmix # neutralino mixing matrix
   1  1    -1.99744289E-02   # Re[N(1,1)]
   1  2     7.96243485E-02   # Re[N(1,2)]
   1  3    -7.14849827E-01   # Re[N(1,3)]
   1  4    -6.94442733E-01   # Re[N(1,4)]
   2  1     1.73012783E-02   # Re[N(2,1)]
   2  2    -5.68876066E-02   # Re[N(2,2)]
   2  3    -6.99062041E-01   # Re[N(2,3)]
   2  4     7.12584542E-01   # Re[N(2,4)]
   3  1     5.26865466E-03   # Re[N(3,1)]
   3  2     9.95196783E-01   # Re[N(3,2)]
   3  3     1.72281608E-02   # Re[N(3,3)]
   3  4     9.62226344E-02   # Re[N(3,4)]
   4  1    -9.99636899E-01   # Re[N(4,1)]
   4  2     2.66963831E-03   # Re[N(4,2)]
   4  3     2.27564565E-03   # Re[N(4,3)]
   4  4     2.67163851E-02   # Re[N(4,4)]
Block Umix # chargino mixing matrix
   1  1    -2.45763046E-02   # Re[U(1,1)]
   1  2     9.99697957E-01   # Re[U(1,2)]
   2  1    -9.99697957E-01   # Re[U(2,1)]
   2  2    -2.45763046E-02   # Re[U(2,2)]
Block Vmix # chargino mixing matrix
   1  1     1.37013716E-01   # Re[V(1,1)]
   1  2     9.90569150E-01   # Re[V(1,2)]
   2  1     9.90569150E-01   # Re[V(2,1)]
   2  2    -1.37013716E-01   # Re[V(2,2)]
DECAY        23     2.49520000E+00   # Z
DECAY        24     2.08500000E+00   # W
DECAY   2000011     4.74667571E+01   # ~e^-_R
#    BR                NDA      ID1      ID2
     4.22489320E-04    2     1000022        11   # BR(~e^-_R -> chi^0_1 e^-)
     3.16967166E-04    2     1000023        11   # BR(~e^-_R -> chi^0_2 e^-)
     9.99231467E-01    2     1000035        11   # BR(~e^-_R -> chi^0_4 e^-)
DECAY   1000011     1.42232125E+02   # ~e^-_L
#    BR                NDA      ID1      ID2
     1.47357794E-03    2     1000022        11   # BR(~e^-_L -> chi^0_1 e^-)
     7.03514207E-04    2     1000023        11   # BR(~e^-_L -> chi^0_2 e^-)
     3.04244834E-01    2     1000025        11   # BR(~e^-_L -> chi^0_3 e^-)
     8.26538434E-02    2     1000035        11   # BR(~e^-_L -> chi^0_4 e^-)
     3.74374062E-04    2    -1000024        12   # BR(~e^-_L -> chi^-_1 nu_e)
     6.10549857E-01    2    -1000037        12   # BR(~e^-_L -> chi^-_2 nu_e)
#    BR                NDA      ID1      ID2       ID3
DECAY   2000013     4.79143622E+01   # ~mu^-_R
#    BR                NDA      ID1      ID2
     2.79906618E-03    2     1000022        13   # BR(~mu^-_R -> chi^0_1 mu^-)
     2.59040949E-03    2     1000023        13   # BR(~mu^-_R -> chi^0_2 mu^-)
     9.89922069E-01    2     1000035        13   # BR(~mu^-_R -> chi^0_4 mu^-)
     4.65562357E-03    2    -1000024        14   # BR(~mu^-_R -> chi^-_1 nu_mu)
DECAY   1000013     1.42457329E+02   # ~mu^-_L
#    BR                NDA      ID1      ID2
     2.27294471E-03    2     1000022        13   # BR(~mu^-_L -> chi^0_1 mu^-)
     1.46902681E-03    2     1000023        13   # BR(~mu^-_L -> chi^0_2 mu^-)
     3.03767981E-01    2     1000025        13   # BR(~mu^-_L -> chi^0_3 mu^-)
     8.25242631E-02    2     1000035        13   # BR(~mu^-_L -> chi^0_4 mu^-)
     3.73786600E-04    2    -1000024        14   # BR(~mu^-_L -> chi^-_1 nu_mu)
     6.09591998E-01    2    -1000037        14   # BR(~mu^-_L -> chi^-_2 nu_mu)
#    BR                NDA      ID1      ID2       ID3
DECAY   1000015     2.06080888E+02   # ~tau^-_1
#    BR                NDA      ID1      ID2
     1.59962070E-01    2     1000022        15   # BR(~tau^-_1 -> chi^0_1 tau^-)
     1.49699874E-01    2     1000023        15   # BR(~tau^-_1 -> chi^0_2 tau^-)
     2.09837565E-01    2     1000025        15   # BR(~tau^-_1 -> chi^0_3 tau^-)
     5.76701951E-02    2     1000035        15   # BR(~tau^-_1 -> chi^0_4 tau^-)
     1.92612186E-03    2    -1000024        16   # BR(~tau^-_1 -> chi^-_1 nu_tau)
     4.20904174E-01    2    -1000037        16   # BR(~tau^-_1 -> chi^-_2 nu_tau)
#    BR                NDA      ID1      ID2       ID3
DECAY   2000015     1.74988249E+02   # ~tau^-_2
#    BR                NDA      ID1      ID2
     1.83743021E-01    2     1000022        15   # BR(~tau^-_2 -> chi^0_1 tau^-)
     1.78960153E-01    2     1000023        15   # BR(~tau^-_2 -> chi^0_2 tau^-)
     1.25100844E-03    2     1000025        15   # BR(~tau^-_2 -> chi^0_3 tau^-)
     2.72557705E-01    2     1000035        15   # BR(~tau^-_2 -> chi^0_4 tau^-)
     3.60977940E-01    2    -1000024        16   # BR(~tau^-_2 -> chi^-_1 nu_tau)
     2.51017298E-03    2    -1000037        16   # BR(~tau^-_2 -> chi^-_2 nu_tau)
#    BR                NDA      ID1      ID2       ID3
DECAY   1000012     1.42237161E+02   # ~nu_e
#    BR                NDA      ID1      ID2
     2.52658443E-03    2     1000022        12   # BR(~nu_e -> chi^0_1 nu_e)
     1.35513201E-03    2     1000023        12   # BR(~nu_e -> chi^0_2 nu_e)
     3.00788235E-01    2     1000025        12   # BR(~nu_e -> chi^0_3 nu_e)
     8.43131482E-02    2     1000035        12   # BR(~nu_e -> chi^0_4 nu_e)
     1.16346616E-02    2     1000024        11   # BR(~nu_e -> chi^+_1 e^-)
     5.99382239E-01    2     1000037        11   # BR(~nu_e -> chi^+_2 e^-)
#    BR                NDA      ID1      ID2       ID3
DECAY   1000014     1.42462342E+02   # ~nu_mu
#    BR                NDA      ID1      ID2
     2.52262021E-03    2     1000022        14   # BR(~nu_mu -> chi^0_1 nu_mu)
     1.35300581E-03    2     1000023        14   # BR(~nu_mu -> chi^0_2 nu_mu)
     3.00316399E-01    2     1000025        14   # BR(~nu_mu -> chi^0_3 nu_mu)
     8.41809739E-02    2     1000035        14   # BR(~nu_mu -> chi^0_4 nu_mu)
     1.31840616E-02    2     1000024        13   # BR(~nu_mu -> chi^+_1 mu^-)
     5.98442939E-01    2     1000037        13   # BR(~nu_mu -> chi^+_2 mu^-)
#    BR                NDA      ID1      ID2       ID3
DECAY   1000016     2.06158308E+02   # ~nu_tau
#    BR                NDA      ID1      ID2
     1.74908942E-03    2     1000022        16   # BR(~nu_tau -> chi^0_1 nu_tau)
     9.38123401E-04    2     1000023        16   # BR(~nu_tau -> chi^0_2 nu_tau)
     2.08248348E-01    2     1000025        16   # BR(~nu_tau -> chi^0_3 nu_tau)
     5.83905255E-02    2     1000035        16   # BR(~nu_tau -> chi^0_4 nu_tau)
     3.15513786E-01    2     1000024        15   # BR(~nu_tau -> chi^+_1 tau^-)
     4.15160128E-01    2     1000037        15   # BR(~nu_tau -> chi^+_2 tau^-)
DECAY   2000001     4.19310317E+02   # ~d_R
#    BR                NDA      ID1      ID2
     1.25779694E-02    2     1000035         1   # BR(~d_R -> chi^0_4 d)
     9.87411542E-01    2     1000021         1   # BR(~d_R -> ~g d)
DECAY   1000001     5.48186800E+02   # ~d_L
#    BR                NDA      ID1      ID2
     5.57426659E-04    2     1000022         1   # BR(~d_L -> chi^0_1 d)
     2.89776534E-04    2     1000023         1   # BR(~d_L -> chi^0_2 d)
     7.84745764E-02    2     1000025         1   # BR(~d_L -> chi^0_3 d)
     2.48393856E-03    2     1000035         1   # BR(~d_L -> chi^0_4 d)
     1.58671606E-01    2    -1000037         2   # BR(~d_L -> chi^-_2 u)
     7.59425387E-01    2     1000021         1   # BR(~d_L -> ~g d)
DECAY   2000003     4.19438983E+02   # ~s_R
#    BR                NDA      ID1      ID2
     1.25741805E-02    2     1000035         3   # BR(~s_R -> chi^0_4 s)
     1.47563000E-04    2    -1000024         4   # BR(~s_R -> chi^-_1 c)
     9.87120851E-01    2     1000021         3   # BR(~s_R -> ~g s)
DECAY   1000003     5.48255417E+02   # ~s_L
#    BR                NDA      ID1      ID2
     6.15048729E-04    2     1000022         3   # BR(~s_L -> chi^0_1 s)
     3.44908613E-04    2     1000023         3   # BR(~s_L -> chi^0_2 s)
     7.84650002E-02    2     1000025         3   # BR(~s_L -> chi^0_3 s)
     2.48363552E-03    2     1000035         3   # BR(~s_L -> chi^0_4 s)
     1.03758063E-04    2    -1000024         4   # BR(~s_L -> chi^-_1 c)
     1.58652298E-01    2    -1000037         4   # BR(~s_L -> chi^-_2 c)
     7.59335350E-01    2     1000021         3   # BR(~s_L -> ~g s)
DECAY   1000005     8.80296755E+01   # ~b_1
#    BR                NDA      ID1      ID2
     1.80802312E-01    2     1000022         5   # BR(~b_1 -> chi^0_1 b)
     1.72270011E-01    2     1000023         5   # BR(~b_1 -> chi^0_2 b)
     5.70001912E-02    2     1000025         5   # BR(~b_1 -> chi^0_3 b)
     1.05690862E-04    2     1000035         5   # BR(~b_1 -> chi^0_4 b)
     4.11228309E-01    2    -1000024         6   # BR(~b_1 -> chi^-_1 t)
     1.21967576E-01    2    -1000037         6   # BR(~b_1 -> chi^-_2 t)
     5.66259104E-02    2     1000006       -24   # BR(~b_1 -> ~t_1 W^-)
DECAY   2000005     1.26764180E+02   # ~b_2
#    BR                NDA      ID1      ID2
     2.53028306E-01    2     1000022         5   # BR(~b_2 -> chi^0_1 b)
     2.41994771E-01    2     1000023         5   # BR(~b_2 -> chi^0_2 b)
     1.50184831E-04    2     1000025         5   # BR(~b_2 -> chi^0_3 b)
     1.04374277E-02    2     1000035         5   # BR(~b_2 -> chi^0_4 b)
     4.92731045E-01    2    -1000024         6   # BR(~b_2 -> chi^-_1 t)
     3.03520603E-04    2    -1000037         6   # BR(~b_2 -> chi^-_2 t)
     4.11969134E-04    2     1000006       -24   # BR(~b_2 -> ~t_1 W^-)
     1.67425593E-04    2     2000006       -24   # BR(~b_2 -> ~t_2 W^-)
     2.85160034E-04    2     1000005        23   # BR(~b_2 -> ~b_1 Z)
     4.90189348E-04    2     1000005        25   # BR(~b_2 -> ~b_1 h^0)
DECAY   2000002     4.35418291E+02   # ~u_R
#    BR                NDA      ID1      ID2
     4.84644846E-02    2     1000035         2   # BR(~u_R -> chi^0_4 u)
     9.51498255E-01    2     1000021         2   # BR(~u_R -> ~g u)
DECAY   1000002     5.48195380E+02   # ~u_L
#    BR                NDA      ID1      ID2
     4.66011240E-04    2     1000022         2   # BR(~u_L -> chi^0_1 u)
     2.33156163E-04    2     1000023         2   # BR(~u_L -> chi^0_2 u)
     7.87686823E-02    2     1000025         2   # BR(~u_L -> chi^0_3 u)
     2.33922733E-03    2     1000035         2   # BR(~u_L -> chi^0_4 u)
     3.02406333E-03    2     1000024         1   # BR(~u_L -> chi^+_1 d)
     1.55782298E-01    2     1000037         1   # BR(~u_L -> chi^+_2 d)
     7.59386562E-01    2     1000021         2   # BR(~u_L -> ~g u)
DECAY   2000004     4.35425795E+02   # ~c_R
#    BR                NDA      ID1      ID2
     4.84636669E-02    2     1000035         4   # BR(~c_R -> chi^0_4 c)
     9.51482481E-01    2     1000021         4   # BR(~c_R -> ~g c)
DECAY   1000004     5.48263950E+02   # ~c_L
#    BR                NDA      ID1      ID2
     4.69139859E-04    2     1000022         4   # BR(~c_L -> chi^0_1 c)
     2.36481629E-04    2     1000023         4   # BR(~c_L -> chi^0_2 c)
     7.87590965E-02    2     1000025         4   # BR(~c_L -> chi^0_3 c)
     2.33894626E-03    2     1000035         4   # BR(~c_L -> chi^0_4 c)
     3.13651479E-03    2     1000024         3   # BR(~c_L -> chi^+_1 s)
     1.55763299E-01    2     1000037         3   # BR(~c_L -> chi^+_2 s)
     7.59296522E-01    2     1000021         4   # BR(~c_L -> ~g c)
DECAY   1000006     6.99170318E+01   # ~t_1
#    BR                NDA      ID1      ID2
     1.74489984E-04    2     1000022         4   # BR(~t_1 -> chi^0_1 c)
     2.16411931E-01    2     1000022         6   # BR(~t_1 -> chi^0_1 t)
     2.30987833E-01    2     1000023         6   # BR(~t_1 -> chi^0_2 t)
     4.81662439E-02    2     1000025         6   # BR(~t_1 -> chi^0_3 t)
     3.96741584E-01    2     1000024         5   # BR(~t_1 -> chi^+_1 b)
     1.00949855E-01    2     1000037         5   # BR(~t_1 -> chi^+_2 b)
#    BR                NDA      ID1      ID2       ID3
     6.48092673E-03    3     1000022        24         5   # BR(~t_1 -> chi^0_1 W^+ b)
DECAY   2000006     1.23492032E+02   # ~t_2
#    BR                NDA      ID1      ID2
     1.73181427E-01    2     1000022         6   # BR(~t_2 -> chi^0_1 t)
     1.79257091E-01    2     1000023         6   # BR(~t_2 -> chi^0_2 t)
     1.02038890E-02    2     1000025         6   # BR(~t_2 -> chi^0_3 t)
     1.78631350E-03    2     1000035         6   # BR(~t_2 -> chi^0_4 t)
     3.43267860E-01    2     1000024         5   # BR(~t_2 -> chi^+_1 b)
     1.97571194E-02    2     1000037         5   # BR(~t_2 -> chi^+_2 b)
     1.00582103E-01    2     1000005        24   # BR(~t_2 -> ~b_1 W^+)
     1.54632289E-01    2     1000006        23   # BR(~t_2 -> ~t_1 Z)
     1.73319066E-02    2     1000006        25   # BR(~t_2 -> ~t_1 h^0)
DECAY   1000024     2.49937927E-09   # chi^+_1
#    BR                NDA      ID1      ID2       ID3
     4.24028575E-01    3     1000022        -1         2   # BR(chi^+_1 -> chi^0_1 d_bar u)
     2.45819248E-01    3     1000022        -3         4   # BR(chi^+_1 -> chi^0_1 s_bar c)
     1.41343703E-01    3     1000022       -11        12   # BR(chi^+_1 -> chi^0_1 e^+ nu_e)
     1.40793059E-01    3     1000022       -13        14   # BR(chi^+_1 -> chi^0_1 mu^+ nu_mu)
     4.80154148E-02    3     1000022       -15        16   # BR(chi^+_1 -> chi^0_1 tau^+ nu_tau)
DECAY   1000037     7.47122831E+00   # chi^+_2
#    BR                NDA      ID1      ID2
     2.47686580E-01    2     1000022        24   # BR(chi^+_2 -> chi^0_1 W^+)
     2.57386697E-01    2     1000023        24   # BR(chi^+_2 -> chi^0_2 W^+)
     2.49953104E-01    2     1000024        23   # BR(chi^+_2 -> chi^+_1 Z)
     2.35571687E-01    2     1000024        25   # BR(chi^+_2 -> chi^+_1 h^0)
#    BR                NDA      ID1      ID2       ID3
     2.45135584E-03    3     1000024         6        -6   # BR(chi^+_2 -> chi^+_1 t t_bar)
     3.48822335E-03    3     1000022        -5         6   # BR(chi^+_2 -> chi^0_1 b_bar t)
     3.41415884E-03    3     1000023        -5         6   # BR(chi^+_2 -> chi^0_2 b_bar t)
DECAY   1000022     0.00000000E+00   # chi^0_1
DECAY   1000023     1.67448709E-07   # chi^0_2
#    BR                NDA      ID1      ID2
     3.57253713E-01    2     1000022        22   # BR(chi^0_2 -> chi^0_1 photon)
#    BR                NDA      ID1      ID2       ID3
     9.15106609E-02    3     1000022         2        -2   # BR(chi^0_2 -> chi^0_1 u u_bar)
     6.69427377E-02    3     1000022         4        -4   # BR(chi^0_2 -> chi^0_1 c c_bar)
     1.17334849E-01    3     1000022         1        -1   # BR(chi^0_2 -> chi^0_1 d d_bar)
     1.17157333E-01    3     1000022         3        -3   # BR(chi^0_2 -> chi^0_1 s s_bar)
     2.64791484E-02    3     1000022        11       -11   # BR(chi^0_2 -> chi^0_1 e^- e^+)
     2.64160980E-02    3     1000022        13       -13   # BR(chi^0_2 -> chi^0_1 mu^- mu^+)
     1.33093948E-02    3     1000022        15       -15   # BR(chi^0_2 -> chi^0_1 tau^- tau^+)
     1.56910605E-01    3     1000022        12       -12   # BR(chi^0_2 -> chi^0_1 nu_e nu_bar_e)
     5.30794077E-03    3     1000024         1        -2   # BR(chi^0_2 -> chi^+_1 d u_bar)
     5.30794077E-03    3    -1000024        -1         2   # BR(chi^0_2 -> chi^-_1 d_bar u)
     3.64945286E-03    3     1000024         3        -4   # BR(chi^0_2 -> chi^+_1 s c_bar)
     3.64945286E-03    3    -1000024        -3         4   # BR(chi^0_2 -> chi^-_1 s_bar c)
     1.76931387E-03    3     1000024        11       -12   # BR(chi^0_2 -> chi^+_1 e^- nu_bar_e)
     1.76931387E-03    3    -1000024       -11        12   # BR(chi^0_2 -> chi^-_1 e^+ nu_e)
     1.76456336E-03    3     1000024        13       -14   # BR(chi^0_2 -> chi^+_1 mu^- nu_bar_mu)
     1.76456336E-03    3    -1000024       -13        14   # BR(chi^0_2 -> chi^-_1 mu^+ nu_mu)
     8.51459252E-04    3     1000024        15       -16   # BR(chi^0_2 -> chi^+_1 tau^- nu_bar_tau)
     8.51459252E-04    3    -1000024       -15        16   # BR(chi^0_2 -> chi^-_1 tau^+ nu_tau)
DECAY   1000025     8.28228538E+00   # chi^0_3
#    BR                NDA      ID1      ID2
     2.34739960E-01    2     1000024       -24   # BR(chi^0_3 -> chi^+_1 W^-)
     2.34739960E-01    2    -1000024        24   # BR(chi^0_3 -> chi^-_1 W^+)
     7.21490754E-02    2     1000022        23   # BR(chi^0_3 -> chi^0_1 Z)
     1.56058451E-01    2     1000023        23   # BR(chi^0_3 -> chi^0_2 Z)
     1.35738004E-01    2     1000022        25   # BR(chi^0_3 -> chi^0_1 h^0)
     1.56860651E-01    2     1000023        25   # BR(chi^0_3 -> chi^0_2 h^0)
#    BR                NDA      ID1      ID2       ID3
     8.62295948E-04    3     1000022         6        -6   # BR(chi^0_3 -> chi^0_1 t t_bar)
     9.21621941E-04    3     1000023         6        -6   # BR(chi^0_3 -> chi^0_2 t t_bar)
     3.92098108E-03    3     1000024         5        -6   # BR(chi^0_3 -> chi^+_1 b t_bar)
     3.92098108E-03    3    -1000024        -5         6   # BR(chi^0_3 -> chi^-_1 b_bar t)
DECAY   1000035     4.78322017E+00   # chi^0_4
#    BR                NDA      ID1      ID2
     2.24881794E-01    2     1000024       -24   # BR(chi^0_4 -> chi^+_1 W^-)
     2.24881794E-01    2    -1000024        24   # BR(chi^0_4 -> chi^-_1 W^+)
     9.55131367E-03    2     1000037       -24   # BR(chi^0_4 -> chi^+_2 W^-)
     9.55131367E-03    2    -1000037        24   # BR(chi^0_4 -> chi^-_2 W^+)
     9.53005498E-02    2     1000022        23   # BR(chi^0_4 -> chi^0_1 Z)
     1.41129852E-01    2     1000023        23   # BR(chi^0_4 -> chi^0_2 Z)
     8.86564739E-04    2     1000025        23   # BR(chi^0_4 -> chi^0_3 Z)
     1.21507763E-01    2     1000022        25   # BR(chi^0_4 -> chi^0_1 h^0)
     1.39302369E-01    2     1000023        25   # BR(chi^0_4 -> chi^0_2 h^0)
     7.83353989E-03    2     1000025        25   # BR(chi^0_4 -> chi^0_3 h^0)
#    BR                NDA      ID1      ID2       ID3
     4.02260394E-03    3     1000022         6        -6   # BR(chi^0_4 -> chi^0_1 t t_bar)
     1.15995796E-04    3     1000022         5        -5   # BR(chi^0_4 -> chi^0_1 b b_bar)
     4.29044026E-03    3     1000023         6        -6   # BR(chi^0_4 -> chi^0_2 t t_bar)
     1.09183913E-04    3     1000023         5        -5   # BR(chi^0_4 -> chi^0_2 b b_bar)
     8.04380916E-03    3     1000024         5        -6   # BR(chi^0_4 -> chi^+_1 b t_bar)
     8.04380916E-03    3    -1000024        -5         6   # BR(chi^0_4 -> chi^-_1 b_bar t)
     2.27183884E-04    3     1000037         5        -6   # BR(chi^0_4 -> chi^+_2 b t_bar)
     2.27183884E-04    3    -1000037        -5         6   # BR(chi^0_4 -> chi^-_2 b_bar t)
DECAY   1000021     4.26727298E+02   # ~g
#    BR                NDA      ID1      ID2
     4.10628522E-02    2     1000006        -4   # BR(~g -> ~t_1 c_bar)
     4.10628522E-02    2    -1000006         4   # BR(~g -> ~t^*_1 c)
     1.34928994E-01    2     1000006        -6   # BR(~g -> ~t_1 t_bar)
     1.34928994E-01    2    -1000006         6   # BR(~g -> ~t^*_1 t)
     1.39774209E-01    2     2000006        -6   # BR(~g -> ~t_2 t_bar)
     1.39774209E-01    2    -2000006         6   # BR(~g -> ~t^*_2 t)
     1.39350030E-01    2     1000005        -5   # BR(~g -> ~b_1 b_bar)
     1.39350030E-01    2    -1000005         5   # BR(~g -> ~b^*_1 b)
     4.47820666E-02    2     2000005        -5   # BR(~g -> ~b_2 b_bar)
     4.47820666E-02    2    -2000005         5   # BR(~g -> ~b^*_2 b)
#    BR                NDA      ID1      ID2       ID3
     1.09566700E-04    3     1000035         6        -6   # BR(~g -> chi^0_4 t t_bar)
DECAY        25     3.46586677E-03   # Gamma(h0)
     2.71108174E-03   2        22        22   # BR(h0 -> photon photon)
     1.81852118E-03   2        22        23   # BR(h0 -> photon Z)
     3.47410768E-02   2        23        23   # BR(h0 -> Z Z)
     2.81804208E-01   2       -24        24   # BR(h0 -> W W)
     8.22493543E-02   2        21        21   # BR(h0 -> gluon gluon)
     4.60879040E-09   2       -11        11   # BR(h0 -> Electron electron)
     2.05007705E-04   2       -13        13   # BR(h0 -> Muon muon)
     5.91121544E-02   2       -15        15   # BR(h0 -> Tau tau)
     1.30772217E-07   2        -2         2   # BR(h0 -> Up up)
     2.53826518E-02   2        -4         4   # BR(h0 -> Charm charm)
     5.32700513E-07   2        -1         1   # BR(h0 -> Down down)
     1.92665197E-04   2        -3         3   # BR(h0 -> Strange strange)
     5.11782611E-01   2        -5         5   # BR(h0 -> Bottom bottom)
DECAY        35     1.39987514E+02   # Gamma(HH)
     3.19262118E-08   2        22        22   # BR(HH -> photon photon)
     5.14685150E-08   2        22        23   # BR(HH -> photon Z)
     6.98254906E-08   2        23        23   # BR(HH -> Z Z)
     1.80107857E-08   2       -24        24   # BR(HH -> W W)
     8.82670653E-06   2        21        21   # BR(HH -> gluon gluon)
     9.07376701E-09   2       -11        11   # BR(HH -> Electron electron)
     4.04021354E-04   2       -13        13   # BR(HH -> Muon muon)
     1.16688375E-01   2       -15        15   # BR(HH -> Tau tau)
     1.78734942E-14   2        -2         2   # BR(HH -> Up up)
     3.46740521E-09   2        -4         4   # BR(HH -> Charm charm)
     2.28989771E-04   2        -6         6   # BR(HH -> Top top)
     6.48459847E-07   2        -1         1   # BR(HH -> Down down)
     2.34570868E-04   2        -3         3   # BR(HH -> Strange strange)
     6.02550740E-01   2        -5         5   # BR(HH -> Bottom bottom)
     4.23774416E-03   2  -1000024   1000024   # BR(HH -> Chargino1 chargino1)
     8.57485930E-02   2  -1000024   1000037   # BR(HH -> Chargino1 chargino2)
     8.57485930E-02   2  -1000037   1000024   # BR(HH -> Chargino2 chargino1)
     1.22816790E-04   2  -1000037   1000037   # BR(HH -> Chargino2 chargino2)
     9.62792158E-04   2   1000022   1000022   # BR(HH -> neutralino1 neutralino1)
     2.29196139E-05   2   1000022   1000023   # BR(HH -> neutralino1 neutralino2)
     4.45126831E-02   2   1000022   1000025   # BR(HH -> neutralino1 neutralino3)
     8.17933368E-03   2   1000022   1000035   # BR(HH -> neutralino1 neutralino4)
     4.41988379E-04   2   1000023   1000023   # BR(HH -> neutralino2 neutralino2)
     4.16414132E-02   2   1000023   1000025   # BR(HH -> neutralino2 neutralino3)
     8.19760138E-03   2   1000023   1000035   # BR(HH -> neutralino2 neutralino4)
     6.05540796E-05   2   1000025   1000025   # BR(HH -> neutralino3 neutralino3)
     6.15249329E-06   2   1000025   1000035   # BR(HH -> neutralino3 neutralino4)
     3.15658307E-09   2   1000035   1000035   # BR(HH -> neutralino4 neutralino4)
     4.55899195E-07   2        25        25   # BR(HH -> h0 h0)
DECAY        36     1.30596077E+02   # Gamma(A0)
     7.29039872E-10   2        22        22   # BR(A0 -> photon photon)
     6.65335702E-09   2        22        23   # BR(A0 -> photon Z)
     1.27778299E-05   2        21        21   # BR(A0 -> gluon gluon)
     8.81656047E-09   2       -11        11   # BR(A0 -> Electron electron)
     3.92571606E-04   2       -13        13   # BR(A0 -> Muon muon)
     1.13381644E-01   2       -15        15   # BR(A0 -> Tau tau)
     1.65573581E-14   2        -2         2   # BR(A0 -> Up up)
     3.21203794E-09   2        -4         4   # BR(A0 -> Charm charm)
     2.14241081E-04   2        -6         6   # BR(A0 -> Top top)
     6.30010483E-07   2        -1         1   # BR(A0 -> Down down)
     2.27897390E-04   2        -3         3   # BR(A0 -> Strange strange)
     5.85423290E-01   2        -5         5   # BR(A0 -> Bottom bottom)
     4.52788594E-03   2  -1000024   1000024   # BR(A0 -> Chargino1 chargino1)
     9.20312268E-02   2  -1000024   1000037   # BR(A0 -> Chargino1 chargino2)
     9.20312268E-02   2  -1000037   1000024   # BR(A0 -> Chargino2 chargino1)
     1.15420696E-04   2  -1000037   1000037   # BR(A0 -> Chargino2 chargino2)
     9.71757450E-04   2   1000022   1000022   # BR(A0 -> neutralino1 neutralino1)
     3.97722790E-05   2   1000022   1000023   # BR(A0 -> neutralino1 neutralino2)
     4.67530586E-02   2   1000022   1000025   # BR(A0 -> neutralino1 neutralino3)
     9.26381972E-03   2   1000022   1000035   # BR(A0 -> neutralino1 neutralino4)
     5.15922278E-04   2   1000023   1000023   # BR(A0 -> neutralino2 neutralino2)
     4.57078174E-02   2   1000023   1000025   # BR(A0 -> neutralino2 neutralino3)
     8.32352238E-03   2   1000023   1000035   # BR(A0 -> neutralino2 neutralino4)
     5.71183619E-05   2   1000025   1000025   # BR(A0 -> neutralino3 neutralino3)
     8.21066931E-06   2   1000025   1000035   # BR(A0 -> neutralino3 neutralino4)
     3.53454255E-08   2   1000035   1000035   # BR(A0 -> neutralino4 neutralino4)
     1.34484581E-07   2        23        25   # BR(A0 -> Z h0)
     1.70594585E-12   2        23        35   # BR(A0 -> Z HH)
     5.66567287E-38   2        25        25   # BR(A0 -> h0 h0)
DECAY        37     1.71954888E+02   # Gamma(Hp)
     9.96261657E-09   2       -11        12   # BR(Hp -> Electron nu_e)
     4.25932974E-04   2       -13        14   # BR(Hp -> Muon nu_mu)
     1.20478084E-01   2       -15        16   # BR(Hp -> Tau nu_tau)
     6.18138905E-07   2        -1         2   # BR(Hp -> Down up)
     1.04501191E-05   2        -3         2   # BR(Hp -> Strange up)
     6.87836314E-06   2        -5         2   # BR(Hp -> Bottom up)
     2.90586955E-08   2        -1         4   # BR(Hp -> Down charm)
     2.22802831E-04   2        -3         4   # BR(Hp -> Strange charm)
     9.63217016E-04   2        -5         4   # BR(Hp -> Bottom charm)
     1.65158062E-08   2        -1         6   # BR(Hp -> Down top)
     6.90936407E-07   2        -3         6   # BR(Hp -> Strange top)
     6.49693593E-01   2        -5         6   # BR(Hp -> Bottom top)
     1.78658347E-04   2   1000022   1000024   # BR(Hp -> neutralino1 chargino1)
     7.37321894E-02   2   1000022   1000037   # BR(Hp -> neutralino1 chargino2)
     4.94831156E-04   2   1000023   1000024   # BR(Hp -> neutralino2 chargino1)
     6.93807593E-02   2   1000023   1000037   # BR(Hp -> neutralino2 chargino2)
     7.12524448E-02   2   1000024   1000025   # BR(Hp -> chargino1 neutralino3)
     1.96345992E-09   2   1000025   1000037   # BR(Hp -> neutralino3 chargino2)
     1.31473583E-02   2   1000024   1000035   # BR(Hp -> chargino1 neutralino4)
     1.13310149E-05   2   1000035   1000037   # BR(Hp -> neutralino4 chargino2)
     1.02559193E-07   2        24        25   # BR(Hp -> W h0)
     1.31845260E-10   2        24        35   # BR(Hp -> W HH)
     9.07599716E-12   2        24        36   # BR(Hp -> W A0)
DECAY         6     2.43000000E+00   # top
#    BR                NDA      ID1      ID2
     1.00000000E+00    2           5        24   # BR(t -> b W)
Block HiggsBoundsInputHiggsCouplingsFermions
# ScalarNormEffCoupSq PseudoSNormEffCoupSq NP IP1 IP2 IP2
    9.99290582E-01    0.00000000E+00        3  25   5   5  # h0-b-b eff. coupling^2, normalised to SM
    3.03419231E+03    0.00000000E+00        3  35   5   5  # H0-b-b eff. coupling^2, normalised to SM
    0.00000000E+00    3.03419160E+03        3  36   5   5  # A0-b-b eff. coupling^2, normalised to SM
#
    1.00000023E+00    0.00000000E+00        3  25   6   6  # h0-t-t eff. coupling^2, normalised to SM
    3.29343270E-04    0.00000000E+00        3  35   6   6  # H0-t-t eff. coupling^2, normalised to SM
    0.00000000E+00    3.29577078E-04        3  36   6   6  # A0-t-t eff. coupling^2, normalised to SM
#
    9.99290582E-01    0.00000000E+00        3  25  15  15  # h0-tau-tau eff. coupling^2, normalised to SM
    3.03419231E+03    0.00000000E+00        3  35  15  15  # H0-tau-tau eff. coupling^2, normalised to SM
    0.00000000E+00    3.03419160E+03        3  36  15  15  # A0-tau-tau eff. coupling^2, normalised to SM
#
Block HiggsBoundsInputHiggsCouplingsBosons
    1.00000000E+00        3  25  24  24  # h0-W-W eff. coupling^2, normalised to SM
    4.14816519E-11        3  35  24  24  # H0-W-W eff. coupling^2, normalised to SM
    0.00000000E+00        3  36  24  24  # A0-W-W eff. coupling^2, normalised to SM
#
    1.00000000E+00        3  25  23  23  # h0-Z-Z eff. coupling^2, normalised to SM
    4.14816519E-11        3  35  23  23  # H0-Z-Z eff. coupling^2, normalised to SM
    0.00000000E+00        3  36  23  23  # A0-Z-Z eff. coupling^2, normalised to SM
#
    1.23055825E+00        3  25  21  21  # h0-g-g eff. coupling^2, normalised to SM
    1.72921444E-02        3  35  21  21  # H0-g-g eff. coupling^2, normalised to SM
    1.50288751E-01        3  36  21  21  # A0-g-g eff. coupling^2, normalised to SM
#
    0.00000000E+00        3  25  25  23  # h0-h0-Z eff. coupling^2, normalised to SM
    0.00000000E+00        3  35  25  23  # H0-h0-Z eff. coupling^2, normalised to SM
    4.14816519E-11        3  36  25  23  # A0-h0-Z eff. coupling^2, normalised to SM
    0.00000000E+00        3  35  35  23  # H0-H0-Z eff. coupling^2, normalised to SM
    1.00000000E+00        3  36  35  23  # A0-H0-Z eff. coupling^2, normalised to SM
    0.00000000E+00        3  36  36  23  # A0-A0-Z eff. coupling^2, normalised to SM
#
    0.00000000E+00        4  25  21  21  23  # h0-g-g-Z eff. coupling^2, normalised to SM
    0.00000000E+00        4  35  21  21  23  # H0-g-g-Z eff. coupling^2, normalised to SM
    0.00000000E+00        4  36  21  21  23  # A0-g-g-Z eff. coupling^2, normalised to SM
Block SPhenoLowEnergy  # low energy observables
    1    2.93345031E-04   # BR(b -> s gamma)
    2    1.59472460E-06   # BR(b -> s mu+ mu-)
    3    3.52452706E-05   # BR(b -> s nu nu)
    4    3.94410834E-15   # BR(Bd -> e+ e-)
    5    1.68478431E-10   # BR(Bd -> mu+ mu-)
    6    3.47295776E-08   # BR(Bd -> tau+ tau-)
    7    1.32094331E-13   # BR(Bs -> e+ e-)
    8    5.64276091E-09   # BR(Bs -> mu+ mu-)
    9    1.17915189E-06   # BR(Bs -> tau+ tau-)
   10    9.55966090E-05   # BR(B_u -> tau nu)
   11    9.87476372E-01   # BR(B_u -> tau nu)/BR(B_u -> tau nu)_SM
   12    5.41937627E-01   # |Delta(M_Bd)| [ps^-1] 
   13    1.93516642E+01   # |Delta(M_Bs)| [ps^-1] 
   14    0.00000000E+00   # neutron EDM according to the chiral quark model
   15    0.00000000E+00   # neutron EDM according to the relativistic quark-parton model
   16    2.15740921E-03   # epsilon_K
   17    2.28166059E-15   # Delta(M_K)
   18    2.48016944E-11   # BR(K^0 -> pi^0 nu nu)
   19    8.29071203E-11   # BR(K^+ -> pi^+ nu nu)
   20   -5.44788040E-16   # Delta(g-2)_electron/2
   21   -2.32916696E-11   # Delta(g-2)_muon/2
   22   -6.61090765E-09   # Delta(g-2)_tau/2
   23    0.00000000E+00   # electric dipole moment of the electron
   24    0.00000000E+00   # electric dipole moment of the muon
   25    0.00000000E+00   # electric dipole moment of the tau
   26    0.00000000E+00   # Br(mu -> e gamma)
   27    0.00000000E+00   # Br(tau -> e gamma)
   28    0.00000000E+00   # Br(tau -> mu gamma)
   29    0.00000000E+00   # Br(mu -> 3 e)
   30    0.00000000E+00   # Br(tau -> 3 e)
   31    0.00000000E+00   # Br(tau -> 3 mu)
   39    7.16733532E-05   # Delta(rho_parameter)
   40    0.00000000E+00   # BR(Z -> e mu)
   41    0.00000000E+00   # BR(Z -> e tau)
   42    0.00000000E+00   # BR(Z -> mu tau)
Block FWCOEF Q=  1.60000000E+02  # Wilson coefficients at scale Q
#    id        order  M        value         comment
     0305 4422   00   0    -1.88819110E-01   # C7
     0305 4422   00   2    -1.54734422E-01   # C7
     0305 4322   00   2     4.58425694E-05   # C7'
     0305 6421   00   0    -9.52278348E-02   # C8
     0305 6421   00   2    -8.24659946E-02   # C8
     0305 6321   00   2    -7.76111992E-05   # C8'
 03051111 4133   00   0     1.60123551E+00   # C9 e+e-
 03051111 4133   00   2     1.60165018E+00   # C9 e+e-
 03051111 4233   00   2     5.75387044E-04   # C9' e+e-
 03051111 4137   00   0    -4.42392761E+00   # C10 e+e-
 03051111 4137   00   2    -4.42171428E+00   # C10 e+e-
 03051111 4237   00   2    -4.42037201E-03   # C10' e+e-
 03051313 4133   00   0     1.60123551E+00   # C9 mu+mu-
 03051313 4133   00   2     1.60164989E+00   # C9 mu+mu-
 03051313 4233   00   2     5.75386046E-04   # C9' mu+mu-
 03051313 4137   00   0    -4.42392761E+00   # C10 mu+mu-
 03051313 4137   00   2    -4.42171457E+00   # C10 mu+mu-
 03051313 4237   00   2    -4.42037236E-03   # C10' mu+mu-
 03051212 4137   00   0     1.50535012E+00   # C11 nu_1 nu_1
 03051212 4137   00   2     1.50487019E+00   # C11 nu_1 nu_1
 03051212 4237   00   2     9.61350159E-04   # C11' nu_1 nu_1
 03051414 4137   00   0     1.50535012E+00   # C11 nu_2 nu_2
 03051414 4137   00   2     1.50487019E+00   # C11 nu_2 nu_2
 03051414 4237   00   2     9.61350303E-04   # C11' nu_2 nu_2
 03051616 4137   00   0     1.50535012E+00   # C11 nu_3 nu_3
 03051616 4137   00   2     1.50487019E+00   # C11 nu_3 nu_3
 03051616 4237   00   2     9.61390848E-04   # C11' nu_3 nu_3
Block IMFWCOEF Q=  1.60000000E+02  # Im(Wilson coefficients) at scale Q
#    id        order  M        value         comment
     0305 4422   00   0     3.85847362E-07   # C7
     0305 4422   00   2    -1.31495521E-05   # C7
     0305 4322   00   2     2.65253274E-06   # C7'
     0305 6421   00   0     3.30503783E-07   # C8
     0305 6421   00   2    -8.14140100E-06   # C8
     0305 6321   00   2     1.00139538E-06   # C8'
 03051111 4133   00   2    -2.77066388E-07   # C9 e+e-
 03051111 4233   00   2     1.13482733E-05   # C9' e+e-
 03051111 4137   00   2     6.16613278E-06   # C10 e+e-
 03051111 4237   00   2    -8.71879769E-05   # C10' e+e-
 03051313 4133   00   2    -2.77071069E-07   # C9 mu+mu-
 03051313 4233   00   2     1.13482674E-05   # C9' mu+mu-
 03051313 4137   00   2     6.16613871E-06   # C10 mu+mu-
 03051313 4237   00   2    -8.71879950E-05   # C10' mu+mu-
 03051212 4137   00   2    -1.31528728E-06   # C11 nu_1 nu_1
 03051212 4237   00   2     1.89617927E-05   # C11' nu_1 nu_1
 03051414 4137   00   2    -1.31528705E-06   # C11 nu_2 nu_2
 03051414 4237   00   2     1.89617927E-05   # C11' nu_2 nu_2
 03051616 4137   00   2    -1.31522473E-06   # C11 nu_3 nu_3
 03051616 4237   00   2     1.89617927E-05   # C11' nu_3 nu_3
