# SUSY Les Houches Accord 2 - MSSM spectrum + Decays
# SPheno v4.0.5be
# W. Porod, Comput. Phys. Commun. 153 (2003) 275-315, hep-ph/0301101;
# W. Porod, F.~Staub, Comput. Phys. Commun. 183 (2012) 2458
#                     arXiv:1104.1573 [hep-ph] 
# in case of problems send email to porod@physik.uni-wuerzburg.de
# Created: 20.12.2022,  21:25
Block SPINFO         # Program information
     1   SPheno      # spectrum calculator
     2   v4.0.5be    # version number
#
Block SPhenoINFO     # SPheno specific information
    1      2         # using 2-loop RGEs
    2      2         # using pole masses for boundary conditions at mZ
Block MODSEL  # Model selection
    1    0    # general MSSM
Block MINPAR  # Input parameters
    3    2.44180895E+01  # tanb at m_Z    
    4    1.00000000E+00  # Sign(mu)
Block EXTPAR  # non-universal input parameters
    0    3.85255407E+03  # scale for input parameters
    1   -5.20188341E+02  # M_1
    2    8.97673263E+02  # M_2
    3    1.96125824E+03  # M_3
   11   -3.59413596E+03  # A_t
   12    9.37350203E+02  # A_b
   13    6.49049342E+02  # A_tau
   23    2.70714691E+02  # mu
   25    2.34055793E+01  # tan(beta)
   26    3.59791263E+03  # m_A, pole mass
   31    1.00000000E+04  # M_L11
   32    1.00000000E+04  # M_L22
   33    1.00000000E+04  # M_L33
   34    1.00000000E+04  # M_E11
   35    1.00000000E+04  # M_E22
   36    1.00000000E+04  # M_E33
   41    1.00000000E+04  # M_Q11
   42    1.00000000E+04  # M_Q22
   43    4.27604848E+03  # M_Q33
   44    1.00000000E+04  # M_U11
   45    1.00000000E+04  # M_U22
   46    3.45891520E+03  # M_U33
   47    1.00000000E+04  # M_D11
   48    1.00000000E+04  # M_D22
   49    4.76212116E+03  # M_D33
Block SMINPUTS  # SM parameters
         1     1.27908970E+02  # alpha_em^-1(MZ)^MSbar
         2     1.16637870E-05  # G_mu [GeV^-2]
         3     1.18400000E-01  # alpha_s(MZ)^MSbar
         4     9.11876000E+01  # m_Z(pole)
         5     4.18000000E+00  # m_b(m_b), MSbar
         6     1.73200000E+02  # m_t(pole)
         7     1.77700000E+00  # m_tau(pole)
         8     0.00000000E+00  # m_nu_3
        11     5.10998930E-04  # m_e(pole)
        12     0.00000000E+00  # m_nu_1
        13     1.05658372E-01  # m_muon(pole)
        14     0.00000000E+00  # m_nu_2
        21     5.00000000E-03  # m_d(2 GeV), MSbar
        22     2.50000000E-03  # m_u(2 GeV), MSbar
        23     9.50000000E-02  # m_s(2 GeV), MSbar
        24     1.27000000E+00  # m_c(m_c), MSbar
Block gauge Q=  3.85255407E+03  # (SUSY scale)
   1    3.55362975E-01  # g'(Q)^DRbar
   2    6.65198874E-01  # g(Q)^DRbar
   3    1.21977796E+00  # g3(Q)^DRbar
Block Yu Q=  3.85255407E+03  # (SUSY scale)
  1  1     8.39202112E-06   # Y_u(Q)^DRbar
  2  2     4.26314673E-03   # Y_c(Q)^DRbar
  3  3     1.01382356E+00   # Y_t(Q)^DRbar
Block Yd Q=  3.85255407E+03  # (SUSY scale)
  1  1     3.94699167E-04   # Y_d(Q)^DRbar
  2  2     7.49928418E-03   # Y_s(Q)^DRbar
  3  3     3.91417893E-01   # Y_b(Q)^DRbar
Block Ye Q=  3.85255407E+03  # (SUSY scale)
  1  1     6.88778909E-05   # Y_e(Q)^DRbar
  2  2     1.42417633E-02   # Y_mu(Q)^DRbar
  3  3     2.39523030E-01   # Y_tau(Q)^DRbar
Block Au Q=  3.85255407E+03  # (SUSY scale)
  1  1     0.00000000E+00   # A_u(Q)^DRbar
  2  2     0.00000000E+00   # A_c(Q)^DRbar
  3  3    -3.59413784E+03   # A_t(Q)^DRbar
Block Ad Q=  3.85255407E+03  # (SUSY scale)
  1  1     0.00000000E+00   # A_d(Q)^DRbar
  2  2     0.00000000E+00   # A_s(Q)^DRbar
  3  3     9.37349894E+02   # A_b(Q)^DRbar
Block Ae Q=  3.85255407E+03  # (SUSY scale)
  1  1     0.00000000E+00   # A_e(Q)^DRbar
  2  2     0.00000000E+00   # A_mu(Q)^DRbar
  3  3     6.49049238E+02   # A_tau(Q)^DRbar
Block MSOFT Q=  3.85255407E+03  # soft SUSY breaking masses at Q
   1   -5.20188341E+02  # M_1
   2    8.97673263E+02  # M_2
   3    1.96125824E+03  # M_3
  21    1.28549043E+07  # M^2_(H,d)
  22    2.74068411E+05  # M^2_(H,u)
  31    1.00000000E+04  # M_(L,11)
  32    1.00000000E+04  # M_(L,22)
  33    1.00000000E+04  # M_(L,33)
  34    1.00000000E+04  # M_(E,11)
  35    1.00000000E+04  # M_(E,22)
  36    1.00000000E+04  # M_(E,33)
  41    1.00000000E+04  # M_(Q,11)
  42    1.00000000E+04  # M_(Q,22)
  43    4.27604848E+03  # M_(Q,33)
  44    1.00000000E+04  # M_(U,11)
  45    1.00000000E+04  # M_(U,22)
  46    3.45891520E+03  # M_(U,33)
  47    1.00000000E+04  # M_(D,11)
  48    1.00000000E+04  # M_(D,22)
  49    4.76212116E+03  # M_(D,33)
Block MASS  # Mass spectrum
#   PDG code      mass          particle
         6     1.73200000E+02  # m_t(pole)
        23     9.11876000E+01  # m_Z(pole)
        24     8.04299946E+01  # W+
        15     1.77700000E+00  # m_tau(pole)
        25     1.23912297E+02  # h0
        35     3.59728770E+03  # H0
        36     3.59791263E+03  # A0
        37     3.59870379E+03  # H+
   1000001     1.01176001E+04  # ~d_L
   2000001     1.00928369E+04  # ~d_R
   1000002     1.01172379E+04  # ~u_L
   2000002     1.00956501E+04  # ~u_R
   1000003     1.01176013E+04  # ~s_L
   2000003     1.00928386E+04  # ~s_R
   1000004     1.01172391E+04  # ~c_L
   2000004     1.00956508E+04  # ~c_R
   1000005     4.29958680E+03  # ~b_1
   2000005     4.81336492E+03  # ~b_2
   1000006     3.44673256E+03  # ~t_1
   2000006     4.30615738E+03  # ~t_2
   1000011     1.00209215E+04  # ~e_L-
   2000011     1.00092420E+04  # ~e_R-
   1000012     1.00201549E+04  # ~nu_eL
   1000013     1.00209261E+04  # ~mu_L-
   2000013     1.00092506E+04  # ~mu_R-
   1000014     1.00201594E+04  # ~nu_muL
   1000015     1.00116953E+04  # ~tau_1-
   2000015     1.00222160E+04  # ~tau_2-
   1000016     1.00214253E+04  # ~nu_tauL
   1000021     2.38345575E+03  # ~g
   1000022     2.83297267E+02  # ~chi_10
   1000023     2.85537141E+02  # ~chi_20
   1000025     5.28555333E+02  # ~chi_30
   1000035     9.76038140E+02  # ~chi_40
   1000024     2.84478815E+02  # ~chi_1+
   1000037     9.75779003E+02  # ~chi_2+
# Higgs mixing
Block alpha # Effective Higgs mixing angle
          -4.10055485E-02   # alpha
Block Hmix Q=  3.85255407E+03  # Higgs mixing parameters
   1    2.70714691E+02  # mu
   2    2.34055793E+01  # tan[beta](Q)
   3    2.42967410E+02  # v(Q)
   4    1.29449753E+07  # m^2_A(Q)
Block stopmix # stop mixing matrix
   1  1     7.90493995E-02   # Re[R_st(1,1)]
   1  2     9.96870700E-01   # Re[R_st(1,2)]
   2  1    -9.96870700E-01   # Re[R_st(2,1)]
   2  2     7.90493995E-02   # Re[R_st(2,2)]
Block sbotmix # sbottom mixing matrix
   1  1     9.99997164E-01   # Re[R_sb(1,1)]
   1  2     2.38178885E-03   # Re[R_sb(1,2)]
   2  1    -2.38178885E-03   # Re[R_sb(2,1)]
   2  2     9.99997164E-01   # Re[R_sb(2,2)]
Block staumix # stau mixing matrix
   1  1     4.76592308E-02   # Re[R_sta(1,1)]
   1  2     9.98863653E-01   # Re[R_sta(1,2)]
   2  1    -9.98863653E-01   # Re[R_sta(2,1)]
   2  2     4.76592308E-02   # Re[R_sta(2,2)]
Block Nmix # neutralino mixing matrix
   1  1    -4.02451973E-02   # Re[N(1,1)]
   1  2    -8.52245879E-02   # Re[N(1,2)]
   1  3     7.08178675E-01   # Re[N(1,3)]
   1  4    -6.99714269E-01   # Re[N(1,4)]
   2  1     1.25035352E-01   # Re[N(2,1)]
   2  2     4.29871859E-02   # Re[N(2,2)]
   2  3     7.02858540E-01   # Re[N(2,3)]
   2  4     6.98933570E-01   # Re[N(2,4)]
   3  1     9.91331864E-01   # Re[N(3,1)]
   3  2    -6.10995634E-03   # Re[N(3,2)]
   3  3    -5.98173079E-02   # Re[N(3,3)]
   3  4    -1.16814782E-01   # Re[N(3,4)]
   4  1     2.76045986E-03   # Re[N(4,1)]
   4  2    -9.95415260E-01   # Re[N(4,2)]
   4  3    -2.99119826E-02   # Re[N(4,3)]
   4  4     9.08081123E-02   # Re[N(4,4)]
Block Umix # chargino mixing matrix
   1  1    -4.23738180E-02   # Re[U(1,1)]
   1  2     9.99101826E-01   # Re[U(1,2)]
   2  1     9.99101826E-01   # Re[U(2,1)]
   2  2     4.23738180E-02   # Re[U(2,2)]
Block Vmix # chargino mixing matrix
   1  1    -1.28705599E-01   # Re[V(1,1)]
   1  2     9.91682847E-01   # Re[V(1,2)]
   2  1     9.91682847E-01   # Re[V(2,1)]
   2  2     1.28705599E-01   # Re[V(2,2)]
DECAY        23     2.49520000E+00   # Z
DECAY        24     2.08500000E+00   # W
DECAY   2000011     5.00161077E+01   # ~e^-_R
#    BR                NDA      ID1      ID2
     1.62603669E-03    2     1000022        11   # BR(~e^-_R -> chi^0_1 e^-)
     1.56947549E-02    2     1000023        11   # BR(~e^-_R -> chi^0_2 e^-)
     9.82671672E-01    2     1000025        11   # BR(~e^-_R -> chi^0_3 e^-)
DECAY   1000011     1.42356020E+02   # ~e^-_L
#    BR                NDA      ID1      ID2
     3.52345223E-03    2     1000022        11   # BR(~e^-_L -> chi^0_1 e^-)
     3.72825161E-03    2     1000023        11   # BR(~e^-_L -> chi^0_2 e^-)
     8.44336056E-02    2     1000025        11   # BR(~e^-_L -> chi^0_3 e^-)
     3.00314552E-01    2     1000035        11   # BR(~e^-_L -> chi^0_4 e^-)
     1.11086143E-03    2    -1000024        12   # BR(~e^-_L -> chi^-_1 nu_e)
     6.06889277E-01    2    -1000037        12   # BR(~e^-_L -> chi^-_2 nu_e)
#    BR                NDA      ID1      ID2       ID3
DECAY   2000013     5.00967938E+01   # ~mu^-_R
#    BR                NDA      ID1      ID2
     2.02709227E-03    2     1000022        13   # BR(~mu^-_R -> chi^0_1 mu^-)
     1.60671071E-02    2     1000023        13   # BR(~mu^-_R -> chi^0_2 mu^-)
     9.81092703E-01    2     1000025        13   # BR(~mu^-_R -> chi^0_3 mu^-)
     8.03464868E-04    2    -1000024        14   # BR(~mu^-_R -> chi^-_1 nu_mu)
DECAY   1000013     1.42396456E+02   # ~mu^-_L
#    BR                NDA      ID1      ID2
     3.66463537E-03    2     1000022        13   # BR(~mu^-_L -> chi^0_1 mu^-)
     3.86724659E-03    2     1000023        13   # BR(~mu^-_L -> chi^0_2 mu^-)
     8.44106780E-02    2     1000025        13   # BR(~mu^-_L -> chi^0_3 mu^-)
     3.00229666E-01    2     1000035        13   # BR(~mu^-_L -> chi^0_4 mu^-)
     1.11054649E-03    2    -1000024        14   # BR(~mu^-_L -> chi^-_1 nu_mu)
     6.06717228E-01    2    -1000037        14   # BR(~mu^-_L -> chi^-_2 nu_mu)
#    BR                NDA      ID1      ID2       ID3
DECAY   1000015     7.30320628E+01   # ~tau^-_1
#    BR                NDA      ID1      ID2
     8.07896515E-02    2     1000022        15   # BR(~tau^-_1 -> chi^0_1 tau^-)
     8.84012684E-02    2     1000023        15   # BR(~tau^-_1 -> chi^0_2 tau^-)
     6.71621111E-01    2     1000025        15   # BR(~tau^-_1 -> chi^0_3 tau^-)
     6.15012345E-04    2     1000035        15   # BR(~tau^-_1 -> chi^0_4 tau^-)
     1.57331931E-01    2    -1000024        16   # BR(~tau^-_1 -> chi^-_1 nu_tau)
     1.24102599E-03    2    -1000037        16   # BR(~tau^-_1 -> chi^-_2 nu_tau)
DECAY   2000015     1.53608026E+02   # ~tau^-_2
#    BR                NDA      ID1      ID2
     3.99197603E-02    2     1000022        15   # BR(~tau^-_2 -> chi^0_1 tau^-)
     3.99556605E-02    2     1000023        15   # BR(~tau^-_2 -> chi^0_2 tau^-)
     7.95171195E-02    2     1000025        15   # BR(~tau^-_2 -> chi^0_3 tau^-)
     2.78194165E-01    2     1000035        15   # BR(~tau^-_2 -> chi^0_4 tau^-)
     3.63577363E-04    2    -1000024        16   # BR(~tau^-_2 -> chi^-_1 nu_tau)
     5.62049717E-01    2    -1000037        16   # BR(~tau^-_2 -> chi^-_2 nu_tau)
#    BR                NDA      ID1      ID2       ID3
DECAY   1000012     1.42360509E+02   # ~nu_e
#    BR                NDA      ID1      ID2
     1.25605908E-03    2     1000022        12   # BR(~nu_e -> chi^0_1 nu_e)
     1.75337583E-04    2     1000023        12   # BR(~nu_e -> chi^0_2 nu_e)
     8.84119578E-02    2     1000025        12   # BR(~nu_e -> chi^0_3 nu_e)
     3.02065963E-01    2     1000035        12   # BR(~nu_e -> chi^0_4 nu_e)
     1.02473797E-02    2     1000024        11   # BR(~nu_e -> chi^+_1 e^-)
     5.97843302E-01    2     1000037        11   # BR(~nu_e -> chi^+_2 e^-)
#    BR                NDA      ID1      ID2       ID3
DECAY   1000014     1.42400941E+02   # ~nu_mu
#    BR                NDA      ID1      ID2
     1.25570301E-03    2     1000022        14   # BR(~nu_mu -> chi^0_1 nu_mu)
     1.75287879E-04    2     1000023        14   # BR(~nu_mu -> chi^0_2 nu_mu)
     8.83868954E-02    2     1000025        14   # BR(~nu_mu -> chi^0_3 nu_mu)
     3.01980339E-01    2     1000035        14   # BR(~nu_mu -> chi^0_4 nu_mu)
     1.05274349E-02    2     1000024        13   # BR(~nu_mu -> chi^+_1 mu^-)
     5.97674339E-01    2     1000037        13   # BR(~nu_mu -> chi^+_2 mu^-)
#    BR                NDA      ID1      ID2       ID3
DECAY   1000016     1.53798528E+02   # ~nu_tau
#    BR                NDA      ID1      ID2
     1.16279366E-03    2     1000022        16   # BR(~nu_tau -> chi^0_1 nu_tau)
     1.62318346E-04    2     1000023        16   # BR(~nu_tau -> chi^0_2 nu_tau)
     8.18472394E-02    2     1000025        16   # BR(~nu_tau -> chi^0_3 nu_tau)
     2.79638082E-01    2     1000035        16   # BR(~nu_tau -> chi^0_4 nu_tau)
     8.36035344E-02    2     1000024        15   # BR(~nu_tau -> chi^+_1 tau^-)
     5.53586032E-01    2     1000037        15   # BR(~nu_tau -> chi^+_2 tau^-)
#    BR                NDA      ID1      ID2       ID3
DECAY   2000001     7.15886349E+02   # ~d_R
#    BR                NDA      ID1      ID2
     1.22878948E-04    2     1000023         1   # BR(~d_R -> chi^0_2 d)
     7.69279004E-03    2     1000025         1   # BR(~d_R -> chi^0_3 d)
     9.92171478E-01    2     1000021         1   # BR(~d_R -> ~g d)
DECAY   1000001     8.44973486E+02   # ~d_L
#    BR                NDA      ID1      ID2
     3.20638847E-04    2     1000022         1   # BR(~d_L -> chi^0_1 d)
     1.74845876E-03    2     1000025         1   # BR(~d_L -> chi^0_3 d)
     5.13043016E-02    2     1000035         1   # BR(~d_L -> chi^0_4 d)
     1.88962600E-04    2    -1000024         2   # BR(~d_L -> chi^-_1 u)
     1.03269053E-01    2    -1000037         2   # BR(~d_L -> chi^-_2 u)
     8.43145973E-01    2     1000021         1   # BR(~d_L -> ~g d)
DECAY   2000003     7.15908983E+02   # ~s_R
#    BR                NDA      ID1      ID2
     1.30633204E-04    2     1000023         3   # BR(~s_R -> chi^0_2 s)
     7.69260420E-03    2     1000025         3   # BR(~s_R -> chi^0_3 s)
     9.92140316E-01    2     1000021         3   # BR(~s_R -> ~g s)
DECAY   1000003     8.44988528E+02   # ~s_L
#    BR                NDA      ID1      ID2
     3.27322600E-04    2     1000022         3   # BR(~s_L -> chi^0_1 s)
     1.74847543E-03    2     1000025         3   # BR(~s_L -> chi^0_3 s)
     5.13034065E-02    2     1000035         3   # BR(~s_L -> chi^0_4 s)
     1.93209643E-04    2    -1000024         4   # BR(~s_L -> chi^-_1 c)
     1.03267299E-01    2    -1000037         4   # BR(~s_L -> chi^-_2 c)
     8.43131086E-01    2     1000021         3   # BR(~s_L -> ~g s)
DECAY   1000005     3.29568710E+02   # ~b_1
#    BR                NDA      ID1      ID2
     2.01259224E-02    2     1000022         5   # BR(~b_1 -> chi^0_1 b)
     1.94993754E-02    2     1000023         5   # BR(~b_1 -> chi^0_2 b)
     1.98922571E-03    2     1000025         5   # BR(~b_1 -> chi^0_3 b)
     5.12616797E-02    2     1000035         5   # BR(~b_1 -> chi^0_4 b)
     2.59341405E-01    2    -1000024         6   # BR(~b_1 -> chi^-_1 t)
     1.07490214E-01    2    -1000037         6   # BR(~b_1 -> chi^-_2 t)
     4.94122554E-01    2     1000021         5   # BR(~b_1 -> ~g b)
     4.61696236E-02    2     1000006       -24   # BR(~b_1 -> ~t_1 W^-)
DECAY   2000005     2.48186021E+02   # ~b_2
#    BR                NDA      ID1      ID2
     2.94435094E-02    2     1000022         5   # BR(~b_2 -> chi^0_1 b)
     2.91592096E-02    2     1000023         5   # BR(~b_2 -> chi^0_2 b)
     1.06032194E-02    2     1000025         5   # BR(~b_2 -> chi^0_3 b)
     5.84272562E-02    2    -1000024         6   # BR(~b_2 -> chi^-_1 t)
     1.16877144E-04    2    -1000037         6   # BR(~b_2 -> chi^-_2 t)
     8.72156739E-01    2     1000021         5   # BR(~b_2 -> ~g b)
DECAY   2000002     7.32950156E+02   # ~u_R
#    BR                NDA      ID1      ID2
     4.80122855E-04    2     1000023         2   # BR(~u_R -> chi^0_2 u)
     3.00632458E-02    2     1000025         2   # BR(~u_R -> chi^0_3 u)
     9.69406659E-01    2     1000021         2   # BR(~u_R -> ~g u)
DECAY   1000002     8.44961565E+02   # ~u_L
#    BR                NDA      ID1      ID2
     4.49167179E-04    2     1000022         2   # BR(~u_L -> chi^0_1 u)
     2.24043677E-04    2     1000023         2   # BR(~u_L -> chi^0_2 u)
     1.52228343E-03    2     1000025         2   # BR(~u_L -> chi^0_3 u)
     5.12018798E-02    2     1000035         2   # BR(~u_L -> chi^0_4 u)
     1.74331251E-03    2     1000024         1   # BR(~u_L -> chi^+_1 d)
     1.01738724E-01    2     1000037         1   # BR(~u_L -> chi^+_2 d)
     8.43120589E-01    2     1000021         2   # BR(~u_L -> ~g u)
DECAY   2000004     7.32957474E+02   # ~c_R
#    BR                NDA      ID1      ID2
     4.82547581E-04    2     1000023         4   # BR(~c_R -> chi^0_2 c)
     3.00630128E-02    2     1000025         4   # BR(~c_R -> chi^0_3 c)
     9.69397022E-01    2     1000021         4   # BR(~c_R -> ~g c)
DECAY   1000004     8.44976577E+02   # ~c_L
#    BR                NDA      ID1      ID2
     4.51275002E-04    2     1000022         4   # BR(~c_L -> chi^0_1 c)
     2.26150847E-04    2     1000023         4   # BR(~c_L -> chi^0_2 c)
     1.52231554E-03    2     1000025         4   # BR(~c_L -> chi^0_3 c)
     5.12010118E-02    2     1000035         4   # BR(~c_L -> chi^0_4 c)
     1.75659555E-03    2     1000024         3   # BR(~c_L -> chi^+_1 s)
     1.01736953E-01    2     1000037         3   # BR(~c_L -> chi^+_2 s)
     8.43105698E-01    2     1000021         4   # BR(~c_L -> ~g c)
DECAY   1000006     2.19856728E+02   # ~t_1
#    BR                NDA      ID1      ID2
     1.54974631E-01    2     1000022         6   # BR(~t_1 -> chi^0_1 t)
     1.53768490E-01    2     1000023         6   # BR(~t_1 -> chi^0_2 t)
     3.76243594E-02    2     1000025         6   # BR(~t_1 -> chi^0_3 t)
     7.92090757E-04    2     1000035         6   # BR(~t_1 -> chi^0_4 t)
     3.13512509E-01    2     1000024         5   # BR(~t_1 -> chi^+_1 b)
     1.60308493E-03    2     1000037         5   # BR(~t_1 -> chi^+_2 b)
     3.37657875E-01    2     1000021         6   # BR(~t_1 -> ~g t)
#    BR                NDA      ID1      ID2       ID3
DECAY   2000006     3.31070290E+02   # ~t_2
#    BR                NDA      ID1      ID2
     1.28318009E-01    2     1000022         6   # BR(~t_2 -> chi^0_1 t)
     1.28976760E-01    2     1000023         6   # BR(~t_2 -> chi^0_2 t)
     4.14355914E-03    2     1000025         6   # BR(~t_2 -> chi^0_3 t)
     5.44297744E-02    2     1000035         6   # BR(~t_2 -> chi^0_4 t)
     3.89919630E-02    2     1000024         5   # BR(~t_2 -> chi^+_1 b)
     1.03952225E-01    2     1000037         5   # BR(~t_2 -> chi^+_2 b)
     4.85660316E-01    2     1000021         6   # BR(~t_2 -> ~g t)
     2.32365136E-02    2     1000006        23   # BR(~t_2 -> ~t_1 Z)
     3.22908798E-02    2     1000006        25   # BR(~t_2 -> ~t_1 h^0)
DECAY   1000024     1.91996312E-12   # chi^+_1
#    BR                NDA      ID1      ID2
     6.28381572E-01    2     1000022       211   # BR(chi^+_1 -> chi^0_1 pi^+)
#    BR                NDA      ID1      ID2       ID3
     1.89467172E-01    3     1000022       -11        12   # BR(chi^+_1 -> chi^0_1 e^+ nu_e)
     1.82151256E-01    3     1000022       -13        14   # BR(chi^+_1 -> chi^0_1 mu^+ nu_mu)
DECAY   1000037     8.75519578E+00   # chi^+_2
#    BR                NDA      ID1      ID2
     2.48533763E-01    2     1000022        24   # BR(chi^+_2 -> chi^0_1 W^+)
     2.52489476E-01    2     1000023        24   # BR(chi^+_2 -> chi^0_2 W^+)
     2.19943420E-03    2     1000025        24   # BR(chi^+_2 -> chi^0_3 W^+)
     2.47277967E-01    2     1000024        23   # BR(chi^+_2 -> chi^+_1 Z)
     2.39270891E-01    2     1000024        25   # BR(chi^+_2 -> chi^+_1 h^0)
#    BR                NDA      ID1      ID2       ID3
     2.97064679E-03    3     1000024         6        -6   # BR(chi^+_2 -> chi^+_1 t t_bar)
     3.78842677E-03    3     1000022        -5         6   # BR(chi^+_2 -> chi^0_1 b_bar t)
     3.45306218E-03    3     1000023        -5         6   # BR(chi^+_2 -> chi^0_2 b_bar t)
DECAY   1000022     0.00000000E+00   # chi^0_1
DECAY   1000023     1.90629273E-09   # chi^0_2
#    BR                NDA      ID1      ID2
     9.28433305E-01    2     1000022        22   # BR(chi^0_2 -> chi^0_1 photon)
#    BR                NDA      ID1      ID2       ID3
     1.17477070E-02    3     1000022         2        -2   # BR(chi^0_2 -> chi^0_1 u u_bar)
     1.50622408E-02    3     1000022         1        -1   # BR(chi^0_2 -> chi^0_1 d d_bar)
     1.47511968E-02    3     1000022         3        -3   # BR(chi^0_2 -> chi^0_1 s s_bar)
     3.39931034E-03    3     1000022        11       -11   # BR(chi^0_2 -> chi^0_1 e^- e^+)
     3.28941856E-03    3     1000022        13       -13   # BR(chi^0_2 -> chi^0_1 mu^- mu^+)
     2.01437122E-02    3     1000022        12       -12   # BR(chi^0_2 -> chi^0_1 nu_e nu_bar_e)
     9.61065540E-04    3     1000024         1        -2   # BR(chi^0_2 -> chi^+_1 d u_bar)
     9.61065540E-04    3    -1000024        -1         2   # BR(chi^0_2 -> chi^-_1 d_bar u)
     3.20399597E-04    3     1000024        11       -12   # BR(chi^0_2 -> chi^+_1 e^- nu_bar_e)
     3.20399597E-04    3    -1000024       -11        12   # BR(chi^0_2 -> chi^-_1 e^+ nu_e)
     3.05089645E-04    3     1000024        13       -14   # BR(chi^0_2 -> chi^+_1 mu^- nu_bar_mu)
     3.05089645E-04    3    -1000024       -13        14   # BR(chi^0_2 -> chi^-_1 mu^+ nu_mu)
DECAY   1000025     1.50658151E+00   # chi^0_3
#    BR                NDA      ID1      ID2
     2.27328206E-01    2     1000024       -24   # BR(chi^0_3 -> chi^+_1 W^-)
     2.27328206E-01    2    -1000024        24   # BR(chi^0_3 -> chi^-_1 W^+)
     2.16143151E-01    2     1000022        23   # BR(chi^0_3 -> chi^0_1 Z)
     2.16487542E-02    2     1000023        23   # BR(chi^0_3 -> chi^0_2 Z)
     1.70753255E-01    2     1000022        25   # BR(chi^0_3 -> chi^0_1 h^0)
     1.36487422E-01    2     1000023        25   # BR(chi^0_3 -> chi^0_2 h^0)
#    BR                NDA      ID1      ID2       ID3
     1.41891784E-04    3     1000024         5        -6   # BR(chi^0_3 -> chi^+_1 b t_bar)
     1.41891784E-04    3    -1000024        -5         6   # BR(chi^0_3 -> chi^-_1 b_bar t)
DECAY   1000035     9.80933255E+00   # chi^0_4
#    BR                NDA      ID1      ID2
     2.25150286E-01    2     1000024       -24   # BR(chi^0_4 -> chi^+_1 W^-)
     2.25150286E-01    2    -1000024        24   # BR(chi^0_4 -> chi^-_1 W^+)
     4.52119774E-02    2     1000022        23   # BR(chi^0_4 -> chi^0_1 Z)
     1.79153568E-01    2     1000023        23   # BR(chi^0_4 -> chi^0_2 Z)
     1.84483752E-03    2     1000025        23   # BR(chi^0_4 -> chi^0_3 Z)
     1.67816135E-01    2     1000022        25   # BR(chi^0_4 -> chi^0_1 h^0)
     1.45444447E-01    2     1000023        25   # BR(chi^0_4 -> chi^0_2 h^0)
     1.46187167E-03    2     1000025        25   # BR(chi^0_4 -> chi^0_3 h^0)
#    BR                NDA      ID1      ID2       ID3
     1.04037348E-03    3     1000022         6        -6   # BR(chi^0_4 -> chi^0_1 t t_bar)
     9.44560515E-04    3     1000023         6        -6   # BR(chi^0_4 -> chi^0_2 t t_bar)
     3.38498257E-03    3     1000024         5        -6   # BR(chi^0_4 -> chi^+_1 b t_bar)
     3.38498257E-03    3    -1000024        -5         6   # BR(chi^0_4 -> chi^-_1 b_bar t)
DECAY   1000021     5.12853026E-02   # ~g
#    BR                NDA      ID1      ID2
     4.56184414E-03    2     1000022        21   # BR(~g -> chi^0_1 g)
     4.91466213E-03    2     1000023        21   # BR(~g -> chi^0_2 g)
#    BR                NDA      ID1      ID2       ID3
     2.05792415E-01    3     1000022         6        -6   # BR(~g -> chi^0_1 t t_bar)
     1.50188202E-02    3     1000022         5        -5   # BR(~g -> chi^0_1 b b_bar)
     2.08726382E-01    3     1000023         6        -6   # BR(~g -> chi^0_2 t t_bar)
     1.46854303E-02    3     1000023         5        -5   # BR(~g -> chi^0_2 b b_bar)
     2.51726599E-04    3     1000025         2        -2   # BR(~g -> chi^0_3 u u_bar)
     2.51727746E-04    3     1000025         4        -4   # BR(~g -> chi^0_3 c c_bar)
     2.44262684E-02    3     1000025         6        -6   # BR(~g -> chi^0_3 t t_bar)
     2.08753904E-03    3     1000025         5        -5   # BR(~g -> chi^0_3 b b_bar)
     2.20074962E-04    3     1000035         2        -2   # BR(~g -> chi^0_4 u u_bar)
     2.20075174E-04    3     1000035         4        -4   # BR(~g -> chi^0_4 c c_bar)
     1.07229532E-02    3     1000035         6        -6   # BR(~g -> chi^0_4 t t_bar)
     2.20476936E-04    3     1000035         1        -1   # BR(~g -> chi^0_4 d d_bar)
     2.20476936E-04    3     1000035         3        -3   # BR(~g -> chi^0_4 s s_bar)
     9.13014741E-03    3     1000035         5        -5   # BR(~g -> chi^0_4 b b_bar)
     2.28215818E-01    3     1000024         5        -6   # BR(~g -> chi^+_1 b t_bar)
     2.28215818E-01    3    -1000024        -5         6   # BR(~g -> chi^-_1 b_bar t)
     4.40802144E-04    3     1000037         1        -2   # BR(~g -> chi^+_2 d u_bar)
     4.40802144E-04    3    -1000037        -1         2   # BR(~g -> chi^-_2 d_bar u)
     4.40802357E-04    3     1000037         3        -4   # BR(~g -> chi^+_2 s c_bar)
     4.40802357E-04    3    -1000037        -3         4   # BR(~g -> chi^-_2 s_bar c)
     2.00256356E-02    3     1000037         5        -6   # BR(~g -> chi^+_2 b t_bar)
     2.00256356E-02    3    -1000037        -5         6   # BR(~g -> chi^-_2 b_bar t)
DECAY        25     3.74164664E-03   # Gamma(h0)
     2.34736180E-03   2        22        22   # BR(h0 -> photon photon)
     1.40744490E-03   2        22        23   # BR(h0 -> photon Z)
     2.49956557E-02   2        23        23   # BR(h0 -> Z Z)
     2.11023019E-01   2       -24        24   # BR(h0 -> W W)
     7.33681354E-02   2        21        21   # BR(h0 -> gluon gluon)
     5.28085222E-09   2       -11        11   # BR(h0 -> Electron electron)
     2.34901135E-04   2       -13        13   # BR(h0 -> Muon muon)
     6.77290993E-02   2       -15        15   # BR(h0 -> Tau tau)
     1.50283380E-07   2        -2         2   # BR(h0 -> Up up)
     2.91622633E-02   2        -4         4   # BR(h0 -> Charm charm)
     6.12259416E-07   2        -1         1   # BR(h0 -> Down down)
     2.21440142E-04   2        -3         3   # BR(h0 -> Strange strange)
     5.89509911E-01   2        -5         5   # BR(h0 -> Bottom bottom)
DECAY        35     7.02766212E+01   # Gamma(HH)
     2.50684700E-08   2        22        22   # BR(HH -> photon photon)
     5.60379704E-08   2        22        23   # BR(HH -> photon Z)
     6.45723255E-07   2        23        23   # BR(HH -> Z Z)
     1.54794056E-07   2       -24        24   # BR(HH -> W W)
     1.46273868E-06   2        21        21   # BR(HH -> gluon gluon)
     4.83941194E-09   2       -11        11   # BR(HH -> Electron electron)
     2.15486494E-04   2       -13        13   # BR(HH -> Muon muon)
     6.22369339E-02   2       -15        15   # BR(HH -> Tau tau)
     2.31815716E-13   2        -2         2   # BR(HH -> Up up)
     4.49718562E-08   2        -4         4   # BR(HH -> Charm charm)
     3.30084866E-03   2        -6         6   # BR(HH -> Top top)
     3.47325053E-07   2        -1         1   # BR(HH -> Down down)
     1.25629411E-04   2        -3         3   # BR(HH -> Strange strange)
     3.30298079E-01   2        -5         5   # BR(HH -> Bottom bottom)
     7.61067446E-03   2  -1000024   1000024   # BR(HH -> Chargino1 chargino1)
     1.78417781E-01   2  -1000024   1000037   # BR(HH -> Chargino1 chargino2)
     1.78417781E-01   2  -1000037   1000024   # BR(HH -> Chargino2 chargino1)
     4.43264338E-04   2  -1000037   1000037   # BR(HH -> Chargino2 chargino2)
     9.49711883E-04   2   1000022   1000022   # BR(HH -> neutralino1 neutralino1)
     8.14004143E-04   2   1000022   1000023   # BR(HH -> neutralino1 neutralino2)
     2.64454976E-02   2   1000022   1000025   # BR(HH -> neutralino1 neutralino3)
     7.93096786E-02   2   1000022   1000035   # BR(HH -> neutralino1 neutralino4)
     5.26859772E-05   2   1000023   1000023   # BR(HH -> neutralino2 neutralino2)
     2.97986405E-02   2   1000023   1000025   # BR(HH -> neutralino2 neutralino3)
     9.99730932E-02   2   1000023   1000035   # BR(HH -> neutralino2 neutralino4)
     3.52557601E-04   2   1000025   1000025   # BR(HH -> neutralino3 neutralino3)
     1.00732784E-03   2   1000025   1000035   # BR(HH -> neutralino3 neutralino4)
     2.24203923E-04   2   1000035   1000035   # BR(HH -> neutralino4 neutralino4)
     3.37851318E-06   2        25        25   # BR(HH -> h0 h0)
DECAY        36     6.89952510E+01   # Gamma(A0)
     6.64080543E-08   2        22        22   # BR(A0 -> photon photon)
     9.40031709E-08   2        22        23   # BR(A0 -> photon Z)
     8.06396160E-06   2        21        21   # BR(A0 -> gluon gluon)
     4.70286586E-09   2       -11        11   # BR(A0 -> Electron electron)
     2.09404504E-04   2       -13        13   # BR(A0 -> Muon muon)
     6.04803970E-02   2       -15        15   # BR(A0 -> Tau tau)
     2.12036435E-13   2        -2         2   # BR(A0 -> Up up)
     4.11330870E-08   2        -4         4   # BR(A0 -> Charm charm)
     3.04519813E-03   2        -6         6   # BR(A0 -> Top top)
     3.37511183E-07   2        -1         1   # BR(A0 -> Down down)
     1.22080889E-04   2        -3         3   # BR(A0 -> Strange strange)
     3.20970750E-01   2        -5         5   # BR(A0 -> Bottom bottom)
     8.37344967E-03   2  -1000024   1000024   # BR(A0 -> Chargino1 chargino1)
     1.81190424E-01   2  -1000024   1000037   # BR(A0 -> Chargino1 chargino2)
     1.81190424E-01   2  -1000037   1000024   # BR(A0 -> Chargino2 chargino1)
     9.93216833E-04   2  -1000037   1000037   # BR(A0 -> Chargino2 chargino2)
     1.16285331E-03   2   1000022   1000022   # BR(A0 -> neutralino1 neutralino1)
     7.30288808E-04   2   1000022   1000023   # BR(A0 -> neutralino1 neutralino2)
     3.04471348E-02   2   1000022   1000025   # BR(A0 -> neutralino1 neutralino3)
     1.02795927E-01   2   1000022   1000035   # BR(A0 -> neutralino1 neutralino4)
     4.66287291E-05   2   1000023   1000023   # BR(A0 -> neutralino2 neutralino2)
     2.69761893E-02   2   1000023   1000025   # BR(A0 -> neutralino2 neutralino3)
     7.97095424E-02   2   1000023   1000035   # BR(A0 -> neutralino2 neutralino4)
     2.79783579E-04   2   1000025   1000025   # BR(A0 -> neutralino3 neutralino3)
     7.66501764E-04   2   1000025   1000035   # BR(A0 -> neutralino3 neutralino4)
     4.99951769E-04   2   1000035   1000035   # BR(A0 -> neutralino4 neutralino4)
     1.24504741E-06   2        23        25   # BR(A0 -> Z h0)
     1.73238599E-38   2        25        25   # BR(A0 -> h0 h0)
DECAY        37     6.99227690E+01   # Gamma(Hp)
     5.07471293E-09   2       -11        12   # BR(Hp -> Electron nu_e)
     2.16959828E-04   2       -13        14   # BR(Hp -> Muon nu_mu)
     6.13685896E-02   2       -15        16   # BR(Hp -> Tau nu_tau)
     3.16630692E-07   2        -1         2   # BR(Hp -> Down up)
     5.35574762E-06   2        -3         2   # BR(Hp -> Strange up)
     3.47265961E-06   2        -5         2   # BR(Hp -> Bottom up)
     1.68074240E-08   2        -1         4   # BR(Hp -> Down charm)
     1.14155762E-04   2        -3         4   # BR(Hp -> Strange charm)
     4.86296710E-04   2        -5         4   # BR(Hp -> Bottom charm)
     2.18200863E-07   2        -1         6   # BR(Hp -> Down top)
     4.92715028E-06   2        -3         6   # BR(Hp -> Strange top)
     3.31197727E-01   2        -5         6   # BR(Hp -> Bottom top)
     9.21361638E-04   2   1000022   1000024   # BR(Hp -> neutralino1 chargino1)
     1.85386997E-01   2   1000022   1000037   # BR(Hp -> neutralino1 chargino2)
     4.89675840E-03   2   1000023   1000024   # BR(Hp -> neutralino2 chargino1)
     1.78602230E-01   2   1000023   1000037   # BR(Hp -> neutralino2 chargino2)
     5.41205634E-02   2   1000024   1000025   # BR(Hp -> chargino1 neutralino3)
     1.75804710E-03   2   1000025   1000037   # BR(Hp -> neutralino3 chargino2)
     1.80914765E-01   2   1000024   1000035   # BR(Hp -> chargino1 neutralino4)
     6.27744622E-09   2   1000035   1000037   # BR(Hp -> neutralino4 chargino2)
     1.22987569E-06   2        24        25   # BR(Hp -> W h0)
     1.10876769E-13   2        24        35   # BR(Hp -> W HH)
DECAY         6     2.43000000E+00   # top
#    BR                NDA      ID1      ID2
     1.00000000E+00    2           5        24   # BR(t -> b W)
Block HiggsBoundsInputHiggsCouplingsFermions
# ScalarNormEffCoupSq PseudoSNormEffCoupSq NP IP1 IP2 IP2
    9.22300948E-01    0.00000000E+00        3  25   5   5  # h0-b-b eff. coupling^2, normalised to SM
    5.47898841E+02    0.00000000E+00        3  35   5   5  # H0-b-b eff. coupling^2, normalised to SM
    0.00000000E+00    5.47821142E+02        3  36   5   5  # A0-b-b eff. coupling^2, normalised to SM
#
    1.00014183E+00    0.00000000E+00        3  25   6   6  # h0-t-t eff. coupling^2, normalised to SM
    1.68358042E-03    0.00000000E+00        3  35   6   6  # H0-t-t eff. coupling^2, normalised to SM
    0.00000000E+00    1.82541330E-03        3  36   6   6  # A0-t-t eff. coupling^2, normalised to SM
#
    9.22300948E-01    0.00000000E+00        3  25  15  15  # h0-tau-tau eff. coupling^2, normalised to SM
    5.47898841E+02    0.00000000E+00        3  35  15  15  # H0-tau-tau eff. coupling^2, normalised to SM
    0.00000000E+00    5.47821142E+02        3  36  15  15  # A0-tau-tau eff. coupling^2, normalised to SM
#
Block HiggsBoundsInputHiggsCouplingsBosons
    9.99997133E-01        3  25  24  24  # h0-W-W eff. coupling^2, normalised to SM
    2.86739380E-06        3  35  24  24  # H0-W-W eff. coupling^2, normalised to SM
    0.00000000E+00        3  36  24  24  # A0-W-W eff. coupling^2, normalised to SM
#
    9.99997133E-01        3  25  23  23  # h0-Z-Z eff. coupling^2, normalised to SM
    2.86739380E-06        3  35  23  23  # H0-Z-Z eff. coupling^2, normalised to SM
    0.00000000E+00        3  36  23  23  # A0-Z-Z eff. coupling^2, normalised to SM
#
    1.26917447E+00        3  25  21  21  # h0-g-g eff. coupling^2, normalised to SM
    1.07402947E-03        3  35  21  21  # H0-g-g eff. coupling^2, normalised to SM
    9.58573452E-02        3  36  21  21  # A0-g-g eff. coupling^2, normalised to SM
#
    0.00000000E+00        3  25  25  23  # h0-h0-Z eff. coupling^2, normalised to SM
    0.00000000E+00        3  35  25  23  # H0-h0-Z eff. coupling^2, normalised to SM
    2.86739380E-06        3  36  25  23  # A0-h0-Z eff. coupling^2, normalised to SM
    0.00000000E+00        3  35  35  23  # H0-H0-Z eff. coupling^2, normalised to SM
    9.99997133E-01        3  36  35  23  # A0-H0-Z eff. coupling^2, normalised to SM
    0.00000000E+00        3  36  36  23  # A0-A0-Z eff. coupling^2, normalised to SM
#
    0.00000000E+00        4  25  21  21  23  # h0-g-g-Z eff. coupling^2, normalised to SM
    0.00000000E+00        4  35  21  21  23  # H0-g-g-Z eff. coupling^2, normalised to SM
    0.00000000E+00        4  36  21  21  23  # A0-g-g-Z eff. coupling^2, normalised to SM
Block SPhenoLowEnergy  # low energy observables
    1    3.17650455E-04   # BR(b -> s gamma)
    2    1.59044414E-06   # BR(b -> s mu+ mu-)
    3    3.52483799E-05   # BR(b -> s nu nu)
    4    2.79096134E-15   # BR(Bd -> e+ e-)
    5    1.19226534E-10   # BR(Bd -> mu+ mu-)
    6    2.49491635E-08   # BR(Bd -> tau+ tau-)
    7    9.39225268E-14   # BR(Bs -> e+ e-)
    8    4.01236192E-09   # BR(Bs -> mu+ mu-)
    9    8.50734170E-07   # BR(Bs -> tau+ tau-)
   10    9.65374545E-05   # BR(B_u -> tau nu)
   11    9.97194946E-01   # BR(B_u -> tau nu)/BR(B_u -> tau nu)_SM
   12    5.42152165E-01   # |Delta(M_Bd)| [ps^-1] 
   13    1.93699556E+01   # |Delta(M_Bs)| [ps^-1] 
   14    0.00000000E+00   # neutron EDM according to the chiral quark model
   15    0.00000000E+00   # neutron EDM according to the relativistic quark-parton model
   16    2.15797140E-03   # epsilon_K
   17    2.28166503E-15   # Delta(M_K)
   18    2.47947844E-11   # BR(K^0 -> pi^0 nu nu)
   19    8.28931113E-11   # BR(K^+ -> pi^+ nu nu)
   20    2.20114665E-16   # Delta(g-2)_electron/2
   21    9.41062217E-12   # Delta(g-2)_muon/2
   22    2.66450685E-09   # Delta(g-2)_tau/2
   23    0.00000000E+00   # electric dipole moment of the electron
   24    0.00000000E+00   # electric dipole moment of the muon
   25    0.00000000E+00   # electric dipole moment of the tau
   26    0.00000000E+00   # Br(mu -> e gamma)
   27    0.00000000E+00   # Br(tau -> e gamma)
   28    0.00000000E+00   # Br(tau -> mu gamma)
   29    0.00000000E+00   # Br(mu -> 3 e)
   30    0.00000000E+00   # Br(tau -> 3 e)
   31    0.00000000E+00   # Br(tau -> 3 mu)
   39    5.46106132E-05   # Delta(rho_parameter)
   40    0.00000000E+00   # BR(Z -> e mu)
   41    0.00000000E+00   # BR(Z -> e tau)
   42    0.00000000E+00   # BR(Z -> mu tau)
Block FWCOEF Q=  1.60000000E+02  # Wilson coefficients at scale Q
#    id        order  M        value         comment
     0305 4422   00   0    -1.88819110E-01   # C7
     0305 4422   00   2    -1.84699593E-01   # C7
     0305 4322   00   2    -4.02548272E-05   # C7'
     0305 6421   00   0    -9.52278348E-02   # C8
     0305 6421   00   2    -9.79461078E-02   # C8
     0305 6321   00   2    -1.15771415E-04   # C8'
 03051111 4133   00   0     1.62516949E+00   # C9 e+e-
 03051111 4133   00   2     1.62554294E+00   # C9 e+e-
 03051111 4233   00   2     1.37084241E-04   # C9' e+e-
 03051111 4137   00   0    -4.44786159E+00   # C10 e+e-
 03051111 4137   00   2    -4.44580749E+00   # C10 e+e-
 03051111 4237   00   2    -1.01628251E-03   # C10' e+e-
 03051313 4133   00   0     1.62516949E+00   # C9 mu+mu-
 03051313 4133   00   2     1.62554288E+00   # C9 mu+mu-
 03051313 4233   00   2     1.37084205E-04   # C9' mu+mu-
 03051313 4137   00   0    -4.44786159E+00   # C10 mu+mu-
 03051313 4137   00   2    -4.44580756E+00   # C10 mu+mu-
 03051313 4237   00   2    -1.01628254E-03   # C10' mu+mu-
 03051212 4137   00   0     1.50535012E+00   # C11 nu_1 nu_1
 03051212 4137   00   2     1.50490720E+00   # C11 nu_1 nu_1
 03051212 4237   00   2     2.19833054E-04   # C11' nu_1 nu_1
 03051414 4137   00   0     1.50535012E+00   # C11 nu_2 nu_2
 03051414 4137   00   2     1.50490720E+00   # C11 nu_2 nu_2
 03051414 4237   00   2     2.19833058E-04   # C11' nu_2 nu_2
 03051616 4137   00   0     1.50535012E+00   # C11 nu_3 nu_3
 03051616 4137   00   2     1.50490720E+00   # C11 nu_3 nu_3
 03051616 4237   00   2     2.19834392E-04   # C11' nu_3 nu_3
Block IMFWCOEF Q=  1.60000000E+02  # Im(Wilson coefficients) at scale Q
#    id        order  M        value         comment
     0305 4422   00   0     3.85826201E-07   # C7
     0305 4422   00   2     7.09791943E-06   # C7
     0305 4322   00   2     1.05268506E-06   # C7'
     0305 6421   00   0     3.30485658E-07   # C8
     0305 6421   00   2    -6.28901104E-06   # C8
     0305 6321   00   2     2.47738449E-07   # C8'
 03051111 4133   00   2     3.82495776E-07   # C9 e+e-
 03051111 4233   00   2     2.65215534E-06   # C9' e+e-
 03051111 4137   00   2     4.45277990E-07   # C10 e+e-
 03051111 4237   00   2    -1.96633762E-05   # C10' e+e-
 03051313 4133   00   2     3.82494533E-07   # C9 mu+mu-
 03051313 4233   00   2     2.65215509E-06   # C9' mu+mu-
 03051313 4137   00   2     4.45279156E-07   # C10 mu+mu-
 03051313 4237   00   2    -1.96633770E-05   # C10' mu+mu-
 03051212 4137   00   2    -7.14306034E-08   # C11 nu_1 nu_1
 03051212 4237   00   2     4.25340477E-06   # C11' nu_1 nu_1
 03051414 4137   00   2    -7.14305448E-08   # C11 nu_2 nu_2
 03051414 4237   00   2     4.25340477E-06   # C11' nu_2 nu_2
 03051616 4137   00   2    -7.14140894E-08   # C11 nu_3 nu_3
 03051616 4237   00   2     4.25340477E-06   # C11' nu_3 nu_3
