# SUSY Les Houches Accord 2 - MSSM spectrum + Decays
# SPheno v4.0.5be
# W. Porod, Comput. Phys. Commun. 153 (2003) 275-315, hep-ph/0301101;
# W. Porod, F.~Staub, Comput. Phys. Commun. 183 (2012) 2458
#                     arXiv:1104.1573 [hep-ph] 
# in case of problems send email to porod@physik.uni-wuerzburg.de
# Created: 07.09.2021,  19:21
Block SPINFO         # Program information
     1   SPheno      # spectrum calculator
     2   v4.0.5be    # version number
#
Block SPhenoINFO     # SPheno specific information
    1      2         # using 2-loop RGEs
    2      2         # using pole masses for boundary conditions at mZ
Block MODSEL  # Model selection
    1    0    # general MSSM
Block MINPAR  # Input parameters
    3    5.23334293E+01  # tanb at m_Z    
    4    1.00000000E+00  # Sign(mu)
Block EXTPAR  # non-universal input parameters
    0    2.77443120E+03  # scale for input parameters
    1    1.80748607E+02  # M_1
    2   -7.11887229E+02  # M_2
    3    4.19829339E+03  # M_3
   11   -1.62161978E+03  # A_t
   12    1.50825554E+03  # A_b
   13   -1.36642004E+03  # A_tau
   23    1.75036589E+02  # mu
   25    5.18059624E+01  # tan(beta)
   26    2.72908941E+03  # m_A, pole mass
   31    1.00000000E+04  # M_L11
   32    1.00000000E+04  # M_L22
   33    1.00000000E+04  # M_L33
   34    1.00000000E+04  # M_E11
   35    1.00000000E+04  # M_E22
   36    1.00000000E+04  # M_E33
   41    1.00000000E+04  # M_Q11
   42    1.00000000E+04  # M_Q22
   43    2.32445079E+03  # M_Q33
   44    1.00000000E+04  # M_U11
   45    1.00000000E+04  # M_U22
   46    3.16184336E+03  # M_U33
   47    1.00000000E+04  # M_D11
   48    1.00000000E+04  # M_D22
   49    2.78056245E+03  # M_D33
Block SMINPUTS  # SM parameters
         1     1.27908970E+02  # alpha_em^-1(MZ)^MSbar
         2     1.16637870E-05  # G_mu [GeV^-2]
         3     1.18400000E-01  # alpha_s(MZ)^MSbar
         4     9.11876000E+01  # m_Z(pole)
         5     4.18000000E+00  # m_b(m_b), MSbar
         6     1.73200000E+02  # m_t(pole)
         7     1.77700000E+00  # m_tau(pole)
         8     0.00000000E+00  # m_nu_3
        11     5.10998930E-04  # m_e(pole)
        12     0.00000000E+00  # m_nu_1
        13     1.05658372E-01  # m_muon(pole)
        14     0.00000000E+00  # m_nu_2
        21     5.00000000E-03  # m_d(2 GeV), MSbar
        22     2.50000000E-03  # m_u(2 GeV), MSbar
        23     9.50000000E-02  # m_s(2 GeV), MSbar
        24     1.27000000E+00  # m_c(m_c), MSbar
Block gauge Q=  2.77443120E+03  # (SUSY scale)
   1    3.55362975E-01  # g'(Q)^DRbar
   2    6.65198874E-01  # g(Q)^DRbar
   3    1.21977796E+00  # g3(Q)^DRbar
Block Yu Q=  2.77443120E+03  # (SUSY scale)
  1  1     8.38593399E-06   # Y_u(Q)^DRbar
  2  2     4.26005447E-03   # Y_c(Q)^DRbar
  3  3     1.01308818E+00   # Y_t(Q)^DRbar
Block Yd Q=  2.77443120E+03  # (SUSY scale)
  1  1     8.72994350E-04   # Y_d(Q)^DRbar
  2  2     1.65868927E-02   # Y_s(Q)^DRbar
  3  3     8.65736838E-01   # Y_b(Q)^DRbar
Block Ye Q=  2.77443120E+03  # (SUSY scale)
  1  1     1.52343898E-04   # Y_e(Q)^DRbar
  2  2     3.14998864E-02   # Y_mu(Q)^DRbar
  3  3     5.29776269E-01   # Y_tau(Q)^DRbar
Block Au Q=  2.77443120E+03  # (SUSY scale)
  1  1     0.00000000E+00   # A_u(Q)^DRbar
  2  2     0.00000000E+00   # A_c(Q)^DRbar
  3  3    -1.62162016E+03   # A_t(Q)^DRbar
Block Ad Q=  2.77443120E+03  # (SUSY scale)
  1  1     0.00000000E+00   # A_d(Q)^DRbar
  2  2     0.00000000E+00   # A_s(Q)^DRbar
  3  3     1.50825580E+03   # A_b(Q)^DRbar
Block Ae Q=  2.77443120E+03  # (SUSY scale)
  1  1     0.00000000E+00   # A_e(Q)^DRbar
  2  2     0.00000000E+00   # A_mu(Q)^DRbar
  3  3    -1.36641988E+03   # A_tau(Q)^DRbar
Block MSOFT Q=  2.77443120E+03  # soft SUSY breaking masses at Q
   1    1.80748607E+02  # M_1
   2   -7.11887229E+02  # M_2
   3    4.19829339E+03  # M_3
  21    7.09388531E+06  # M^2_(H,d)
  22    1.14762268E+05  # M^2_(H,u)
  31    1.00000000E+04  # M_(L,11)
  32    1.00000000E+04  # M_(L,22)
  33    1.00000000E+04  # M_(L,33)
  34    1.00000000E+04  # M_(E,11)
  35    1.00000000E+04  # M_(E,22)
  36    1.00000000E+04  # M_(E,33)
  41    1.00000000E+04  # M_(Q,11)
  42    1.00000000E+04  # M_(Q,22)
  43    2.32445079E+03  # M_(Q,33)
  44    1.00000000E+04  # M_(U,11)
  45    1.00000000E+04  # M_(U,22)
  46    3.16184336E+03  # M_(U,33)
  47    1.00000000E+04  # M_(D,11)
  48    1.00000000E+04  # M_(D,22)
  49    2.78056245E+03  # M_(D,33)
Block MASS  # Mass spectrum
#   PDG code      mass          particle
         6     1.73200000E+02  # m_t(pole)
        23     9.11876000E+01  # m_Z(pole)
        24     8.04299946E+01  # W+
        15     1.77700000E+00  # m_tau(pole)
        25     1.21770382E+02  # h0
        35     2.72680955E+03  # H0
        36     2.72908941E+03  # A0
        37     2.72886025E+03  # H+
   1000001     1.00778888E+04  # ~d_L
   2000001     1.00540024E+04  # ~d_R
   1000002     1.00775696E+04  # ~u_L
   2000002     1.00570742E+04  # ~u_R
   1000003     1.00779033E+04  # ~s_L
   2000003     1.00540289E+04  # ~s_R
   1000004     1.00775941E+04  # ~c_L
   2000004     1.00570760E+04  # ~c_R
   1000005     2.38908497E+03  # ~b_1
   2000005     2.84606827E+03  # ~b_2
   1000006     2.38970934E+03  # ~t_1
   2000006     3.22108984E+03  # ~t_2
   1000011     1.00211457E+04  # ~e_L-
   2000011     1.00088188E+04  # ~e_R-
   1000012     1.00203741E+04  # ~nu_eL
   1000013     1.00212145E+04  # ~mu_L-
   2000013     1.00089525E+04  # ~mu_R-
   1000014     1.00204427E+04  # ~nu_muL
   1000015     1.00407003E+04  # ~tau_1-
   2000015     1.00472912E+04  # ~tau_2-
   1000016     1.00400729E+04  # ~nu_tauL
   1000021     4.58537680E+03  # ~g
   1000022     1.55573208E+02  # ~chi_10
   1000023     1.83831481E+02  # ~chi_20
   1000025     2.19691580E+02  # ~chi_30
   1000035     7.78683976E+02  # ~chi_40
   1000024     1.84923499E+02  # ~chi_1+
   1000037     7.78699842E+02  # ~chi_2+
# Higgs mixing
Block alpha # Effective Higgs mixing angle
          -1.91571646E-02   # alpha
Block Hmix Q=  2.77443120E+03  # Higgs mixing parameters
   1    1.75036589E+02  # mu
   2    5.18059624E+01  # tan[beta](Q)
   3    2.43345941E+02  # v(Q)
   4    7.44792901E+06  # m^2_A(Q)
Block stopmix # stop mixing matrix
   1  1     9.98731262E-01   # Re[R_st(1,1)]
   1  2     5.03573854E-02   # Re[R_st(1,2)]
   2  1    -5.03573854E-02   # Re[R_st(2,1)]
   2  2     9.98731262E-01   # Re[R_st(2,2)]
Block sbotmix # sbottom mixing matrix
   1  1     9.99977744E-01   # Re[R_sb(1,1)]
   1  2     6.67175418E-03   # Re[R_sb(1,2)]
   2  1    -6.67175418E-03   # Re[R_sb(2,1)]
   2  2     9.99977744E-01   # Re[R_sb(2,2)]
Block staumix # stau mixing matrix
   1  1     9.90487212E-01   # Re[R_sta(1,1)]
   1  2     1.37604805E-01   # Re[R_sta(1,2)]
   2  1    -1.37604805E-01   # Re[R_sta(2,1)]
   2  2     9.90487212E-01   # Re[R_sta(2,2)]
Block Nmix # neutralino mixing matrix
   1  1    -7.29324864E-01   # Re[N(1,1)]
   1  2    -3.96735410E-02   # Re[N(1,2)]
   1  3    -5.22948417E-01   # Re[N(1,3)]
   1  4     4.39358858E-01   # Re[N(1,4)]
   2  1     8.22759993E-02   # Re[N(2,1)]
   2  2     9.41383461E-02   # Re[N(2,2)]
   2  3    -7.06837659E-01   # Re[N(2,3)]
   2  4    -6.96239294E-01   # Re[N(2,4)]
   3  1     6.79183298E-01   # Re[N(3,1)]
   3  2    -4.65532323E-02   # Re[N(3,2)]
   3  3    -4.75751225E-01   # Re[N(3,3)]
   3  4     5.56959260E-01   # Re[N(3,4)]
   4  1     5.09425236E-03   # Re[N(4,1)]
   4  2    -9.93678408E-01   # Re[N(4,2)]
   4  3    -2.37959840E-02   # Re[N(4,3)]
   4  4    -1.09594805E-01   # Re[N(4,4)]
Block Umix # chargino mixing matrix
   1  1    -3.37983146E-02   # Re[U(1,1)]
   1  2     9.99428674E-01   # Re[U(1,2)]
   2  1    -9.99428674E-01   # Re[U(2,1)]
   2  2    -3.37983146E-02   # Re[U(2,2)]
Block Vmix # chargino mixing matrix
   1  1     1.55419115E-01   # Re[V(1,1)]
   1  2     9.87848621E-01   # Re[V(1,2)]
   2  1     9.87848621E-01   # Re[V(2,1)]
   2  2    -1.55419115E-01   # Re[V(2,2)]
DECAY        23     2.49520000E+00   # Z
DECAY        24     2.08500000E+00   # W
DECAY   2000011     5.02551495E+01   # ~e^-_R
#    BR                NDA      ID1      ID2
     5.32033444E-01    2     1000022        11   # BR(~e^-_R -> chi^0_1 e^-)
     6.76959935E-03    2     1000023        11   # BR(~e^-_R -> chi^0_2 e^-)
     4.61171209E-01    2     1000025        11   # BR(~e^-_R -> chi^0_3 e^-)
DECAY   1000011     1.43321946E+02   # ~e^-_L
#    BR                NDA      ID1      ID2
     5.66902103E-02    2     1000022        11   # BR(~e^-_L -> chi^0_1 e^-)
     5.86479721E-03    2     1000023        11   # BR(~e^-_L -> chi^0_2 e^-)
     3.07563826E-02    2     1000025        11   # BR(~e^-_L -> chi^0_3 e^-)
     2.98577479E-01    2     1000035        11   # BR(~e^-_L -> chi^0_4 e^-)
     7.02638750E-04    2    -1000024        12   # BR(~e^-_L -> chi^-_1 nu_e)
     6.07408492E-01    2    -1000037        12   # BR(~e^-_L -> chi^-_2 nu_e)
#    BR                NDA      ID1      ID2       ID3
DECAY   2000013     5.06506925E+01   # ~mu^-_R
#    BR                NDA      ID1      ID2
     5.28951938E-01    2     1000022        13   # BR(~mu^-_R -> chi^0_1 mu^-)
     8.66437164E-03    2     1000023        13   # BR(~mu^-_R -> chi^0_2 mu^-)
     4.58457986E-01    2     1000025        13   # BR(~mu^-_R -> chi^0_3 mu^-)
     3.89366355E-03    2    -1000024        14   # BR(~mu^-_R -> chi^-_1 nu_mu)
DECAY   1000013     1.43520629E+02   # ~mu^-_L
#    BR                NDA      ID1      ID2
     5.69888723E-02    2     1000022        13   # BR(~mu^-_L -> chi^0_1 mu^-)
     6.54487948E-03    2     1000023        13   # BR(~mu^-_L -> chi^0_2 mu^-)
     3.10256770E-02    2     1000025        13   # BR(~mu^-_L -> chi^0_3 mu^-)
     2.98167011E-01    2     1000035        13   # BR(~mu^-_L -> chi^0_4 mu^-)
     7.01670873E-04    2    -1000024        14   # BR(~mu^-_L -> chi^-_1 nu_mu)
     6.06571889E-01    2    -1000037        14   # BR(~mu^-_L -> chi^-_2 nu_mu)
#    BR                NDA      ID1      ID2       ID3
DECAY   1000015     1.98940874E+02   # ~tau^-_1
#    BR                NDA      ID1      ID2
     1.32205951E-01    2     1000022        15   # BR(~tau^-_1 -> chi^0_1 tau^-)
     1.47305885E-01    2     1000023        15   # BR(~tau^-_1 -> chi^0_2 tau^-)
     7.44451928E-02    2     1000025        15   # BR(~tau^-_1 -> chi^0_3 tau^-)
     2.10011755E-01    2     1000035        15   # BR(~tau^-_1 -> chi^0_4 tau^-)
     9.07991087E-03    2    -1000024        16   # BR(~tau^-_1 -> chi^-_1 nu_tau)
     4.26951305E-01    2    -1000037        16   # BR(~tau^-_1 -> chi^-_2 nu_tau)
#    BR                NDA      ID1      ID2       ID3
DECAY   2000015     1.63263757E+02   # ~tau^-_2
#    BR                NDA      ID1      ID2
     2.40942560E-01    2     1000022        15   # BR(~tau^-_2 -> chi^0_1 tau^-)
     1.70765122E-01    2     1000023        15   # BR(~tau^-_2 -> chi^0_2 tau^-)
     2.34199825E-01    2     1000025        15   # BR(~tau^-_2 -> chi^0_3 tau^-)
     7.12454528E-03    2     1000035        15   # BR(~tau^-_2 -> chi^0_4 tau^-)
     3.32538807E-01    2    -1000024        16   # BR(~tau^-_2 -> chi^-_1 nu_tau)
     1.44291410E-02    2    -1000037        16   # BR(~tau^-_2 -> chi^-_2 nu_tau)
#    BR                NDA      ID1      ID2       ID3
DECAY   1000012     1.43326925E+02   # ~nu_e
#    BR                NDA      ID1      ID2
     3.76664009E-02    2     1000022        12   # BR(~nu_e -> chi^0_1 nu_e)
     7.74482239E-04    2     1000023        12   # BR(~nu_e -> chi^0_2 nu_e)
     5.15240199E-02    2     1000025        12   # BR(~nu_e -> chi^0_3 nu_e)
     3.01832114E-01    2     1000035        12   # BR(~nu_e -> chi^0_4 nu_e)
     1.48560462E-02    2     1000024        11   # BR(~nu_e -> chi^+_1 e^-)
     5.93346936E-01    2     1000037        11   # BR(~nu_e -> chi^+_2 e^-)
#    BR                NDA      ID1      ID2       ID3
DECAY   1000014     1.43525590E+02   # ~nu_mu
#    BR                NDA      ID1      ID2
     3.76145217E-02    2     1000022        14   # BR(~nu_mu -> chi^0_1 nu_mu)
     7.73415520E-04    2     1000023        14   # BR(~nu_mu -> chi^0_2 nu_mu)
     5.14530545E-02    2     1000025        14   # BR(~nu_mu -> chi^0_3 nu_mu)
     3.01416439E-01    2     1000035        14   # BR(~nu_mu -> chi^0_4 nu_mu)
     1.62112232E-02    2     1000024        13   # BR(~nu_mu -> chi^+_1 mu^-)
     5.92531346E-01    2     1000037        13   # BR(~nu_mu -> chi^+_2 mu^-)
#    BR                NDA      ID1      ID2       ID3
DECAY   1000016     1.99635963E+02   # ~nu_tau
#    BR                NDA      ID1      ID2
     2.70954820E-02    2     1000022        16   # BR(~nu_tau -> chi^0_1 nu_tau)
     5.57127434E-04    2     1000023        16   # BR(~nu_tau -> chi^0_2 nu_tau)
     3.70640875E-02    2     1000025        16   # BR(~nu_tau -> chi^0_3 nu_tau)
     2.17134118E-01    2     1000035        16   # BR(~nu_tau -> chi^0_4 nu_tau)
     2.90986816E-01    2     1000024        15   # BR(~nu_tau -> chi^+_1 tau^-)
     4.27162370E-01    2     1000037        15   # BR(~nu_tau -> chi^+_2 tau^-)
DECAY   2000001     5.03398334E+02   # ~d_R
#    BR                NDA      ID1      ID2
     5.92828809E-03    2     1000022         1   # BR(~d_R -> chi^0_1 d)
     5.13871052E-03    2     1000025         1   # BR(~d_R -> chi^0_3 d)
     9.88856831E-01    2     1000021         1   # BR(~d_R -> ~g d)
DECAY   1000001     6.33115298E+02   # ~d_L
#    BR                NDA      ID1      ID2
     5.69830315E-04    2     1000022         1   # BR(~d_L -> chi^0_1 d)
     4.42499888E-04    2     1000023         1   # BR(~d_L -> chi^0_2 d)
     1.96384591E-03    2     1000025         1   # BR(~d_L -> chi^0_3 d)
     6.84814724E-02    2     1000035         1   # BR(~d_L -> chi^0_4 d)
     1.59962268E-04    2    -1000024         2   # BR(~d_L -> chi^-_1 u)
     1.38300001E-01    2    -1000037         2   # BR(~d_L -> chi^-_2 u)
     7.90082388E-01    2     1000021         1   # BR(~d_L -> ~g d)
DECAY   2000003     5.03510719E+02   # ~s_R
#    BR                NDA      ID1      ID2
     5.95677172E-03    2     1000022         3   # BR(~s_R -> chi^0_1 s)
     1.29981959E-04    2     1000023         3   # BR(~s_R -> chi^0_2 s)
     5.16222299E-03    2     1000025         3   # BR(~s_R -> chi^0_3 s)
     1.09094114E-04    2    -1000024         4   # BR(~s_R -> chi^-_1 c)
     9.88641459E-01    2     1000021         3   # BR(~s_R -> ~g s)
DECAY   1000003     6.33175570E+02   # ~s_L
#    BR                NDA      ID1      ID2
     5.93523921E-04    2     1000022         3   # BR(~s_L -> chi^0_1 s)
     4.85834410E-04    2     1000023         3   # BR(~s_L -> chi^0_2 s)
     1.98330703E-03    2     1000025         3   # BR(~s_L -> chi^0_3 s)
     6.84751035E-02    2     1000035         3   # BR(~s_L -> chi^0_4 s)
     1.65550893E-04    2    -1000024         4   # BR(~s_L -> chi^-_1 c)
     1.38287178E-01    2    -1000037         4   # BR(~s_L -> chi^-_2 c)
     7.90009503E-01    2     1000021         3   # BR(~s_L -> ~g s)
DECAY   1000005     1.08378389E+02   # ~b_1
#    BR                NDA      ID1      ID2
     9.03392346E-02    2     1000022         5   # BR(~b_1 -> chi^0_1 b)
     1.62964769E-01    2     1000023         5   # BR(~b_1 -> chi^0_2 b)
     7.53719989E-02    2     1000025         5   # BR(~b_1 -> chi^0_3 b)
     7.67783284E-02    2     1000035         5   # BR(~b_1 -> chi^0_4 b)
     4.29420458E-01    2    -1000024         6   # BR(~b_1 -> chi^-_1 t)
     1.65125212E-01    2    -1000037         6   # BR(~b_1 -> chi^-_2 t)
DECAY   2000005     8.54535676E+01   # ~b_2
#    BR                NDA      ID1      ID2
     1.44164259E-01    2     1000022         5   # BR(~b_2 -> chi^0_1 b)
     2.46050844E-01    2     1000023         5   # BR(~b_2 -> chi^0_2 b)
     1.20249570E-01    2     1000025         5   # BR(~b_2 -> chi^0_3 b)
     3.19701614E-04    2     1000035         5   # BR(~b_2 -> chi^0_4 b)
     4.88089944E-01    2    -1000024         6   # BR(~b_2 -> chi^-_1 t)
     6.40360151E-04    2    -1000037         6   # BR(~b_2 -> chi^-_2 t)
     1.99449102E-04    2     1000006       -24   # BR(~b_2 -> ~t_1 W^-)
     1.86890479E-04    2     1000005        25   # BR(~b_2 -> ~b_1 h^0)
DECAY   2000002     5.20544191E+02   # ~u_R
#    BR                NDA      ID1      ID2
     2.29387737E-02    2     1000022         2   # BR(~u_R -> chi^0_1 u)
     2.91871789E-04    2     1000023         2   # BR(~u_R -> chi^0_2 u)
     1.98836197E-02    2     1000025         2   # BR(~u_R -> chi^0_3 u)
     9.56884629E-01    2     1000021         2   # BR(~u_R -> ~g u)
DECAY   1000002     6.33103787E+02   # ~u_L
#    BR                NDA      ID1      ID2
     2.01306267E-03    2     1000022         2   # BR(~u_L -> chi^0_1 u)
     8.28646208E-04    2     1000023         2   # BR(~u_L -> chi^0_2 u)
     3.87361131E-04    2     1000025         2   # BR(~u_L -> chi^0_3 u)
     6.82308826E-02    2     1000035         2   # BR(~u_L -> chi^0_4 u)
     3.38268319E-03    2     1000024         1   # BR(~u_L -> chi^+_1 d)
     1.35111769E-01    2     1000037         1   # BR(~u_L -> chi^+_2 d)
     7.90045596E-01    2     1000021         2   # BR(~u_L -> ~g u)
DECAY   2000004     5.20551602E+02   # ~c_R
#    BR                NDA      ID1      ID2
     2.29397946E-02    2     1000022         4   # BR(~c_R -> chi^0_1 c)
     2.95246394E-04    2     1000023         4   # BR(~c_R -> chi^0_2 c)
     1.98855037E-02    2     1000025         4   # BR(~c_R -> chi^0_3 c)
     9.56871297E-01    2     1000021         4   # BR(~c_R -> ~g c)
DECAY   1000004     6.33165173E+02   # ~c_L
#    BR                NDA      ID1      ID2
     2.01398147E-03    2     1000022         4   # BR(~c_L -> chi^0_1 c)
     8.31352071E-04    2     1000023         4   # BR(~c_L -> chi^0_2 c)
     3.89105055E-04    2     1000025         4   # BR(~c_L -> chi^0_3 c)
     6.82244999E-02    2     1000035         4   # BR(~c_L -> chi^0_4 c)
     3.46908180E-03    2     1000024         3   # BR(~c_L -> chi^+_1 s)
     1.35099103E-01    2     1000037         3   # BR(~c_L -> chi^+_2 s)
     7.89972877E-01    2     1000021         4   # BR(~c_L -> ~g c)
DECAY   1000006     1.09941062E+02   # ~t_1
#    BR                NDA      ID1      ID2
     1.15034257E-03    2     1000022         4   # BR(~t_1 -> chi^0_1 c)
     9.01435498E-02    2     1000022         6   # BR(~t_1 -> chi^0_1 t)
     4.72013992E-04    2     1000023         4   # BR(~t_1 -> chi^0_2 c)
     2.10848071E-01    2     1000023         6   # BR(~t_1 -> chi^0_2 t)
     1.29487355E-01    2     1000025         6   # BR(~t_1 -> chi^0_3 t)
     7.82429030E-02    2     1000035         6   # BR(~t_1 -> chi^0_4 t)
     3.20261659E-01    2     1000024         5   # BR(~t_1 -> chi^+_1 b)
     1.52690456E-01    2     1000037         5   # BR(~t_1 -> chi^+_2 b)
#    BR                NDA      ID1      ID2       ID3
     1.67036513E-02    3     1000022        24         5   # BR(~t_1 -> chi^0_1 W^+ b)
DECAY   2000006     1.48745642E+02   # ~t_2
#    BR                NDA      ID1      ID2
     1.06274264E-01    2     1000022         6   # BR(~t_2 -> chi^0_1 t)
     2.12772642E-01    2     1000023         6   # BR(~t_2 -> chi^0_2 t)
     1.62550675E-01    2     1000025         6   # BR(~t_2 -> chi^0_3 t)
     2.90953173E-03    2     1000035         6   # BR(~t_2 -> chi^0_4 t)
     4.32839144E-01    2     1000024         5   # BR(~t_2 -> chi^+_1 b)
     5.88886621E-03    2     1000037         5   # BR(~t_2 -> chi^+_2 b)
     3.47918717E-02    2     1000005        24   # BR(~t_2 -> ~b_1 W^+)
     1.72474567E-02    2     1000006        23   # BR(~t_2 -> ~t_1 Z)
     2.47253787E-02    2     1000006        25   # BR(~t_2 -> ~t_1 h^0)
DECAY   1000024     1.23212715E-05   # chi^+_1
#    BR                NDA      ID1      ID2       ID3
     3.34993225E-01    3     1000022        -1         2   # BR(chi^+_1 -> chi^0_1 d_bar u)
     3.32030894E-01    3     1000022        -3         4   # BR(chi^+_1 -> chi^0_1 s_bar c)
     1.11663589E-01    3     1000022       -11        12   # BR(chi^+_1 -> chi^0_1 e^+ nu_e)
     1.11662770E-01    3     1000022       -13        14   # BR(chi^+_1 -> chi^0_1 mu^+ nu_mu)
     1.09649228E-01    3     1000022       -15        16   # BR(chi^+_1 -> chi^0_1 tau^+ nu_tau)
DECAY   1000037     6.61819776E+00   # chi^+_2
#    BR                NDA      ID1      ID2
     1.19776220E-01    2     1000022        24   # BR(chi^+_2 -> chi^0_1 W^+)
     2.56268477E-01    2     1000023        24   # BR(chi^+_2 -> chi^0_2 W^+)
     1.34178417E-01    2     1000025        24   # BR(chi^+_2 -> chi^0_3 W^+)
     2.49519208E-01    2     1000024        23   # BR(chi^+_2 -> chi^+_1 Z)
     2.33348706E-01    2     1000024        25   # BR(chi^+_2 -> chi^+_1 h^0)
#    BR                NDA      ID1      ID2       ID3
     1.47985950E-03    3     1000024         6        -6   # BR(chi^+_2 -> chi^+_1 t t_bar)
     1.29057756E-03    3     1000022        -5         6   # BR(chi^+_2 -> chi^0_1 b_bar t)
     2.81797376E-03    3     1000023        -5         6   # BR(chi^+_2 -> chi^0_2 b_bar t)
     1.30823808E-03    3     1000025        -5         6   # BR(chi^+_2 -> chi^0_3 b_bar t)
DECAY   1000022     0.00000000E+00   # chi^0_1
DECAY   1000023     2.46464149E-05   # chi^0_2
#    BR                NDA      ID1      ID2
     3.82290171E-02    2     1000022        22   # BR(chi^0_2 -> chi^0_1 photon)
#    BR                NDA      ID1      ID2       ID3
     1.18545854E-01    3     1000022         2        -2   # BR(chi^0_2 -> chi^0_1 u u_bar)
     1.15491655E-01    3     1000022         4        -4   # BR(chi^0_2 -> chi^0_1 c c_bar)
     1.51998697E-01    3     1000022         1        -1   # BR(chi^0_2 -> chi^0_1 d d_bar)
     1.51979586E-01    3     1000022         3        -3   # BR(chi^0_2 -> chi^0_1 s s_bar)
     1.19454653E-01    3     1000022         5        -5   # BR(chi^0_2 -> chi^0_1 b b_bar)
     3.43009657E-02    3     1000022        11       -11   # BR(chi^0_2 -> chi^0_1 e^- e^+)
     3.42941513E-02    3     1000022        13       -13   # BR(chi^0_2 -> chi^0_1 mu^- mu^+)
     3.24404270E-02    3     1000022        15       -15   # BR(chi^0_2 -> chi^0_1 tau^- tau^+)
     2.03264993E-01    3     1000022        12       -12   # BR(chi^0_2 -> chi^0_1 nu_e nu_bar_e)
DECAY   1000025     1.66980069E-04   # chi^0_3
#    BR                NDA      ID1      ID2
     8.41678123E-04    2     1000022        22   # BR(chi^0_3 -> chi^0_1 photon)
     1.58582729E-02    2     1000023        22   # BR(chi^0_3 -> chi^0_2 photon)
#    BR                NDA      ID1      ID2       ID3
     6.93204962E-02    3     1000023         2        -2   # BR(chi^0_3 -> chi^0_2 u u_bar)
     6.82317615E-02    3     1000023         4        -4   # BR(chi^0_3 -> chi^0_2 c c_bar)
     8.88829225E-02    3     1000023         1        -1   # BR(chi^0_3 -> chi^0_2 d d_bar)
     8.88761793E-02    3     1000023         3        -3   # BR(chi^0_3 -> chi^0_2 s s_bar)
     7.69753029E-02    3     1000023         5        -5   # BR(chi^0_3 -> chi^0_2 b b_bar)
     2.00587386E-02    3     1000023        11       -11   # BR(chi^0_3 -> chi^0_2 e^- e^+)
     2.00563178E-02    3     1000023        13       -13   # BR(chi^0_3 -> chi^0_2 mu^- mu^+)
     1.93892393E-02    3     1000023        15       -15   # BR(chi^0_3 -> chi^0_2 tau^- tau^+)
     1.18862645E-01    3     1000023        12       -12   # BR(chi^0_3 -> chi^0_2 nu_e nu_bar_e)
     6.89399119E-02    3     1000024         1        -2   # BR(chi^0_3 -> chi^+_1 d u_bar)
     6.89399119E-02    3    -1000024        -1         2   # BR(chi^0_3 -> chi^-_1 d_bar u)
     6.85143169E-02    3     1000024         3        -4   # BR(chi^0_3 -> chi^+_1 s c_bar)
     6.85143169E-02    3    -1000024        -3         4   # BR(chi^0_3 -> chi^-_1 s_bar c)
     2.29801699E-02    3     1000024        11       -12   # BR(chi^0_3 -> chi^+_1 e^- nu_bar_e)
     2.29801699E-02    3    -1000024       -11        12   # BR(chi^0_3 -> chi^-_1 e^+ nu_e)
     2.29800219E-02    3     1000024        13       -14   # BR(chi^0_3 -> chi^+_1 mu^- nu_bar_mu)
     2.29800219E-02    3    -1000024       -13        14   # BR(chi^0_3 -> chi^-_1 mu^+ nu_mu)
     2.26835793E-02    3     1000024        15       -16   # BR(chi^0_3 -> chi^+_1 tau^- nu_bar_tau)
     2.26835793E-02    3    -1000024       -15        16   # BR(chi^0_3 -> chi^-_1 tau^+ nu_tau)
DECAY   1000035     7.47151149E+00   # chi^0_4
#    BR                NDA      ID1      ID2
     2.30775904E-01    2     1000024       -24   # BR(chi^0_4 -> chi^+_1 W^-)
     2.30775904E-01    2    -1000024        24   # BR(chi^0_4 -> chi^-_1 W^+)
     7.10393130E-02    2     1000022        23   # BR(chi^0_4 -> chi^0_1 Z)
     6.53747029E-02    2     1000023        23   # BR(chi^0_4 -> chi^0_2 Z)
     9.00652084E-02    2     1000025        23   # BR(chi^0_4 -> chi^0_3 Z)
     7.15249916E-02    2     1000022        25   # BR(chi^0_4 -> chi^0_1 h^0)
     1.43895838E-01    2     1000023        25   # BR(chi^0_4 -> chi^0_2 h^0)
     8.92934271E-02    2     1000025        25   # BR(chi^0_4 -> chi^0_3 h^0)
#    BR                NDA      ID1      ID2       ID3
     2.99287518E-04    3     1000022         6        -6   # BR(chi^0_4 -> chi^0_1 t t_bar)
     5.09050681E-04    3     1000023         6        -6   # BR(chi^0_4 -> chi^0_2 t t_bar)
     2.27891683E-04    3     1000025         6        -6   # BR(chi^0_4 -> chi^0_3 t t_bar)
     3.07697262E-03    3     1000024         5        -6   # BR(chi^0_4 -> chi^+_1 b t_bar)
     3.07697262E-03    3    -1000024        -5         6   # BR(chi^0_4 -> chi^-_1 b_bar t)
DECAY   1000021     2.60040304E+02   # ~g
#    BR                NDA      ID1      ID2
     5.84085185E-02    2     1000006        -4   # BR(~g -> ~t_1 c_bar)
     5.84085185E-02    2    -1000006         4   # BR(~g -> ~t^*_1 c)
     1.36817995E-01    2     1000006        -6   # BR(~g -> ~t_1 t_bar)
     1.36817995E-01    2    -1000006         6   # BR(~g -> ~t^*_1 t)
     6.75851747E-02    2     2000006        -6   # BR(~g -> ~t_2 t_bar)
     6.75851747E-02    2    -2000006         6   # BR(~g -> ~t^*_2 t)
     1.38510463E-01    2     1000005        -5   # BR(~g -> ~b_1 b_bar)
     1.38510463E-01    2    -1000005         5   # BR(~g -> ~b^*_1 b)
     9.86307217E-02    2     2000005        -5   # BR(~g -> ~b_2 b_bar)
     9.86307217E-02    2    -2000005         5   # BR(~g -> ~b^*_2 b)
#    BR                NDA      ID1      ID2       ID3
DECAY        25     3.03573953E-03   # Gamma(h0)
     2.68285089E-03   2        22        22   # BR(h0 -> photon photon)
     1.41288482E-03   2        22        23   # BR(h0 -> photon Z)
     2.33128355E-02   2        23        23   # BR(h0 -> Z Z)
     2.05538451E-01   2       -24        24   # BR(h0 -> W W)
     8.61036444E-02   2        21        21   # BR(h0 -> gluon gluon)
     5.23434749E-09   2       -11        11   # BR(h0 -> Electron electron)
     2.32831295E-04   2       -13        13   # BR(h0 -> Muon muon)
     6.71290944E-02   2       -15        15   # BR(h0 -> Tau tau)
     1.49202183E-07   2        -2         2   # BR(h0 -> Up up)
     2.89565256E-02   2        -4         4   # BR(h0 -> Charm charm)
     6.08663571E-07   2        -1         1   # BR(h0 -> Down down)
     2.20138651E-04   2        -3         3   # BR(h0 -> Strange strange)
     5.84409980E-01   2        -5         5   # BR(h0 -> Bottom bottom)
DECAY        35     1.04491910E+02   # Gamma(HH)
     4.40763953E-08   2        22        22   # BR(HH -> photon photon)
     7.68986741E-08   2        22        23   # BR(HH -> photon Z)
     1.08456407E-07   2        23        23   # BR(HH -> Z Z)
     3.72068073E-08   2       -24        24   # BR(HH -> W W)
     1.02212617E-05   2        21        21   # BR(HH -> gluon gluon)
     9.07652926E-09   2       -11        11   # BR(HH -> Electron electron)
     4.04118492E-04   2       -13        13   # BR(HH -> Muon muon)
     1.16712506E-01   2       -15        15   # BR(HH -> Tau tau)
     2.09483399E-14   2        -2         2   # BR(HH -> Up up)
     4.06347286E-09   2        -4         4   # BR(HH -> Charm charm)
     2.72089604E-04   2        -6         6   # BR(HH -> Top top)
     6.67270545E-07   2        -1         1   # BR(HH -> Down down)
     2.41352640E-04   2        -3         3   # BR(HH -> Strange strange)
     5.77316448E-01   2        -5         5   # BR(HH -> Bottom bottom)
     5.81983692E-03   2  -1000024   1000024   # BR(HH -> Chargino1 chargino1)
     8.87243057E-02   2  -1000024   1000037   # BR(HH -> Chargino1 chargino2)
     8.87243057E-02   2  -1000037   1000024   # BR(HH -> Chargino2 chargino1)
     2.09824247E-04   2  -1000037   1000037   # BR(HH -> Chargino2 chargino2)
     6.32913303E-03   2   1000022   1000022   # BR(HH -> neutralino1 neutralino1)
     7.19165152E-03   2   1000022   1000023   # BR(HH -> neutralino1 neutralino2)
     1.09908062E-03   2   1000022   1000025   # BR(HH -> neutralino1 neutralino3)
     2.70149025E-02   2   1000022   1000035   # BR(HH -> neutralino1 neutralino4)
     3.49595536E-04   2   1000023   1000023   # BR(HH -> neutralino2 neutralino2)
     8.93311754E-03   2   1000023   1000025   # BR(HH -> neutralino2 neutralino3)
     4.52478118E-02   2   1000023   1000035   # BR(HH -> neutralino2 neutralino4)
     7.13687846E-03   2   1000025   1000025   # BR(HH -> neutralino3 neutralino3)
     1.81555822E-02   2   1000025   1000035   # BR(HH -> neutralino3 neutralino4)
     1.05796218E-04   2   1000035   1000035   # BR(HH -> neutralino4 neutralino4)
     4.95058842E-07   2        25        25   # BR(HH -> h0 h0)
DECAY        36     9.86144894E+01   # Gamma(A0)
     6.29153077E-10   2        22        22   # BR(A0 -> photon photon)
     1.54494122E-08   2        22        23   # BR(A0 -> photon Z)
     1.62455910E-05   2        21        21   # BR(A0 -> gluon gluon)
     8.83529640E-09   2       -11        11   # BR(A0 -> Electron electron)
     3.93375793E-04   2       -13        13   # BR(A0 -> Muon muon)
     1.13610161E-01   2       -15        15   # BR(A0 -> Tau tau)
     1.95509517E-14   2        -2         2   # BR(A0 -> Up up)
     3.79227343E-09   2        -4         4   # BR(A0 -> Charm charm)
     2.57997024E-04   2        -6         6   # BR(A0 -> Top top)
     6.49463723E-07   2        -1         1   # BR(A0 -> Down down)
     2.34911131E-04   2        -3         3   # BR(A0 -> Strange strange)
     5.61912883E-01   2        -5         5   # BR(A0 -> Bottom bottom)
     6.16743482E-03   2  -1000024   1000024   # BR(A0 -> Chargino1 chargino1)
     9.41216221E-02   2  -1000024   1000037   # BR(A0 -> Chargino1 chargino2)
     9.41216221E-02   2  -1000037   1000024   # BR(A0 -> Chargino2 chargino1)
     2.18748164E-04   2  -1000037   1000037   # BR(A0 -> Chargino2 chargino2)
     7.25681309E-03   2   1000022   1000022   # BR(A0 -> neutralino1 neutralino1)
     7.09906137E-03   2   1000022   1000023   # BR(A0 -> neutralino1 neutralino2)
     1.22286451E-03   2   1000022   1000025   # BR(A0 -> neutralino1 neutralino3)
     2.89298309E-02   2   1000022   1000035   # BR(A0 -> neutralino1 neutralino4)
     3.49478142E-04   2   1000023   1000023   # BR(A0 -> neutralino2 neutralino2)
     8.49140623E-03   2   1000023   1000025   # BR(A0 -> neutralino2 neutralino3)
     4.78755310E-02   2   1000023   1000035   # BR(A0 -> neutralino2 neutralino4)
     8.50550068E-03   2   1000025   1000025   # BR(A0 -> neutralino3 neutralino3)
     1.91028967E-02   2   1000025   1000035   # BR(A0 -> neutralino3 neutralino4)
     1.10762745E-04   2   1000035   1000035   # BR(A0 -> neutralino4 neutralino4)
     1.75967320E-07   2        23        25   # BR(A0 -> Z h0)
     6.85909104E-13   2        23        35   # BR(A0 -> Z HH)
     1.07306858E-39   2        25        25   # BR(A0 -> h0 h0)
DECAY        37     1.22562398E+02   # Gamma(Hp)
     1.00842383E-08   2       -11        12   # BR(Hp -> Electron nu_e)
     4.31132682E-04   2       -13        14   # BR(Hp -> Muon nu_mu)
     1.21948821E-01   2       -15        16   # BR(Hp -> Tau nu_tau)
     6.43500517E-07   2        -1         2   # BR(Hp -> Down up)
     1.08504361E-05   2        -3         2   # BR(Hp -> Strange up)
     6.52924362E-06   2        -5         2   # BR(Hp -> Bottom up)
     3.02126272E-08   2        -1         4   # BR(Hp -> Down charm)
     2.31916016E-04   2        -3         4   # BR(Hp -> Strange charm)
     9.14327649E-04   2        -5         4   # BR(Hp -> Bottom charm)
     2.11445580E-08   2        -1         6   # BR(Hp -> Down top)
     8.03546138E-07   2        -3         6   # BR(Hp -> Strange top)
     6.16567644E-01   2        -5         6   # BR(Hp -> Bottom top)
     1.72721587E-02   2   1000022   1000024   # BR(Hp -> neutralino1 chargino1)
     4.62509492E-02   2   1000022   1000037   # BR(Hp -> neutralino1 chargino2)
     1.05028976E-03   2   1000023   1000024   # BR(Hp -> neutralino2 chargino1)
     7.88703520E-02   2   1000023   1000037   # BR(Hp -> neutralino2 chargino2)
     9.19330878E-03   2   1000024   1000025   # BR(Hp -> chargino1 neutralino3)
     3.07465082E-02   2   1000025   1000037   # BR(Hp -> neutralino3 chargino2)
     7.65035602E-02   2   1000024   1000035   # BR(Hp -> chargino1 neutralino4)
     2.41052527E-09   2   1000035   1000037   # BR(Hp -> neutralino4 chargino2)
     1.41655017E-07   2        24        25   # BR(Hp -> W h0)
     4.02726646E-13   2        24        35   # BR(Hp -> W HH)
DECAY         6     2.43000000E+00   # top
#    BR                NDA      ID1      ID2
     1.00000000E+00    2           5        24   # BR(t -> b W)
Block HiggsBoundsInputHiggsCouplingsFermions
# ScalarNormEffCoupSq PseudoSNormEffCoupSq NP IP1 IP2 IP2
    9.85214084E-01    0.00000000E+00        3  25   5   5  # h0-b-b eff. coupling^2, normalised to SM
    2.68387253E+03    0.00000000E+00        3  35   5   5  # H0-b-b eff. coupling^2, normalised to SM
    0.00000000E+00    2.68385774E+03        3  36   5   5  # A0-b-b eff. coupling^2, normalised to SM
#
    1.00000551E+00    0.00000000E+00        3  25   6   6  # h0-t-t eff. coupling^2, normalised to SM
    3.67088788E-04    0.00000000E+00        3  35   6   6  # H0-t-t eff. coupling^2, normalised to SM
    0.00000000E+00    3.72597990E-04        3  36   6   6  # A0-t-t eff. coupling^2, normalised to SM
#
    9.85214084E-01    0.00000000E+00        3  25  15  15  # h0-tau-tau eff. coupling^2, normalised to SM
    2.68387253E+03    0.00000000E+00        3  35  15  15  # H0-tau-tau eff. coupling^2, normalised to SM
    0.00000000E+00    2.68385774E+03        3  36  15  15  # A0-tau-tau eff. coupling^2, normalised to SM
#
Block HiggsBoundsInputHiggsCouplingsBosons
    9.99999979E-01        3  25  24  24  # h0-W-W eff. coupling^2, normalised to SM
    2.05165551E-08        3  35  24  24  # H0-W-W eff. coupling^2, normalised to SM
    0.00000000E+00        3  36  24  24  # A0-W-W eff. coupling^2, normalised to SM
#
    9.99999979E-01        3  25  23  23  # h0-Z-Z eff. coupling^2, normalised to SM
    2.05165551E-08        3  35  23  23  # H0-Z-Z eff. coupling^2, normalised to SM
    0.00000000E+00        3  36  23  23  # A0-Z-Z eff. coupling^2, normalised to SM
#
    1.26229974E+00        3  25  21  21  # h0-g-g eff. coupling^2, normalised to SM
    1.55842710E-02        3  35  21  21  # H0-g-g eff. coupling^2, normalised to SM
    1.50060461E-01        3  36  21  21  # A0-g-g eff. coupling^2, normalised to SM
#
    0.00000000E+00        3  25  25  23  # h0-h0-Z eff. coupling^2, normalised to SM
    0.00000000E+00        3  35  25  23  # H0-h0-Z eff. coupling^2, normalised to SM
    2.05165551E-08        3  36  25  23  # A0-h0-Z eff. coupling^2, normalised to SM
    0.00000000E+00        3  35  35  23  # H0-H0-Z eff. coupling^2, normalised to SM
    9.99999979E-01        3  36  35  23  # A0-H0-Z eff. coupling^2, normalised to SM
    0.00000000E+00        3  36  36  23  # A0-A0-Z eff. coupling^2, normalised to SM
#
    0.00000000E+00        4  25  21  21  23  # h0-g-g-Z eff. coupling^2, normalised to SM
    0.00000000E+00        4  35  21  21  23  # H0-g-g-Z eff. coupling^2, normalised to SM
    0.00000000E+00        4  36  21  21  23  # A0-g-g-Z eff. coupling^2, normalised to SM
Block SPhenoLowEnergy  # low energy observables
    1    3.15129581E-04   # BR(b -> s gamma)
    2    1.59026819E-06   # BR(b -> s mu+ mu-)
    3    3.52355938E-05   # BR(b -> s nu nu)
    4    3.02675946E-15   # BR(Bd -> e+ e-)
    5    1.29297570E-10   # BR(Bd -> mu+ mu-)
    6    2.69432071E-08   # BR(Bd -> tau+ tau-)
    7    1.00674509E-13   # BR(Bs -> e+ e-)
    8    4.30074700E-09   # BR(Bs -> mu+ mu-)
    9    9.08452628E-07   # BR(Bs -> tau+ tau-)
   10    9.49166738E-05   # BR(B_u -> tau nu)
   11    9.80452902E-01   # BR(B_u -> tau nu)/BR(B_u -> tau nu)_SM
   12    5.41992999E-01   # |Delta(M_Bd)| [ps^-1] 
   13    1.93537255E+01   # |Delta(M_Bs)| [ps^-1] 
   14    0.00000000E+00   # neutron EDM according to the chiral quark model
   15    0.00000000E+00   # neutron EDM according to the relativistic quark-parton model
   16    2.15756867E-03   # epsilon_K
   17    2.28166301E-15   # Delta(M_K)
   18    2.47902450E-11   # BR(K^0 -> pi^0 nu nu)
   19    8.28812344E-11   # BR(K^+ -> pi^+ nu nu)
   20   -5.49518552E-16   # Delta(g-2)_electron/2
   21   -2.34939681E-11   # Delta(g-2)_muon/2
   22   -6.67151361E-09   # Delta(g-2)_tau/2
   23    0.00000000E+00   # electric dipole moment of the electron
   24    0.00000000E+00   # electric dipole moment of the muon
   25    0.00000000E+00   # electric dipole moment of the tau
   26    0.00000000E+00   # Br(mu -> e gamma)
   27    0.00000000E+00   # Br(tau -> e gamma)
   28    0.00000000E+00   # Br(tau -> mu gamma)
   29    0.00000000E+00   # Br(mu -> 3 e)
   30    0.00000000E+00   # Br(tau -> 3 e)
   31    0.00000000E+00   # Br(tau -> 3 mu)
   39    7.59186087E-05   # Delta(rho_parameter)
   40    0.00000000E+00   # BR(Z -> e mu)
   41    0.00000000E+00   # BR(Z -> e tau)
   42    0.00000000E+00   # BR(Z -> mu tau)
Block FWCOEF Q=  1.60000000E+02  # Wilson coefficients at scale Q
#    id        order  M        value         comment
     0305 4422   00   0    -1.88819110E-01   # C7
     0305 4422   00   2    -1.80983362E-01   # C7
     0305 4322   00   2    -1.00575805E-04   # C7'
     0305 6421   00   0    -9.52278348E-02   # C8
     0305 6421   00   2    -9.85303307E-02   # C8
     0305 6321   00   2    -1.81981583E-04   # C8'
 03051111 4133   00   0     1.61468385E+00   # C9 e+e-
 03051111 4133   00   2     1.61506013E+00   # C9 e+e-
 03051111 4233   00   2     5.51074113E-04   # C9' e+e-
 03051111 4137   00   0    -4.43737595E+00   # C10 e+e-
 03051111 4137   00   2    -4.43419149E+00   # C10 e+e-
 03051111 4237   00   2    -4.14834157E-03   # C10' e+e-
 03051313 4133   00   0     1.61468385E+00   # C9 mu+mu-
 03051313 4133   00   2     1.61505995E+00   # C9 mu+mu-
 03051313 4233   00   2     5.51072619E-04   # C9' mu+mu-
 03051313 4137   00   0    -4.43737595E+00   # C10 mu+mu-
 03051313 4137   00   2    -4.43419167E+00   # C10 mu+mu-
 03051313 4237   00   2    -4.14834134E-03   # C10' mu+mu-
 03051212 4137   00   0     1.50535012E+00   # C11 nu_1 nu_1
 03051212 4137   00   2     1.50466116E+00   # C11 nu_1 nu_1
 03051212 4237   00   2     8.99453685E-04   # C11' nu_1 nu_1
 03051414 4137   00   0     1.50535012E+00   # C11 nu_2 nu_2
 03051414 4137   00   2     1.50466116E+00   # C11 nu_2 nu_2
 03051414 4237   00   2     8.99453940E-04   # C11' nu_2 nu_2
 03051616 4137   00   0     1.50535012E+00   # C11 nu_3 nu_3
 03051616 4137   00   2     1.50466116E+00   # C11 nu_3 nu_3
 03051616 4237   00   2     8.99525721E-04   # C11' nu_3 nu_3
Block IMFWCOEF Q=  1.60000000E+02  # Im(Wilson coefficients) at scale Q
#    id        order  M        value         comment
     0305 4422   00   0     3.85824067E-07   # C7
     0305 4422   00   2    -1.34489133E-05   # C7
     0305 4322   00   2     9.01799810E-07   # C7'
     0305 6421   00   0     3.30483830E-07   # C8
     0305 6421   00   2    -8.92613115E-06   # C8
     0305 6321   00   2     2.09217464E-07   # C8'
 03051111 4133   00   2     3.87712342E-07   # C9 e+e-
 03051111 4233   00   2     1.12384097E-05   # C9' e+e-
 03051111 4137   00   2     1.49099038E-06   # C10 e+e-
 03051111 4237   00   2    -8.46099149E-05   # C10' e+e-
 03051313 4133   00   2     3.87707174E-07   # C9 mu+mu-
 03051313 4233   00   2     1.12384041E-05   # C9' mu+mu-
 03051313 4137   00   2     1.49099623E-06   # C10 mu+mu-
 03051313 4237   00   2    -8.46099319E-05   # C10' mu+mu-
 03051212 4137   00   2    -2.96328573E-07   # C11 nu_1 nu_1
 03051212 4237   00   2     1.83453332E-05   # C11' nu_1 nu_1
 03051414 4137   00   2    -2.96328306E-07   # C11 nu_2 nu_2
 03051414 4237   00   2     1.83453332E-05   # C11' nu_2 nu_2
 03051616 4137   00   2    -2.96253842E-07   # C11 nu_3 nu_3
 03051616 4237   00   2     1.83453332E-05   # C11' nu_3 nu_3
