# SUSY Les Houches Accord 2 - MSSM spectrum + Decays
# SPheno v4.0.5be
# W. Porod, Comput. Phys. Commun. 153 (2003) 275-315, hep-ph/0301101;
# W. Porod, F.~Staub, Comput. Phys. Commun. 183 (2012) 2458
#                     arXiv:1104.1573 [hep-ph] 
# in case of problems send email to porod@physik.uni-wuerzburg.de
# Created: 20.12.2022,  12:43
Block SPINFO         # Program information
     1   SPheno      # spectrum calculator
     2   v4.0.5be    # version number
#
Block SPhenoINFO     # SPheno specific information
    1      2         # using 2-loop RGEs
    2      2         # using pole masses for boundary conditions at mZ
Block MODSEL  # Model selection
    1    0    # general MSSM
Block MINPAR  # Input parameters
    3    1.80162572E+01  # tanb at m_Z    
    4   -1.00000000E+00  # Sign(mu)
Block EXTPAR  # non-universal input parameters
    0    4.18804421E+03  # scale for input parameters
    1    1.78158925E+02  # M_1
    2    1.11623310E+03  # M_2
    3    3.36335393E+03  # M_3
   11   -1.41357258E+03  # A_t
   12    2.18625238E+02  # A_b
   13   -1.41594728E+02  # A_tau
   23   -6.09358168E+02  # mu
   25    1.71865372E+01  # tan(beta)
   26    3.58624641E+03  # m_A, pole mass
   31    1.00000000E+04  # M_L11
   32    1.00000000E+04  # M_L22
   33    1.00000000E+04  # M_L33
   34    1.00000000E+04  # M_E11
   35    1.00000000E+04  # M_E22
   36    1.00000000E+04  # M_E33
   41    1.00000000E+04  # M_Q11
   42    1.00000000E+04  # M_Q22
   43    4.08787000E+03  # M_Q33
   44    1.00000000E+04  # M_U11
   45    1.00000000E+04  # M_U22
   46    4.13607231E+03  # M_U33
   47    1.00000000E+04  # M_D11
   48    1.00000000E+04  # M_D22
   49    2.62753994E+03  # M_D33
Block SMINPUTS  # SM parameters
         1     1.27908970E+02  # alpha_em^-1(MZ)^MSbar
         2     1.16637870E-05  # G_mu [GeV^-2]
         3     1.18400000E-01  # alpha_s(MZ)^MSbar
         4     9.11876000E+01  # m_Z(pole)
         5     4.18000000E+00  # m_b(m_b), MSbar
         6     1.73200000E+02  # m_t(pole)
         7     1.77700000E+00  # m_tau(pole)
         8     0.00000000E+00  # m_nu_3
        11     5.10998930E-04  # m_e(pole)
        12     0.00000000E+00  # m_nu_1
        13     1.05658372E-01  # m_muon(pole)
        14     0.00000000E+00  # m_nu_2
        21     5.00000000E-03  # m_d(2 GeV), MSbar
        22     2.50000000E-03  # m_u(2 GeV), MSbar
        23     9.50000000E-02  # m_s(2 GeV), MSbar
        24     1.27000000E+00  # m_c(m_c), MSbar
Block gauge Q=  4.18804421E+03  # (SUSY scale)
   1    3.55362975E-01  # g'(Q)^DRbar
   2    6.65198874E-01  # g(Q)^DRbar
   3    1.21977796E+00  # g3(Q)^DRbar
Block Yu Q=  4.18804421E+03  # (SUSY scale)
  1  1     8.39855280E-06   # Y_u(Q)^DRbar
  2  2     4.26646482E-03   # Y_c(Q)^DRbar
  3  3     1.01461264E+00   # Y_t(Q)^DRbar
Block Yd Q=  4.18804421E+03  # (SUSY scale)
  1  1     2.90050145E-04   # Y_d(Q)^DRbar
  2  2     5.51095275E-03   # Y_s(Q)^DRbar
  3  3     2.87638855E-01   # Y_b(Q)^DRbar
Block Ye Q=  4.18804421E+03  # (SUSY scale)
  1  1     5.06158713E-05   # Y_e(Q)^DRbar
  2  2     1.04657569E-02   # Y_mu(Q)^DRbar
  3  3     1.76016813E-01   # Y_tau(Q)^DRbar
Block Au Q=  4.18804421E+03  # (SUSY scale)
  1  1     0.00000000E+00   # A_u(Q)^DRbar
  2  2     0.00000000E+00   # A_c(Q)^DRbar
  3  3    -1.41357268E+03   # A_t(Q)^DRbar
Block Ad Q=  4.18804421E+03  # (SUSY scale)
  1  1     0.00000000E+00   # A_d(Q)^DRbar
  2  2     0.00000000E+00   # A_s(Q)^DRbar
  3  3     2.18625237E+02   # A_b(Q)^DRbar
Block Ae Q=  4.18804421E+03  # (SUSY scale)
  1  1     0.00000000E+00   # A_e(Q)^DRbar
  2  2     0.00000000E+00   # A_mu(Q)^DRbar
  3  3    -1.41594725E+02   # A_tau(Q)^DRbar
Block MSOFT Q=  4.18804421E+03  # soft SUSY breaking masses at Q
   1    1.78158925E+02  # M_1
   2    1.11623310E+03  # M_2
   3    3.36335393E+03  # M_3
  21    1.24230297E+07  # M^2_(H,d)
  22    6.25255320E+04  # M^2_(H,u)
  31    1.00000000E+04  # M_(L,11)
  32    1.00000000E+04  # M_(L,22)
  33    1.00000000E+04  # M_(L,33)
  34    1.00000000E+04  # M_(E,11)
  35    1.00000000E+04  # M_(E,22)
  36    1.00000000E+04  # M_(E,33)
  41    1.00000000E+04  # M_(Q,11)
  42    1.00000000E+04  # M_(Q,22)
  43    4.08787000E+03  # M_(Q,33)
  44    1.00000000E+04  # M_(U,11)
  45    1.00000000E+04  # M_(U,22)
  46    4.13607231E+03  # M_(U,33)
  47    1.00000000E+04  # M_(D,11)
  48    1.00000000E+04  # M_(D,22)
  49    2.62753994E+03  # M_(D,33)
Block MASS  # Mass spectrum
#   PDG code      mass          particle
         6     1.73200000E+02  # m_t(pole)
        23     9.11876000E+01  # m_Z(pole)
        24     8.04299946E+01  # W+
        15     1.77700000E+00  # m_tau(pole)
        25     1.21900371E+02  # h0
        35     3.58584143E+03  # H0
        36     3.58624641E+03  # A0
        37     3.58709699E+03  # H+
   1000001     1.01093337E+04  # ~d_L
   2000001     1.00850184E+04  # ~d_R
   1000002     1.01089709E+04  # ~u_L
   2000002     1.00876239E+04  # ~u_R
   1000003     1.01093342E+04  # ~s_L
   2000003     1.00850189E+04  # ~s_R
   1000004     1.01089714E+04  # ~c_L
   2000004     1.00876243E+04  # ~c_R
   1000005     2.79081397E+03  # ~b_1
   2000005     4.18270792E+03  # ~b_2
   1000006     4.16031121E+03  # ~t_1
   2000006     4.21596208E+03  # ~t_2
   1000011     1.00206949E+04  # ~e_L-
   2000011     1.00094420E+04  # ~e_R-
   1000012     1.00199303E+04  # ~nu_eL
   1000013     1.00206966E+04  # ~mu_L-
   2000013     1.00094444E+04  # ~mu_R-
   1000014     1.00199316E+04  # ~nu_muL
   1000015     1.00101291E+04  # ~tau_1-
   2000015     1.00211655E+04  # ~tau_2-
   1000016     1.00203219E+04  # ~nu_tauL
   1000021     3.85155445E+03  # ~g
   1000022     1.78295958E+02  # ~chi_10
   1000023     6.00387441E+02  # ~chi_20
   1000025     6.06432806E+02  # ~chi_30
   1000035     1.20717562E+03  # ~chi_40
   1000024     6.00318823E+02  # ~chi_1+
   1000037     1.20653379E+03  # ~chi_2+
# Higgs mixing
Block alpha # Effective Higgs mixing angle
          -5.55415538E-02   # alpha
Block Hmix Q=  4.18804421E+03  # Higgs mixing parameters
   1   -6.09358168E+02  # mu
   2    1.71865372E+01  # tan[beta](Q)
   3    2.42906186E+02  # v(Q)
   4    1.28611633E+07  # m^2_A(Q)
Block stopmix # stop mixing matrix
   1  1     7.58122676E-01   # Re[R_st(1,1)]
   1  2     6.52111960E-01   # Re[R_st(1,2)]
   2  1    -6.52111960E-01   # Re[R_st(2,1)]
   2  2     7.58122676E-01   # Re[R_st(2,2)]
Block sbotmix # sbottom mixing matrix
   1  1    -2.46769892E-03   # Re[R_sb(1,1)]
   1  2     9.99996955E-01   # Re[R_sb(1,2)]
   2  1    -9.99996955E-01   # Re[R_sb(2,1)]
   2  2    -2.46769892E-03   # Re[R_sb(2,2)]
Block staumix # stau mixing matrix
   1  1    -8.48411450E-02   # Re[R_sta(1,1)]
   1  2     9.96394490E-01   # Re[R_sta(1,2)]
   2  1    -9.96394490E-01   # Re[R_sta(2,1)]
   2  2    -8.48411450E-02   # Re[R_sta(2,2)]
Block Nmix # neutralino mixing matrix
   1  1    -9.96688771E-01   # Re[N(1,1)]
   1  2     1.06524050E-03   # Re[N(1,2)]
   1  3     7.89566912E-02   # Re[N(1,3)]
   1  4     1.93958515E-02   # Re[N(1,4)]
   2  1     6.95229246E-02   # Re[N(2,1)]
   2  2     9.03729676E-02   # Re[N(2,2)]
   2  3     7.04247044E-01   # Re[N(2,3)]
   2  4     7.00739175E-01   # Re[N(2,4)]
   3  1    -4.19916537E-02   # Re[N(3,1)]
   3  2     3.32845456E-02   # Re[N(3,2)]
   3  3    -7.04389075E-01   # Re[N(3,3)]
   3  4     7.07788719E-01   # Re[N(3,4)]
   4  1     3.84146540E-03   # Re[N(4,1)]
   4  2    -9.95351059E-01   # Re[N(4,2)]
   4  3     4.04718842E-02   # Re[N(4,3)]
   4  4     8.73128783E-02   # Re[N(4,4)]
Block Umix # chargino mixing matrix
   1  1    -5.68946818E-02   # Re[U(1,1)]
   1  2    -9.98380186E-01   # Re[U(1,2)]
   2  1     9.98380186E-01   # Re[U(2,1)]
   2  2    -5.68946818E-02   # Re[U(2,2)]
Block Vmix # chargino mixing matrix
   1  1    -1.23021283E-01   # Re[V(1,1)]
   1  2     9.92404033E-01   # Re[V(1,2)]
   2  1     9.92404033E-01   # Re[V(2,1)]
   2  2     1.23021283E-01   # Re[V(2,2)]
DECAY        23     2.49520000E+00   # Z
DECAY        24     2.08500000E+00   # W
DECAY   2000011     5.02596735E+01   # ~e^-_R
#    BR                NDA      ID1      ID2
     9.93432097E-01    2     1000022        11   # BR(~e^-_R -> chi^0_1 e^-)
     4.80198199E-03    2     1000023        11   # BR(~e^-_R -> chi^0_2 e^-)
     1.75157091E-03    2     1000025        11   # BR(~e^-_R -> chi^0_3 e^-)
DECAY   1000011     1.41106649E+02   # ~e^-_L
#    BR                NDA      ID1      ID2
     8.82062794E-02    2     1000022        11   # BR(~e^-_L -> chi^0_1 e^-)
     5.04594711E-03    2     1000023        11   # BR(~e^-_L -> chi^0_2 e^-)
     2.99512916E-01    2     1000035        11   # BR(~e^-_L -> chi^0_4 e^-)
     2.00911098E-03    2    -1000024        12   # BR(~e^-_L -> chi^-_1 nu_e)
     6.05189205E-01    2    -1000037        12   # BR(~e^-_L -> chi^-_2 nu_e)
#    BR                NDA      ID1      ID2       ID3
DECAY   2000013     5.03029907E+01   # ~mu^-_R
#    BR                NDA      ID1      ID2
     9.92579567E-01    2     1000022        13   # BR(~mu^-_R -> chi^0_1 mu^-)
     5.01134494E-03    2     1000023        13   # BR(~mu^-_R -> chi^0_2 mu^-)
     1.96361582E-03    2     1000025        13   # BR(~mu^-_R -> chi^0_3 mu^-)
     4.29091119E-04    2    -1000024        14   # BR(~mu^-_R -> chi^-_1 nu_mu)
DECAY   1000013     1.41128351E+02   # ~mu^-_L
#    BR                NDA      ID1      ID2
     8.81936938E-02    2     1000022        13   # BR(~mu^-_L -> chi^0_1 mu^-)
     5.12135892E-03    2     1000023        13   # BR(~mu^-_L -> chi^0_2 mu^-)
     1.12740685E-04    2     1000025        13   # BR(~mu^-_L -> chi^0_3 mu^-)
     2.99467155E-01    2     1000035        13   # BR(~mu^-_L -> chi^0_4 mu^-)
     2.00880237E-03    2    -1000024        14   # BR(~mu^-_L -> chi^-_1 nu_mu)
     6.05096249E-01    2    -1000037        14   # BR(~mu^-_L -> chi^-_2 nu_mu)
#    BR                NDA      ID1      ID2       ID3
DECAY   1000015     6.31301753E+01   # ~tau^-_1
#    BR                NDA      ID1      ID2
     7.89144974E-01    2     1000022        15   # BR(~tau^-_1 -> chi^0_1 tau^-)
     5.36437922E-02    2     1000023        15   # BR(~tau^-_1 -> chi^0_2 tau^-)
     4.78009435E-02    2     1000025        15   # BR(~tau^-_1 -> chi^0_3 tau^-)
     3.24925539E-03    2     1000035        15   # BR(~tau^-_1 -> chi^0_4 tau^-)
     9.95749051E-02    2    -1000024        16   # BR(~tau^-_1 -> chi^-_1 nu_tau)
     6.58613004E-03    2    -1000037        16   # BR(~tau^-_1 -> chi^-_2 nu_tau)
DECAY   2000015     1.46628178E+02   # ~tau^-_2
#    BR                NDA      ID1      ID2
     8.61929624E-02    2     1000022        15   # BR(~tau^-_2 -> chi^0_1 tau^-)
     2.48677781E-02    2     1000023        15   # BR(~tau^-_2 -> chi^0_2 tau^-)
     2.15286887E-02    2     1000025        15   # BR(~tau^-_2 -> chi^0_3 tau^-)
     2.86986547E-01    2     1000035        15   # BR(~tau^-_2 -> chi^0_4 tau^-)
     7.01776371E-04    2    -1000024        16   # BR(~tau^-_2 -> chi^-_1 nu_tau)
     5.79722248E-01    2    -1000037        16   # BR(~tau^-_2 -> chi^-_2 nu_tau)
#    BR                NDA      ID1      ID2       ID3
DECAY   1000012     1.41110830E+02   # ~nu_e
#    BR                NDA      ID1      ID2
     8.89055585E-02    2     1000022        12   # BR(~nu_e -> chi^0_1 nu_e)
     8.79296297E-04    2     1000023        12   # BR(~nu_e -> chi^0_2 nu_e)
     9.63165700E-04    2     1000025        12   # BR(~nu_e -> chi^0_3 nu_e)
     3.01959899E-01    2     1000035        12   # BR(~nu_e -> chi^0_4 nu_e)
     9.39236077E-03    2     1000024        11   # BR(~nu_e -> chi^+_1 e^-)
     5.97899720E-01    2     1000037        11   # BR(~nu_e -> chi^+_2 e^-)
#    BR                NDA      ID1      ID2       ID3
DECAY   1000014     1.41132525E+02   # ~nu_mu
#    BR                NDA      ID1      ID2
     8.88919034E-02    2     1000022        14   # BR(~nu_mu -> chi^0_1 nu_mu)
     8.79161247E-04    2     1000023        14   # BR(~nu_mu -> chi^0_2 nu_mu)
     9.63017768E-04    2     1000025        14   # BR(~nu_mu -> chi^0_3 nu_mu)
     3.01913523E-01    2     1000035        14   # BR(~nu_mu -> chi^0_4 nu_mu)
     9.54401851E-03    2     1000024        13   # BR(~nu_mu -> chi^+_1 mu^-)
     5.97808376E-01    2     1000037        13   # BR(~nu_mu -> chi^+_2 mu^-)
#    BR                NDA      ID1      ID2       ID3
DECAY   1000016     1.47248137E+02   # ~nu_tau
#    BR                NDA      ID1      ID2
     8.52033060E-02    2     1000022        16   # BR(~nu_tau -> chi^0_1 nu_tau)
     8.42680606E-04    2     1000023        16   # BR(~nu_tau -> chi^0_2 nu_tau)
     9.23057526E-04    2     1000025        16   # BR(~nu_tau -> chi^0_3 nu_tau)
     2.89386176E-01    2     1000035        16   # BR(~nu_tau -> chi^0_4 nu_tau)
     5.05107542E-02    2     1000024        15   # BR(~nu_tau -> chi^+_1 tau^-)
     5.73134026E-01    2     1000037        15   # BR(~nu_tau -> chi^+_2 tau^-)
#    BR                NDA      ID1      ID2       ID3
DECAY   2000001     5.86392741E+02   # ~d_R
#    BR                NDA      ID1      ID2
     9.53230012E-03    2     1000022         1   # BR(~d_R -> chi^0_1 d)
     9.90404616E-01    2     1000021         1   # BR(~d_R -> ~g d)
DECAY   1000001     7.14258111E+02   # ~d_L
#    BR                NDA      ID1      ID2
     1.98479606E-03    2     1000022         1   # BR(~d_L -> chi^0_1 d)
     3.76290883E-04    2     1000023         1   # BR(~d_L -> chi^0_2 d)
     1.02778599E-04    2     1000025         1   # BR(~d_L -> chi^0_3 d)
     6.00544595E-02    2     1000035         1   # BR(~d_L -> chi^0_4 d)
     4.00475137E-04    2    -1000024         2   # BR(~d_L -> chi^-_1 u)
     1.20678865E-01    2    -1000037         2   # BR(~d_L -> chi^-_2 u)
     8.16402335E-01    2     1000021         1   # BR(~d_L -> ~g d)
DECAY   2000003     5.86404856E+02   # ~s_R
#    BR                NDA      ID1      ID2
     9.53216826E-03    2     1000022         3   # BR(~s_R -> chi^0_1 s)
     9.90384237E-01    2     1000021         3   # BR(~s_R -> ~g s)
DECAY   1000003     7.14267847E+02   # ~s_L
#    BR                NDA      ID1      ID2
     1.98482225E-03    2     1000022         3   # BR(~s_L -> chi^0_1 s)
     3.80485716E-04    2     1000023         3   # BR(~s_L -> chi^0_2 s)
     1.06977912E-04    2     1000025         3   # BR(~s_L -> chi^0_3 s)
     6.00536572E-02    2     1000035         3   # BR(~s_L -> chi^0_4 s)
     4.05480469E-04    2    -1000024         4   # BR(~s_L -> chi^-_1 c)
     1.20677303E-01    2    -1000037         4   # BR(~s_L -> chi^-_2 c)
     8.16391273E-01    2     1000021         3   # BR(~s_L -> ~g s)
DECAY   1000005     9.85796844E+00   # ~b_1
#    BR                NDA      ID1      ID2
     1.58775446E-01    2     1000022         5   # BR(~b_1 -> chi^0_1 b)
     2.11018970E-01    2     1000023         5   # BR(~b_1 -> chi^0_2 b)
     2.09993363E-01    2     1000025         5   # BR(~b_1 -> chi^0_3 b)
     4.10484543E-04    2     1000035         5   # BR(~b_1 -> chi^0_4 b)
     4.19005514E-01    2    -1000024         6   # BR(~b_1 -> chi^-_1 t)
     7.96222202E-04    2    -1000037         6   # BR(~b_1 -> chi^-_2 t)
DECAY   2000005     1.43158768E+02   # ~b_2
#    BR                NDA      ID1      ID2
     4.36755742E-03    2     1000022         5   # BR(~b_2 -> chi^0_1 b)
     2.36175373E-02    2     1000023         5   # BR(~b_2 -> chi^0_2 b)
     2.30864366E-02    2     1000025         5   # BR(~b_2 -> chi^0_3 b)
     1.07288600E-01    2     1000035         5   # BR(~b_2 -> chi^0_4 b)
     5.63520823E-01    2    -1000024         6   # BR(~b_2 -> chi^-_1 t)
     2.24312840E-01    2    -1000037         6   # BR(~b_2 -> chi^-_2 t)
     5.33343807E-02    2     1000021         5   # BR(~b_2 -> ~g b)
     1.79634504E-04    2     1000005        23   # BR(~b_2 -> ~b_1 Z)
     2.92190592E-04    2     1000005        25   # BR(~b_2 -> ~b_1 h^0)
DECAY   2000002     6.03530940E+02   # ~u_R
#    BR                NDA      ID1      ID2
     3.70560449E-02    2     1000022         2   # BR(~u_R -> chi^0_1 u)
     1.79136939E-04    2     1000023         2   # BR(~u_R -> chi^0_2 u)
     9.62698941E-01    2     1000021         2   # BR(~u_R -> ~g u)
DECAY   1000002     7.14242859E+02   # ~u_L
#    BR                NDA      ID1      ID2
     1.93768436E-03    2     1000022         2   # BR(~u_L -> chi^0_1 u)
     6.53108527E-04    2     1000023         2   # BR(~u_L -> chi^0_2 u)
     5.98885996E-02    2     1000035         2   # BR(~u_L -> chi^0_4 u)
     1.87236971E-03    2     1000024         1   # BR(~u_L -> chi^+_1 d)
     1.19236478E-01    2     1000037         1   # BR(~u_L -> chi^+_2 d)
     8.16370569E-01    2     1000021         2   # BR(~u_L -> ~g u)
DECAY   2000004     6.03538201E+02   # ~c_R
#    BR                NDA      ID1      ID2
     3.70556014E-02    2     1000022         4   # BR(~c_R -> chi^0_1 c)
     1.82086621E-04    2     1000023         4   # BR(~c_R -> chi^0_2 c)
     9.62687373E-01    2     1000021         4   # BR(~c_R -> ~g c)
DECAY   1000004     7.14252564E+02   # ~c_L
#    BR                NDA      ID1      ID2
     1.93765999E-03    2     1000022         4   # BR(~c_L -> chi^0_1 c)
     6.55597301E-04    2     1000023         4   # BR(~c_L -> chi^0_2 c)
     5.98878278E-02    2     1000035         4   # BR(~c_L -> chi^0_4 c)
     1.88078532E-03    2     1000024         3   # BR(~c_L -> chi^+_1 s)
     1.19234890E-01    2     1000037         3   # BR(~c_L -> chi^+_2 s)
     8.16359500E-01    2     1000021         4   # BR(~c_L -> ~g c)
DECAY   1000006     1.59459327E+02   # ~t_1
#    BR                NDA      ID1      ID2
     2.92356863E-02    2     1000022         6   # BR(~t_1 -> chi^0_1 t)
     2.56958954E-01    2     1000023         6   # BR(~t_1 -> chi^0_2 t)
     2.61542372E-01    2     1000025         6   # BR(~t_1 -> chi^0_3 t)
     4.05795750E-02    2     1000035         6   # BR(~t_1 -> chi^0_4 t)
     2.80657607E-01    2     1000024         5   # BR(~t_1 -> chi^+_1 b)
     7.65321544E-02    2     1000037         5   # BR(~t_1 -> chi^+_2 b)
     5.29552426E-02    2     1000021         6   # BR(~t_1 -> ~g t)
     1.77956473E-04    2     1000005        24   # BR(~t_1 -> ~b_1 W^+)
#    BR                NDA      ID1      ID2       ID3
     1.27628408E-03    3     1000022        24         5   # BR(~t_1 -> chi^0_1 W^+ b)
DECAY   2000006     1.62580069E+02   # ~t_2
#    BR                NDA      ID1      ID2
     3.19713484E-02    2     1000022         6   # BR(~t_2 -> chi^0_1 t)
     2.44272951E-01    2     1000023         6   # BR(~t_2 -> chi^0_2 t)
     2.48099637E-01    2     1000025         6   # BR(~t_2 -> chi^0_3 t)
     6.19875293E-02    2     1000035         6   # BR(~t_2 -> chi^0_4 t)
     2.66944256E-01    2     1000024         5   # BR(~t_2 -> chi^+_1 b)
     1.19955093E-01    2     1000037         5   # BR(~t_2 -> chi^+_2 b)
     2.66258983E-02    2     1000021         6   # BR(~t_2 -> ~g t)
     1.43287746E-04    2     1000005        24   # BR(~t_2 -> ~b_1 W^+)
DECAY   1000024     3.63210928E-01   # chi^+_1
#    BR                NDA      ID1      ID2
     9.95478383E-01    2     1000022        24   # BR(chi^+_1 -> chi^0_1 W^+)
#    BR                NDA      ID1      ID2       ID3
     4.52160625E-03    3     1000022        -5         6   # BR(chi^+_1 -> chi^0_1 b_bar t)
DECAY   1000037     9.15456442E+00   # chi^+_2
#    BR                NDA      ID1      ID2
     5.92593060E-04    2     1000022        24   # BR(chi^+_2 -> chi^0_1 W^+)
     2.54242545E-01    2     1000023        24   # BR(chi^+_2 -> chi^0_2 W^+)
     2.55452590E-01    2     1000025        24   # BR(chi^+_2 -> chi^0_3 W^+)
     2.46263747E-01    2     1000024        23   # BR(chi^+_2 -> chi^+_1 Z)
     2.33467585E-01    2     1000024        25   # BR(chi^+_2 -> chi^+_1 h^0)
#    BR                NDA      ID1      ID2       ID3
     2.31014528E-03    3     1000024         6        -6   # BR(chi^+_2 -> chi^+_1 t t_bar)
     3.36110541E-03    3     1000023        -5         6   # BR(chi^+_2 -> chi^0_2 b_bar t)
     4.29873463E-03    3     1000025        -5         6   # BR(chi^+_2 -> chi^0_3 b_bar t)
DECAY   1000022     0.00000000E+00   # chi^0_1
DECAY   1000023     3.36306117E-01   # chi^0_2
#    BR                NDA      ID1      ID2
     3.06317783E-01    2     1000022        23   # BR(chi^0_2 -> chi^0_1 Z)
     6.93501166E-01    2     1000022        25   # BR(chi^0_2 -> chi^0_1 h^0)
#    BR                NDA      ID1      ID2       ID3
     1.77660955E-04    3     1000022         6        -6   # BR(chi^0_2 -> chi^0_1 t t_bar)
DECAY   1000025     5.90527637E-01   # chi^0_3
#    BR                NDA      ID1      ID2
     4.91877263E-01    2     1000022        23   # BR(chi^0_3 -> chi^0_1 Z)
     5.07945627E-01    2     1000022        25   # BR(chi^0_3 -> chi^0_1 h^0)
#    BR                NDA      ID1      ID2       ID3
     1.54673755E-04    3     1000022         6        -6   # BR(chi^0_3 -> chi^0_1 t t_bar)
DECAY   1000035     1.12560852E+01   # chi^0_4
#    BR                NDA      ID1      ID2
     2.01788111E-01    2     1000024       -24   # BR(chi^0_4 -> chi^+_1 W^-)
     2.01788111E-01    2    -1000024        24   # BR(chi^0_4 -> chi^-_1 W^+)
     1.12850801E-04    2     1000022        23   # BR(chi^0_4 -> chi^0_1 Z)
     2.49227356E-02    2     1000023        23   # BR(chi^0_4 -> chi^0_2 Z)
     1.86651913E-01    2     1000025        23   # BR(chi^0_4 -> chi^0_3 Z)
     2.75261864E-04    2     1000022        25   # BR(chi^0_4 -> chi^0_1 h^0)
     1.65907863E-01    2     1000023        25   # BR(chi^0_4 -> chi^0_2 h^0)
     2.11619966E-01    2     1000025        25   # BR(chi^0_4 -> chi^0_3 h^0)
#    BR                NDA      ID1      ID2       ID3
     6.72478357E-04    3     1000023         6        -6   # BR(chi^0_4 -> chi^0_2 t t_bar)
     7.86171559E-04    3     1000025         6        -6   # BR(chi^0_4 -> chi^0_3 t t_bar)
     2.72758061E-03    3     1000024         5        -6   # BR(chi^0_4 -> chi^+_1 b t_bar)
     2.72758061E-03    3    -1000024        -5         6   # BR(chi^0_4 -> chi^-_1 b_bar t)
DECAY   1000021     2.65141048E+01   # ~g
#    BR                NDA      ID1      ID2
     4.85007261E-01    2     1000005        -5   # BR(~g -> ~b_1 b_bar)
     4.85007261E-01    2    -1000005         5   # BR(~g -> ~b^*_1 b)
#    BR                NDA      ID1      ID2       ID3
     5.42248468E-04    3     1000022         6        -6   # BR(~g -> chi^0_1 t t_bar)
     5.70881474E-03    3     1000023         6        -6   # BR(~g -> chi^0_2 t t_bar)
     1.85001716E-04    3     1000023         5        -5   # BR(~g -> chi^0_2 b b_bar)
     5.79623437E-03    3     1000025         6        -6   # BR(~g -> chi^0_3 t t_bar)
     1.79803436E-04    3     1000025         5        -5   # BR(~g -> chi^0_3 b b_bar)
     8.96488744E-04    3     1000035         6        -6   # BR(~g -> chi^0_4 t t_bar)
     8.27689435E-04    3     1000035         5        -5   # BR(~g -> chi^0_4 b b_bar)
     6.06148192E-03    3     1000024         5        -6   # BR(~g -> chi^+_1 b t_bar)
     6.06148192E-03    3    -1000024        -5         6   # BR(~g -> chi^-_1 b_bar t)
     1.72802760E-03    3     1000037         5        -6   # BR(~g -> chi^+_2 b t_bar)
     1.72802760E-03    3    -1000037        -5         6   # BR(~g -> chi^-_2 b_bar t)
DECAY        25     3.49961202E-03   # Gamma(h0)
     2.33973551E-03   2        22        22   # BR(h0 -> photon photon)
     1.24261473E-03   2        22        23   # BR(h0 -> photon Z)
     2.05743793E-02   2        23        23   # BR(h0 -> Z Z)
     1.80918501E-01   2       -24        24   # BR(h0 -> W W)
     7.47921535E-02   2        21        21   # BR(h0 -> gluon gluon)
     5.52384824E-09   2       -11        11   # BR(h0 -> Electron electron)
     2.45708784E-04   2       -13        13   # BR(h0 -> Muon muon)
     7.08422900E-02   2       -15        15   # BR(h0 -> Tau tau)
     1.57696786E-07   2        -2         2   # BR(h0 -> Up up)
     3.05996925E-02   2        -4         4   # BR(h0 -> Charm charm)
     6.42327367E-07   2        -1         1   # BR(h0 -> Down down)
     2.32314753E-04   2        -3         3   # BR(h0 -> Strange strange)
     6.18211804E-01   2        -5         5   # BR(h0 -> Bottom bottom)
DECAY        35     5.26547426E+01   # Gamma(HH)
     1.65563996E-08   2        22        22   # BR(HH -> photon photon)
     8.94295480E-08   2        22        23   # BR(HH -> photon Z)
     1.31104910E-06   2        23        23   # BR(HH -> Z Z)
     3.15515546E-07   2       -24        24   # BR(HH -> W W)
     6.03248234E-07   2        21        21   # BR(HH -> gluon gluon)
     3.46672522E-09   2       -11        11   # BR(HH -> Electron electron)
     1.54365255E-04   2       -13        13   # BR(HH -> Muon muon)
     4.45838371E-02   2       -15        15   # BR(HH -> Tau tau)
     5.46997911E-13   2        -2         2   # BR(HH -> Up up)
     1.06117392E-07   2        -4         4   # BR(HH -> Charm charm)
     8.15956528E-03   2        -6         6   # BR(HH -> Top top)
     2.52502283E-07   2        -1         1   # BR(HH -> Down down)
     9.13311299E-05   2        -3         3   # BR(HH -> Strange strange)
     2.46712258E-01   2        -5         5   # BR(HH -> Bottom bottom)
     9.33113080E-03   2  -1000024   1000024   # BR(HH -> Chargino1 chargino1)
     2.03186952E-01   2  -1000024   1000037   # BR(HH -> Chargino1 chargino2)
     2.03186952E-01   2  -1000037   1000024   # BR(HH -> Chargino2 chargino1)
     1.53843727E-03   2  -1000037   1000037   # BR(HH -> Chargino2 chargino2)
     9.24503756E-04   2   1000022   1000022   # BR(HH -> neutralino1 neutralino1)
     4.15971986E-02   2   1000022   1000023   # BR(HH -> neutralino1 neutralino2)
     3.27505140E-02   2   1000022   1000025   # BR(HH -> neutralino1 neutralino3)
     4.86159122E-04   2   1000022   1000035   # BR(HH -> neutralino1 neutralino4)
     1.19095603E-03   2   1000023   1000023   # BR(HH -> neutralino2 neutralino2)
     3.13320847E-06   2   1000023   1000025   # BR(HH -> neutralino2 neutralino3)
     1.00243363E-01   2   1000023   1000035   # BR(HH -> neutralino2 neutralino4)
     6.49141263E-04   2   1000025   1000025   # BR(HH -> neutralino3 neutralino3)
     1.04425065E-01   2   1000025   1000035   # BR(HH -> neutralino3 neutralino4)
     7.74225015E-04   2   1000035   1000035   # BR(HH -> neutralino4 neutralino4)
     8.21410614E-06   2        25        25   # BR(HH -> h0 h0)
DECAY        36     5.20412282E+01   # Gamma(A0)
     2.63013123E-09   2        22        22   # BR(A0 -> photon photon)
     5.15878885E-08   2        22        23   # BR(A0 -> photon Z)
     9.46422423E-06   2        21        21   # BR(A0 -> gluon gluon)
     3.37363482E-09   2       -11        11   # BR(A0 -> Electron electron)
     1.50217098E-04   2       -13        13   # BR(A0 -> Muon muon)
     4.33858128E-02   2       -15        15   # BR(A0 -> Tau tau)
     5.03297860E-13   2        -2         2   # BR(A0 -> Up up)
     9.76371087E-08   2        -4         4   # BR(A0 -> Charm charm)
     7.58614221E-03   2        -6         6   # BR(A0 -> Top top)
     2.45713513E-07   2        -1         1   # BR(A0 -> Down down)
     8.88754216E-05   2        -3         3   # BR(A0 -> Strange strange)
     2.40078312E-01   2        -5         5   # BR(A0 -> Bottom bottom)
     9.54166855E-03   2  -1000024   1000024   # BR(A0 -> Chargino1 chargino1)
     2.05539934E-01   2  -1000024   1000037   # BR(A0 -> Chargino1 chargino2)
     2.05539934E-01   2  -1000037   1000024   # BR(A0 -> Chargino2 chargino1)
     1.63921353E-03   2  -1000037   1000037   # BR(A0 -> Chargino2 chargino2)
     8.95765868E-04   2   1000022   1000022   # BR(A0 -> neutralino1 neutralino1)
     3.50146531E-02   2   1000022   1000023   # BR(A0 -> neutralino1 neutralino2)
     4.01476949E-02   2   1000022   1000025   # BR(A0 -> neutralino1 neutralino3)
     6.15147355E-04   2   1000022   1000035   # BR(A0 -> neutralino1 neutralino4)
     1.09074895E-03   2   1000023   1000023   # BR(A0 -> neutralino2 neutralino2)
     4.08340088E-05   2   1000023   1000025   # BR(A0 -> neutralino2 neutralino3)
     1.03890099E-01   2   1000023   1000035   # BR(A0 -> neutralino2 neutralino4)
     9.30074568E-04   2   1000025   1000025   # BR(A0 -> neutralino3 neutralino3)
     1.02985097E-01   2   1000025   1000035   # BR(A0 -> neutralino3 neutralino4)
     8.27407072E-04   2   1000035   1000035   # BR(A0 -> neutralino4 neutralino4)
     2.50329347E-06   2        23        25   # BR(A0 -> Z h0)
     3.92792387E-37   2        25        25   # BR(A0 -> h0 h0)
DECAY        37     5.24180371E+01   # Gamma(Hp)
     3.67326404E-09   2       -11        12   # BR(Hp -> Electron nu_e)
     1.57043510E-04   2       -13        14   # BR(Hp -> Muon nu_mu)
     4.44208442E-02   2       -15        16   # BR(Hp -> Tau nu_tau)
     2.31094109E-07   2        -1         2   # BR(Hp -> Down up)
     3.90856417E-06   2        -3         2   # BR(Hp -> Strange up)
     2.58111021E-06   2        -5         2   # BR(Hp -> Bottom up)
     1.56766845E-08   2        -1         4   # BR(Hp -> Down charm)
     8.33853141E-05   2        -3         4   # BR(Hp -> Strange charm)
     3.61447977E-04   2        -5         4   # BR(Hp -> Bottom charm)
     5.33079920E-07   2        -1         6   # BR(Hp -> Down top)
     1.17467100E-05   2        -3         6   # BR(Hp -> Strange top)
     2.51853191E-01   2        -5         6   # BR(Hp -> Bottom top)
     7.62086836E-02   2   1000022   1000024   # BR(Hp -> neutralino1 chargino1)
     1.10671230E-03   2   1000022   1000037   # BR(Hp -> neutralino1 chargino2)
     1.20735605E-03   2   1000023   1000024   # BR(Hp -> neutralino2 chargino1)
     2.10443624E-01   2   1000023   1000037   # BR(Hp -> neutralino2 chargino2)
     1.66373832E-03   2   1000024   1000025   # BR(Hp -> chargino1 neutralino3)
     2.05777446E-01   2   1000025   1000037   # BR(Hp -> neutralino3 chargino2)
     2.06695006E-01   2   1000024   1000035   # BR(Hp -> chargino1 neutralino4)
     1.29883169E-08   2   1000035   1000037   # BR(Hp -> neutralino4 chargino2)
     2.48815298E-06   2        24        25   # BR(Hp -> W h0)
     8.10455926E-14   2        24        35   # BR(Hp -> W HH)
DECAY         6     2.43000000E+00   # top
#    BR                NDA      ID1      ID2
     1.00000000E+00    2           5        24   # BR(t -> b W)
Block HiggsBoundsInputHiggsCouplingsFermions
# ScalarNormEffCoupSq PseudoSNormEffCoupSq NP IP1 IP2 IP2
    9.13343225E-01    0.00000000E+00        3  25   5   5  # h0-b-b eff. coupling^2, normalised to SM
    2.95463718E+02    0.00000000E+00        3  35   5   5  # H0-b-b eff. coupling^2, normalised to SM
    0.00000000E+00    2.95377061E+02        3  36   5   5  # A0-b-b eff. coupling^2, normalised to SM
#
    1.00029338E+00    0.00000000E+00        3  25   6   6  # h0-t-t eff. coupling^2, normalised to SM
    3.09212646E-03    0.00000000E+00        3  35   6   6  # H0-t-t eff. coupling^2, normalised to SM
    0.00000000E+00    3.38550325E-03        3  36   6   6  # A0-t-t eff. coupling^2, normalised to SM
#
    9.13343225E-01    0.00000000E+00        3  25  15  15  # h0-tau-tau eff. coupling^2, normalised to SM
    2.95463718E+02    0.00000000E+00        3  35  15  15  # H0-tau-tau eff. coupling^2, normalised to SM
    0.00000000E+00    2.95377061E+02        3  36  15  15  # A0-tau-tau eff. coupling^2, normalised to SM
#
Block HiggsBoundsInputHiggsCouplingsBosons
    9.99993354E-01        3  25  24  24  # h0-W-W eff. coupling^2, normalised to SM
    6.64604296E-06        3  35  24  24  # H0-W-W eff. coupling^2, normalised to SM
    0.00000000E+00        3  36  24  24  # A0-W-W eff. coupling^2, normalised to SM
#
    9.99993354E-01        3  25  23  23  # h0-Z-Z eff. coupling^2, normalised to SM
    6.64604296E-06        3  35  23  23  # H0-Z-Z eff. coupling^2, normalised to SM
    0.00000000E+00        3  36  23  23  # A0-Z-Z eff. coupling^2, normalised to SM
#
    1.27218100E+00        3  25  21  21  # h0-g-g eff. coupling^2, normalised to SM
    9.01051398E-04        3  35  21  21  # H0-g-g eff. coupling^2, normalised to SM
    9.63823272E-02        3  36  21  21  # A0-g-g eff. coupling^2, normalised to SM
#
    0.00000000E+00        3  25  25  23  # h0-h0-Z eff. coupling^2, normalised to SM
    0.00000000E+00        3  35  25  23  # H0-h0-Z eff. coupling^2, normalised to SM
    6.64604296E-06        3  36  25  23  # A0-h0-Z eff. coupling^2, normalised to SM
    0.00000000E+00        3  35  35  23  # H0-H0-Z eff. coupling^2, normalised to SM
    9.99993354E-01        3  36  35  23  # A0-H0-Z eff. coupling^2, normalised to SM
    0.00000000E+00        3  36  36  23  # A0-A0-Z eff. coupling^2, normalised to SM
#
    0.00000000E+00        4  25  21  21  23  # h0-g-g-Z eff. coupling^2, normalised to SM
    0.00000000E+00        4  35  21  21  23  # H0-g-g-Z eff. coupling^2, normalised to SM
    0.00000000E+00        4  36  21  21  23  # A0-g-g-Z eff. coupling^2, normalised to SM
Block SPhenoLowEnergy  # low energy observables
    1    3.27342024E-04   # BR(b -> s gamma)
    2    1.58936598E-06   # BR(b -> s mu+ mu-)
    3    3.52514561E-05   # BR(b -> s nu nu)
    4    2.46569630E-15   # BR(Bd -> e+ e-)
    5    1.05331780E-10   # BR(Bd -> mu+ mu-)
    6    2.20521512E-08   # BR(Bd -> tau+ tau-)
    7    8.33184163E-14   # BR(Bs -> e+ e-)
    8    3.55936117E-09   # BR(Bs -> mu+ mu-)
    9    7.55035850E-07   # BR(Bs -> tau+ tau-)
   10    9.66522485E-05   # BR(B_u -> tau nu)
   11    9.98380724E-01   # BR(B_u -> tau nu)/BR(B_u -> tau nu)_SM
   12    5.42013953E-01   # |Delta(M_Bd)| [ps^-1] 
   13    1.93657297E+01   # |Delta(M_Bs)| [ps^-1] 
   14    0.00000000E+00   # neutron EDM according to the chiral quark model
   15    0.00000000E+00   # neutron EDM according to the relativistic quark-parton model
   16    2.15738334E-03   # epsilon_K
   17    2.28165891E-15   # Delta(M_K)
   18    2.47972705E-11   # BR(K^0 -> pi^0 nu nu)
   19    8.28990217E-11   # BR(K^+ -> pi^+ nu nu)
   20   -1.93011109E-16   # Delta(g-2)_electron/2
   21   -8.25184289E-12   # Delta(g-2)_muon/2
   22   -2.33528667E-09   # Delta(g-2)_tau/2
   23    0.00000000E+00   # electric dipole moment of the electron
   24    0.00000000E+00   # electric dipole moment of the muon
   25    0.00000000E+00   # electric dipole moment of the tau
   26    0.00000000E+00   # Br(mu -> e gamma)
   27    0.00000000E+00   # Br(tau -> e gamma)
   28    0.00000000E+00   # Br(tau -> mu gamma)
   29    0.00000000E+00   # Br(mu -> 3 e)
   30    0.00000000E+00   # Br(tau -> 3 e)
   31    0.00000000E+00   # Br(tau -> 3 mu)
   39    3.79584783E-05   # Delta(rho_parameter)
   40    0.00000000E+00   # BR(Z -> e mu)
   41    0.00000000E+00   # BR(Z -> e tau)
   42    0.00000000E+00   # BR(Z -> mu tau)
Block FWCOEF Q=  1.60000000E+02  # Wilson coefficients at scale Q
#    id        order  M        value         comment
     0305 4422   00   0    -1.88819110E-01   # C7
     0305 4422   00   2    -1.96646148E-01   # C7
     0305 4322   00   2    -1.23818959E-04   # C7'
     0305 6421   00   0    -9.52278348E-02   # C8
     0305 6421   00   2    -1.02736274E-01   # C8
     0305 6321   00   2    -1.33708033E-04   # C8'
 03051111 4133   00   0     1.62793395E+00   # C9 e+e-
 03051111 4133   00   2     1.62821245E+00   # C9 e+e-
 03051111 4233   00   2     7.41869664E-05   # C9' e+e-
 03051111 4137   00   0    -4.45062605E+00   # C10 e+e-
 03051111 4137   00   2    -4.44885640E+00   # C10 e+e-
 03051111 4237   00   2    -5.47141956E-04   # C10' e+e-
 03051313 4133   00   0     1.62793395E+00   # C9 mu+mu-
 03051313 4133   00   2     1.62821242E+00   # C9 mu+mu-
 03051313 4233   00   2     7.41869555E-05   # C9' mu+mu-
 03051313 4137   00   0    -4.45062605E+00   # C10 mu+mu-
 03051313 4137   00   2    -4.44885642E+00   # C10 mu+mu-
 03051313 4237   00   2    -5.47141962E-04   # C10' mu+mu-
 03051212 4137   00   0     1.50535012E+00   # C11 nu_1 nu_1
 03051212 4137   00   2     1.50496881E+00   # C11 nu_1 nu_1
 03051212 4237   00   2     1.18278526E-04   # C11' nu_1 nu_1
 03051414 4137   00   0     1.50535012E+00   # C11 nu_2 nu_2
 03051414 4137   00   2     1.50496881E+00   # C11 nu_2 nu_2
 03051414 4237   00   2     1.18278528E-04   # C11' nu_2 nu_2
 03051616 4137   00   0     1.50535012E+00   # C11 nu_3 nu_3
 03051616 4137   00   2     1.50496881E+00   # C11 nu_3 nu_3
 03051616 4237   00   2     1.18278932E-04   # C11' nu_3 nu_3
Block IMFWCOEF Q=  1.60000000E+02  # Im(Wilson coefficients) at scale Q
#    id        order  M        value         comment
     0305 4422   00   0     3.85819464E-07   # C7
     0305 4422   00   2    -4.75064866E-06   # C7
     0305 4322   00   2    -4.12283413E-07   # C7'
     0305 6421   00   0     3.30479886E-07   # C8
     0305 6421   00   2     3.92951709E-06   # C8
     0305 6321   00   2    -4.06943752E-08   # C8'
 03051111 4133   00   2     3.64805998E-07   # C9 e+e-
 03051111 4233   00   2     1.43768042E-06   # C9' e+e-
 03051111 4137   00   2    -3.20159833E-07   # C10 e+e-
 03051111 4237   00   2    -1.06049697E-05   # C10' e+e-
 03051313 4133   00   2     3.64805398E-07   # C9 mu+mu-
 03051313 4233   00   2     1.43768034E-06   # C9' mu+mu-
 03051313 4137   00   2    -3.20159246E-07   # C10 mu+mu-
 03051313 4237   00   2    -1.06049699E-05   # C10' mu+mu-
 03051212 4137   00   2     9.15447146E-08   # C11 nu_1 nu_1
 03051212 4237   00   2     2.29253317E-06   # C11' nu_1 nu_1
 03051414 4137   00   2     9.15447418E-08   # C11 nu_2 nu_2
 03051414 4237   00   2     2.29253317E-06   # C11' nu_2 nu_2
 03051616 4137   00   2     9.15523891E-08   # C11 nu_3 nu_3
 03051616 4237   00   2     2.29253317E-06   # C11' nu_3 nu_3
