# SUSY Les Houches Accord 2 - MSSM spectrum + Decays
# SPheno v4.0.5be
# W. Porod, Comput. Phys. Commun. 153 (2003) 275-315, hep-ph/0301101;
# W. Porod, F.~Staub, Comput. Phys. Commun. 183 (2012) 2458
#                     arXiv:1104.1573 [hep-ph] 
# in case of problems send email to porod@physik.uni-wuerzburg.de
# Created: 18.08.2022,  12:07
Block SPINFO         # Program information
     1   SPheno      # spectrum calculator
     2   v4.0.5be    # version number
#
Block SPhenoINFO     # SPheno specific information
    1      2         # using 2-loop RGEs
    2      2         # using pole masses for boundary conditions at mZ
Block MODSEL  # Model selection
    1    0    # general MSSM
Block MINPAR  # Input parameters
    3    5.11222586E+01  # tanb at m_Z    
    4    1.00000000E+00  # Sign(mu)
Block EXTPAR  # non-universal input parameters
    0    3.18517426E+03  # scale for input parameters
    1    9.88305799E+01  # M_1
    2    1.73469876E+03  # M_2
    3    2.06265193E+03  # M_3
   11   -6.43803972E+03  # A_t
   12   -1.02513883E+02  # A_b
   13    1.26444119E+03  # A_tau
   23    1.03815511E+02  # mu
   25    5.06212653E+01  # tan(beta)
   26    1.14542846E+03  # m_A, pole mass
   31    9.19870927E+02  # M_L11
   32    9.19870927E+02  # M_L22
   33    9.29858140E+02  # M_L33
   34    6.87602223E+02  # M_E11
   35    6.87602223E+02  # M_E22
   36    9.89641152E+02  # M_E33
   41    3.29646399E+03  # M_Q11
   42    3.29646399E+03  # M_Q22
   43    3.19683192E+03  # M_Q33
   44    3.81922807E+03  # M_U11
   45    3.81922807E+03  # M_U22
   46    3.28090095E+03  # M_U33
   47    2.83781770E+03  # M_D11
   48    2.83781770E+03  # M_D22
   49    1.24279178E+03  # M_D33
Block SMINPUTS  # SM parameters
         1     1.27908970E+02  # alpha_em^-1(MZ)^MSbar
         2     1.16637870E-05  # G_mu [GeV^-2]
         3     1.18400000E-01  # alpha_s(MZ)^MSbar
         4     9.11876000E+01  # m_Z(pole)
         5     4.18000000E+00  # m_b(m_b), MSbar
         6     1.73200000E+02  # m_t(pole)
         7     1.77700000E+00  # m_tau(pole)
         8     0.00000000E+00  # m_nu_3
        11     5.10998930E-04  # m_e(pole)
        12     0.00000000E+00  # m_nu_1
        13     1.05658372E-01  # m_muon(pole)
        14     0.00000000E+00  # m_nu_2
        21     5.00000000E-03  # m_d(2 GeV), MSbar
        22     2.50000000E-03  # m_u(2 GeV), MSbar
        23     9.50000000E-02  # m_s(2 GeV), MSbar
        24     1.27000000E+00  # m_c(m_c), MSbar
Block gauge Q=  3.18517426E+03  # (SUSY scale)
   1    3.55362975E-01  # g'(Q)^DRbar
   2    6.65198874E-01  # g(Q)^DRbar
   3    1.21977796E+00  # g3(Q)^DRbar
Block Yu Q=  3.18517426E+03  # (SUSY scale)
  1  1     8.38600794E-06   # Y_u(Q)^DRbar
  2  2     4.26009203E-03   # Y_c(Q)^DRbar
  3  3     1.01309712E+00   # Y_t(Q)^DRbar
Block Yd Q=  3.18517426E+03  # (SUSY scale)
  1  1     8.53038266E-04   # Y_d(Q)^DRbar
  2  2     1.62077270E-02   # Y_s(Q)^DRbar
  3  3     8.45946656E-01   # Y_b(Q)^DRbar
Block Ye Q=  3.18517426E+03  # (SUSY scale)
  1  1     1.48861415E-04   # Y_e(Q)^DRbar
  2  2     3.07798194E-02   # Y_mu(Q)^DRbar
  3  3     5.17665927E-01   # Y_tau(Q)^DRbar
Block Au Q=  3.18517426E+03  # (SUSY scale)
  1  1     0.00000000E+00   # A_u(Q)^DRbar
  2  2     0.00000000E+00   # A_c(Q)^DRbar
  3  3    -6.43803965E+03   # A_t(Q)^DRbar
Block Ad Q=  3.18517426E+03  # (SUSY scale)
  1  1     0.00000000E+00   # A_d(Q)^DRbar
  2  2     0.00000000E+00   # A_s(Q)^DRbar
  3  3    -1.02513883E+02   # A_b(Q)^DRbar
Block Ae Q=  3.18517426E+03  # (SUSY scale)
  1  1     0.00000000E+00   # A_e(Q)^DRbar
  2  2     0.00000000E+00   # A_mu(Q)^DRbar
  3  3     1.26444120E+03   # A_tau(Q)^DRbar
Block MSOFT Q=  3.18517426E+03  # soft SUSY breaking masses at Q
   1    9.88305799E+01  # M_1
   2    1.73469876E+03  # M_2
   3    2.06265193E+03  # M_3
  21    1.44618731E+06  # M^2_(H,d)
  22    1.71672233E+05  # M^2_(H,u)
  31    9.19870927E+02  # M_(L,11)
  32    9.19870927E+02  # M_(L,22)
  33    9.29858140E+02  # M_(L,33)
  34    6.87602223E+02  # M_(E,11)
  35    6.87602223E+02  # M_(E,22)
  36    9.89641152E+02  # M_(E,33)
  41    3.29646399E+03  # M_(Q,11)
  42    3.29646399E+03  # M_(Q,22)
  43    3.19683192E+03  # M_(Q,33)
  44    3.81922807E+03  # M_(U,11)
  45    3.81922807E+03  # M_(U,22)
  46    3.28090095E+03  # M_(U,33)
  47    2.83781770E+03  # M_(D,11)
  48    2.83781770E+03  # M_(D,22)
  49    1.24279178E+03  # M_(D,33)
Block MASS  # Mass spectrum
#   PDG code      mass          particle
         6     1.73200000E+02  # m_t(pole)
        23     9.11876000E+01  # m_Z(pole)
        24     8.04299946E+01  # W+
        15     1.77700000E+00  # m_tau(pole)
        25     1.26440983E+02  # h0
        35     1.14549854E+03  # H0
        36     1.14542846E+03  # A0
        37     1.14900542E+03  # H+
   1000001     3.37762257E+03  # ~d_L
   2000001     2.91522361E+03  # ~d_R
   1000002     3.37678355E+03  # ~u_L
   2000002     3.87998747E+03  # ~u_R
   1000003     3.37761595E+03  # ~s_L
   2000003     2.91521082E+03  # ~s_R
   1000004     3.37677702E+03  # ~c_L
   2000004     3.87998680E+03  # ~c_R
   1000005     1.35130340E+03  # ~b_1
   2000005     3.18724102E+03  # ~b_2
   1000006     3.05472334E+03  # ~t_1
   2000006     3.32119604E+03  # ~t_2
   1000011     9.53391894E+02  # ~e_L-
   2000011     6.96299724E+02  # ~e_R-
   1000012     9.49707897E+02  # ~nu_eL
   1000013     9.53357042E+02  # ~mu_L-
   2000013     6.96213793E+02  # ~mu_R-
   1000014     9.49675323E+02  # ~nu_muL
   1000015     9.48345078E+02  # ~tau_1-
   2000015     9.69775725E+02  # ~tau_2-
   1000016     9.46241931E+02  # ~nu_tauL
   1000021     2.33233896E+03  # ~g
   1000022     7.68954064E+01  # ~chi_10
   1000023     1.24905988E+02  # ~chi_20
   1000025     1.41318310E+02  # ~chi_30
   1000035     1.76467473E+03  # ~chi_40
   1000024     1.18628128E+02  # ~chi_1+
   1000037     1.76489003E+03  # ~chi_2+
# Higgs mixing
Block alpha # Effective Higgs mixing angle
          -1.99270817E-02   # alpha
Block Hmix Q=  3.18517426E+03  # Higgs mixing parameters
   1    1.03815511E+02  # mu
   2    5.06212653E+01  # tan[beta](Q)
   3    2.43135091E+02  # v(Q)
   4    1.31200636E+06  # m^2_A(Q)
Block stopmix # stop mixing matrix
   1  1     7.26613770E-01   # Re[R_st(1,1)]
   1  2     6.87046162E-01   # Re[R_st(1,2)]
   2  1    -6.87046162E-01   # Re[R_st(2,1)]
   2  2     7.26613770E-01   # Re[R_st(2,2)]
Block sbotmix # sbottom mixing matrix
   1  1     1.26074957E-03   # Re[R_sb(1,1)]
   1  2     9.99999205E-01   # Re[R_sb(1,2)]
   2  1    -9.99999205E-01   # Re[R_sb(2,1)]
   2  2     1.26074957E-03   # Re[R_sb(2,2)]
Block staumix # stau mixing matrix
   1  1     9.84324424E-01   # Re[R_sta(1,1)]
   1  2     1.76367312E-01   # Re[R_sta(1,2)]
   2  1    -1.76367312E-01   # Re[R_sta(2,1)]
   2  2     9.84324424E-01   # Re[R_sta(2,2)]
Block Nmix # neutralino mixing matrix
   1  1     7.78354962E-01   # Re[N(1,1)]
   1  2    -1.65756623E-02   # Re[N(1,2)]
   1  3     5.24043119E-01   # Re[N(1,3)]
   1  4    -3.45351430E-01   # Re[N(1,4)]
   2  1     1.39858540E-01   # Re[N(2,1)]
   2  2    -2.96639091E-02   # Re[N(2,2)]
   2  3    -6.81594390E-01   # Re[N(2,3)]
   2  4    -7.17627152E-01   # Re[N(2,4)]
   3  1    -6.12047130E-01   # Re[N(3,1)]
   3  2    -2.98254485E-02   # Re[N(3,2)]
   3  3     5.10680122E-01   # Re[N(3,3)]
   3  4    -6.03087528E-01   # Re[N(3,4)]
   4  1     1.20531276E-03   # Re[N(4,1)]
   4  2    -9.98977348E-01   # Re[N(4,2)]
   4  3    -3.70265792E-03   # Re[N(4,3)]
   4  4     4.50454771E-02   # Re[N(4,4)]
Block Umix # chargino mixing matrix
   1  1    -5.23964668E-03   # Re[U(1,1)]
   1  2     9.99986273E-01   # Re[U(1,2)]
   2  1     9.99986273E-01   # Re[U(2,1)]
   2  2     5.23964668E-03   # Re[U(2,2)]
Block Vmix # chargino mixing matrix
   1  1    -6.37340609E-02   # Re[V(1,1)]
   1  2     9.97966918E-01   # Re[V(1,2)]
   2  1     9.97966918E-01   # Re[V(2,1)]
   2  2     6.37340609E-02   # Re[V(2,2)]
DECAY        23     2.49520000E+00   # Z
DECAY        24     2.08500000E+00   # W
DECAY   2000011     3.33718184E+00   # ~e^-_R
#    BR                NDA      ID1      ID2
     6.19752154E-01    2     1000022        11   # BR(~e^-_R -> chi^0_1 e^-)
     1.92083346E-02    2     1000023        11   # BR(~e^-_R -> chi^0_2 e^-)
     3.61039425E-01    2     1000025        11   # BR(~e^-_R -> chi^0_3 e^-)
DECAY   1000011     1.17963046E+00   # ~e^-_L
#    BR                NDA      ID1      ID2
     5.59658221E-01    2     1000022        11   # BR(~e^-_L -> chi^0_1 e^-)
     6.97456819E-03    2     1000023        11   # BR(~e^-_L -> chi^0_2 e^-)
     4.33177883E-01    2     1000025        11   # BR(~e^-_L -> chi^0_3 e^-)
     1.89325796E-04    2    -1000024        12   # BR(~e^-_L -> chi^-_1 nu_e)
#    BR                NDA      ID1      ID2       ID3
DECAY   2000013     3.36147752E+00   # ~mu^-_R
#    BR                NDA      ID1      ID2
     6.16237367E-01    2     1000022        13   # BR(~mu^-_R -> chi^0_1 mu^-)
     2.07661083E-02    2     1000023        13   # BR(~mu^-_R -> chi^0_2 mu^-)
     3.59316321E-01    2     1000025        13   # BR(~mu^-_R -> chi^0_3 mu^-)
     3.68020335E-03    2    -1000024        14   # BR(~mu^-_R -> chi^-_1 nu_mu)
DECAY   1000013     1.19704276E+00   # ~mu^-_L
#    BR                NDA      ID1      ID2
     5.55567144E-01    2     1000022        13   # BR(~mu^-_L -> chi^0_1 mu^-)
     1.36085806E-02    2     1000023        13   # BR(~mu^-_L -> chi^0_2 mu^-)
     4.30601662E-01    2     1000025        13   # BR(~mu^-_L -> chi^0_3 mu^-)
     1.86564594E-04    2    -1000024        14   # BR(~mu^-_L -> chi^-_1 nu_mu)
#    BR                NDA      ID1      ID2       ID3
DECAY   1000015     6.35857337E+00   # ~tau^-_1
#    BR                NDA      ID1      ID2
     3.85658827E-01    2     1000022        15   # BR(~tau^-_1 -> chi^0_1 tau^-)
     3.41059333E-01    2     1000023        15   # BR(~tau^-_1 -> chi^0_2 tau^-)
     2.47482838E-01    2     1000025        15   # BR(~tau^-_1 -> chi^0_3 tau^-)
     2.57990019E-02    2    -1000024        16   # BR(~tau^-_1 -> chi^-_1 nu_tau)
#    BR                NDA      ID1      ID2       ID3
DECAY   2000015     1.44961765E+01   # ~tau^-_2
#    BR                NDA      ID1      ID2
     2.67742233E-01    2     1000022        15   # BR(~tau^-_2 -> chi^0_1 tau^-)
     1.74214435E-01    2     1000023        15   # BR(~tau^-_2 -> chi^0_2 tau^-)
     2.23565022E-01    2     1000025        15   # BR(~tau^-_2 -> chi^0_3 tau^-)
     3.34478274E-01    2    -1000024        16   # BR(~tau^-_2 -> chi^-_1 nu_tau)
#    BR                NDA      ID1      ID2       ID3
DECAY   1000012     1.20111976E+00   # ~nu_e
#    BR                NDA      ID1      ID2
     6.42159788E-01    2     1000022        12   # BR(~nu_e -> chi^0_1 nu_e)
     3.66166899E-02    2     1000023        12   # BR(~nu_e -> chi^0_2 nu_e)
     2.93825047E-01    2     1000025        12   # BR(~nu_e -> chi^0_3 nu_e)
     2.73984755E-02    2     1000024        11   # BR(~nu_e -> chi^+_1 e^-)
DECAY   1000014     1.21841949E+00   # ~nu_mu
#    BR                NDA      ID1      ID2
     6.33019799E-01    2     1000022        14   # BR(~nu_mu -> chi^0_1 nu_mu)
     3.60954627E-02    2     1000023        14   # BR(~nu_mu -> chi^0_2 nu_mu)
     2.89642339E-01    2     1000025        14   # BR(~nu_mu -> chi^0_3 nu_mu)
     4.12424000E-02    2     1000024        13   # BR(~nu_mu -> chi^+_1 mu^-)
DECAY   1000016     6.08329993E+00   # ~nu_tau
#    BR                NDA      ID1      ID2
     1.26316552E-01    2     1000022        16   # BR(~nu_tau -> chi^0_1 nu_tau)
     7.20155181E-03    2     1000023        16   # BR(~nu_tau -> chi^0_2 nu_tau)
     5.77834782E-02    2     1000025        16   # BR(~nu_tau -> chi^0_3 nu_tau)
     8.08698418E-01    2     1000024        15   # BR(~nu_tau -> chi^+_1 tau^-)
DECAY   2000001     3.14307630E+01   # ~d_R
#    BR                NDA      ID1      ID2
     3.13281601E-02    2     1000022         1   # BR(~d_R -> chi^0_1 d)
     1.00978374E-03    2     1000023         1   # BR(~d_R -> chi^0_2 d)
     1.93069204E-02    2     1000025         1   # BR(~d_R -> chi^0_3 d)
     9.48353767E-01    2     1000021         1   # BR(~d_R -> ~g d)
DECAY   1000001     9.70270959E+01   # ~d_L
#    BR                NDA      ID1      ID2
     3.68603317E-03    2     1000022         1   # BR(~d_L -> chi^0_1 d)
     4.55247621E-04    2     1000023         1   # BR(~d_L -> chi^0_2 d)
     9.57004243E-04    2     1000025         1   # BR(~d_L -> chi^0_3 d)
     8.08592412E-02    2     1000035         1   # BR(~d_L -> chi^0_4 d)
     1.61946016E-01    2    -1000037         2   # BR(~d_L -> chi^-_2 u)
     7.52088065E-01    2     1000021         1   # BR(~d_L -> ~g d)
DECAY   2000003     3.14599781E+01   # ~s_R
#    BR                NDA      ID1      ID2
     3.14313501E-02    2     1000022         3   # BR(~s_R -> chi^0_1 s)
     1.23237863E-03    2     1000023         3   # BR(~s_R -> chi^0_2 s)
     1.94142824E-02    2     1000025         3   # BR(~s_R -> chi^0_3 s)
     4.82652216E-04    2    -1000024         4   # BR(~s_R -> chi^-_1 c)
     9.47439298E-01    2     1000021         3   # BR(~s_R -> ~g s)
DECAY   1000003     9.70450863E+01   # ~s_L
#    BR                NDA      ID1      ID2
     3.73510107E-03    2     1000022         3   # BR(~s_L -> chi^0_1 s)
     5.39201123E-04    2     1000023         3   # BR(~s_L -> chi^0_2 s)
     1.00396656E-03    2     1000025         3   # BR(~s_L -> chi^0_3 s)
     8.08438573E-02    2     1000035         3   # BR(~s_L -> chi^0_4 s)
     1.61915201E-01    2    -1000037         4   # BR(~s_L -> chi^-_2 c)
     7.51941778E-01    2     1000021         3   # BR(~s_L -> ~g s)
DECAY   1000005     3.80019655E+01   # ~b_1
#    BR                NDA      ID1      ID2
     1.50203698E-01    2     1000022         5   # BR(~b_1 -> chi^0_1 b)
     2.31524266E-01    2     1000023         5   # BR(~b_1 -> chi^0_2 b)
     1.36362199E-01    2     1000025         5   # BR(~b_1 -> chi^0_3 b)
     4.81909836E-01    2    -1000024         6   # BR(~b_1 -> chi^-_1 t)
DECAY   2000005     1.87869413E+02   # ~b_2
#    BR                NDA      ID1      ID2
     6.79704390E-02    2     1000022         5   # BR(~b_2 -> chi^0_1 b)
     1.12110779E-01    2     1000023         5   # BR(~b_2 -> chi^0_2 b)
     6.32611612E-02    2     1000025         5   # BR(~b_2 -> chi^0_3 b)
     3.58531134E-02    2     1000035         5   # BR(~b_2 -> chi^0_4 b)
     3.42005109E-01    2    -1000024         6   # BR(~b_2 -> chi^-_1 t)
     7.27866404E-02    2    -1000037         6   # BR(~b_2 -> chi^-_2 t)
     2.88929817E-01    2     1000021         5   # BR(~b_2 -> ~g b)
     1.67741479E-02    2     1000006       -24   # BR(~b_2 -> ~t_1 W^-)
     1.08822145E-04    2     1000005        25   # BR(~b_2 -> ~b_1 h^0)
DECAY   1000002     9.69899998E+01   # ~u_L
#    BR                NDA      ID1      ID2
     2.27957223E-03    2     1000022         2   # BR(~u_L -> chi^0_1 u)
     2.94258291E-03    2     1000025         2   # BR(~u_L -> chi^0_3 u)
     8.07704514E-02    2     1000035         2   # BR(~u_L -> chi^0_4 u)
     1.24238356E-03    2     1000024         1   # BR(~u_L -> chi^+_1 d)
     1.61254008E-01    2     1000037         1   # BR(~u_L -> chi^+_2 d)
     7.51507541E-01    2     1000021         2   # BR(~u_L -> ~g u)
DECAY   2000002     1.33568916E+02   # ~u_R
#    BR                NDA      ID1      ID2
     3.92700154E-02    2     1000022         2   # BR(~u_R -> chi^0_1 u)
     1.26626399E-03    2     1000023         2   # BR(~u_R -> chi^0_2 u)
     2.42361485E-02    2     1000025         2   # BR(~u_R -> chi^0_3 u)
     9.35227513E-01    2     1000021         2   # BR(~u_R -> ~g u)
DECAY   1000004     9.70079047E+01   # ~c_L
#    BR                NDA      ID1      ID2
     2.28064589E-03    2     1000022         4   # BR(~c_L -> chi^0_1 c)
     2.94658005E-03    2     1000025         4   # BR(~c_L -> chi^0_3 c)
     8.07551529E-02    2     1000035         4   # BR(~c_L -> chi^0_4 c)
     1.42310641E-03    2     1000024         3   # BR(~c_L -> chi^+_1 s)
     1.61223469E-01    2     1000037         3   # BR(~c_L -> chi^+_2 s)
     7.51361131E-01    2     1000021         4   # BR(~c_L -> ~g c)
DECAY   2000004     1.33571555E+02   # ~c_R
#    BR                NDA      ID1      ID2
     3.92704658E-02    2     1000022         4   # BR(~c_R -> chi^0_1 c)
     1.27162444E-03    2     1000023         4   # BR(~c_R -> chi^0_2 c)
     2.42394796E-02    2     1000025         4   # BR(~c_R -> chi^0_3 c)
     9.35207905E-01    2     1000021         4   # BR(~c_R -> ~g c)
DECAY   1000006     1.78931869E+02   # ~t_1
#    BR                NDA      ID1      ID2
     7.64384892E-02    2     1000022         6   # BR(~t_1 -> chi^0_1 t)
     1.89220883E-01    2     1000023         6   # BR(~t_1 -> chi^0_2 t)
     1.03705728E-01    2     1000025         6   # BR(~t_1 -> chi^0_3 t)
     1.47393140E-02    2     1000035         6   # BR(~t_1 -> chi^0_4 t)
     3.06096074E-01    2     1000024         5   # BR(~t_1 -> chi^+_1 b)
     2.89200039E-02    2     1000037         5   # BR(~t_1 -> chi^+_2 b)
     2.72822148E-01    2     1000021         6   # BR(~t_1 -> ~g t)
#    BR                NDA      ID1      ID2       ID3
     7.97767171E-03    3     1000022        24         5   # BR(~t_1 -> chi^0_1 W^+ b)
DECAY   2000006     2.07013432E+02   # ~t_2
#    BR                NDA      ID1      ID2
     2.81891287E-02    2     1000022         6   # BR(~t_2 -> chi^0_1 t)
     1.57008203E-01    2     1000023         6   # BR(~t_2 -> chi^0_2 t)
     1.53334818E-01    2     1000025         6   # BR(~t_2 -> chi^0_3 t)
     2.10528713E-02    2     1000035         6   # BR(~t_2 -> chi^0_4 t)
     2.66021246E-01    2     1000024         5   # BR(~t_2 -> chi^+_1 b)
     4.15892870E-02    2     1000037         5   # BR(~t_2 -> chi^+_2 b)
     2.72166773E-01    2     1000021         6   # BR(~t_2 -> ~g t)
     1.43487399E-02    2     2000005        24   # BR(~t_2 -> ~b_2 W^+)
     5.16529709E-04    2     1000005        37   # BR(~t_2 -> ~b_1 H^+)
     4.54729265E-02    2     1000006        23   # BR(~t_2 -> ~t_1 Z)
     2.47139429E-04    2     1000006        25   # BR(~t_2 -> ~t_1 h^0)
DECAY   1000024     5.21419290E-05   # chi^+_1
#    BR                NDA      ID1      ID2       ID3
     3.33882650E-01    3     1000022        -1         2   # BR(chi^+_1 -> chi^0_1 d_bar u)
     3.32473938E-01    3     1000022        -3         4   # BR(chi^+_1 -> chi^0_1 s_bar c)
     1.11301985E-01    3     1000022       -11        12   # BR(chi^+_1 -> chi^0_1 e^+ nu_e)
     1.11306285E-01    3     1000022       -13        14   # BR(chi^+_1 -> chi^0_1 mu^+ nu_mu)
     1.11035142E-01    3     1000022       -15        16   # BR(chi^+_1 -> chi^0_1 tau^+ nu_tau)
DECAY   1000037     4.41442561E+01   # chi^+_2
#    BR                NDA      ID1      ID2
     8.82527267E-02    2    -1000011        12   # BR(chi^+_2 -> ~e^+_L nu_e)
     8.82580441E-02    2    -1000013        14   # BR(chi^+_2 -> ~mu^+_L nu_mu)
     8.61272991E-02    2    -1000015        16   # BR(chi^+_2 -> ~tau^+_1 nu_tau)
     2.79005866E-03    2    -2000015        16   # BR(chi^+_2 -> ~tau^+_2 nu_tau)
     8.84562713E-02    2     1000012       -11   # BR(chi^+_2 -> ~nu_e e^+)
     8.84612153E-02    2     1000014       -13   # BR(chi^+_2 -> ~nu_mu mu^+)
     8.89817308E-02    2     1000016       -15   # BR(chi^+_2 -> ~nu_tau tau^+)
     1.81211891E-02    2     1000022        24   # BR(chi^+_2 -> chi^0_1 W^+)
     8.71169365E-02    2     1000023        24   # BR(chi^+_2 -> chi^0_2 W^+)
     6.53911395E-02    2     1000025        24   # BR(chi^+_2 -> chi^0_3 W^+)
     1.58100160E-02    2          37   1000022   # BR(chi^+_2 -> H^+ chi^0_1)
     2.70635791E-02    2          37   1000023   # BR(chi^+_2 -> H^+ chi^0_2)
     1.48577957E-02    2          37   1000025   # BR(chi^+_2 -> H^+ chi^0_3)
     8.50966308E-02    2     1000024        23   # BR(chi^+_2 -> chi^+_1 Z)
     2.87517229E-02    2     1000024        36   # BR(chi^+_2 -> chi^+_1 A^0)
     8.71783983E-02    2     1000024        25   # BR(chi^+_2 -> chi^+_1 h^0)
     2.87367283E-02    2     1000024        35   # BR(chi^+_2 -> chi^+_1 H^0)
#    BR                NDA      ID1      ID2       ID3
     4.21921713E-03    3     1000024         6        -6   # BR(chi^+_2 -> chi^+_1 t t_bar)
     6.88049611E-04    3     1000022        -5         6   # BR(chi^+_2 -> chi^0_1 b_bar t)
     3.19909502E-03    3     1000023        -5         6   # BR(chi^+_2 -> chi^0_2 b_bar t)
     2.41466579E-03    3     1000025        -5         6   # BR(chi^+_2 -> chi^0_3 b_bar t)
DECAY   1000022     0.00000000E+00   # chi^0_1
DECAY   1000023     2.21786166E-04   # chi^0_2
#    BR                NDA      ID1      ID2
     9.47738219E-03    2     1000022        22   # BR(chi^0_2 -> chi^0_1 photon)
#    BR                NDA      ID1      ID2       ID3
     1.18731011E-01    3     1000022         2        -2   # BR(chi^0_2 -> chi^0_1 u u_bar)
     1.17751201E-01    3     1000022         4        -4   # BR(chi^0_2 -> chi^0_1 c c_bar)
     1.52228666E-01    3     1000022         1        -1   # BR(chi^0_2 -> chi^0_1 d d_bar)
     1.52222828E-01    3     1000022         3        -3   # BR(chi^0_2 -> chi^0_1 s s_bar)
     1.42880310E-01    3     1000022         5        -5   # BR(chi^0_2 -> chi^0_1 b b_bar)
     3.41963142E-02    3     1000022        11       -11   # BR(chi^0_2 -> chi^0_1 e^- e^+)
     3.41972658E-02    3     1000022        13       -13   # BR(chi^0_2 -> chi^0_1 mu^- mu^+)
     3.42393767E-02    3     1000022        15       -15   # BR(chi^0_2 -> chi^0_1 tau^- tau^+)
     2.03767195E-01    3     1000022        12       -12   # BR(chi^0_2 -> chi^0_1 nu_e nu_bar_e)
DECAY   1000025     2.20474269E-05   # chi^0_3
#    BR                NDA      ID1      ID2
     6.71425771E-03    2     1000022        22   # BR(chi^0_3 -> chi^0_1 photon)
     9.25889838E-03    2     1000023        22   # BR(chi^0_3 -> chi^0_2 photon)
#    BR                NDA      ID1      ID2       ID3
     5.90891099E-02    3     1000022         2        -2   # BR(chi^0_3 -> chi^0_1 u u_bar)
     5.88367967E-02    3     1000022         4        -4   # BR(chi^0_3 -> chi^0_1 c c_bar)
     7.56144286E-02    3     1000022         1        -1   # BR(chi^0_3 -> chi^0_1 d d_bar)
     7.56134913E-02    3     1000022         3        -3   # BR(chi^0_3 -> chi^0_1 s s_bar)
     7.88709414E-02    3     1000022         5        -5   # BR(chi^0_3 -> chi^0_1 b b_bar)
     1.41895205E-02    3     1000022        11       -11   # BR(chi^0_3 -> chi^0_1 e^- e^+)
     1.41993465E-02    3     1000022        13       -13   # BR(chi^0_3 -> chi^0_1 mu^- mu^+)
     1.71203341E-02    3     1000022        15       -15   # BR(chi^0_3 -> chi^0_1 tau^- tau^+)
     1.03471792E-01    3     1000022        12       -12   # BR(chi^0_3 -> chi^0_1 nu_e nu_bar_e)
     1.16829134E-02    3     1000023         2        -2   # BR(chi^0_3 -> chi^0_2 u u_bar)
     1.07911242E-02    3     1000023         4        -4   # BR(chi^0_3 -> chi^0_2 c c_bar)
     1.49803455E-02    3     1000023         1        -1   # BR(chi^0_3 -> chi^0_2 d d_bar)
     1.49745823E-02    3     1000023         3        -3   # BR(chi^0_3 -> chi^0_2 s s_bar)
     6.88127074E-03    3     1000023         5        -5   # BR(chi^0_3 -> chi^0_2 b b_bar)
     3.39183052E-03    3     1000023        11       -11   # BR(chi^0_3 -> chi^0_2 e^- e^+)
     3.39002962E-03    3     1000023        13       -13   # BR(chi^0_3 -> chi^0_2 mu^- mu^+)
     2.89734310E-03    3     1000023        15       -15   # BR(chi^0_3 -> chi^0_2 tau^- tau^+)
     2.00213088E-02    3     1000023        12       -12   # BR(chi^0_3 -> chi^0_2 nu_e nu_bar_e)
     6.68844880E-02    3     1000024         1        -2   # BR(chi^0_3 -> chi^+_1 d u_bar)
     6.68844880E-02    3    -1000024        -1         2   # BR(chi^0_3 -> chi^-_1 d_bar u)
     6.58744634E-02    3     1000024         3        -4   # BR(chi^0_3 -> chi^+_1 s c_bar)
     6.58744634E-02    3    -1000024        -3         4   # BR(chi^0_3 -> chi^-_1 s_bar c)
     2.22902484E-02    3     1000024        11       -12   # BR(chi^0_3 -> chi^+_1 e^- nu_bar_e)
     2.22902484E-02    3    -1000024       -11        12   # BR(chi^0_3 -> chi^-_1 e^+ nu_e)
     2.22903217E-02    3     1000024        13       -14   # BR(chi^0_3 -> chi^+_1 mu^- nu_bar_mu)
     2.22903217E-02    3    -1000024       -13        14   # BR(chi^0_3 -> chi^-_1 mu^+ nu_mu)
     2.16656458E-02    3     1000024        15       -16   # BR(chi^0_3 -> chi^+_1 tau^- nu_bar_tau)
     2.16656458E-02    3    -1000024       -15        16   # BR(chi^0_3 -> chi^-_1 tau^+ nu_tau)
DECAY   1000035     4.46369169E+01   # chi^0_4
#    BR                NDA      ID1      ID2
     4.34811465E-02    2     1000011       -11   # BR(chi^0_4 -> ~e^-_L e^+)
     4.34811465E-02    2    -1000011        11   # BR(chi^0_4 -> ~e^+_L e^-)
     4.34837661E-02    2     1000013       -13   # BR(chi^0_4 -> ~mu^-_L mu^+)
     4.34837661E-02    2    -1000013        13   # BR(chi^0_4 -> ~mu^+_L mu^-)
     4.24336897E-02    2     1000015       -15   # BR(chi^0_4 -> ~tau^-_1 tau^+)
     4.24336897E-02    2    -1000015        15   # BR(chi^0_4 -> ~tau^+_1 tau^-)
     1.37475818E-03    2     2000015       -15   # BR(chi^0_4 -> ~tau^-_2 tau^+)
     1.37475818E-03    2    -2000015        15   # BR(chi^0_4 -> ~tau^+_2 tau^-)
     4.38710408E-02    2     1000012       -12   # BR(chi^0_4 -> ~nu_e nu_bar_e)
     4.38710408E-02    2    -1000012        12   # BR(chi^0_4 -> ~nu^*_e nu_e)
     4.38734949E-02    2     1000014       -14   # BR(chi^0_4 -> ~nu_mu nu_bar_mu)
     4.38734949E-02    2    -1000014        14   # BR(chi^0_4 -> ~nu^*_mu nu_mu)
     4.41320721E-02    2     1000016       -16   # BR(chi^0_4 -> ~nu_tau nu_bar_tau)
     4.41320721E-02    2    -1000016        16   # BR(chi^0_4 -> ~nu^*_tau nu_tau)
     8.45468050E-02    2     1000024       -24   # BR(chi^0_4 -> chi^+_1 W^-)
     8.45468050E-02    2    -1000024        24   # BR(chi^0_4 -> chi^-_1 W^+)
     2.81739249E-02    2          37  -1000024   # BR(chi^0_4 -> H^+ chi^-_1)
     2.81739249E-02    2         -37   1000024   # BR(chi^0_4 -> H^- chi^+_1)
     7.72617479E-03    2     1000022        23   # BR(chi^0_4 -> chi^0_1 Z)
     5.01619298E-02    2     1000023        23   # BR(chi^0_4 -> chi^0_2 Z)
     2.62788716E-02    2     1000025        23   # BR(chi^0_4 -> chi^0_3 Z)
     6.88499136E-03    2     1000022        36   # BR(chi^0_4 -> chi^0_1 A^0)
     9.70599371E-03    2     1000023        36   # BR(chi^0_4 -> chi^0_2 A^0)
     5.70528979E-03    2     1000025        36   # BR(chi^0_4 -> chi^0_3 A^0)
     1.05770132E-02    2     1000022        25   # BR(chi^0_4 -> chi^0_1 h^0)
     4.80187275E-02    2     1000023        25   # BR(chi^0_4 -> chi^0_2 h^0)
     3.91791026E-02    2     1000025        25   # BR(chi^0_4 -> chi^0_3 h^0)
     8.86541712E-03    2     1000022        35   # BR(chi^0_4 -> chi^0_1 H^0)
     1.72957869E-02    2     1000023        35   # BR(chi^0_4 -> chi^0_2 H^0)
     9.09194515E-03    2     1000025        35   # BR(chi^0_4 -> chi^0_3 H^0)
#    BR                NDA      ID1      ID2       ID3
     4.11347786E-04    3     1000022         6        -6   # BR(chi^0_4 -> chi^0_1 t t_bar)
     1.92736834E-03    3     1000023         6        -6   # BR(chi^0_4 -> chi^0_2 t t_bar)
     1.44689761E-03    3     1000025         6        -6   # BR(chi^0_4 -> chi^0_3 t t_bar)
     2.97620970E-03    3     1000024         5        -6   # BR(chi^0_4 -> chi^+_1 b t_bar)
     2.97620970E-03    3    -1000024        -5         6   # BR(chi^0_4 -> chi^-_1 b_bar t)
DECAY   1000021     3.05946703E+01   # ~g
#    BR                NDA      ID1      ID2
     4.97917422E-01    2     1000005        -5   # BR(~g -> ~b_1 b_bar)
     4.97917422E-01    2    -1000005         5   # BR(~g -> ~b^*_1 b)
#    BR                NDA      ID1      ID2       ID3
     2.06392843E-04    3     1000022         6        -6   # BR(~g -> chi^0_1 t t_bar)
     1.17750911E-04    3     1000022         5        -5   # BR(~g -> chi^0_1 b b_bar)
     7.74053718E-04    3     1000023         6        -6   # BR(~g -> chi^0_2 t t_bar)
     1.92493378E-04    3     1000023         5        -5   # BR(~g -> chi^0_2 b b_bar)
     5.90565413E-04    3     1000025         6        -6   # BR(~g -> chi^0_3 t t_bar)
     1.08253477E-04    3     1000025         5        -5   # BR(~g -> chi^0_3 b b_bar)
     9.93430125E-04    3     1000024         5        -6   # BR(~g -> chi^+_1 b t_bar)
     9.93430125E-04    3    -1000024        -5         6   # BR(~g -> chi^-_1 b_bar t)
DECAY        25     4.15503408E-03   # Gamma(h0)
     2.29756726E-03   2        22        22   # BR(h0 -> photon photon)
     1.58780294E-03   2        22        23   # BR(h0 -> photon Z)
     3.08490604E-02   2        23        23   # BR(h0 -> Z Z)
     2.47788390E-01   2       -24        24   # BR(h0 -> W W)
     6.98668494E-02   2        21        21   # BR(h0 -> gluon gluon)
     5.00206805E-09   2       -11        11   # BR(h0 -> Electron electron)
     2.22501694E-04   2       -13        13   # BR(h0 -> Muon muon)
     6.41399445E-02   2       -15        15   # BR(h0 -> Tau tau)
     1.36904311E-07   2        -2         2   # BR(h0 -> Up up)
     2.65675464E-02   2        -4         4   # BR(h0 -> Charm charm)
     5.76919723E-07   2        -1         1   # BR(h0 -> Down down)
     2.08659410E-04   2        -3         3   # BR(h0 -> Strange strange)
     5.56470960E-01   2        -5         5   # BR(h0 -> Bottom bottom)
DECAY        35     4.52137634E+01   # Gamma(HH)
     1.94583715E-08   2        22        22   # BR(HH -> photon photon)
     1.45615335E-08   2        22        23   # BR(HH -> photon Z)
     1.00503421E-06   2        23        23   # BR(HH -> Z Z)
     1.14940394E-06   2       -24        24   # BR(HH -> W W)
     4.38628755E-05   2        21        21   # BR(HH -> gluon gluon)
     1.09528602E-08   2       -11        11   # BR(HH -> Electron electron)
     4.87528486E-04   2       -13        13   # BR(HH -> Muon muon)
     1.40551718E-01   2       -15        15   # BR(HH -> Tau tau)
     2.95775261E-14   2        -2         2   # BR(HH -> Up up)
     5.73618938E-09   2        -4         4   # BR(HH -> Charm charm)
     3.83181464E-04   2        -6         6   # BR(HH -> Top top)
     8.56766902E-07   2        -1         1   # BR(HH -> Down down)
     3.09904449E-04   2        -3         3   # BR(HH -> Strange strange)
     8.28498721E-01   2        -5         5   # BR(HH -> Bottom bottom)
     8.48327695E-04   2  -1000024   1000024   # BR(HH -> Chargino1 chargino1)
     1.04805324E-02   2   1000022   1000022   # BR(HH -> neutralino1 neutralino1)
     4.36540716E-03   2   1000022   1000023   # BR(HH -> neutralino1 neutralino2)
     1.51026976E-04   2   1000022   1000025   # BR(HH -> neutralino1 neutralino3)
     1.11174235E-03   2   1000023   1000023   # BR(HH -> neutralino2 neutralino2)
     8.49497956E-03   2   1000023   1000025   # BR(HH -> neutralino2 neutralino3)
     4.26314018E-03   2   1000025   1000025   # BR(HH -> neutralino3 neutralino3)
     6.86619041E-06   2        25        25   # BR(HH -> h0 h0)
DECAY        36     4.34193974E+01   # Gamma(A0)
     8.93755771E-08   2        22        22   # BR(A0 -> photon photon)
     4.75768173E-08   2        22        23   # BR(A0 -> photon Z)
     6.12466571E-05   2        21        21   # BR(A0 -> gluon gluon)
     1.09378900E-08   2       -11        11   # BR(A0 -> Electron electron)
     4.86862441E-04   2       -13        13   # BR(A0 -> Muon muon)
     1.40360849E-01   2       -15        15   # BR(A0 -> Tau tau)
     2.81086345E-14   2        -2         2   # BR(A0 -> Up up)
     5.45120194E-09   2        -4         4   # BR(A0 -> Charm charm)
     4.03337231E-04   2        -6         6   # BR(A0 -> Top top)
     8.55603906E-07   2        -1         1   # BR(A0 -> Down down)
     3.09483744E-04   2        -3         3   # BR(A0 -> Strange strange)
     8.27388785E-01   2        -5         5   # BR(A0 -> Bottom bottom)
     9.18844203E-04   2  -1000024   1000024   # BR(A0 -> Chargino1 chargino1)
     1.17235605E-02   2   1000022   1000022   # BR(A0 -> neutralino1 neutralino1)
     3.90003848E-03   2   1000022   1000023   # BR(A0 -> neutralino1 neutralino2)
     1.40134058E-04   2   1000022   1000025   # BR(A0 -> neutralino1 neutralino3)
     1.10526703E-03   2   1000023   1000023   # BR(A0 -> neutralino2 neutralino2)
     8.01274324E-03   2   1000023   1000025   # BR(A0 -> neutralino2 neutralino3)
     5.18638142E-03   2   1000025   1000025   # BR(A0 -> neutralino3 neutralino3)
     1.45849692E-06   2        23        25   # BR(A0 -> Z h0)
     1.53984420E-39   2        25        25   # BR(A0 -> h0 h0)
DECAY        37     4.27796889E+01   # Gamma(Hp)
     1.16082074E-08   2       -11        12   # BR(Hp -> Electron nu_e)
     4.96287113E-04   2       -13        14   # BR(Hp -> Muon nu_mu)
     1.40377646E-01   2       -15        16   # BR(Hp -> Tau nu_tau)
     8.26346577E-07   2        -1         2   # BR(Hp -> Down up)
     1.37838550E-05   2        -3         2   # BR(Hp -> Strange up)
     8.99515641E-06   2        -5         2   # BR(Hp -> Bottom up)
     3.84033804E-08   2        -1         4   # BR(Hp -> Down charm)
     2.97824462E-04   2        -3         4   # BR(Hp -> Strange charm)
     1.25964111E-03   2        -5         4   # BR(Hp -> Bottom charm)
     2.84157796E-08   2        -1         6   # BR(Hp -> Down top)
     1.03848205E-06   2        -3         6   # BR(Hp -> Strange top)
     8.26720696E-01   2        -5         6   # BR(Hp -> Bottom top)
     1.33844585E-02   2   1000022   1000024   # BR(Hp -> neutralino1 chargino1)
     1.89487784E-04   2   1000023   1000024   # BR(Hp -> neutralino2 chargino1)
     1.72477360E-02   2   1000024   1000025   # BR(Hp -> chargino1 neutralino3)
     1.50133642E-06   2        24        25   # BR(Hp -> W h0)
     1.68280946E-11   2        24        35   # BR(Hp -> W HH)
     1.85772212E-11   2        24        36   # BR(Hp -> W A0)
DECAY         6     2.43000000E+00   # top
#    BR                NDA      ID1      ID2
     1.00000000E+00    2           5        24   # BR(t -> b W)
Block HiggsBoundsInputHiggsCouplingsFermions
# ScalarNormEffCoupSq PseudoSNormEffCoupSq NP IP1 IP2 IP2
    1.01780682E+00    0.00000000E+00        3  25   5   5  # h0-b-b eff. coupling^2, normalised to SM
    2.56249469E+03    0.00000000E+00        3  35   5   5  # H0-b-b eff. coupling^2, normalised to SM
    0.00000000E+00    2.56251250E+03        3  36   5   5  # A0-b-b eff. coupling^2, normalised to SM
#
    9.99993051E-01    0.00000000E+00        3  25   6   6  # h0-t-t eff. coupling^2, normalised to SM
    3.97190968E-04    0.00000000E+00        3  35   6   6  # H0-t-t eff. coupling^2, normalised to SM
    0.00000000E+00    3.90241999E-04        3  36   6   6  # A0-t-t eff. coupling^2, normalised to SM
#
    1.01780682E+00    0.00000000E+00        3  25  15  15  # h0-tau-tau eff. coupling^2, normalised to SM
    2.56249469E+03    0.00000000E+00        3  35  15  15  # H0-tau-tau eff. coupling^2, normalised to SM
    0.00000000E+00    2.56251250E+03        3  36  15  15  # A0-tau-tau eff. coupling^2, normalised to SM
#
Block HiggsBoundsInputHiggsCouplingsBosons
    9.99999969E-01        3  25  24  24  # h0-W-W eff. coupling^2, normalised to SM
    3.06624729E-08        3  35  24  24  # H0-W-W eff. coupling^2, normalised to SM
    0.00000000E+00        3  36  24  24  # A0-W-W eff. coupling^2, normalised to SM
#
    9.99999969E-01        3  25  23  23  # h0-Z-Z eff. coupling^2, normalised to SM
    3.06624729E-08        3  35  23  23  # H0-Z-Z eff. coupling^2, normalised to SM
    0.00000000E+00        3  36  23  23  # A0-Z-Z eff. coupling^2, normalised to SM
#
    1.25622905E+00        3  25  21  21  # h0-g-g eff. coupling^2, normalised to SM
    3.01728699E-02        3  35  21  21  # H0-g-g eff. coupling^2, normalised to SM
    1.81816576E-01        3  36  21  21  # A0-g-g eff. coupling^2, normalised to SM
#
    0.00000000E+00        3  25  25  23  # h0-h0-Z eff. coupling^2, normalised to SM
    0.00000000E+00        3  35  25  23  # H0-h0-Z eff. coupling^2, normalised to SM
    3.06624729E-08        3  36  25  23  # A0-h0-Z eff. coupling^2, normalised to SM
    0.00000000E+00        3  35  35  23  # H0-H0-Z eff. coupling^2, normalised to SM
    9.99999969E-01        3  36  35  23  # A0-H0-Z eff. coupling^2, normalised to SM
    0.00000000E+00        3  36  36  23  # A0-A0-Z eff. coupling^2, normalised to SM
#
    0.00000000E+00        4  25  21  21  23  # h0-g-g-Z eff. coupling^2, normalised to SM
    0.00000000E+00        4  35  21  21  23  # H0-g-g-Z eff. coupling^2, normalised to SM
    0.00000000E+00        4  36  21  21  23  # A0-g-g-Z eff. coupling^2, normalised to SM
Block SPhenoLowEnergy  # low energy observables
    1    3.15916544E-04   # BR(b -> s gamma)
    2    1.59215649E-06   # BR(b -> s mu+ mu-)
    3    3.52781154E-05   # BR(b -> s nu nu)
    4    4.13288957E-15   # BR(Bd -> e+ e-)
    5    1.76542760E-10   # BR(Bd -> mu+ mu-)
    6    3.64070968E-08   # BR(Bd -> tau+ tau-)
    7    1.34932365E-13   # BR(Bs -> e+ e-)
    8    5.76402478E-09   # BR(Bs -> mu+ mu-)
    9    1.20622584E-06   # BR(Bs -> tau+ tau-)
   10    8.68823496E-05   # BR(B_u -> tau nu)
   11    8.97461409E-01   # BR(B_u -> tau nu)/BR(B_u -> tau nu)_SM
   12    5.41927194E-01   # |Delta(M_Bd)| [ps^-1] 
   13    1.93031297E+01   # |Delta(M_Bs)| [ps^-1] 
   14    0.00000000E+00   # neutron EDM according to the chiral quark model
   15    0.00000000E+00   # neutron EDM according to the relativistic quark-parton model
   16    2.15762969E-03   # epsilon_K
   17    2.28167497E-15   # Delta(M_K)
   18    2.48167584E-11   # BR(K^0 -> pi^0 nu nu)
   19    8.29436809E-11   # BR(K^+ -> pi^+ nu nu)
   20    7.34109318E-15   # Delta(g-2)_electron/2
   21    3.13910804E-10   # Delta(g-2)_muon/2
   22    7.55949595E-08   # Delta(g-2)_tau/2
   23    0.00000000E+00   # electric dipole moment of the electron
   24    0.00000000E+00   # electric dipole moment of the muon
   25    0.00000000E+00   # electric dipole moment of the tau
   26    0.00000000E+00   # Br(mu -> e gamma)
   27    0.00000000E+00   # Br(tau -> e gamma)
   28    0.00000000E+00   # Br(tau -> mu gamma)
   29    0.00000000E+00   # Br(mu -> 3 e)
   30    0.00000000E+00   # Br(tau -> 3 e)
   31    0.00000000E+00   # Br(tau -> 3 mu)
   39    8.01676854E-05   # Delta(rho_parameter)
   40    0.00000000E+00   # BR(Z -> e mu)
   41    0.00000000E+00   # BR(Z -> e tau)
   42    0.00000000E+00   # BR(Z -> mu tau)
Block FWCOEF Q=  1.60000000E+02  # Wilson coefficients at scale Q
#    id        order  M        value         comment
     0305 4422   00   0    -1.88819110E-01   # C7
     0305 4422   00   2    -1.76905575E-01   # C7
     0305 4322   00   2     1.95078051E-04   # C7'
     0305 6421   00   0    -9.52278348E-02   # C8
     0305 6421   00   2    -1.15208150E-01   # C8
     0305 6321   00   2    -3.71785294E-04   # C8'
 03051111 4133   00   0     1.61952723E+00   # C9 e+e-
 03051111 4133   00   2     1.62018666E+00   # C9 e+e-
 03051111 4233   00   2     5.47813391E-04   # C9' e+e-
 03051111 4137   00   0    -4.44221934E+00   # C10 e+e-
 03051111 4137   00   2    -4.44317923E+00   # C10 e+e-
 03051111 4237   00   2    -4.09466720E-03   # C10' e+e-
 03051313 4133   00   0     1.61952723E+00   # C9 mu+mu-
 03051313 4133   00   2     1.62018281E+00   # C9 mu+mu-
 03051313 4233   00   2     5.47788396E-04   # C9' mu+mu-
 03051313 4137   00   0    -4.44221934E+00   # C10 mu+mu-
 03051313 4137   00   2    -4.44318308E+00   # C10 mu+mu-
 03051313 4237   00   2    -4.09465234E-03   # C10' mu+mu-
 03051212 4137   00   0     1.50535012E+00   # C11 nu_1 nu_1
 03051212 4137   00   2     1.50556828E+00   # C11 nu_1 nu_1
 03051212 4237   00   2     8.86833784E-04   # C11' nu_1 nu_1
 03051414 4137   00   0     1.50535012E+00   # C11 nu_2 nu_2
 03051414 4137   00   2     1.50556828E+00   # C11 nu_2 nu_2
 03051414 4237   00   2     8.86838646E-04   # C11' nu_2 nu_2
 03051616 4137   00   0     1.50535012E+00   # C11 nu_3 nu_3
 03051616 4137   00   2     1.50556829E+00   # C11 nu_3 nu_3
 03051616 4237   00   2     8.88208830E-04   # C11' nu_3 nu_3
Block IMFWCOEF Q=  1.60000000E+02  # Im(Wilson coefficients) at scale Q
#    id        order  M        value         comment
     0305 4422   00   0     3.85828034E-07   # C7
     0305 4422   00   2     7.70097363E-05   # C7
     0305 4322   00   2     1.36258956E-05   # C7'
     0305 6421   00   0     3.30487227E-07   # C8
     0305 6421   00   2    -1.09002702E-04   # C8
     0305 6321   00   2     5.47878635E-06   # C8'
 03051111 4133   00   2     4.44519930E-07   # C9 e+e-
 03051111 4233   00   2     1.47643617E-05   # C9' e+e-
 03051111 4137   00   2    -1.13782183E-06   # C10 e+e-
 03051111 4237   00   2    -1.10393346E-04   # C10' e+e-
 03051313 4133   00   2     4.44438388E-07   # C9 mu+mu-
 03051313 4233   00   2     1.47643170E-05   # C9' mu+mu-
 03051313 4137   00   2    -1.13791415E-06   # C10 mu+mu-
 03051313 4237   00   2    -1.10393482E-04   # C10' mu+mu-
 03051212 4137   00   2     4.27834427E-07   # C11 nu_1 nu_1
 03051212 4237   00   2     2.39094168E-05   # C11' nu_1 nu_1
 03051414 4137   00   2     4.27833341E-07   # C11 nu_2 nu_2
 03051414 4237   00   2     2.39094168E-05   # C11' nu_2 nu_2
 03051616 4137   00   2     4.27526105E-07   # C11 nu_3 nu_3
 03051616 4237   00   2     2.39094164E-05   # C11' nu_3 nu_3
